Linkin Park - Given Up

AFINAÇÃO DROP D ( D A D G B E )

Intro Part 1 - Guitar 1
|-----------------------------------------------------------------|
|-----------------------------------------------------------------|
|-----------------------------------------------------------------|
|-2---x-x---x-x---x-x-x---x-x-3---2---x-x---x-x---x-x-x---x-x-3---|
|-2---x-x---x-x---x-x-x---x-x-3---2---x-x---x-x---x-x-x---x-x-3---|
|-2---x-x---x-x---x-x-x---x-x-3---2---x-x---x-x---x-x-x---x-x-3---|

|-----------------------------------------------------------------|
|-----------------------------------------------------------------|
|-----------------------------------------------------------------|
|-2---x-x---x-x---x-x-x---x-x-3---2---x-x---x-x---x-x-8---x-x-3---|
|-2---x-x---x-x---x-x-x---x-x-3---2---x-x---x-x---x-x-8---x-x-3---|
|-2---x-x---x-x---x-x-x---x-x-3---2---x-x---x-x---x-x-8---x-x-3---|

Intro Part 2 - Guitars 2 and 3
|-----------------------------------------------------------------|
|-----------------------------------------------------------------|
|-----------------------------------------------------------------|
|-2---x-x---x-x---x-x-x---x-x-3---2---x-x---x-x---x-x-x---x-x-3---|
|-2---x-x---x-x---x-x-x---x-x-3---2---x-x---x-x---x-x-x---x-x-3---|
|-2---x-x---x-x---x-x-x---x-x-3---2---x-x---x-x---x-x-x---x-x-3---|


|-----------------------------------------------------------------|
|-----------------------------------------------------------------|
|-----------------------------------------------------------------|
|-2---x-x---x-x---x-x-x---x-x-3---2---x-x---x-x---x-x-8---x-x-3---|
|-2---x-x---x-x---x-x-x---x-x-3---2---x-x---x-x---x-x-8---x-x-3---|
|-2---x-x---x-x---x-x-x---x-x-3---2---x-x---x-x---x-x-8---x-x-3---|

(No guitar in verse)

Chorus - Guitars 2 and 3
|-----------------------------------------------------------------|
|-----------------------------------------------------------------|
|-----------------------------------------------------------------|
|-2---2---2---2---5---5---5---5---0---0---0---0---7---7---7---7---|
|-2---2---2---2---5---5---5---5---0---0---0---0---7---7---7---7---|
|-2---2---2---2---5---5---5---5---0---0---0---0---7---7---7---7---|

|-----------------------------------------------------------------|
|-----------------------------------------------------------------|
|-----------------------------------------------------------------|
|-2---2---2---2---5---5---5---5---0---0---0---0---7---7---7---7---|
|-2---2---2---2---5---5---5---5---0---0---0---0---7---7---7---7---|
|-2---2---2---2---5---5---5---5---0---0---0---0---7---7---7---7---|

|-----------------------------------------------------------------|
|-----------------------------------------------------------------|
|-----------------------------------------------------------------|
|-2---2---2---2---5---5---5---5---0---0---0---0---7---7---7---7---|
|-2---2---2---2---5---5---5---5---0---0---0---0---7---7---7---7---|
|-2---2---2---2---5---5---5---5---0---0---0---0---7---7---7---7---|

|-----------------------------------------------------------------|
|-----------------------------------------------------------------|
|-----------------------------------------------------------------|
|-2---2---2---2---5---5---5---5---0---0---0---0---0---0---0---0---|
|-2---2---2---2---5---5---5---5---0---0---0---0---0---0---0---0---|
|-2---2---2---2---5---5---5---5---0---0---0---0---0---0---0---0---|

|---------------------------------|
|---------------------------------|
|---------------------------------|
|-7---7---7---7---x-x-8---x-x-3---|
|-7---7---7---7---x-x-8---x-x-3---|
|-7---7---7---7---x-x-8---x-x-3---|

(No guitar in verse)

Pre-Chorus - Guitars 2 and 3
|-----------------------------------------------------------------|
|-----------------------------------------------------------------|
|-----------------------------------------------------------------|
|---------------------------------------------------------x-x-x-x-|
|---------------------------------------------------------x-x-x-x-|
|---------------------------------------------------------x-x-x-x-|

Chorus - Guitars 2 and 3
|-----------------------------------------------------------------|
|-----------------------------------------------------------------|
|-----------------------------------------------------------------|
|-2---2---2---2---5---5---5---5---0---0---0---0---7---7---7---7---|
|-2---2---2---2---5---5---5---5---0---0---0---0---7---7---7---7---|
|-2---2---2---2---5---5---5---5---0---0---0---0---7---7---7---7---|

|-----------------------------------------------------------------|
|-----------------------------------------------------------------|
|-----------------------------------------------------------------|
|-2---2---2---2---5---5---5---5---0---0---0---0---7---7---7---7---|
|-2---2---2---2---5---5---5---5---0---0---0---0---7---7---7---7---|
|-2---2---2---2---5---5---5---5---0---0---0---0---7---7---7---7---|

|-----------------------------------------------------------------|
|-----------------------------------------------------------------|
|-----------------------------------------------------------------|
|-2---2---2---2---5---5---5---5---0---0---0---0---7---7---7---7---|
|-2---2---2---2---5---5---5---5---0---0---0---0---7---7---7---7---|
|-2---2---2---2---5---5---5---5---0---0---0---0---7---7---7---7---|

|-----------------------------------------------------------------|
|-----------------------------------------------------------------|
|-----------------------------------------------------------------|
|-2---2---2---2---5---5---5---5---0---0---0---0---0---0---0---0---|
|-2---2---2---2---5---5---5---5---0---0---0---0---0---0---0---0---|
|-2---2---2---2---5---5---5---5---0---0---0---0---0---0---0---0---|

|---------------------------------|
|---------------------------------|
|---------------------------------|
|-7---7---7---7---x-x-8---x-x-3---|
|-7---7---7---7---x-x-8---x-x-3---|
|-7---7---7---7---x-x-8---x-x-3---|

Bridge
|-----------------------------------------------------------------|
|-----------------------------------------------------------------|
|-----------------------------------------------------------------|
|-----------------------------------------------------------------|
|-----------------------------------------------------------------|
|-0---1---2---0---4---3---0---6---5---0---1---2---0---1-----------|
|Guitar 1 (Palm-muted)
|
|-----------------------------------------------------------------|
|-----------------------------------------------------------------|
|-------------------------------------------------------------|
|-----------------------------------------------------------------|
|-----------------------------------------------------------------|
|-----------------------------------------------------------------|
|Guitar 2
|
|-----------------------------------------------------------------|
|-----------------------------------------------------------------|
|-----------------------------------------------------------------|
|-----------------------------------------------------------------|
|---------------------------------------------------------1b------|
|-----------------------------------------------------------------|
|Guitar 3

|-----------------------------------------------------------------|
|-----------------------------------------------------------------|
|-------------------------------------------------------------|
|-0---1---2---0---4---3---0---6---5---0---1---2---0---1-----------|
|-0---1---2---0---4---3---0---6---5---0---1---2---0---1-----------|
|-0---1---2---0---4---3---0---6---5---0---1---2---0---1-----------|
|Guitar 2
|
|-----------------------------------------------------------------|
|-----------------------------------------------------------------|
|-----------------------------------------------------------------|
|-0---1---2---0---4---3---0---6---5---0---1---2---0---1-----------|
|-0---1---2---0---4---3---0---6---5---0---1---2---0---1---1b------|
|-0---1---2---0---4---3---0---6---5---0---1---2---0---1-----------|
|Guitar 3

(Guitars 2 and 3)
|-----------------------------------------------------------------|
|-----------------------------------------------------------------|
|-----------------------------------------------------------------|
|-0---1---2---0---4---3---0---6---5---0---1---2---0---3---2---1---|
|-0---1---2---0---4---3---0---6---5---0---1---2---0---3---2---1---|
|-0---1---2---0---4---3---0---6---5---0---1---2---0---3---2---1---|

|-----------------------------------------------------------------|
|-----------------------------------------------------------------|
|-------------------------------------------------------------|
|-0---1---2---0---4---3---0---6---5---0---1---2---0---1-----------|
|-0---1---2---0---4---3---0---6---5---0---1---2---0---1-----------|
|-0---1---2---0---4---3---0---6---5---0---1---2---0---1-----------|
|Guitar 2
|
|-----------------------------------------------------------------|
|-----------------------------------------------------------------|
|-----------------------------------------------------------------|
|-0---1---2---0---4---3---0---6---5---0---1---2---0---1-----------|
|-0---1---2---0---4---3---0---6---5---0---1---2---0---1---1b------|
|-0---1---2---0---4---3---0---6---5---0---1---2---0---1-----------|
|Guitar 3

(Guitars 2 and 3)
|-----------------------------------------------------------------|
|-----------------------------------------------------------------|
|-----------------------------------------------------------------|
|-0---1---2---0---4---3---0---6---5---0---1---2---0---3---2---1---|
|-0---1---2---0---4---3---0---6---5---0---1---2---0---3---2---1---|
|-0---1---2---0---4---3---0---6---5---0---1---2---0---3---2---1---|

|-----------------------------------------------------------------|
|-----------------------------------------------------------------|
|-----------------------------------------------------------------|
|-0---1---2---0---4---3---0---6---5---0---1---2---3---0---2---3---|
|-0---1---2---0---4---3---0---6---5---0---1---2---3---0---2---3---|
|-0---1---2---0---4---3---0---6---5---0---1---2---3---0---2---3---|

|---------------------------------|
|---------------------------------|
|---------------------------------|
|-5---0---1---2---3---0---2---3---|
|-5---0---1---2---3---0---2---3---|
|-5---0---1---2---3---0---2---3---|

Breakdown
|-----------------------------------------------------------------|
|-----------------------------------------------------------------|
|-----------------------------------------------------------------|
|-2---x-x---x-x---x-x-x---x-x-3---2---x-x---x-x---x-x-x---x-x-3---|
|-2---x-x---x-x---x-x-x---x-x-3---2---x-x---x-x---x-x-x---x-x-3---|
|-2---x-x---x-x---x-x-x---x-x-3---2---x-x---x-x---x-x-x---x-x-3---|
|Guitar 2
|
|-----------------------------------------------------------------|
|-----------------------------------------------------------------|
|-----------------------------------------------------------------|
|-2---------------------------------------------------------------|
|-2---------------------------------------------------------------|
|-2---------------------------------------------------------------|
|Guitar 3

(Guitar 2)
|-----------------------------------------------------------------|
|-----------------------------------------------------------------|
|-----------------------------------------------------------------|
|-2---x-x---x-x---x-x-x---x-x-3---2---x-x---x-x---x-x-8---x-x-3---|
|-2---x-x---x-x---x-x-x---x-x-3---2---x-x---x-x---x-x-8---x-x-3---|
|-2---x-x---x-x---x-x-x---x-x-3---2---x-x---x-x---x-x-8---x-x-3---|

(Guitars 2 and 3)
|-----------------------------------------------------------------|
|-----------------------------------------------------------------|
|-----------------------------------------------------------------|
|-2---x-x---x-x---x-x-x---x-x-3---2---x-x---x-x---x-x-x---x-x-3---|
|-2---x-x---x-x---x-x-x---x-x-3---2---x-x---x-x---x-x-x---x-x-3---|
|-2---x-x---x-x---x-x-x---x-x-3---2---x-x---x-x---x-x-x---x-x-3---|

|-----------------------------------------------------------------|
|-----------------------------------------------------------------|
|-----------------------------------------------------------------|
|-2---x-x---x-x---x-x-x---x-x-3---2---x-x---x-x---x-x-8---x-x-3---|
|-2---x-x---x-x---x-x-x---x-x-3---2---x-x---x-x---x-x-8---x-x-3---|
|-2---x-x---x-x---x-x-x---x-x-3---2---x-x---x-x---x-x-8---x-x-3---|
|Guitar 2
|
|-----------------------------------------------------------------|
|-----------------------------------------------------------------|
|-----------------------------------------------------------------|
|-2---x-x---x-x---x-x-x---x-x-3-----------------------------------|
|-2---x-x---x-x---x-x-x---x-x-3-----------------------------------|
|-2---x-x---x-x---x-x-x---x-x-3-----------------------------------|
|Guitar 3

Final Chorus - Guitars 2 and 3
|-----------------------------------------------------------------|
|-----------------------------------------------------------------|
|-----------------------------------------------------------------|
|-2---2---2---2---5---5---5---5---0---0---0---0---7---7---7---7---|
|-2---2---2---2---5---5---5---5---0---0---0---0---7---7---7---7---|
|-2---2---2---2---5---5---5---5---0---0---0---0---7---7---7---7---|

|-----------------------------------------------------------------|
|-----------------------------------------------------------------|
|-----------------------------------------------------------------|
|-2---2---2---2---5---5---5---5---0---0---0---0---7---7---7---7---|
|-2---2---2---2---5---5---5---5---0---0---0---0---7---7---7---7---|
|-2---2---2---2---5---5---5---5---0---0---0---0---7---7---7---7---|

|-----------------------------------------------------------------|
|-----------------------------------------------------------------|
|-----------------------------------------------------------------|
|-2---2---2---2---5---5---5---5---0---0---0---0---7---7---7---7---|
|-2---2---2---2---5---5---5---5---0---0---0---0---7---7---7---7---|
|-2---2---2---2---5---5---5---5---0---0---0---0---7---7---7---7---|

|-----------------------------------------------------------------|
|-----------------------------------------------------------------|
|-----------------------------------------------------------------|
|-2---2---2---2---5---5---5---5---0---0---0---0---0---0---0---0---|
|-2---2---2---2---5---5---5---5---0---0---0---0---0---0---0---0---|
|-2---2---2---2---5---5---5---5---0---0---0---0---0---0---0---0---|

|-----------------------------------------------------------------|
|-----------------------------------------------------------------|
|-----------------------------------------------------------------|
|-7---7---7---7---x-x-8---x-x-3---2-------------------------------|
|-7---7---7---7---x-x-8---x-x-3---2-------------------------------|
|-7---7---7---7---x-x-8---x-x-3---2-------------------------------|

----------------- Acordes -----------------
