Gilberto Gil - Expresso 2222

Intro:

E|-0--0--0--0----0--0--1-0-0--1-0-0-----|
B|-1--1--1--1----1--1--1-1-1--1-1-1-----|
G|-0--0--0--0----0--0--0-0-0--0-0-0-----|
D|--------------------------------------|
A|-1-1--1--1-----1--1--1-1-1--1-1-1-----|
E|--------------------------------------|

E|-0-0--1-0-1--3-3-5-3-3--5--3-3--5-3-5-|
B|-1-1--1-1-1--3-3-5-3-3--5--3-3--5-3-5-|
G|-0-0--0-0-0--0-0-0-0-0--0--0-0--0-0-0-|
D|--------------------------------------|
A|-1-1--1-1-1--3-3-5-3-3--5--3-3--5-3-5-|
E|--------------------------------------|

E|-6-6-8-6-6-8-6-6--8--6-3/6------------|
B|-6-6-8-6-6-8-6-6--8--6-3/6------------|
G|-0-0-0-0-0-0-0-0--0--0-0/0------------|
D|--------------------------------------|
A|-6-6-8-6-6-8-6-6--8--6-3/6------------|
E|--------------------------------------|


E|--5-3-------------------6----------|
B|------6-3---------------6----------|
G|----------5-3-----------7----------|
D|--------------5-3-------8----------|
A|------------------5-3--------------|
E|----------------------6------------|

(riff)

E|---------------------------------------|
B|---------6------------6----------------|
G|---------7------------7----------------|
D|--8-8-8--8--7-6-5-8-8-8--7-6-5-8-8-----|
A|---------------------------------------|
E|---------------------------------------|

E|--------------------------------------|
B|--6-5-4-3-1/3-------------------------|
G|--7-6-5-4-1/3-------------------------|
D|--8-7-6-5-1/3-------------------------|
A|--------------------------------------|
E|--------------------------------------|


    Ab
E|--------------------------------------|
B|--1-----------------------------------|
G|--1-----------------------------------|
D|--1-----------------------------------|
A|--------------------------------------|
E|--------------------------------------|

Começou        a circular o expresso
E|---6----------4-----------------------|
B|---3----------1-----------------------|
G|---3----------1-----------------------|
D|---3----------1-----------------------|
A|--------------------------------------|
E|--------------------------------------|

    222...       da central do Brasil...
E|------------------5-----------3-------|
B|--4-------3-------6-----4-----3-------|
G|--3-------3-------5-----3-----3-------|
D|--5-------3-------7-----5-----3-------|
A|--3-------5-------5-----3-----1-------|
E|--------------------------------------|

                  Ab
Que parte direto de Bonsucesso
Eb                Bb
Pra depois do a----no 2000

     F7
E|--------------------------------------|
B|------------0-1-----------------------|
G|--2-----2---2-2-----------------------|
D|--1---1-----1-1-----------------------|
A|--------------------------------------|
E|--1-1-------1-1-----------------------|

                    F7
Dizem que tem muita gen-----te de ago----ra
             Bb
Se adiantan----do, partindo pra lá
        F7
Pra 2001 e 2 e tem---po afo---ra

(faça a sequência abaixo)

Do tempo vai dar..    do tempo vai dar

       F/Eb      Cm/Eb      Bb
E|--------------------------------------|
B|---6-----5---4----------3-------------|
G|---5---------5----------3-------------|
D|---7---------5----------3-------------|
A|---6---------6----------1-------------|
E|--------------------------------------|

Do tempo vai, da menina do tempo vai...

        Cm            F7            Bb
E|---3------------5------------1-----------|
B|---4------------4------------3-----------|
G|---3------------5------------3-----------|
D|---5------------3------------3-----------|
A|---3-------------------------1-----------|
E|-----------------------------------------|

(repita a sequencia)

                  F7
Segundo quem já andou no Expres---so
                Bb
Lá pelo ano 2000 fica a tal
                     F7
Estação final do per---curso-vida

Na terra-mãe concebi---da
                             F/Eb Cm/Eb      Bb
De vento, de fogo, de água e sal

De água e sal
                   Cm7      F7     Bb
De água e sal,Ô menina, de água e sal
                       F7
Dizem que parece o bon---de do mor---ro

Bb                 Ab              Eb   Bb
Começou a circular o Expres----so 2222
                     Dm7       Cm7    Bb
Que parte direto de Bonsucesso pra depois
                  Ab              Eb     Bb
Começou a circular o Expres----so 2222
Da Central do Brasil
                 Ab
Que parte direto de Bonsucesso
Eb                Bb
Pra depois do a----no 2000
  F7
Dizem que parece o bon---de do mor---ro
           Bb
Do Corcova---do da---qui
                  F7
Só que não se pe|---ga e en---tra e sen---ta e an---da
      Bb
O tri----lho é fei---to um bri---lho que não tem fim
           F/Eb Cm/Eb      Bb
Oi, que não tem fim
Que não tem fim
     Cm7          F7      Bb
Ô, menina, que não tem fim
                         F7
Nunca se chega no Cris---to concre|---to
                           Bb
De matéria ou qualquer coi---sa real
                    F7
Depois de 2001 e 2 e tem---po afo---ra
       Bb
O Cris---to é como quem foi visto subindo ao céu
            F/Eb Cm/Eb      Bb
Subindo ao céu
                     Cm7 F7      Bb
Num véu de nu-----vem brilhante subindo ao céu

Bb                 Ab              Eb   Bb
Começou a circular o Expres----so 2222
                     Dm7       Cm7    Bb
Que parte direto de Bonsucesso pra depois
                  Ab              Eb     Bb
Começou a circular o Expres----so 2222
Da Central do Brasil
                 Ab
Que parte direto de Bonsucesso
Eb                Bb
Pra depois do a----no 2000

(repete riff 4x)
(intro)

( Bb )

----------------- Acordes -----------------
Ab = 4 3 1 1 1 4
Bb = X 1 3 3 3 1
Cm = X 3 5 5 4 3
Cm/Eb = X X 1 0 1 3
Cm7 = X 3 5 3 4 3
Dm7 = X 5 7 5 6 5
Eb = X 6 5 3 4 3
F/Eb = X X 1 2 1 1
F7 = 1 3 1 2 1 1
