Gilberto Gil - Sítio do Pica-Pau Amarelo

[Intro]  C  Bm  Am  Bm  C  Bm  Am  Bm  C  Bm  Am  Bm  C  Bm  D/C

 G                    E7
Marmelada de banana, bananada de goiaba
 A7             C#/B  D/C
Goiabada de marmelo
 G/B      Bb°       D/A   Am7  D7
Sítio do Pica-Pau amarelo
 G        G#°       D/A   Bb(#5)  Bm7  D/C
Sítio do Pica-Pau amarelo

( C  Bm  Am  Bm  C  Bm  Am  Bm  C  Bm  Am  Bm  C  Bm  D/C )

 G                E7
Boneca de pano é gente, sabugo de milho é gente
A7                A7  C#/B  D/C
O sol nascente é tão belo
 G/B      Bb°       D/A   Am7  D7
Sítio do Pica-Pau amarelo
 G        G#°       D/A  Bb(#5)  Bm7  D/C
Sítio do Pica-Pau amarelo


( C  Bm  Am  Bm  C  Bm  Am  Bm  C  Bm  Am  Bm  C  Bm  D/C )

 G
Rios de  prata, pirata
 E7             A7               C#/B D/C
Vôo sideral na mata, universo paralelo
 G/B      Bb°     D/A   Am7  D7
Sítio do Pica-Pau amarelo
 G        G#°       D/A   Bb(#5)  Bm7  D/C
Sítio do Pica-Pau amarelo

( C  Bm  Am  Bm  C  Bm  Am  Bm  C  Bm  Am  Bm  C  Bm  D/C )

 G                    E7
No país da fantasia, num estado de euforia
 A7            C#/B  D/C
Cidade polichinelo
 G/B      Bb°       D/A   Am7  D7
Sítio do Pica-Pau amarelo
 G        G#°       D/A   Bb(#5)  Bm7  D/C
Sítio do Pica-Pau amarelo

( C  Bm  Am  Bm  C  Bm  Am  Bm  C  Bm  Am  Bm  C  Bm  D/C )


E|--12-10----------------10-12-12-10-------------------------------|
B|--------12-10----10-12------------12-10----10~-------------------|
G|--------------11------------------------11-----------------------| 
D|-----------------------------------------------------------------|
A|-----------------------------------------------------------------|
E|-----------------------------------------------------------------|

E|----7-10-10-8-7-8-7-----4-7-7-5-4-5-4-----9-12-12-10-9-10-9------|
B|--8-------------------5----------------10------------------------|
G|-----------------------------------------------------------------|
D|-----------------------------------------------------------------|
A|-----------------------------------------------------------------|
E|-----------------------------------------------------------------|

E|---7-10-10-------------------------------------------------------|
B|-8---------8-10-8------------------------------------------------|
G|------------------11-9-7-----------------------------------------|
D|-----------------------------------------------------------------|
A|-----------------------------------------------------------------|
E|-----------------------------------------------------------------|

E|---7-10-10-12-13-12-10-12-10-------------------------------------|
B|-8---------------------------------------------------------------|
G|-----------------------------------------------------------------|
D|-----------------------------------------------------------------|
A|-----------------------------------------------------------------|
E|-----------------------------------------------------------------|

----------------- Acordes -----------------
A7 = X 0 2 0 2 0
Am = X 0 2 2 1 0
Am7 = X 0 2 0 1 0
Bb(#5) = X 1 4 3 3 X
Bb° = X 1 2 0 2 0
Bm = X 2 4 4 3 2
Bm7 = X 2 4 2 3 2
C = X 3 2 0 1 0
C#/B = X 2 3 1 2 X
D/A = X 0 X 2 3 2
D/C = X 3 X 2 3 2
D7 = X X 0 2 1 2
E7 = 0 2 2 1 3 0
G = 3 2 0 0 0 3
G#° = 4 X 3 4 3 X
G/B = X 2 0 0 3 3
