Diego e Victor Hugo - Brincar de Vida

     Bm                         G
Tá falando meio enrolado, eu já vi nesse áudio tem álcool
      Em                             F#
Entendi só o final da frase, eu não sei o que lá de saudade
       Bm                              G
Como assim, tá querendo me ver, de repente, o que deu em você?
        Em                              F#
Seu coração deu tilt na balada, me procurou numa hora errada

           Bm                               G
Deixa eu beber que eu nem tava lembrando do cê
                                 Em                         F#
Cada um com seus porres, suas pingas, dou PT mas não dou recaída
           Bm                                G
Deixa eu beber que eu nem tava lembrando do cê
                                Em
Cada um com seus porres, suas pingas, quer saber, vamos brincar de
 F#
vida
                                Bm
Cê cuida da sua e eu cuido da minha

----------------- Acordes -----------------
Bm = X 2 4 4 3 2
Em = 0 2 2 0 0 0
F# = 2 4 4 3 2 2
G = 3 2 0 0 0 3
