Avril Lavigne - Iris

Iris


Introdução:

e|--7--7-7-7-7-5---5-5-5-7-5-5---3--3-3-3-3-2--2-2-2-3-2-2-------
B|--0--0-0-0-0-0---0-0-0-0-0-0---3--3-3-3-3-3--3-3-3-3-3-3-------
G|--7--7-7-7-7-7---7-7-7-7-7-7---0--0-0-0-0-0--0-0-0-0-0-0-------
D|--0--0-0-0-0-0---0-0-0-0-0-0---0--0-0-0-0-0--0-0-0-0-0-0-------
A|--x--x-x-x-x-x---x-x-x-x-x-x---x--x-x-x-x-x--x-x-x-x-x-x-------
E|--7--7-7-7-7-7---7-7-7-7-7-7---3--3-3-3-3-3--3-3-3-3-3-3-------


Versos:

       D            E            G        G

e|-----0-------------0-----------3--------3---------
B|-------3-------------0-----------3--------3-------
G|---2-----2-------0-----0-----0--------0-----------
D|-0------------------------------------------------
A|--------------------------------------------------
E|------------0--------------3--------3-------------


        Bm         A9          G         G

e|------0-------- 0-----------3----------3------------
B|--------0--------0------------3----------3----------
G|----------0--------2-----0-----0------0----0----------
D|---4----------2-------------------------------------
A|-2-----------0--------------------------------------
E|-----------------------3-----------3----------------


Refrão: Verso tocado em base


Ponte:

e|----------------------------------------------------------|
B|----------------------------------------------------------|
G|--7-7-7-7--6-6-6-6--7-9--12-12-12-12-11-11-11-12-11-11-9--|
D|----------------------------------------------------------|
A|--5-5-5-5--4-4-4-4--5-7--10-10-10-10--9--9-9-9-10-9-9--7--|
E|----------------------------------------------------------|


Solo

e|---------------------------------------------------------------------------------
B|-------------------------------------------------------------------------10/12~~-
G|--2---2/7----7--6---2---2/7--/9---/11-----2--2/7--7~~---7/11~--/9---2/4----------
D|---------------------------------------------------------------------------------
A|---------------------------------------------------------------------------------
E|---------------------------------------------------------------------------------

e|---------------------------------------------------------------------------------
B|---------------------------------- 14~-14h15-14--------14~-----------------------
G|--2--2/7~---7/9~---9/11~---11/14~----------------14-11---------------------------
D|---------------------------------------------------------------------------------
A|---------------------------------------------------------------------------------
E|---------------------------------------------------------------------------------


Base do solo:

*Prestar atençao na mudança de Ritmo

e|----------------------------------------------------------------------------------------------|
B|----------------------------------------------------------------------------------------------|
G|--------------------------/4-----------------4-------------------4----------------------------|
D|---5-----4-----5----/7----/4-----5------4----4-------5-----4-----4-- Tocar até o final do solo|
A|---5-----4-----5----/7----/2-----5------4----2-------5-----4-----2----------------------------|
E|---3-----2-----3----/5-----------3------2------------3-----2----------------------------------|


>>>Prestar atenção no final do primeiro refrão, após o solo, manter a nota "G" por mais tempo

>>>E no final:

         B           A         G
"I just want you to know who I am"  (Repete 4x)

__________________________________________________________________________________

Olha só, até hoje nunca achei uma tablatura decente desse som...
Esse que a Avril ta cantando, só o solo que tem uma pequena diferença, mas o resto serve pra original
tbm(versão do Goo Goo Dolls mesmo). Cansei e fiz um tab ae pra vcs \o/

Qualquer dúvida é só me manda mensagem.
Abraço galera do cifraclub ^^

----------------- Acordes -----------------
A = X 0 2 2 2 0
A9 = X 0 2 2 0 0
B = X 2 4 4 4 2
Bm = X 2 4 4 3 2
D = X X 0 2 3 2
E = 0 2 2 1 0 0
G = 3 2 0 0 0 3
