Católicas - Discípulos e Missionários de Jesus Cristo

D        A              D                                      A                                 D
     Discípulos e Missionários de Jesus Cristo, de Jesus Cristo,
                     G                    D       Bm                  Em   A                  D
     Para que nele nossos povos        tenham vida, tenham vida
         A              D                                      A                                 D
     Discípulos e Missionários de Jesus Cristo, de Jesus Cristo,
                     G                    D       Bm                  Em   A                  D
     Para que nele nossos povos        tenham vida, tenham vida

----------------- Acordes -----------------
A = X 0 2 2 2 0
Bm = X 2 4 4 3 2
D = X X 0 2 3 2
Em = 0 2 2 0 0 0
G = 3 2 0 0 0 3
