Católicas - Eu Danço Hooky Pooky

E                             A9
Eu danço Hooky pooky Eu danço Hooky pooky
         E             B7           A        E
Eu danço Hooky pook    Porque sem Jesus não dá!!

        E
E põe a mão direita dentro, a mão direita fora
        E7
A mão direita dentro e dá uma rodadinha agora
A
E dance hooky  pooky, dance, dance sem parar...
B7      A       E
Porque sem Jesus não dá!!

E                             A9
Eu danço Hooky pooky Eu danço Hooky pooky
         E             B7           A        E
Eu danço Hooky pook    Porque sem Jesus não dá!!

        E
E põe a mão esquerda dentro, a mão esquerda fora

        E7
A mão esquerda dentro e dá uma rodadinha agora
A
E dance hooky  pooky, dance, dance sem parar...
B7      A       E
Porque sem Jesus não dá!!

E põe o pé direito dentro...
E põe o pé esquerdo dentro...
E põe a cabeça pra dentro...
E põe a línguona pra dentro...

----------------- Acordes -----------------
A = X 0 2 2 2 0
A9 = X 0 2 2 0 0
B7 = X 2 1 2 0 2
E = 0 2 2 1 0 0
E7 = 0 2 2 1 3 0
