Católicas - Não Temas

 A                Bm              E              A
Eu, o Senhor, o Senhor, teu Deus Te tomo pela tua mão direita
   A                Bm              E              A
Te tomo pela mão, a tua mão direita e te digo não temas
    A                Bm   E                        A                F#m
Não temas, Eu sou contigo, não te assombres porque eu sou o Teu Deus
        Bm    E        A
Eu te esforço, Eu te ajudo
         Bm    E                        A
Eu te sustento com a destra da minha justiça
     A               Bm   E                                    A
Não temas, Eu sou contigo, não te assombres porque eu sou  Teu Deus

----------------- Acordes -----------------
