Católicas - Quem Te Cutucou

Intro: D A D D A D

D           A                D                A                D
Quem te cutucou? Quem te cutucou? Quem te cutucou? Quem te cutucou?

D                          A       G           D
Olho para um lado e para o outro e não vejo ninguém(2x)

D       A            D            A            D
Só pode ser, Só pode ser, Só pode ser, Só pode ser,

D       A     G          D   D       A     G          D
Só pode ser Jesus de Nazaré! Só pode ser Jesus de Nazaré!


Quem te empurrou? ...

Quem te beliscou? ...

Quem te abraçou? ...


Quem te amou? ...

----------------- Acordes -----------------
A = X 0 2 2 2 0
D = X X 0 2 3 2
G = 3 2 0 0 0 3
