Católicas - Senhor, Tende Piedade de nós VI

              Em     C        D                  Em
Solo: senhor, tende piedade de         nós!
               Em     C        D                  Em
Ass.:  senhor, tende piedade de        nós!

          Em       C           D                   Em
Solo: cristo, tende piedade    de       nós!
          Em      C          D                      Em
Ass.: cristo, tende piedade      de      nós!

              Em     C        D                  Em
Solo: senhor, tende piedade de         nós!
               Em     C        D                  Em
Ass.:  senhor, tende piedade de        nós!
         Em
De nós!

----------------- Acordes -----------------
C = X 3 2 0 1 0
D = X X 0 2 3 2
Em = 0 2 2 0 0 0
