Católicas - Ser Ponte Que Leva a Cristo

 E                  C#-
Quero te dar a Paz Quero te dar a máo

  A      F#-            B7
Quero desejar a paz a voce meu irmão
                 E
Por isso vem cantar!

  E    B7     C#-  G#-     A          F#-     B7
Vem cantar, vem louvar, abra um sorriso e tambem
            E     B7    C#-   G#-       A
seu coração vem cantar, vem louvar ser ponte que
             F#-       B7
que leva a cristo esta é sua missão!
  E             C#-           A       F#-            B7             E
shalalalalala,shalalalalala,shalalalala,shalom pra voce meu irmão(bis)

----------------- Acordes -----------------
A = X 0 2 2 2 0
B7 = X 2 1 2 0 2
C#- = X 4 6 6 5 4
E = 0 2 2 1 0 0
F#- = 2 4 4 2 2 2
G#- = 4 6 6 4 4 4
