Olodum - Requebra

Intro: F Dm Gm C7

  F           Dm               Gm
 Requebra, requebra, requebra assim
        C7               F
pode falar, pode rir de mim (4 vezes)
           Dm
Requebra!
            Gm
Deusa de marron
  C7       Dm
 Jeito sensual
             Gm             C7
Quando ela passa agita a cidade
           Dm
pois é carnaval....................Bis
                   Gm
Eu já falei que te quero,
              C7             Dm
não tenho vergonha de te assumir (não, não)
                 Gm
Pois o homem não vive

             C7              Dm
se o seu sentimento não admitir
                 C7
pode requebrar, pode requebrar


  F           Dm                Gm
Requebra, requebra, requebra assim
       C7                F              C7
pode falar, pode rir de mim (4 vezes)  requebra...

 F                           Gm
Faça o que quizer, mas eu não vou te esquecer
  C7           F            C7
quero você, amoooor!(bis) Requebra!


  F           Dm                  Gm
 Requebra, requebra, requebra assim
        C7               F
pode falar, pode rir de mim (4 vezes)   Requebra....
     C7
até no chão!

(F Dm Gm C7)


 Embaixo, embaixo, embaixo- ôôô
 Em cima, em cima ,em cima-ôôô ........bis
 vào la mainha! (solo)
 Embaixo embaixo embaixo -ôôô
 em cima, em cima, em cima -ôôô ...........bis

----------------- Acordes -----------------
C7 = X 3 2 3 1 X
Dm = X X 0 2 3 1
F = 1 3 3 2 1 1
Gm = 3 5 5 3 3 3
