Falamansa - Uma Vida Inteira

Int:
                                  Bb                             F
E|----------8--11--10--8--10--8|--------------------------------------|
B|------10---------------------------------------8------8------10-----|
G|--10------------------------------7--7--7--10-----10-----10---------|
D|--------------------------------------------------------------------|
A|--------------------------------------------------------------------|
E|--------------------------------------------------------------------|

                                  Bb                             F
E|----------8--11--10--8--10--8|--------------------------------------|
B|------10---------------------------------------8------8------10-----|
G|--10------------------------------7--7--7--10-----10-----10---------|
D|--------------------------------------------------------------------|
A|--------------------------------------------------------------------|
E|--------------------------------------------------------------------|

                           Bb
A gente já não consegue ver
                                    F
Pra sempre perto mesmo longe de você

                        Bb                            F
Se me sinto vazio agora    pior é quando você vai embora
        A7           Dm               F7                 Bb
Aí voce vai entender   que precisamos um do outro pra viver,
       C7  F7
Pra viver  ê   ê

Bb   F  C7              G
  Deixa   fazer da sua maneira
Bb  F  C             Dm
  Seja  por uma vida inteira

Bb   F  C7              G
  Deixa   fazer da sua maneira
Bb  F  C             Dm     Bb F
  Seja  por uma vida inteira

                                 Bb                             F
E|----------8--11--10--8--10--8|--------------------------------------|
B|------10---------------------------------------8------8------10-----|
G|--10------------------------------7--7--7--10-----10-----10---------|
D|--------------------------------------------------------------------|
A|--------------------------------------------------------------------|
E|--------------------------------------------------------------------|

                                  Bb                             F
E|----------8--11--10--8--10--8|--------------------------------------|
B|------10---------------------------------------8------8------10-----|
G|--10------------------------------7--7--7--10-----10-----10---------|
D|--------------------------------------------------------------------|
A|--------------------------------------------------------------------|
E|--------------------------------------------------------------------|

Um dia você vai entender
                                  F
Que é necessário se auto-conhecer
                          Bb                              F
Ver que a vida não demora   que na verdade ela é uma escola
              A7        Dm
E tem que de tudo fazer
           F7               Bb         C7  F7
Afinal se nasceu foi pra viver, pra viver  ê ê


Bb   F  C7              G
  Deixa   fazer da sua maneira
Bb  F  C             Dm
  Seja  por uma vida inteira

Bb   F  C7              G
  Deixa   fazer da sua maneira
Bb  F  C             Dm     Bb F
  Seja  por uma vida inteira

                                 Bb                             F
E|----------8--11--10--8--10--8|--------------------------------------|
B|------10---------------------------------------8------8------10-----|
G|--10------------------------------7--7--7--10-----10-----10---------|
D|--------------------------------------------------------------------|
A|--------------------------------------------------------------------|
E|--------------------------------------------------------------------|

                                  Bb                             F
E|----------8--11--10--8--10--8|--------------------------------------|
B|------10---------------------------------------8------8------10-----|
G|--10------------------------------7--7--7--10-----10-----10---------|
D|--------------------------------------------------------------------|
A|--------------------------------------------------------------------|
E|--------------------------------------------------------------------|

                 Bb
A gente já não consegue ver
                                    F
Pra sempre perto mesmo longe de você
                        Bb                            F
Se me sinto vazio agora    pior é quando você vai embora
        A7           Dm               F7                 Bb
Aí voce vai entender   que precisamos um do outro pra viver,
       C7  F7
Pra viver  ê   ê

Bb   F  C7              G
  Deixa   fazer da sua maneira
Bb  F  C             Dm
  Seja  por uma vida inteira

Bb   F  C7              G
  Deixa   fazer da sua maneira
Bb  F  C             Dm     Bb F
  Seja  por uma vida inteira


                                 Bb                             F
E|----------8--11--10--8--10--8|--------------------------------------|
B|------10---------------------------------------8------8------10-----|
G|--10------------------------------7--7--7--10-----10-----10---------|
D|--------------------------------------------------------------------|
A|--------------------------------------------------------------------|
E|--------------------------------------------------------------------|

                                  Bb                             F
E|----------8--11--10--8--10--8|--------------------------------------|
B|------10---------------------------------------8------8------10-----|
G|--10------------------------------7--7--7--10-----10-----10---------|
D|--------------------------------------------------------------------|
A|--------------------------------------------------------------------|
E|--------------------------------------------------------------------|

----------------- Acordes -----------------
A7 = X 0 2 0 2 0
Bb = X 1 3 3 3 1
C = X 3 2 0 1 0
C7 = X 3 2 3 1 X
Dm = X X 0 2 3 1
F = 1 3 3 2 1 1
F7 = 1 3 1 2 1 1
G = 3 2 0 0 0 3
