Ministério Morada - Para Dimas

Intro: A   B C#m (2x)

A   B C#m7 C#m
Por favor
A    B C#m7 C#m
Volte assim,
A   B C#m7 C#m      G#m7
Não espera consertar
A     B C#m7 C#m
Meu amor
A B C#m7 C#m
Por você
A B C#m7 C#m        G#m7
É maior que os teus pecados
A9 A                 G#m7
Ah tava esperando você voltar
  F#m               F#m7                     B
Tava esperando você dizer : Que se arrepende!
A                     G#m7
 Ah eu sei que agora você tem medo,
                   F#m7                         B             A  (A B C#m)
 Mais uma coisa eu te prometo , logo toda essa dor, vai acabar.


A  B C#m                                 G#m7
 Olha só eu na cruz do seu lado , basta olhar
A    B C#m                                    G#m7
Espera o sol(escurecer) que eu te levo lá pro céu
A                  G#m7                      F#m7                             B B4 B
Ah tava esperando você voltar tava esperando você dizer: que se arrepende!
A                    G#m7                           F#m7
Ah ,eu sei que agora você tem medo mais uma coisa eu te prometo,
                B               A  E E7
logo toda essa dor vai acabar.

A            A9            E                E7
Eu não espero a perfeição, tudo que eu quero é o seu coração
A                 A9
Me entregue agora, mas não demora
E           E7
Tô esperando a sua decisão... (2x)
A                       E
laralaralaralaralaralara

----------------- Acordes -----------------
A = X 0 2 2 2 0
A9 = X 0 2 2 0 0
B = X 2 4 4 4 2
B4 = X 2 4 4 5 2
C#m = X 4 6 6 5 4
C#m7 = X 4 6 4 5 4
E = 0 2 2 1 0 0
E7 = 0 2 2 1 3 0
F#m = 2 4 4 2 2 2
F#m7 = 2 X 2 2 2 X
G#m7 = 4 X 4 4 4 X
