Extreme - Mutha Solo

Playing notes
-------------
 On the original the guitar is tuned a 1/2 step down but as this is unaccompanied this is not necessary 
you are playing along with the record. Effects used are a short delay, reverb, wah and distortion. I have
on bends, tremolo arm use, slides and taps but all other notes are either hammer ons or pull offs. I have split the tab into sections in order to explain each part in detail.

t = tap note with right hand
b = bend
/ = slide up
\ = slide down

Section 1 (0:00-0:20)
---------------------
This section starts with a pinch harmonic on the bent b string. This note is then gradually lowered with 
tremolo bar and and allowed to feedback. The fast section is played with hammer ons and pull offs. I
transcribed this with tapping but it resulted in some very large and uncomfortable stretches. The wah is being flexed constantly during this section. The final bend is played with heavy finger vibrato as well as tremolo vibrato.

Section 2 (0:21-0:29)
---------------------
The fast section is played in a similar manner as section 1 but this time using the G string as well. The 

melody at the end is played using a technique called "wapping". Point the tremolo bar away from the kneck
hit it with the pick hand as you hammer out the notes with the fret hand.

Section 3 (0:30-0:53)
---------------------
During the tapping section the wah is flexed in such a way that it emphasises the highest pitch notes. The 
should be in the treble position when the high notes are tapped to bring out a descending melody. The
should drop gradually are you reach the end of the piece. The final phrase is played using the tremolo arm. The 10th fret B string is lowered 3 times in order to sound the other 3 notes. So in other words the 4 notes
all played on the 10th fret B string. When the arm is depressed enough to sound the note on the 3rd fret B string pick the 7th fret on the D string. This should sound the note on the 2nd fret D string. Release the bar allowing the 7th fret D string to sound. The final D5 chord is strummed with tremolo arm vibrato and is then slid up to an indefinite point.

Section 1
---------
(0:00)
     pinch harmonic
     see text
D#||----------------------------12-15-12----12-|
A#||--8b---------13-12-13-12-13----------13----|
F#||-------------------------------------------|
C#||-------------------------------------------|
G#||-------------------------------------------|
D#||-------------------------------------------|

--15-12----------12-15-12----------12-15-12----------12-17-13----------13-|
--------13-12-13----------13-12-13----------15-13-15----------15-13-15----|
--------------------------------------------------------------------------|
--------------------------------------------------------------------------|
--------------------------------------------------------------------------|
--------------------------------------------------------------------------|

--17-13----------13-17-13----------13-17-13----------15-19-15----------15-|
--------15-13-15----------15-13-15----------17-15-17----------17-15-17----|
--------------------------------------------------------------------------|
--------------------------------------------------------------------------|
--------------------------------------------------------------------------|
--------------------------------------------------------------------------|

--19-15----------15-19-15----------15-19-15----------17-20-17----------17-|
--------17-15-17----------17-15-17----------18-17-18----------18-17-18----|
--------------------------------------------------------------------------|
--------------------------------------------------------------------------|
--------------------------------------------------------------------------|
--------------------------------------------------------------------------|

--20-17----------17-20-17----------17-20-15----------15-20-15----------15-|
--------18-17-18----------18-17-18----------17-15-17----------17-15-17----|
--------------------------------------------------------------------------|
--------------------------------------------------------------------------|
--------------------------------------------------------------------------|
--------------------------------------------------------------------------|

--20-15----------15-20-15----------15-20-15----------13-18-13----------13-|
--------17-15-17----------17-15-17----------15-13-15----------15-13-15----|
--------------------------------------------------------------------------|
--------------------------------------------------------------------------|
--------------------------------------------------------------------------|
--------------------------------------------------------------------------|

--18-13----------13-18-13----------13-18-13-15-13-12-----------------------|
--------15-13-15----------15-13-15-------------------15-13-12-12-10-8------|
----------------------------------------------------------------------11-9-|
---------------------------------------------------------------------------|
---------------------------------------------------------------------------|
---------------------------------------------------------------------------|

                                          see text
                                    heavy vib
-----------------------12-13-15-15b------------|
--------------12-13-15-------------------------|
--10-10-12-14----------------------------------|
-----------------------------------------------|
-----------------------------------------------|
-----------------------------------------------|


Section 2
---------
(0:21)

12-17-12----------12-17-12----------12-16-12----------12-16-12----------12|
---------13-12-13----------12----12----------12----12----------12----12---|
------------------------------14----------------14----------------12------|
--------------------------------------------------------------------------|
--------------------------------------------------------------------------|
--------------------------------------------------------------------------|

--15-12----------12-15-12----------12-14-10----------10-10-12\10-7-10\7-|
--------12----12----------10----10----------10----10--------------------|
-----------12----------------12----------------12-----------------------|
------------------------------------------------------------------------|
------------------------------------------------------------------------|
------------------------------------------------------------------------|

--4-7\4-1-4/7-4-7/10-7-10/12-10-12/15-12-15/21~------|
-----------------------------------------------------|
-----------------------------------------------------|
-----------------------------------------------------|
-----------------------------------------------------|
-----------------------------------------------------|

see text
"wap" all notes with tremolo bar
17--12------------------------|
---------14----17--13--12-----|
------------------------------|
------------------------------|
------------------------------|
------------------------------|

Section 3
---------
(0:30)

--8-12-20t12-20t12-8-12-19t12-19t12-8-12-19t12-19t12-7-10-17t10-17-10-|
----------------------------------------------------------------------|
----------------------------------------------------------------------|
----------------------------------------------------------------------|
----------------------------------------------------------------------|
----------------------------------------------------------------------|

--7-10-17t10-17t10-7-10-15t10-15t10-7-10-15t10-15t10-7-9-15t9-15t9-|
-------------------------------------------------------------------|
-------------------------------------------------------------------|
-------------------------------------------------------------------|
-------------------------------------------------------------------|
-------------------------------------------------------------------|

--7-9-15t9-15t9-5-9-14t9-14t9-5-9-14t9-14t9-3-7-14t7-14t7-|
----------------------------------------------------------|
----------------------------------------------------------|
----------------------------------------------------------|
----------------------------------------------------------|
----------------------------------------------------------|

--3-7-14t7-14t7-3-7-12t7-12t7-3-7-12t7-12t7-3-6-12t6-12t6-|
----------------------------------------------------------|
----------------------------------------------------------|
----------------------------------------------------------|
----------------------------------------------------------|
----------------------------------------------------------|

--3-6-12t6-12t6-3-6-10t6-10t6-3-6-9t6-9t6-2-6-12t6-12t6-|
--------------------------------------------------------|
--------------------------------------------------------|
--------------------------------------------------------|
--------------------------------------------------------|
--------------------------------------------------------|

--2-5-12t5-12t5-2-5-10t5-10t5-2-5-9t5-9t5-2-5-12t5-12t5-|
--------------------------------------------------------|
--------------------------------------------------------|
--------------------------------------------------------|
--------------------------------------------------------|
--------------------------------------------------------|

--2-5-12t5-12t5-0-3-6-10t6-10t6-0-3-6-9t6-9t6-0-2-5-12t5-12t5-|
--------------------------------------------------------------|
--------------------------------------------------------------|
--------------------------------------------------------------|
--------------------------------------------------------------|
--------------------------------------------------------------|

--0-2-5-12t5-12t5-0-2-5-10t5-10t5-0-2-5-9t5-9t5-0----|
-----------------------------------------------------|
-----------------------------------------------------|
-----------------------------------------------------|
-----------------------------------------------------|
-----------------------------------------------------|

see text
sounded with tremolo arm         with tremolo arm vibrato
--------------------------|-------------------||
--10-(8)-(7)-(3)----------|-------3/----------||
--------------------------|-------2/----------||
-------------------(2)-7--|-------0/----------||
--------------------------|-------------------||
--------------------------|-------------------||

----------------- Acordes -----------------
C# = X 4 6 6 6 4
D# = X 6 5 3 4 3
F# = 2 4 4 3 2 2
G# = 4 3 1 1 1 4
