Marisa Monte - A Sua

Intro: G7M  C7(9)  D6(9)  D7M(9)  D7(9)  Am6 (2x)
       G7M  C7(9)

Dedilhado:
Parte 1 de 2 (2x)
   G7M   C7(9)  D6(9)  D7M(9)  D7(9)  Am6
E|------------------------------------------|
B|-3-3----3-3----5-5----5-5----5-5----5-5---|
G|-4-4----3-3----4-4----6-6----5-5----5-5---|
D|-4-4----2-2----4-4----4-4----4-4----4-4---|
A|--------3---3--5---5--5---5--5---5--------|
E|-3---3------------------------------5---5-|

Parte 2 de 2
   G7M   C7(9)
E|------------------------------------------|
B|-3-3----3-3-------------------------------|
G|-4-4----3-3-------------------------------|
D|-4-4----2-2-------------------------------|
A|--------3---3-----------------------------|
E|-3---3------------------------------------|


Primeira Parte:

D6(9)              D7M(9)   D7(9)
      Eu só quero que você saiba
       Am6               G7M
Que estou pensando em você
  C7(9)
Agora e sempre mais
D6(9)              D7M(9)  D7(9)
      Eu só quero que você ouça
      Am6                  G7M
A canção que eu fiz pra dizer
            G6            E7(9)  G6(9)
Que eu te adoro cada vez mais
             A7(9)           D6(9)
E que eu te quero sempre em paz

           D7M(9)      D7(9)
Tô com sintomas de saudade
       Am6        G7M
Tô pensando em você
            C7(9)
Como eu te quero tanto bem
D6(9)        D7M(9)        D7(9)
      Aonde for não quero dor
         Am6        G7M
Eu tomo conta de você
              G6       E7(9)
Mas te quero livre também
G6(9)               A7(9)         D6(9)
      Como o tempo vai e o vento vem

Primeira Parte:

Parte 1 de 4
  D6(9)  D7M(9)  D7(9)  Am6   G7M    C7(9)
E|------------------------------------------|
B|-5-5----5-5----5-5----5-5----3-3----3-3---|
G|-4-4----6-6----5-5----5-5----4-4----3-3---|
D|-4-4----4-4----4-4----4-4----4-4----2-2---|
A|-5---5--5---5--5---5----------------3---3-|
E|----------------------5---5--3---3--------|

Parte 2 de 4
  D6(9)  D7M(9)  D7(9)  Am6   G7M    G6
E|------------------------------------------|
B|-5-5----5-5----5-5----5-5----3-3----3-3---|
G|-4-4----6-6----5-5----5-5----4-4----4-4---|
D|-4-4----4-4----4-4----4-4----4-4----2-2---|
A|-5---5--5---5--5---5----------------------|
E|----------------------5---5--3---3--3---3-|

Parte 3 de 4
  E7(9)         G6(9)  A7(9)
E|------------------------------------------|
B|-7-7----7-7----3-3----0-0-----------------|
G|-7-7----7-7----2-2----4-4-----------------|
D|-6-6----6-6----2-2----5-5-----------------|
A|------------------------------------------|
E|-0---0--0---0--3---3--5---5---------------|

Parte 4 de 4
  D6(9)
E|------------------------------------------|
B|-5-5----5-5----5-5----5-5-----------------|
G|-4-4----4-4----4-4----4-4-----------------|
D|-4-4----4-4----4-4----4-4-----------------|
A|-5---5--5---5--5---5--5---5---------------|
E|------------------------------------------|

Segunda Parte:

             D7M(9)   D7(9)
Eu só quero que você caiba
        Am6     G7M
No meu colo porque
        C7(9)         D6(9)
Eu te adoro cada vez mais
             D7M(9)   D7(9)
Eu só quero que você siga
     Am6      G7M
Para onde quiser
                  A7          D6(9)
Que eu não vou ficar muito atrás

Segunda Parte:

Parte 1 de 3
  D6(9)  D7M(9)  D7(9)  Am6   G7M    C7(9)
E|------------------------------------------|
B|-5-5----5-5----5-5----5-5----3-3----3-3---|
G|-4-4----6-6----5-5----5-5----4-4----3-3---|
D|-4-4----4-4----4-4----4-4----4-4----2-2---|
A|-5---5--5---5--5---5----------------3---3-|
E|----------------------5---5--3---3--------|

Parte 2 de 3
  D6(9)  D7M(9)  D7(9)  Am6   G7M     A7
E|------------------------------------------|
B|-5-5----5-5----5-5----5-5----3-3----5-5---|
G|-4-4----6-6----5-5----5-5----4-4----6-6---|
D|-4-4----4-4----4-4----4-4----4-4----5-5---|
A|-5---5--5---5--5---5----------------------|
E|----------------------5---5--3---3--5---5-|

Parte 3 de 3
  D6(9)
E|------------------------------------------|
B|-5-5----5-5----5-5----5-5-----------------|
G|-4-4----4-4----4-4----4-4-----------------|
D|-4-4----4-4----4-4----4-4-----------------|
A|-5---5--5---5--5---5--5---5---------------|
E|------------------------------------------|

Primeira Parte:

           D7M(9)      D7(9)
Tô com sintomas de saudade
       Am6        G7M
Tô pensando em você
            C7(9)
Como eu te quero tanto bem
D6(9)        D7M(9)        D7(9)
      Aonde for não quero dor
         Am6        G7M
Eu tomo conta de você
              G6       E7(9)
Mas te quero livre também
G6(9)               A7(9)         D6(9)
      Como o tempo vai e o vento vem

Final:

             D7M(9)   D7(9)
Eu só quero que você saiba
       Am6               G7M
Que estou pensando em você
              G6       E7(9)
Mas te quero livre também
G6(9)               A7(9)         D6(9)
      Como o tempo vai e o vento vem
                            E7(9)
E que eu te quero livre também
G7M               A7            D
    Como o tempo vai e o vento vem

Final:

Parte 1 de 4
  D6(9)  D7M(9)  D7(9)  Am6   G7M    G6
E|------------------------------------------|
B|-5-5----5-5----5-5----5-5----3-3----3-3---|
G|-4-4----6-6----5-5----5-5----4-4----4-4---|
D|-4-4----4-4----4-4----4-4----4-4----2-2---|
A|-5---5--5---5--5---5----------------------|
E|----------------------5---5--3---3--3---3-|

Parte 2 de 4
  E7(9)         G6(9)  A7(9)
E|------------------------------------------|
B|-7-7----7-7----3-3----0-0-----------------|
G|-7-7----7-7----2-2----4-4-----------------|
D|-6-6----6-6----2-2----5-5-----------------|
A|------------------------------------------|
E|-0---0--0---0--3---3--5---5---------------|

Parte 3 de 4
  D6(9)
E|------------------------------------------|
B|-5-5----5-5----5-5----5-5-----------------|
G|-4-4----4-4----4-4----4-4-----------------|
D|-4-4----4-4----4-4----4-4-----------------|
A|-5---5--5---5--5---5--5---5---------------|
E|------------------------------------------|

Parte 4 de 4
  E7(9)         G7M     A7    D
E|----------------------------2-------------|
B|-7-7----7-7----3-3----5-----3-------------|
G|-7-7----7-7----4-4----6-----2-------------|
D|-6-6----6-6----4-4----5-----0-------------|
A|------------------------------------------|
E|-0---0--0---0--3---3--5-------------------|

----------------- Acordes -----------------
A7 = X 0 2 0 2 0
A7(9) = 5 X 5 4 0 X
Am6 = 5 X 4 5 5 X
C7(9) = X 3 2 3 3 X
D = X X 0 2 3 2
D6(9) = X 5 P4 4 5 X
D7(9) = X 5 4 5 5 X
D7M(9) = X 5 4 6 5 X
E7(9) = X X 2 1 3 2
G6 = 3 X 2 4 3 X
G6(9) = 3 X P2 2 3 X
G7M = 3 X 4 4 3 X
