Guns N' Roses - Breakdown

Afinação Meio Tom Abaixo

Versão 1
========


Gtr I (E A D G B E) - 'Gtr. 1'
Gtr II (E A D G B E) - 'Gtr. 2'
Gtr III (E A D G B E) - 'Gtr. 3'
Gtr IV (E A D G B E) - 'Gtr. 4'
Gtr V (E A D G B E) - 'Gtr. 5'
Gtr VI (E A D G B E) - 'Gtr. 6'

  Q=164
 4/4
  Gtrs I, II
  H    Q  E S S    E  Q    S  S E Q   S S
|---------------|-------------------------|
|---------------|----10---10h12-----------|
|-----------7-7-|-11------------9-7---9-7-|
|---------------|-------------------------|
|---------------|-------------------------|
|---------------|-------------------------|

|
| Gtr III
| W                Q    Q       Q   E E
|---------------|--2----2-------2---2-2---|
|---------------|--3----3-------3---3-3---|
|---------------|--2----2-------2---2-2---|
|---------------|--0----0-------0---0-0---|
|---------------|-------------------------|
|---------------|-------------------------|


   E Q.       Q     E S S   E    Q   S S Q      E.       S
|-------------------------|----------------------------------|
|-------------------------|----------------------------------|
|---------------------7-9-|-9b10-9---7-9-9b11---9b11-----7---|
|----9--------------------|----------------------------------|
|-10----------------------|----------------------------------|
|-------------------------|----------------------------------|
|
|  Q    E S S S S E E E     Q      E S S E    E S    S E
|--3----3---3-3-3---------|-3------3---3--------3----3-------|
|--3----3---3-3-3-3-3-3---|-3------3---3-3----3-3----3-3-----|
|--0----0---0-0-0-0-0-0---|-0------0---0-0----0-0----0-0-----|
|--0----0---0-0-0-0-0-0---|-0------0---0-0----0-0----0-0-----|
|--2----2---2-2-2-2-2-2---|-2------2---2-2----2-2----2-2-----|
|-----------------3-3-3---|--------------3----3--------3-----|


  Gtr I
  H.            +E    S S   S S Q   S S  E  E  E  E
|-------------------------|---------------------------|
|-------------------------|----------------10-12------|
|-9-------------(9)-------|-7h9-7---9p7-11------------|
|---------------------7-9-|----------------------12---|
|-------------------------|---------------------------|
|-------------------------|---------------------------|
|
| Gtr II
| H.            +E    S S   S S Q   S S  E  E  E  E
|-------------------------|---------------------------|
|-------------------------|--------------7-10---------|
|-9-------------(9)-------|-7h9-7---9p7--------9--7---|
|---------------------7-9-|---------------------------|
|-------------------------|---------------------------|
|-------------------------|---------------------------|
|
| Gtr III
| Q   E S S E E  S  S E     E   E E E    Q     E  S S
|-0---0---0-0-0--0--0-0---|-3------------0-----0--0-0-|
|-2---2---2-2-2--2--2-2---|-3---3-3-3----2-----2--2-2-|
|-2---2---2-2-2--2--2-2---|-0---0-0-0----2-----2--2-2-|
|-2---2---2-2-2--2--2-2---|-0---0-0-0----2-----2--2-2-|
|-0---0---0-0-0--0--0-0---|-2---2-2-2----0-----0--0-0-|
|-------------------------|-3---3-3-3-----------------|


   E    S  E      S  E    H
|-10------10------------------------------|
|-------------------12--------------------|
|------------------------12---------------|
|-----------------------------------------|
|-----------------------------------------|
|-----------------------------------------|
|
|  E    S  S S    S  S S  S S Q.
|-----------------------------------------|
|-------7-10------------------------------|
|--9b11------9b10-9--7----9-7-------------|
|----------------------9------0-----------|
|-----------------------------------------|
|-----------------------------------------|
|
|  Q         E       S S  S E    S E S S
|-------------------------3--------3------|
|--3---------3---------3--3-3------3---3--|
|--2---------2---------2--0-0------0---0--|
|--0---------0---------0--0-0------0---0--|
|-------------------------2-2----------2--|
|--2---------2---------2----3------3---3--|


   S  S  S  S  S  S S S Q         S    +S  S S   W          W
|----------------------------------------------|----------|------|
|-12-12-10-------10----------------------------|----------|------|
|----------10h11----9-7-9b11------9b10r(9)-7---|-7--------|------|
|--------------------------------------------9-|----------|------|
|----------------------------------------------|----------|------|
|----------------------------------------------|----------|------|
|
|  S  S  S  S  E    S S E    S  S S     S  S S   W          W
|----------------------------------------------|----------|------|
|----------------------------7-10--------------|----------|------|
|--7h=9p=7-----7----9-7-9b11------9b10--9--7---|-7--------|------|
|--------------------------------------------9-|----------|------|
|----------------------------------------------|----------|------|
|----------------------------------------------|----------|------|
|
|  Q           E    S S E    E    E        S S   W          W
|--------------3--------0----0----0----------0-|-2--------|------|
|--3-----------3------3-2----2----2----------2-|-3--------|------|
|--0-----------0------0-2----2----2----------2-|-2--------|------|
|--0-----------0------0-2----2----2----------2-|-0--------|------|
|--2------------------2-0----0----0----------0-|----------|------|
|--3-----------3------3------------------------|----------|------|


  Gtr III
  E E E S S E S S S S S S   Q  E S S S E S S S E   Q  E S S S S E S S S S
|---2-2-2-2-2-2-2-2-2-2-2-|-2--2---2-2-2---2-2-3-|-3--3---3-3-3-3-3-3-3-3-|
|---3-3-3-3-3-3-3-3-3-3-3-|-3--3---3-3-3---3-3-3-|-3--3---3-3-3-3-3-3-3-3-|
|---2-2-2-2-2-2-2-2-2-2-2-|-2--2---2-2-2---2-2-0-|-0--0---0-0-0-0-0-0-0-0-|
|---0-0-0-0-0-0-0-0-0-0-0-|-0--0---0-0-0---0-0-0-|------------------------|
|-------------------------|--------------------2-|-3--3---3-3-3-3-3-3-3-3-|
|-------------------------|----------------------|------------------------|


  Gtr IV
  W                  H        E    Q.
|------------------|------------------------|
|------------------|--------------15b17-----|
|------------------|------------------------|
|------------------|------------------------|
|------------------|------------------------|
|------------------|------------------------|
|
| Gtr III
| Q  E S S E E E E   Q  E S S S S  E    E E
|-3--3---3-3-3-3-3-|-0--0---0-0-0--0----0-0-|
|-3--3---3-3-3-3-3-|-2--2---2-2-2--2----2-2-|
|-0--0---0-0-0-0-0-|-2--2---2-2-2--2----2-2-|
|-0--0---0-0-0-0-0-|-2--2---2-2-2--2----2-2-|
|-2--2---2-2-2-2-2-|-0--0---0-0-0--0----0-0-|
|------------------|------------------------|


   ~~~~~~~~~~
   Q.     Q.         S  S     +S   S
|--------17--------------------------|
|-15-----15------------17b18r(17)-15-|
|------------------------------------|
|------------------------------------|
|------------------------------------|
|------------------------------------|
|
|  Q   E  S  S S S E S  S      E
|--2---2-----2-1-2-1-2--2------3-----|
|--3---3-----3-3-3-3-3--3------3-----|
|--2---2-----2-2-2-2-2--2------0-----|
|--0---0-----0-0-0-0-0--0------0-----|
|------------------------------2-----|
|------------------------------------|


   ~~
   H        Q    Q
|---------------------------|
|-17------------17b19-------|
|---------------------------|
|---------------------------|
|---------------------------|
|---------------------------|
|
|  Q  E S S E E  S    S S S
|--3--3---3-3-3--3----3-3-3-|
|--3--3---3-3-3--3----3-3-3-|
|--0--0---0-0-0--0----0-0-0-|
|---------------------------|
|--3--3---3-3-3--3----3-3-3-|
|---------------------------|


   ~~~~~~~~~~~~~~~~~~~~~                ~~
   H.               +S  S  S     +S     W
|------------------------------------|-------------------------|
|-15---------------(15)---12b13r(12)-|-10----------------------|
|------------------------------------|-------------------------|
|------------------------------------|-------------------------|
|------------------------------------|-------------------------|
|------------------------------------|-------------------------|
|
|  Q   E S S S S E   S  S  S      S     Q  E S S S S E S S S S
|--3---3---3-3-3-3---3--3--3------3--|--0--0---0-0-0-0-0-0-0-0-|
|--3---3---3-3-3-3---3--3--3------3--|--2--2---2-2-2-2-2-2-2-2-|
|--0---0---0-0-0-0---0--0--0------0--|--2--2---2-2-2-2-2-2-2-2-|
|--0---0---0-0-0-0---0--0--0------0--|--2--2---2-2-2-2-2-2-2-2-|
|--2---2---2-2-2-2---2--2--2------2--|--0--0---0-0-0-0-0-0-0-0-|
|------------------------------------|-------------------------|


  Q    +Q    Q  E   +E      W                      W
|-------------------------|----------------------|-------------------------|
|-7b8r=(7)---7------------|-3--------------------|-3-----------------------|
|---------------7b9r(7)---|-2--------------------|-0-----------------------|
|-------------------------|-0--------------------|-------------------------|
|-------------------------|----------------------|-3-----------------------|
|-------------------------|----------------------|-------------------------|
|
| Q.       E Q  E    S  S   Q  E S S S E S S S E   Q  E S S S S E S S S S
|-3-------------0---------|-2--2---2-2-2---2-2-3-|-3--3---3-3-3-3-3-3-3-3--|
|-3--------3-3--2----2--2-|-3--3---3-3-3---3-3-3-|-3--3---3-3-3-3-3-3-3-3--|
|-0--------0-2--2----2--2-|-2--2---2-2-2---2-2-0-|-0--0---0-0-0-0-0-0-0-0--|
|-0--------0-0--2----2--2-|-0--0---0-0-0---0-0-0-|-------------------------|
|-2--------2----0----0--0-|--------------------2-|-3--3---3-3-3-3-3-3-3-3--|
|-3--------3-2-------0--0-|----------------------|-------------------------|


  Gtr V
                                          ~~
  W                  W                    H.              S S E
|------------------|--------------------|-----------------------|
|------------------|--------------------|-----------------------|
|------------------|--------------------|-----------------------|
|------------------|--------------------|-----------------------|
|------------------|--------------------|-5-----------------0-2-|
|------------------|--------------------|-----------------2-----|
|
| Gtr IV
| W                  W                    H         Q     S S E
|------------------|--------------------|-----------------------|
|-3----------------|-5------------------|-3---------------------|
|-0----------------|-2------------------|-2---------------------|
|-0----------------|-2------------------|-0---------------------|
|-2----------------|-0------------------|-------------------0-2-|
|------------------|--------------------|-----------------2-----|
|
| Gtr III
| Q  E S S E E E E   Q  E S S S S E E E   Q   E S S S S E S S E
|-3--3---3-3-3-3-3-|-0--0---0-0-0-0-0-0-|-2---2---2-1-2-1-2-2-3-|
|-3--3---3-3-3-3-3-|-2--2---2-2-2-2-2-2-|-3---3---3-3-3-3-3-3-3-|
|-0--0---0-0-0-0-0-|-2--2---2-2-2-2-2-2-|-2---2---2-2-2-2-2-2-0-|
|-0--0---0-0-0-0-0-|-2--2---2-2-2-2-2-2-|-0---0---0-0-0-0-0-0-0-|
|-2--2---2-2-2-2-2-|-0--0---0-0-0-0-0-0-|---------------------2-|
|------------------|--------------------|-----------------------|


  ~~
  H.            S E.       H.              S E.
|------------------------|--------------------------|
|------------------------|--------------------------|
|------------------------|--------------------------|
|-----------------0------|--------------------------|
|-3-------------3--------|-2---------------2-3------|
|------------------------|--------------------------|
|
| H.            S E.       H         Q     S E.
|------------------------|--------------------------|
|-3----------------------|-3------------------------|
|-0----------------------|-0------------------------|
|-----------------0------|-0------------------------|
|-3-------------3--------|-2---------------2-3------|
|------------------------|--------------------------|
|
| Q   E S S E E S S  S S   Q   E S S S S E S S  S S
|-3---3---3-3-3-3-3--3-3-|-3---3---3-3-3-3-3-3--3-3-|
|-3---3---3-3-3-3-3--3-3-|-3---3---3-3-3-3-3-3--3-3-|
|-0---0---0-0-0-0-0--0-0-|-0---0---0-0-0-0-0-0--0-0-|
|------------------------|-0---0---0-0-0-0-0-0--0-0-|
|-3---3---3-3-3-3-3--3-3-|-2---2---2-2-2-2-2-2--2-2-|
|------------------------|--------------------------|


  H         +E    S S E   E
|------------------------------|
|------------------------------|
|------------------------------|
|------------------------------|
|-0---------(0)---x-x----------|
|---------------------2---0----|
|
| H.                  S S S S
|------------------------------|
|------------------------------|
|-2-------------------x-2-x-2--|
|-2-------------------x-2-x-2--|
|-0-------------------x-0-x-0--|
|------------------------------|
|
| Q   E S S  S  S E   S S S S
|-0---0---0--0--0-0---0-0-0-0--|
|-2---2---2--2--2-2---2-2-2-2--|
|-2---2---2--2--2-2---2-2-2-2--|
|-2---2---2--2--2-2---2-2-2-2--|
|-0---0---0--0--0-0---0-0-0-0--|
|------------------------------|


                                            Gtr II
  H      Q  Q       W          +W           E. E S E.     E S  S  S S S
|-----------------|----------|------------|----3-3--------3-3-------0-0-|
|-----------------|-3--------|-(3)--------|--------3-----------3s=5-----|
|-----------------|-2--------|-(2)--------|-0---------------------------|
|-----------------|-0--------|-(0)--------|-----------------------------|
|-----------------|----------|------------|-----------------------------|
|-3------2--0-----|----------|------------|-----------------------------|
|
| H      Q  Q       W          +W           W
|-----------------|----------|------------|-----------------------------|
|-3------3--------|-3--------|-(3)--------|-----------------------------|
|-0------2--2-----|-2--------|-(2)--------|-----------------------------|
|-0------0--2-----|-0--------|-(0)--------|-----------------------------|
|-----------0-----|----------|------------|-----------------------------|
|-3------2--------|----------|------------|-----------------------------|
|
| Q.   E Q  E S S   W           W           H         +Q      +E    S S
|-3---------0-----|-2--------|------------|-----------------------------|
|-3----3-3--2-2-2-|-3--------|------------|-3---------(3)-----(3)---3-3-|
|-0----0-2--2-2-2-|-2--------|------------|-0---------(0)-----(0)---0-0-|
|-0----0-0--2-2-2-|-0--------|------------|-0---------(0)-----(0)---0-0-|
|-2----2----0-0-0-|----------|------------|-2---------(2)-----(2)---2-2-|
|-3----3-2----0-0-|----------|------------|-3---------(3)-----(3)---3-3-|


  E. E S E.     E S  S  S S S   E.     E   S E  S  E   S S S S S
|----2-2--------2-2-------0-0-|--------3---3-------3---3-----0-0-|
|--------3-----------3s=5-----|--------------3-----------3s5-----|
|-2---------------------------|-0---------------0----------------|
|-0---------------------------|-0--------------------------------|
|-----------------------------|----------------------------------|
|-----------------------------|----------------------------------|
|
| W                             W
|-----------------------------|----------------------------------|
|-----------------------------|----------------------------------|
|-----------------------------|----------------------------------|
|-----------------------------|----------------------------------|
|-----------------------------|----------------------------------|
|-----------------------------|----------------------------------|
|
| H         +Q      +E    S S   E  +S  S S S E +S  S E   E   E
|-2---------(2)-----(2)---2-2-|----------------------------------|
|-3---------(3)-----(3)---3-3-|-3--(3)-3-3-3-3-(3)-3-3---3---3---|
|-2---------(2)-----(2)---2-2-|-0--(0)-0-0-0-0-(0)-0-0---0---0---|
|-0---------(0)-----(0)---0-0-|-0--(0)-0-0-0-0-(0)-0-0---0---0---|
|-----------------------------|-2--(2)-2-2-2-2-(2)-2-2---2---2---|
|-----------------------------|-3--(3)-3-3-3-3-(3)-3-3---3---3---|


  E  S  E   S E  S  E   S  S  S S S
|-------2---2-------2---2-------0-0-|
|-------------3------------3s=5-----|
|-2--2-----------2------------------|
|-0--0------------------------------|
|-----------------------------------|
|-----------------------------------|
|
| H              Q         Q
|-----------------------------------|
|-----------------------------------|
|-----------------------------------|
|-----------------------------------|
|-----------------------------------|
|-------------------------17\-------|
|
| E +S  S S S E +S  S E    E    E
|-2-(2)-2-2-2-2-(2)-2-2----2----2---|
|-3-(3)-3-3-3-3-(3)-3-3----3----3---|
|-2-(2)-2-2-2-2-(2)-2-2----2----2---|
|-0-(0)-0-0-0-0-(0)-0-0----0----0---|
|-----------------------------------|
|-----------------------------------|


  Gtr IV
  Q  E E Q   E E   +E  E E E Q   E E   Q  E E Q  E E   +E  E E E Q   E E
|----------------|-------------------|---------------|-------------------|
|----------------|-------------------|-2------2----2-|-(2)-2-----2-------|
|-2------2-----5-|-(5)-5-----5-------|-2------2----2-|-(2)-2-----2-------|
|-0--x-x-0---x-0-|-(0)-0-x-x-0---x-x-|-2--x-x-2--x-2-|-(2)-2-x-x-2---x-x-|
|----------------|-------------------|-0--x-x-0--x-0-|-(0)-0-x-x-0---x-x-|
|----------------|-------------------|---------------|-------------------|
|
| Gtr III
| Q  E E E E Q      E  E Q   E E Q     Q  Q   Q  E E    E  E E E E E E E
|-2--2-2-2-2-2---|--2--2-2---2-2-2---|-0--0---0--0-0-|-----0-0-0-0-0-0---|
|-3--3-3-3-3-3---|--3--3-3---3-3-3---|-2--2---2--2-2-|-----2-2-2-2-2-2---|
|-2--2-2-2-2-2---|--2--2-2---2-2-2---|-2--2---2--2-2-|-----2-2-2-2-2-2---|
|-0--0-0-0-0-0---|--0--0-0---0-0-0---|-2--2---2--2-2-|-----2-2-2-2-2-2---|
|----------------|-------------------|-0--0---0--0-0-|-----0-0-0-0-0-0---|
|----------------|-------------------|---------------|-----------------2-|


  Q  E E Q   E E   +E  E E E Q   E E   Q  Q  E E E E   +E  E E E Q   E E
|----------------|-------------------|---------------|-------------------|
|----------------|-------------------|---------------|-------------------|
|-4------4-----4-|-(4)-4-----4-------|-5--4--2h4---5-|-(5)-5-4---2-------|
|-5------5-----5-|-(5)-5-----5-------|-0--0--0-----0-|-(0)-0-0-x-0---x-x-|
|-5--x-x-5---x-5-|-(5)-5-x-x-5---x-x-|---------------|-------------------|
|-3--x-x-3---x-3-|-(3)-3-x-x-3---x-x-|---------------|-------------------|
|
| Q  Q   E E E E    E  E E E E E E E   Q  Q  Q   E E   +E  E E E E E E E
|----------3---3-|--3--3-----3-3-3-3-|-2--2--2---x-2-|-(2)-2-2-2-2-2-2-2-|
|----3---3---3-3-|--3----3-3-3-3-----|-3--3--3---x-3-|-(3)-3-3-3-3-3-3-3-|
|-0--0---0-0-0-0-|--0--0-0-0-0---0-0-|-2--2--2---x-2-|-(2)-2-2-2-2-2-2-2-|
|----0---0-0-0-0-|-----0-0-0-0-0-0-0-|-0--0--0---x-0-|-(0)-0-0-0-0-0-0-0-|
|----2---2-2-2-2-|--2--2-2-2-2-2-2-2-|---------------|-------------------|
|----3---3-3-3---|--3--3-3-3---3-3-3-|---------------|-------------------|


  Q  E E Q  E E   +E  E E E Q   E E   Q  E E Q   E E   +E  E E E Q   E E
|---------------|-------------------|----------------|-------------------|
|-------------2-|-(2)-2-----2-------|----------------|-------------------|
|-4------4----2-|-(2)-2-----2-------|--------------4-|-(4)-4-----4-------|
|-5------5----2-|-(2)-2-x-x-2---x-x-|--------------5-|-(5)-5-----5-------|
|-5--x-x-5--x-0-|-(0)-0-x-x-0---x-x-|-5--x-x-5---x-5-|-(5)-5-x-x-5---x-x-|
|-3--x-x-3--x---|-------------------|-2--x-x-2---x-3-|-(3)-3-x-x-3---x-x-|
|
| Q  Q   Q  E E   +Q    E E E E E E   Q  Q   E E E E    E  E E E E E E E
|-3--3---3----0-|-(0)---0-0-0-0-0-0-|--------------3-|-----3-----3-3-3-3-|
|-3--3------3-2-|-(2)---2-2-2-2-2-2-|-3--3-----3-3-3-|-----3-3-3-3-3-----|
|-0--0---0--0-2-|-(2)---2-2-2-2-2-2-|-2--2-----2-2-0-|-------0-0-0-0-0-0-|
|-0------0--0-2-|-(2)---2-2-2-2-2-2-|-0--0-----0-0-0-|-----0-0-0-0-0-0-0-|
|----2---2--2-0-|-(0)---0-0-0-0-0-0-|----------------|-----2-2-2-2---2-2-|
|-3--3---3--3---|-------------------|-2--2-----2-2-3-|-----3-3-3---3-3-3-|


  Q  E E Q   E E   +E  E E E Q   E E   Q  E E Q   E E   Q  E E Q  E E
|----------------|-------------------|----------------|---------------|
|----------------|-------------------|----------------|-2------2----2-|
|-4------4-----4-|-(4)-4-----4-------|-4------4-------|-2------2----2-|
|-5------5-----5-|-(5)-5-----5-------|-5------5-------|-2--x-x-2--x-2-|
|-5--x-x-5---x-5-|-(5)-5-x-x-5---x-x-|-5--x-x-5---x-x-|-0--x-x-0--x-0-|
|-3--x-x-3---x-3-|-(3)-3-x-x-3---x-x-|-3--x-x-3---x-x-|---------------|
|
| Q  Q   E E E E    H        E E E E   Q  Q   E E E E   Q  Q   Q  E E
|----3-------3-3-|-------------3-----|-3------3-3-----|-0--0---0--0-0-|
|-3--3-----3-3---|--3----------3-3-3-|-3--3---3---3-3-|-2--2---2--2-2-|
|-0--0-----0-0-0-|--0----------0-0-0-|----0---0-0-0-0-|-2--2---2--2-2-|
|-0--0-----0-0-0-|--0----------0-0-0-|-0--0-----0-0-0-|-2--2---2--2-2-|
|-2--2-----2-2-2-|--2----------2-2-2-|-2--2---2-2-2-2-|-0--0---0--0-0-|
|-3--------3---3-|--3------------3-3-|-3--3---3-3-3-3-|---------------|


  +E  E E E Q   E E   Q  E E Q   E E   +E  E E E Q   E E   Q  E E Q  E E
|-------------------|----------------|-------------------|---------------|
|-(2)-2-----2-------|-2------2-----2-|-(2)-2-----2-------|-2------2------|
|-(2)-2-----2-------|-2------2-----2-|-(2)-2-----2-------|-2------2------|
|-(2)-2-x-x-2---x-x-|-2--x-x-2---x-2-|-(2)-2-x-x-2---x-x-|-2--x-x-2--x-x-|
|-(0)-0-x-x-0---x-x-|-0--x-x-0---x-0-|-(0)-0-x-x-0---x-x-|-0--x-x-0--x-x-|
|-------------------|----------------|-------------------|---------------|
|
|  E  E Q   E E E E   Q  Q   E E E E    E  E E E E E E E   Q  Q   Q  Q
|-----0-0---0-0-0-0-|-0--0---0-0-0-0-|-----0-0-0-0-0-0-0-|-0--0---0--0---|
|-----2-2---2-2-2-2-|-2--2---2-2-2-2-|-----2-2-2-2-2-2-2-|-2--2---2--2---|
|-----2-2---2-2-2-2-|-2--2---2-2-2-2-|-----2-2-2-2-2-2-2-|-2--2---2--2---|
|-----2-2---2-2-2-2-|-2--2---2-2-2-2-|-----2-2-2-2-2-2-2-|-2--2---2--2---|
|-----0-0---0-0-0-0-|-0--0---0-0-0-0-|-----0-0-0-0-0-0-0-|-0--0---0--0---|
|-------------------|----------------|-------------------|---------------|


  W          +W             +W            +W
|----------|--------------|-------------|---------------|
|-3--------|-(3)----------|-(3)---------|-(3)-----------|
|-2--------|-(2)----------|-(2)---------|-(2)-----------|
|-0--------|-(0)----------|-(0)---------|-(0)-----------|
|----------|--------------|-------------|---------------|
|----------|--------------|-------------|---------------|
|
| W           H     Q  Q     H     H       H     Q  E E
|-2--------|-----------2--|--------2----|--------2--2-2-|
|-3--------|-----------3--|--------3----|--------3--3-3-|
|-2--------|-----------2--|--------2----|--------2--2-2-|
|-0--------|-----------0--|--------0----|--------0--0-0-|
|----------|--------------|-------------|---------------|
|----------|--------------|-------------|---------------|


  W          W          W          H    Q  E E
|----------|----------|----------|-------------|
|----------|----------|----------|-------------|
|-4--------|----------|----------|-------------|
|-5--------|----------|----------|-------------|
|-5--------|----------|----------|---------x-x-|
|-3--------|----------|----------|---------x-x-|
|
| W          W          W          W
|-3--------|----------|----------|-------------|
|-3--------|----------|----------|-------------|
|-0--------|----------|----------|-------------|
|-0--------|----------|----------|-------------|
|-2--------|----------|----------|-------------|
|----------|----------|----------|-------------|


  Q  E Q   E Q    E E Q  Q  E E   Q   E Q  E Q     E E Q  Q  E E
|---------------|---------------|----------------|---------------|
|---------------|---------------|----------------|---------------|
|-2--x-2---x-2--|-x-x-2--4--x-x-|-2---x-2--x-2---|-x-x-2--4--x-x-|
|-0--x-0---x-0--|-x-x-0--0--x-x-|-0---x-0--x-0---|-x-x-0--0--x-x-|
|---------------|---------------|----------------|---------------|
|---------------|---------------|----------------|---------------|
|
| Q  E E E E Q    E E Q  Q  Q     E E E Q  E E E   E E Q  Q  E E
|-2----2-2-2-2--|-2-2-2--2--2---|-2-2-2-2--2-2-2-|-2-2-2--2--2-2-|
|-3----3-3-3-3--|-3-3-3--3--3---|-3-3-3-3--3-3-3-|-3-3-3--3--3-3-|
|-2----2-2-2-2--|-2-2-2--4--4---|-2-2-2-2--2-2-2-|-2-2-2--4--4-4-|
|-0----0-0-0-0--|-0-0-0--0--0---|-0-0-0-0--0-0-0-|-0-0-0--0--0-0-|
|---------------|---------------|----------------|---------------|
|---------------|---------------|----------------|---------------|


  Q  E E Q   E E   +E  E E E Q   E E   Q  E E Q  E E   +E  E E E Q   E E
|----------------|-------------------|---------------|-------------------|
|----------------|-------------------|-2------2----2-|-(2)-2-----2-------|
|-2------2-----5-|-(5)-5-----5-------|-2------2----2-|-(2)-2-----2-------|
|-0--x-x-0---x-0-|-(0)-0-x-x-0---x-x-|-2--x-x-2--x-2-|-(2)-2-x-x-2---x-x-|
|----------------|-------------------|-0--x-x-0--x-0-|-(0)-0-x-x-0---x-x-|
|----------------|-------------------|---------------|-------------------|
|
| Q  E E E E Q      E  E Q   E E Q     Q  Q   Q  E E    E  E E E E E E E
|-2--2-2-2-2-2---|--2--2-2---2-2-2---|-0--0---0--0-0-|-----0-0-0-0-0-0---|
|-3--3-3-3-3-3---|--3--3-3---3-3-3---|-2--2---2--2-2-|-----2-2-2-2-2-2---|
|-2--2-2-2-2-2---|--2--2-2---2-2-2---|-2--2---2--2-2-|-----2-2-2-2-2-2---|
|-0--0-0-0-0-0---|--0--0-0---0-0-0---|-2--2---2--2-2-|-----2-2-2-2-2-2---|
|----------------|-------------------|-0--0---0--0-0-|-----0-0-0-0-0-0---|
|----------------|-------------------|---------------|-----------------2-|


  Q  E E Q   E E   +E  E E E Q   E E   Q  Q  E E E   E   +E  E E E Q   E E
|----------------|-------------------|-----------------|--------------------|
|----------------|-------------------|-----------------|--------------------|
|-4------4-----4-|-(4)-4-----4-------|-5--4--2h4-----5-|-(5)-5-4---2--------|
|-5------5-----5-|-(5)-5-----5-------|-0--0--0-------0-|-(0)-0-0-x-0---x-x--|
|-5--x-x-5---x-5-|-(5)-5-x-x-5---x-x-|-----------------|--------------------|
|-3--x-x-3---x-3-|-(3)-3-x-x-3---x-x-|-----------------|--------------------|
|
| Q  Q   E E E E    E  E E E E E E E   Q  Q  Q   S S E   +E  E E E E E E E
|----------3---3-|--3--3-----3-3-3-3-|-2--2--2---2---2-|-(2)-2-2-2-2-2-2-2--|
|----3---3---3-3-|--3----3-3-3-3-----|-3--3--3---3---3-|-(3)-3-3-3-3-3-3-3--|
|-0--0---0-0-0-0-|--0--0-0-0-0---0-0-|-2--2--2---2---2-|-(2)-2-2-2-2-2-2-2--|
|----0---0-0-0-0-|-----0-0-0-0-0-0-0-|-0--0--0---0---0-|-(0)-0-0-0-0-0-0-0--|
|----2---2-2-2-2-|--2--2-2-2-2-2-2-2-|-----------------|--------------------|
|----3---3-3-3---|--3--3-3-3---3-3-3-|-----------------|--------------------|


  Q  E E Q  E E   +E  E E E Q   E E   Q  E E Q   E E   +E  E E E Q   E E
|---------------|-------------------|----------------|-------------------|
|-------------2-|-(2)-2-----2-------|----------------|-------------------|
|-4------4----2-|-(2)-2-----2-------|--------------4-|-(4)-4-----4-------|
|-5------5----2-|-(2)-2-x-x-2---x-x-|--------------5-|-(5)-5-----5-------|
|-5--x-x-5--x-0-|-(0)-0-x-x-0---x-x-|-5--x-x-5---x-5-|-(5)-5-x-x-5---x-x-|
|-3--x-x-3--x---|-------------------|-2--x-x-2---x-3-|-(3)-3-x-x-3---x-x-|
|
| Q  Q   Q  E E   +Q    E E E E E E   Q  Q   E E E E    E  E E E E E E E
|-3--3---3----0-|-(0)---0-0-0-0-0-0-|--------------3-|-----3-----3-3-3-3-|
|-3--3------3-2-|-(2)---2-2-2-2-2-2-|-3--3-----3-3-3-|-----3-3-3-3-3-----|
|-0--0---0--0-2-|-(2)---2-2-2-2-2-2-|-2--2-----2-2-0-|-------0-0-0-0-0-0-|
|-0------0--0-2-|-(2)---2-2-2-2-2-2-|-0--0-----0-0-0-|-----0-0-0-0-0-0-0-|
|----2---2--2-0-|-(0)---0-0-0-0-0-0-|----------------|-----2-2-2-2---2-2-|
|-3--3---3--3---|-------------------|-2--2-----2-2-3-|-----3-3-3---3-3-3-|


  Q  E E Q   E E   +E  E E E Q   E E   Q  E E Q   E E   Q  E E Q  E E
|----------------|-------------------|----------------|---------------|
|----------------|-------------------|----------------|-2------2----2-|
|-4------4-----4-|-(4)-4-----4-------|-4------4-------|-2------2----2-|
|-5------5-----5-|-(5)-5-----5-------|-5------5-------|-2--x-x-2--x-2-|
|-5--x-x-5---x-5-|-(5)-5-x-x-5---x-x-|-5--x-x-5---x-x-|-0--x-x-0--x-0-|
|-3--x-x-3---x-3-|-(3)-3-x-x-3---x-x-|-3--x-x-3---x-x-|---------------|
|
| Q  Q   E E E E    H        E E E E   Q  Q   E E E E   Q  Q   Q  E E
|----3-------3-3-|-------------3-----|-3------3-3-----|-0--0---0--0-0-|
|-3--3-----3-3---|--3----------3-3-3-|-3--3---3---3-3-|-2--2---2--2-2-|
|-0--0-----0-0-0-|--0----------0-0-0-|----0---0-0-0-0-|-2--2---2--2-2-|
|-0--0-----0-0-0-|--0----------0-0-0-|-0--0-----0-0-0-|-2--2---2--2-2-|
|-2--2-----2-2-2-|--2----------2-2-2-|-2--2---2-2-2-2-|-0--0---0--0-0-|
|-3--------3---3-|--3------------3-3-|-3--3---3-3-3-3-|---------------|


  +E  E E E Q   E E   Q  E E Q   E E   +E  E E E Q   E E   Q  E E Q  E E
|-------------------|----------------|-------------------|---------------|
|-(2)-2-----2-------|-2------2-----2-|-(2)-2-----2-------|-2------2------|
|-(2)-2-----2-------|-2------2-----2-|-(2)-2-----2-------|-2------2------|
|-(2)-2-x-x-2---x-x-|-2--x-x-2---x-2-|-(2)-2-x-x-2---x-x-|-2--x-x-2--x-x-|
|-(0)-0-x-x-0---x-x-|-0--x-x-0---x-0-|-(0)-0-x-x-0---x-x-|-0--x-x-0--x-x-|
|-------------------|----------------|-------------------|---------------|
|
|  E  E Q   E E E E   Q  Q   E E E E    E  E E E E E E E   Q  Q   Q  Q
|-----0-0---0-0-0-0-|-0--0---0-0-0-0-|-----0-0-0-0-0-0-0-|-0--0---0--0---|
|-----2-2---2-2-2-2-|-2--2---2-2-2-2-|-----2-2-2-2-2-2-2-|-2--2---2--2---|
|-----2-2---2-2-2-2-|-2--2---2-2-2-2-|-----2-2-2-2-2-2-2-|-2--2---2--2---|
|-----2-2---2-2-2-2-|-2--2---2-2-2-2-|-----2-2-2-2-2-2-2-|-2--2---2--2---|
|-----0-0---0-0-0-0-|-0--0---0-0-0-0-|-----0-0-0-0-0-0-0-|-0--0---0--0---|
|-------------------|----------------|-------------------|---------------|


  W          +W             +W            +W
|----------|--------------|-------------|----------------|
|-3--------|-(3)----------|-(3)---------|-(3)------------|
|-2--------|-(2)----------|-(2)---------|-(2)------------|
|-0--------|-(0)----------|-(0)---------|-(0)------------|
|----------|--------------|-------------|----------------|
|----------|--------------|-------------|----------------|
|
| W           H     Q  Q     H     H       H     E E E E
|-2--------|-----------2--|--------2----|--------2-2-2-2-|
|-3--------|-----------3--|--------3----|--------3-3-3-3-|
|-2--------|-----------2--|--------2----|--------2-2-2-2-|
|-0--------|-----------0--|--------0----|--------0-0-0-0-|
|----------|--------------|-------------|----------------|
|----------|--------------|-------------|----------------|


  W          +W           +W           +W
|----------|------------|------------|--------|
|----------|------------|------------|--------|
|-4--------|-(4)--------|-(4)--------|-(4)----|
|-5--------|-(5)--------|-(5)--------|-(5)----|
|-5--------|-(5)--------|-(5)--------|-(5)----|
|-3--------|-(3)--------|-(3)--------|-(3)----|
|
| W           W            W            W
|----------|------------|------------|--------|
|-3--------|------------|------------|--------|
|-0--------|------------|------------|--------|
|-0--------|------------|------------|--------|
|-2--------|------------|------------|--------|
|-3--------|------------|------------|--------|


  Q.    E E E Q    E E Q  Q   E E   Q.     E E E Q    E E Q  Q  E E
|----------------|----------------|-----------------|---------------|
|-3-----3-----3--|-----3--3-------|-----------------|---------------|
|-2-----2-x-x-2--|-x-x-2--2---x-x-|-4------4-----4--|-----4--4------|
|-0-----0-x-x-0--|-x-x-0--0---x-x-|-5------5-----5--|-----5--5------|
|----------------|----------------|-5------5-x-x-5--|-x-x-5--5--x-x-|
|----------------|----------------|-3------3-x-x-3--|-x-x-3--3--x-x-|
|
| Q   E E Q   Q    Q   Q  E E Q     E  E H       Q    E E Q  Q  Q
|-2-----2-2---2--|-----2--2-2-2---|----3-3----------|---3-3--3--3---|
|-3-----3-3---3--|-----3--3-3-3---|-3--3---------3--|---3-3---------|
|-2-----2-2---2--|-----2--2-2-2---|-0--0-0-------0--|---0-0--0--0---|
|-0-----0-0---0--|-----0--0-0-0---|-0--0-0-------0--|-----0--0--0---|
|----------------|----------------|-2--2-2-------2--|---2-2--2--2---|
|----------------|----------------|-3----3-------3--|---3----3--3---|


  Q.    E E E Q    E E Q  Q  E E   Q.    E E E Q    E E Q  Q  E E
|----------------|---------------|----------------|---------------|
|----------------|---------------|-3-----3-----3--|-----3--3------|
|-4-----4-----4--|-----4--4------|-2-----2-x-x-2--|-x-x-2--2--x-x-|
|-5-----5-----5--|-----5--5------|-0-----0-x-x-0--|-x-x-0--0--x-x-|
|-5-----5-x-x-5--|-x-x-5--5--x-x-|----------------|---------------|
|-3-----3-x-x-3--|-x-x-3--3--x-x-|----------------|---------------|
|
| Q   E E Q   Q    Q   Q  Q  Q     Q   E E Q   Q    Q   Q  Q  Q
|-3-----3--------|-----3--3------|-2-----2-2---2--|-2---2--2--2---|
|---------3---3--|-----3-----3---|-3-----3-3---3--|-3---3--3--3---|
|-0-----0-0---0--|--------0--0---|-2-----2-2---2--|-2---2--2--2---|
|-0-----0-0---0--|-----0--0--0---|-0-----0-0---0--|-0---0--0--0---|
|-2-----2-2---2--|-----2--2--2---|----------------|---------------|
|-3-----3-3---3--|-----3--3--3---|----------------|---------------|


  Q.    E E E Q    E E Q  Q  E E   Q.    E E E Q     E E Q  Q  E E
|----------------|---------------|-----------------|---------------|
|-3-----3-----3--|-----3--3------|-----------------|---------------|
|-2-----2-x-x-2--|-x-x-2--2--x-x-|-4-----4-----4---|-----4--4------|
|-0-----0-x-x-0--|-x-x-0--0--x-x-|-5-----5-----5---|-----5--5------|
|----------------|---------------|-5-----5-x-x-5---|-x-x-5--5--x-x-|
|----------------|---------------|-3-----3-x-x-3---|-x-x-3--3--x-x-|
|
| Q   E E Q   Q    E E Q  Q  Q     Q   E E Q   E E   W
|-2-----2-2---2--|-2-2-2--2--2---|-----3-3-3---3---|-3-------------|
|-3-----3-3---3--|-3-3-3--3--3---|-----3-3-3-----3-|-3-------------|
|-2-----2-2---2--|-2-2-2--2--2---|-----0-0-----0-0-|-0-------------|
|-0-----0-0---0--|-0-0-0--0--0---|-----0---0---0-0-|-0-------------|
|----------------|---------------|-----2-2-2---2-2-|-2-------------|
|----------------|---------------|-----3-3-3---3-3-|---------------|


  Q.    E E E Q     E E Q  Q  E E   Q.    E E E Q    E E Q  Q  E E
|-----------------|---------------|----------------|---------------|
|-----------------|---------------|-2-----2-----2--|-----2--2------|
|-4-----4-----4---|-----4--4------|-2-----2-----2--|-----2--2------|
|-5-----5-----5---|-----5--5------|-2-----2-x-x-2--|-x-x-2--2--x-x-|
|-5-----5-x-x-5---|-x-x-5--5--x-x-|-0-----0-x-x-0--|-x-x-0--0--x-x-|
|-3-----3-x-x-3---|-x-x-3--3--x-x-|----------------|---------------|
|
| Q   E E Q   E E   E E Q  Q  E E   Q   E E Q   Q    H      Q  Q
|-----3-3-------3-|-3-3-3--3----3-|-0---0-0-0---0--|--------0--0---|
|-----3---3---3-3-|-3-3-3-----3-3-|-2---2-2-2---2--|--------2--2---|
|-----0-0-0---0-0-|-0-0----0--0---|-2---2-2-2---2--|--------2--2---|
|-----0-0-0---0-0-|-0---0--0--0-0-|-2---2-2-2---2--|--------2--2---|
|-----2-2-2---2-2-|-2-2-2--2--2-2-|-0---0-0-0---0--|--------0--0---|
|-----3-3-3---3---|---3-3--3--3-3-|----------------|---------------|


  Gtr VI
  W                W
|----------------|--------------|
|----------------|--------------|
|----------------|--------------|
|----------------|--------------|
|----------------|--------------|
|----------------|--------------|
|
| Gtr IV
| Q.   E E E Q     E E Q  Q  Q
|----------------|--------------|
|-2----2-----2---|--------------|
|-2----2-----2---|--------------|
|-2----2-x-x-2---|-x-x-4--5--4--|
|-0----0-x-x-0---|-x-x----------|
|----------------|--------------|
|
| Gtr III
| H      Q   E E   W
|------------0-0-|-0------------|
|------------2-2-|-2------------|
|------------2-2-|-2------------|
|------------2-2-|-2------------|
|------------0-0-|-0------------|
|----------------|--------------|


   Q      E  E  E     E  E  E       E   E     Q      E  E  E  E
|--------10----------10----------|-10---------------10----10----|
|-13b15-----10-13b15----10-13b15-|-----13b15-12b13-----13----13-|
|--------------------------------|-----------12b14--------------|
|--------------------------------|------------------------------|
|--------------------------------|------------------------------|
|--------------------------------|------------------------------|
|
|  W                               +W
|--------------------------------|------------------------------|
|--3-----------------------------|-(3)--------------------------|
|--2-----------------------------|-(2)--------------------------|
|--0-----------------------------|-(0)--------------------------|
|--------------------------------|------------------------------|
|--------------------------------|------------------------------|
|
|  Q      Q     Q        E  E      +E   E     Q      E  E  Q
|--2------2-----2--------2--2----|-(2)--2-----2------2--2--2----|
|--3------3-----3--------3--3----|-(3)--3-----3------3--3--3----|
|--2------2-----2--------2--2----|-(2)--2-----2------2--2--2----|
|--0------0-----0--------0--0----|-(0)--0-----0------0--0--0----|
|--------------------------------|------------------------------|
|--------------------------------|------------------------------|


                                              ~~
   Q      E  E  E  E  E  E    E   E  S  S  E  Q    E  E
|-12b13--12-10-12----10-12-|-13--12-13p12p10-12---10-12-|
|-----------------13-------|----------------------------|
|--------------------------|----------------------------|
|--------------------------|----------------------------|
|--------------------------|----------------------------|
|--------------------------|----------------------------|
|
|  W                          W
|--------------------------|----------------------------|
|--3-----------------------|----------------------------|
|--0-----------------------|----------------------------|
|--------------------------|----------------------------|
|--3-----------------------|----------------------------|
|--------------------------|----------------------------|
|
|  Q      Q     Q     E  E   +E   E  E     E  E E  Q
|--3------3-----3-----3--3-|-(3)--3--3-----3--3-3--3----|
|--3------3-----3-----3--3-|-(3)--3--3-----3--3-3--3----|
|--0------0-----0-----0--0-|-(0)--0--0-----0--0-0--0----|
|--------------------------|----------------------------|
|--3------3-----3-----3--3-|-(3)--3--3-----3--3-3--3----|
|--------------------------|----------------------------|


   Q        E  E  E  E  E  S  S    E   E  E  S  S  E  E  Q
|-13b14.5--13-12-13-12-13p10----|-13-----10-13p10----10---------|
|----------------------------13-|-----13----------13----13b15---|
|-------------------------------|-------------------------------|
|-------------------------------|-------------------------------|
|-------------------------------|-------------------------------|
|-------------------------------|-------------------------------|
|
|  W                               W
|-------------------------------|-------------------------------|
|--3----------------------------|-------------------------------|
|--0----------------------------|-------------------------------|
|--0----------------------------|-------------------------------|
|--2----------------------------|-------------------------------|
|-------------------------------|-------------------------------|
|
|  Q        Q     Q     E  E      +E   E  Q        E  E  Q
|--3--------3-----3-----3--3----|-(3)--3--3--------3--3--3------|
|--3--------3-----3-----3--3----|-(3)--3--3--------3--3--3------|
|--0--------0-----0-----0--0----|-(0)--0--0--------0--0--0------|
|--0--------0-----0-----0--0----|-(0)--0--0--------0--0--0------|
|--2--------2-----2-----2--2----|-(2)--2--2--------2--2--2------|
|-------------------------------|-------------------------------|


                                           ~~~~~
   E  Q       E  E  E     +E   E    E   E  H           E  E
|-10---------13-15-15b17r(15)-13-|-15p=14-15b17-------15p13-|
|----13b16-----------------------|--------------------------|
|--------------------------------|--------------------------|
|--------------------------------|--------------------------|
|--------------------------------|--------------------------|
|--------------------------------|--------------------------|
|
|  W                               +W
|--------------------------------|--------------------------|
|--2-----------------------------|-(2)----------------------|
|--2-----------------------------|-(2)----------------------|
|--2-----------------------------|-(2)----------------------|
|--0-----------------------------|-(0)----------------------|
|--------------------------------|--------------------------|
|
|  Q       Q     Q         E   E   +E   E  E    E E E  Q
|--0-------0-----0---------0---0-|-(0)--0--0----0-0-0--0----|
|--2-------2-----2---------2---2-|-(2)--2--2----2-2-2--2----|
|--2-------2-----2---------2---2-|-(2)--2--2----2-2-2--2----|
|--2-------2-----2---------2---2-|-(2)--2--2----2-2-2--2----|
|--0-------0-----0---------0---0-|-(0)--0--0----0-0-0--0----|
|--------------------------------|--------------------------|


   E  E     +E   S  S  E  E  E  E   E  H.              +E
|-15-15b17r(15)-13----13----13h14-|-0-17b20===========(17)--|
|------------------15----15-------|-------------------------|
|---------------------------------|-------------------------|
|---------------------------------|-------------------------|
|---------------------------------|-------------------------|
|---------------------------------|-------------------------|
|
|  W                                W
|---------------------------------|-------------------------|
|--3------------------------------|-------------------------|
|--2------------------------------|-------------------------|
|--0------------------------------|-------------------------|
|---------------------------------|-------------------------|
|---------------------------------|-------------------------|
|
|  Q         Q         Q     E  E   E  E     Q  E E Q
|--2---------2---------2-----2--2-|----2-----2--2-2-2-------|
|--3---------3---------3-----3--3-|----3-----3--3-3-3-------|
|--2---------2---------2-----2--2-|----2-----2--2-2-2-------|
|--0---------0---------0-----0--0-|----0-----0--0-0-0-------|
|---------------------------------|-------------------------|
|---------------------------------|-------------------------|


   +Q     Q   Q   E  E        +E    E  E     +E   E  E  E  E
|-(17)r--17----------------|-------17------------------------|
|------------15--15-17b19==|=(17)r----17b19r(17)-15----15-18-|
|--------------------------|------------------------14-------|
|--------------------------|---------------------------------|
|--------------------------|---------------------------------|
|--------------------------|---------------------------------|
|
|   W                          W
|--------------------------|---------------------------------|
|---3----------------------|---------------------------------|
|---0----------------------|---------------------------------|
|--------------------------|---------------------------------|
|---3----------------------|---------------------------------|
|--------------------------|---------------------------------|
|
|   Q     Q   Q   E  E         E    E  E      E   E  E  Q
|---3-----3---3---3--3-----|--------3--3------3---3--3--3----|
|---3-----3---3---3--3-----|--------3--3------3---3--3--3----|
|---0-----0---0---0--0-----|--------0--0------0---0--0--0----|
|--------------------------|---------------------------------|
|---3-----3---3---3--3-----|--------3--3------3---3--3--3----|
|--------------------------|---------------------------------|

                                        |--3--|
   E  E  S  S  E  E  E  E  E    Q       E  E  E  S  S  S  S  E  S  S
|----------------------------|---------10-----------------------------|
|-17-18p17p15----15-15-------|-13b15------13-10-13p12p10----13-10-10--|
|-------------15-------17s12-|---------------------------13-----------|
|----------------------------|----------------------------------------|
|----------------------------|----------------------------------------|
|----------------------------|----------------------------------------|
|
|  W                            W
|----------------------------|----------------------------------------|
|--3-------------------------|----------------------------------------|
|--0-------------------------|----------------------------------------|
|--0-------------------------|----------------------------------------|
|--2-------------------------|----------------------------------------|
|----------------------------|----------------------------------------|
|
|  Q     Q        Q     E  E    E    E  Q        E     E     Q
|--3-----3--------3-----3--3-|-------3--3--------3-----3-----3--------|
|--3-----3--------3-----3--3-|-------3--3--------3-----3-----3--------|
|--0-----0--------0-----0--0-|-------0--0--------0-----0-----0--------|
|--0-----0--------0-----0--0-|-------0--0--------0-----0-----0--------|
|--2-----2--------2-----2--2-|-------2--2--------2-----2-----2--------|
|----------------------------|----------------------------------------|

                              |---3----|
   S  S  S  S  E     E  S  S  S     S  S  S  S  E
|-------------------10----------------10-------------|
|-13p10----10----------13p10-------10----13p10-------|
|-------13----12b14----------12b14-------------12b14-|
|----------------------------------------------------|
|----------------------------------------------------|
|----------------------------------------------------|
|
|  W
|----------------------------------------------------|
|--2-------------------------------------------------|
|--2-------------------------------------------------|
|--2-------------------------------------------------|
|--0-------------------------------------------------|
|----------------------------------------------------|
|
|  Q           Q        Q                 E     E
|--0-----------0--------0-----------------0-----0----|
|--2-----------2--------2-----------------2-----2----|
|--2-----------2--------2-----------------2-----2----|
|--2-----------2--------2-----------------2-----2----|
|--0-----------0--------0-----------------0-----0----|
|----------------------------------------------------|


                                    ~~~
                         |--3--|
   E   E  E  S  E.    E  E  E  E    Q.    S  S  Q      Q
|--------------------------------|-------------------------------|
|--------------------------------|-12----10h12-10b11--10b11------|
|-12--12-10----12----10----------|-12----10h12-10b11--10b11------|
|-----------12----------12p10----|-------------------------------|
|-----------------------------12-|-------------------------------|
|--------------------------------|-------------------------------|
|
| +W                                H           Q      Q
|--------------------------------|-------------------------------|
|-(2)----------------------------|--3-----------3----------------|
|-(2)----------------------------|--0-----------2----------------|
|-(2)----------------------------|--0-----------0----------------|
|-(0)----------------------------|-------------------------------|
|--------------------------------|--3-----------2------0---------|
|
|  E   E  E  E     E  E  Q          Q.    E     Q      E    S S
|------0--0--0-----0--0--0-------|--3-----3------------0----0-0--|
|------2--2--2-----2--2--2-------|--3-----------3------2----2----|
|------2--2--2-----2--2--2-------|--0-----0-----2------2----2-2--|
|------2--2--2-----2--2--2-------|--0-----0-----0------2------2--|
|------0--0--0-----0--0--0-------|--2-----2-----------------0-0--|
|--------------------------------|--3-----3-----2------0----0-0--|


   ~~~
   H.      Q       W              W              W
|----------------|--------------|--------------|--------------|
|----------------|--------------|--------------|--------------|
|----------------|--------------|--------------|--------------|
|-12-------------|--------------|--------------|--------------|
|----------------|--------------|--------------|--------------|
|----------------|--------------|--------------|--------------|
|
|  ~~~             ~~             ~~
|  H.      S S E   H.      S E.   H.      S E.   H.      E E
|----------------|--------------|--------------|--------------|
|----------------|--------------|--------------|--------------|
|----------------|--------------|--------------|--------------|
|----------------|-----------0--|--------------|-2------------|
|--5---------0-2-|-3-------3----|-2-------2-3--|-0------------|
|----------2-----|--------------|--------------|---------2-0--|
|
|  W               W              W              W
|--2-------------|-3------------|-3------------|-0------------|
|--3-------------|-3------------|-3------------|-2------------|
|--2-------------|-0------------|-0------------|-2------------|
|--0-------------|--------------|-0------------|-2------------|
|----------------|-3------------|-2------------|-0------------|
|----------------|--------------|--------------|--------------|


  Gtr V
  W          W               W                    W
|----------|---------------|--------------------|------------------|
|----------|---------------|--------------------|------------------|
|----------|---------------|--------------------|-2----------------|
|----------|---------------|--------------------|-2----------------|
|----------|---------------|--------------------|-0----------------|
|----------|---------------|--------------------|------------------|
|
| ~~~~~~~~~~~~~~             ~~                   ~~~~~~~~~~~~
| W          H.      S S E   H.       E   +E      H.      +E  S S
|----------|---------------|--------------------|------------------|
|----------|---------------|--------------------|------------------|
|----------|---------------|--------------------|-------------x-x--|
|----------|---------------|--------------------|-------------x-x--|
|-5--------|-7-------7h8h9-|-5------------------|------------------|
|----------|---------------|----------7b8r(7)---|-5-------(5)------|
|
| W          W               H     Q  E    S  S   W
|-2--------|-3-------------|-3-------------3--3-|-0----------------|
|-3--------|-3-------------|-3-------------3--3-|-2----------------|
|-2--------|-0-------------|-0-------------0--0-|-2----------------|
|-0--------|---------------|-0-------------0--0-|-2----------------|
|----------|-3-------------|-2-------------2--2-|-0----------------|
|----------|---------------|--------------------|------------------|


  H      Q  Q       W          W          W
|-----------------|-2--------|----------|---------------|
|-3------3--------|-3--------|----------|---------------|
|-0------2--------|-2--------|----------|---------------|
|-0------0--------|-0--------|----------|---------------|
|-----------------|----------|----------|---------------|
|-3------2--0-----|----------|----------|---------------|
|
|                   ~
| H      Q  Q       W          W          W
|-3---------------|----------|----------|---------------|
|-3---------------|----------|----------|---------------|
|-0---------------|----------|----------|---------------|
|-0---------------|----------|----------|---------------|
|-----------------|-5--------|----------|---------------|
|-3------2--0-----|----------|----------|---------------|
|
| Q.   E Q  E S S   W          W          H    Q  E S S
|-3----3----0-----|-2--------|-3--------|-3---------3-3-|
|-3----3-3--2---2-|-3--------|-3--------|-3---------3-3-|
|-0----0-2------2-|-2--------|-0--------|-0---------0-0-|
|-0----0-0--2---2-|-0--------|----------|-0---------0-0-|
|-2---------0---0-|----------|-3--------|-2---------2-2-|
|-3----3-2--0---0-|----------|----------|---------------|


  W                     W
|--------------------|------------------------|
|--------------------|--3---------------------|
|--------------------|--2---------------------|
|--------------------|--0---------------------|
|--------------------|------------------------|
|--------------------|------------------------|
|
|                       ~~~
| H    E  Q      +E     H.       E     +S   S
|--------------------|------------------------|
|--------------------|-15-------17b19r(17)-15-|
|--------14b16r=(14)-|------------------------|
|--------------------|------------------------|
|--------------------|------------------------|
|--------------------|------------------------|
|
| W                     W
|-0------------------|--2---------------------|
|-2------------------|--3---------------------|
|-2------------------|--2---------------------|
|-2------------------|--0---------------------|
|-0------------------|------------------------|
|--------------------|------------------------|


   W                              W
|------------------------------|------------------------|
|--3---------------------------|--3---------------------|
|--0---------------------------|--0---------------------|
|------------------------------|--0---------------------|
|--3---------------------------|--2---------------------|
|------------------------------|------------------------|
|
|  ~~                             ~~~~~~~~~~
|  H        Q      E     +E       H     +E     Q.
|------------------------------|--------------17b19-----|
|-17--------------17b19r(17)---|-15----(15)-------------|
|------------------------------|------------------------|
|------------------------------|------------------------|
|------------------------------|------------------------|
|------------------------------|------------------------|
|
|  Q  E S S S S E  E      S  S    H      S  S  E    Q
|--3--3---3-3-3-3--3---------3-|--3------3--3--3----3---|
|--3--3---3-3-3-3--3---------3-|--3------3--3--3----3---|
|--0--0---0-0-0-0--0---------0-|--0------0--0--0----0---|
|------------------------------|--0------0--0--0----0---|
|--3--3---3-3-3-3--3---------3-|--2------2--2--2----2---|
|------------------------------|------------------------|


   W                    W                W                  W
|--0------------------|---------------|-------------------|----------------|
|---------------------|---------------|-------------------|----------------|
|--2------------------|---------------|-------------------|----------------|
|--2------------------|---------------|-------------------|----------------|
|--0------------------|---------------|-------------------|----------------|
|---------------------|---------------|-------------------|----------------|
|
|  ~~~
|  H        H           Q  E E Q  E E   +E  E E E Q   E E   Q  E E Q   E E
|-17-------17b19------|---------------|-------------------|----------------|
|---------------------|-------------2-|-(2)-2-----2-------|----------------|
|---------------------|-4------4----2-|-(2)-2-----2-------|--------------4-|
|---------------------|-5------5----2-|-(2)-2-x-x-2---x-x-|--------------5-|
|---------------------|-5--x-x-5--x-0-|-(0)-0-x-x-0---x-x-|-5--x-x-5---x-5-|
|---------------------|-3--x-x-3--x---|-------------------|-2--x-x-2---x-3-|
|
|  E. S Q   Q     E E   Q  Q   Q  E E   +Q    E E E E E E   Q  Q   E E E E
|--0--0-0---0-------0-|-3--3---3--3-0-|-(0)---0-0-0-0-0-0-|--------------3-|
|--2--2-2---2-------2-|-3--3---3--3-2-|-(2)---2-2-2-2-2-2-|-3--3-----3-3-3-|
|--2--2-2---2-------2-|-0------0----2-|-(2)---2-2-2-2-2-2-|-2--2-----2-2-0-|
|--2--2-2---2-------2-|-0--0------0-2-|-(2)---2-2-2-2-2-2-|-0--0-----0-0---|
|--0--0-0---0-------0-|-2--2---2--2-0-|-(0)---0-0-0-0-0-0-|--------------2-|
|---------------------|-3--3---3--3---|-------------------|-2--2-----2-2-3-|


  Gtr IV
  +E  E E E Q   E E   Q  E E Q   E E   +E  E E E Q   E E   Q  E E Q   E E
|-------------------|----------------|-------------------|----------------|
|-------------------|----------------|-------------------|----------------|
|-(4)-4-----4-------|-4------4-----4-|-(4)-4-----4-------|-4------4-------|
|-(5)-5-----5-------|-5------5-----5-|-(5)-5-----5-------|-5------5-------|
|-(5)-5-x-x-5---x-x-|-5--x-x-5---x-5-|-(5)-5-x-x-5---x-x-|-5--x-x-5---x-x-|
|-(3)-3-x-x-3---x-x-|-3--x-x-3---x-3-|-(3)-3-x-x-3---x-x-|-3--x-x-3---x-x-|
|
| Gtr III
|  E  E E E E E E E   Q  Q   E E E E    H        E E E E   Q  Q   E E E E
|-----3---3-3-3-3-3-|-3--3-------3-3-|--3----------3---3-|-3--3---3-3---3-|
|-----3-3-3-3---3---|-3--------3---3-|--3----------3-3-3-|-3--3-----3-3---|
|-----0-0-0-0-0-0-0-|-0--0-----0-0---|--0------------0---|--------0-0-0-0-|
|-----0-0---0-0-0-0-|-0--0-----0-0-0-|-------------0-0-0-|-0--0---0---0-0-|
|-------2-2-2-2---2-|----2-----2-2-2-|--2----------2-2-2-|-2--2---2-2-2-2-|
|-----3-3-3---3-3-3-|-3--3-----3-3-3-|--3----------3-3-3-|-3--3---3-3-3-3-|


  Q  E E Q  E E   +E  E E E Q   E E   Q  E E Q   E E   +E  E E E Q   E E
|---------------|-------------------|----------------|-------------------|
|-2------2----2-|-(2)-2-----2-------|-2------2-----2-|-(2)-2-----2-------|
|-2------2----2-|-(2)-2-----2-------|-2------2-----2-|-(2)-2-----2-------|
|-2--x-x-2--x-2-|-(2)-2-x-x-2---x-x-|-2--x-x-2---x-2-|-(2)-2-x-x-2---x-x-|
|-0--x-x-0--x-0-|-(0)-0-x-x-0---x-x-|-0--x-x-0---x-0-|-(0)-0-x-x-0---x-x-|
|---------------|-------------------|----------------|-------------------|
|
| Q  Q   Q  E E    E  E Q   E E E E   Q  Q   E E E E    E  E E E E E E E
|-0--0---0--0-0-|-----0-0---0-0-0-0-|-0--0---0-0-0-0-|-----0-0-0-0-0-0-0-|
|-2--2---2--2-2-|-----2-2---2-2-2-2-|-2--2---2-2-2-2-|-----2-2-2-2-2-2-2-|
|-2--2---2--2-2-|-----2-2---2-2-2-2-|-2--2---2-2-2-2-|-----2-2-2-2-2-2-2-|
|-2--2---2--2-2-|-----2-2---2-2-2-2-|-2--2---2-2-2-2-|-----2-2-2-2-2-2-2-|
|-0--0---0--0-0-|-----0-0---0-0-0-0-|-0--0---0-0-0-0-|-----0-0-0-0-0-0-0-|
|---------------|-------------------|----------------|-------------------|


  Q  E E Q  E E   W          +W             +W
|---------------|----------|--------------|-------------|
|-2------2------|-3--------|-(3)----------|-(3)---------|
|-2------2------|-2--------|-(2)----------|-(2)---------|
|-2--x-x-2--x-x-|-0--------|-(0)----------|-(0)---------|
|-0--x-x-0--x-x-|----------|--------------|-------------|
|---------------|----------|--------------|-------------|
|
| Q  Q   Q  Q     W           H     Q  Q     H     H
|-0--0---0--0---|-2--------|-----------2--|--------2----|
|-2--2---2--2---|-3--------|-----------3--|--------3----|
|-2--2---2--2---|-2--------|-----------2--|--------2----|
|-2--2---2--2---|-0--------|-----------0--|--------0----|
|-0--0---0--0---|----------|--------------|-------------|
|---------------|----------|--------------|-------------|


  +W              W          W          W
|---------------|----------|----------|------|
|-(3)-----------|----------|----------|------|
|-(2)-----------|-4--------|----------|------|
|-(0)-----------|-5--------|----------|------|
|---------------|-5--------|----------|------|
|---------------|-3--------|----------|------|
|
|  H     Q  E E   W          W          W
|--------2--2-2-|-3--------|----------|------|
|--------3--3-3-|-3--------|----------|------|
|--------2--2-2-|-0--------|----------|------|
|--------0--0-0-|-0--------|----------|------|
|---------------|----------|----------|------|
|---------------|-3--------|----------|------|


  H    Q  E E   Q.   E E E Q    E E Q  Q  E E   Q.   E E E Q
|-------------|---------------|---------------|---------------|
|-------------|-3----3-----3--|-----3--3------|---------------|
|-------------|-2----2-x-x-2--|-x-x-2--2--x-x-|-4----4-----4--|
|-------------|-0----0-x-x-0--|-x-x-0--0--x-x-|-5----5-----5--|
|---------x-x-|---------------|---------------|-5----5-x-x-5--|
|---------x-x-|---------------|---------------|-3----3-x-x-3--|
|
| W             H      Q   Q    W               W
|-------------|-2----------2--|---------------|-3-------------|
|-------------|-3----------3--|---------------|-3-------------|
|-------------|-2----------2--|---------------|---------------|
|

----------------- Acordes -----------------
