Guns N' Roses - Chinese Democracy

Tuning: Dropped D (D A D G B E)

-------------------------------------------------------------------------------

Intro Part #1 :: Play palm-muted

   E E E E E E E E   E E E E E E E E   E E E E E E E E   E E E E E E E E
e|-----------------|-----------------|-----------------|-----------------|
B|-------6-5---5-8-|-------6-5-------|-------6-5---5-8-|-------6-5---5---|
G|-----7-----7-----|-----7-----5-----|-----7-----7-----|-----5-----5---5-|
D|---7-------------|---7---------7---|---7-------------|---5-------------|
A|-5---------------|-5-------------5-|-5---------------|-3---------------|
D|-----------------|-----------------|-----------------|-----------------|

   E E E E E E E E   E E E E E E E E   E E E E E E E E   E E E E E E E E
e|-----------------|-----------------|-----------------|-----------------|
B|-------6-5---5-8-|-------6-5-------|-------6-5---5-8-|-8-8-8-8-8-8-8-8-|
G|-----7-----7-----|-----7-----5-----|-----7-----7---9-|-9-9-9-9-9-9-9-9-|  
D|---7-------------|---7---------7---|---7-------------|-----------------|
A|-5---------------|-5-------------5-|-5-------------!-|-----!-----!---!-|
D|-----------------|-----------------|-----------------|-----------------|


! - don't play palm muted

-------------------------------------------------------------------------------

Intro Part #2

   Q   E E E E E E   Q   Q   Q   Q   Q   Q
e|-----------------|-------------------------|
B|-----------------|-------------------------|\
G|-----------------|-------------------------| | 2nd bar is 6/4 signature
D|-0---0-x-x-3-3-5-|-5---5-------------------| |
A|-0---0-x-x-3-3-5-|-5---5-------------------|/
D|-0---0-x-x-3-3-5-|-5---5-------------------|

   Q   E Q   E E E   Q   Q   Q   Q   Q
e|-----------------|---------------------|
B|-----------------|---------------------|\
G|-----------------|---------------------| | 2nd bar is 5/4 signature here
D|-0---0-----3-3-5-|-5---5\--------------| |
A|-0---0-----3-3-5-|-5---5\--------------|/
D|-0---0-----3-3-5-|-5---5\--------------|

   Q   E E E E E E   Q   Q   Q   Q     Q   E E E E E   Q   E E E E  E  E
e|-----------------|-----------------|---------------|--------------------|
B|-----------------|-----------------|---------------|--------------------|
G|-----------------|-----------------|---------------|--------------------|
D|-0---0-x-x-3-3-5-|-5---5-----------|-0---0-x-x-3-5-|-5---5-5-5----------|
A|-0---0-x-x-3-3-5-|-5---5-----------|-0---0-x-x-3-5-|-5---5-5-5----------|
D|-0---0-x-x-3-3-5-|-5---5-----------|-0---0-x-x-3-5-|-5---5-5-5/18-18-18-|

   Q   E E E E E E   Q   E E E E Q
e|-----------------|-----------------|
B|-----------------|-----------------|
G|-----------------|-----------------|
D|-0---0-x-x-3-3-5-|-5---5-5-x-6-6\--|
A|-0---0-x-x-3-3-5-|-5---5-5-x-6-6\--|
D|-0---0-x-x-3-3-5-|-5---5-5-x-6-6\--|

   Q   E E E E E E   Q   E E E E E E   Q   E E E E E E   Q   E E E E E E
e|-----------------|-----------------|-----------------|-----------------|
B|-----------------|-----------------|-----------------|-----------------|
G|-----------------|-----------------|-----------------|-----------------|
D|-0---0-x-x-3-3-5-|-5---5-5-5---x-x-|-5---5-5-5---x-x-|-5---5-5-5---x-x-|
A|-0---0-x-x-3-3-5-|-5---5-5-5---x-x-|-5---5-5-5---x-x-|-5---5-5-5---x-x-|
D|-0---0-x-x-3-3-5-|-5---5-5-5---x-x-|-5---5-5-5---x-x-|-5---5-5-5---x-x-|
                   \_____________________________________________________/
                    notice that guitar doesnt do the G# chord,
                    some pad effect does it instead

\  slide down
x  Mute note

----------------- Acordes -----------------
E = 0 2 2 1 0 0
