Guns N' Roses - Dead Horse

Afinação Meio Tom Abaixo

A5                B5 G#5  F#5      G#5   A5  G#5 A5 G#5 A5             B5      E5
  sick of this life,     not that you'd care               i'm not the only one with
                      F#5 G5 G#5 A5      B5        C#5 G#5       A5   B5   A5
whom these feelings i share       nobody understands       quite why we're here
G#5 A5 G#5 A5          G#5  A5  B5     E5                 F#5 G5 G#5 A5
            we're searchin' for answers  that never appear            but maybe if i looked
               G#5       F#5 G#5 A5   G#5 A5 G#5 A5   B5                  E5
real hard i'd, i'd see ya tryin' to,               to understand this life,
                             F#5 G5 G#5 A5   B5       G#m        A      A
that we're all goin' through
           A                           B                              E   Esus4
(then when she said she was gonna like wreck my car i didn't know what to do) woh!

CHORUS:
A5                        E5                         A5
sometimes i feel like i'm beating a dead horse and i don't know why
         E5                A5                         E5
you'd be bringing me down, i'd like to think that our love's worth
             A5                   E5                          F#5
a tad more it may sound funny but you'd think by now i'd be smiling

G#5 A5                                E5 E6 E5 E6 E5    E6 E5 E6  E5  E6 E5 E6 E5 E6 E5 E6
      i guess some things never change               woh,  never change

VERSE:
A5           B5     G#5                    A5     G#5 F#5 E5 A5
i met an old cowboy,    i saw the look in his eyes           something tells me
     B5                     E E5                         A5
he's been here before cause     experience makes you wise, i was only a
B5                    G#5                 A5
small child when the thought first came to me that i'm the son of a
            B5                E5
gun and the gun of a son that brought back the devil in me

[chorus]

BRIDGE:
      C#m                        F#          C#m                  F#
 i aint quite what you'd call an old soul still wet behind the ears i
      C#m                F#                          A5
been around this track a couple of times but now the    dust is starting
       B5
to clear_______ oh_______  yeah!

SOLO:
E|----------------------------------------------------------0--------|
B|-14fbrp12-----9/10~~~----------12-------0-9/10~~----------0--------|
G|----------14-----------11hbr-9----9~~------------11hbr-9-11-(11)fb-|
D|-------------------------------------------------------------------|
A|-------------------------------------------------------------------|
E|-------------------------------------------------------------------|

|-------------------------------------------------------9--hbfb---r-9-|
|-0-10-9/10~~~~~--10---------12------0--10fb-10fb~~--12---------------|
|--------------------11fbr-9----9-------------------------------------|
|---------------------------------------------------------------------|
|---------------------------------------------------------------------|
|---------------------------------------------------------------------|

|-----------------------------------------9-12----14fbrp12-14-14~~~~~~-|
|-12-11-(11)p9-----------9--12fb-12~~~~~-------9-----------------------|
|--------------11-11~~~~-----------------------------------------------|
|----------------------------------------------------------------------|
|----------------------------------------------------------------------|
|----------------------------------------------------------------------|

|---------9-------12fb----9-------------9------12----9-------19-19~~~~~-|
|-0-12fb----12-9------------12-9-12-------12-9---------12-9-------------|
|-----------------------------------------------------------------------|
|-----------------------------------------------------------------------|
|-----------------------------------------------------------------------|
|-----------------------------------------------------------------------|

|-19-21-21hb-21fb~~~-(21)-----------------------------------------------|
|--------------------------------------------------------------19-------|
|--------------------------16-18-hbfb---18--18-16-18-18fbr-16-----18fb--|
|-----------------------------------------------------------------------|
|-----------------------------------------------------------------------|
|-----------------------------------------------------------------------|

                     chorus: A5                        E5
|---------------------------------------------------------------------|
|-16------16----------------------------------------------------------|
|----18fb----18-16-18-16-----14~~~~~~~~~~~~~~~~~~(14)\13~~~~~~~~~~~~~-|
|---------------------------------------------------------------------|
|---------------------------------------------------------------------|
|---------------------------------------------------------------------|
                            some times i feel like i'm beating a dead

             A5                      E5
|-----------------------------------------------------------------------|
|-----------------------------------------------------------------------|
|-11fb----------------------r--------9~~~~~~~~~~~~~~~~------------------|
|-----------------------------------------------------------------------|
|-----------------------------------------------------------------------|
|-----------------------------------------------------------------------|
  horse and i don't know why you'd be bringing me down

A5                          E5                        A5
i'd like to think that our love's worth a tad more it may sound
               E5                   A5     E5               A5
funny but you'd think by now i'd be smiling Ooh yeah i'd be smilin'

 E5             A5               E5             A5
|-----------------------------------------------------------|
|-------------------------------------------12--------------|
|-9rfb---------(9)~~~~~~(9)/13-(13)-------------------------|
|-----------------------------------------------14fb-----r--|
|-----------------------------------------------------------|
|-----------------------------------------------------------|
  no way i'd be smiling             ooh        smil  -  lin'

|----------------------------------------------------------------|
|-----------------------19----17-16-17---16~~~~----------19------|
|-----------------------------------------------18fb--18----r18--|
|-9/11\9~~~~~~~~-(9)/--------------------------------------------|
|----------------------------------------------------------------|
|----------------------------------------------------------------|

|--------------------------------------------------------------|
|----------------19--------------------------------------------|
|-16-18-16-18fb-----16----------16-----------------------------|
|---------------------------18------19fb-------~~~~~~~~~~~~~~~-|
|--------------------------------------------------------------|
|--------------------------------------------------------------|

A5                B5 G#5  F#5      G#5   A5  G#5 A5 G#5 A5             B5      E5
  sick of this life,     not that you'd care               i'm not the only one with
                      F#5 G5 G#5 A5
whom these feelings i share

----------------- Acordes -----------------
A = X 0 2 2 2 0
A5 = X 0 2 2 X X
B = X 2 4 4 4 2
B5 = X 2 4 4 X X
C#5 = X 4 6 6 X X
C#m = X 4 6 6 5 4
E = 0 2 2 1 0 0
E5 = 0 2 2 X X X
E6 = X X 2 4 2 4
Esus4 = 0 2 2 2 0 0
F# = 2 4 4 3 2 2
F#5 = 2 4 4 X X X
G#5 = 4 6 6 X X X
G#m = 4 6 6 4 4 4
G5 = 3 5 5 X X X
