Guns N' Roses - Mama Kin

Afinação Meio Tom Abaixo

Intro
|-----------|------------------------------------------------------| 
|-----------|------------------------------------------------------| 
|--x--x--x--|---9--9--9--9--9--------------------------------------| 
|--x--x--x--|---9--9--9--9--9----9--9--9--9--9----7--7--7--7--7----| 
|--x--x--x--|---7--7--7--7--7----9--9--9--9--9----7--7--7--7--7----| 
|-----------|--------------------7--7--7--7--7----5--5--5--5--5----| 


For the verses you play: (thanks Monica)
|-------------------------------------------------| 
|-------------------------------------------------| 
|-------------------------------------------------| 
|--2-2--4--2-2---5-4--2-2-4-2-2-------------------| 
|--2-2--4--2-2---5-4--2-2-4-2-2-------------------| 
|-------------------------------------------------| 


Chorus           Keepin' touch with mama kin...

|---------------|-----------------------------------| 
|---------------|-----------------------------------| 
|---------------|---------------------------9-------| 
|-----2--2--2---|---------------------9--9--9-------| 
|-----2--2--2---|---------------------9--9--7-------| 
|-----0--0--0---|---------------------7--7----------| 


Chords:
First verse:

E5            B5.                   A5                       E5.
it ain't easy livin' like a gypsy  tell ya honey how it feels

E5                  B5                      A5                            E5
i've been dreaming floatin' down stream and losin' touch with all that's real

                  B5                  A5                      E
whole lotta lover keepin' under cover never knowin' where you been

         E5                  B5                 A5
oo yeah  you've been fadin' always out paradin' keep in touch with mama

  E  F#5 G5 G#5   A5                            E5             A5
kin            you always got your tail on the wag    spittin' fire from your

               E5          F#5 G5 G#5    A5                    E5
mouth just like a drag - on         you act like a perpetual drag

   F#5
you better check it out cause someday soon you'll have to climb back on the

B5
wag - on.


 Guitar solo:
|-17--------17--------17--------17-17--------17--------17--------17--------17------- 
|----20p17-----20p17-----20p17--------20p17-----20p17-----20p17-----20p17-----20p17- 
|----------------------------------------------------------------------------------- 
|------------------------------------------------------------------------------------ 
|------------------------------------------------------------------------------------ 
|------------------------------------------------------------------------------------ 

|------------------------------------------------------------------------------17----20~~~| 
|-17h20p17----17h20p17----17h20p17----17------------------------------------17----17-19~~~| 
|----------20----------20----------20----20p19-17----19p17h18-19-17h18-17h18--------------| 
|-------------------------------------------------19--------------------------------------| 
|-----------------------------------------------------------------------------------------| 
|-----------------------------------------------------------------------------------------| 


Chords used : E5 => X799XX  B5 => 799XXX  F#5 => 244XXX  G5 => 355XXX  G#5 => 466XXX


---Zappp-----


----------------- Acordes -----------------
A5 = X 0 2 2 X X
B5 = X 2 4 4 X X
E = 0 2 2 1 0 0
E5 = 0 2 2 X X X
F#5 = 2 4 4 X X X
G#5 = 4 6 6 X X X
G5 = 3 5 5 X X X
