Guns N' Roses - Out Ta Get Me

Afinação Meio Tom Abaixo

---------|-----------------|---------------|----------------------------------
---------|-----------------|---------------|----------------------------------
--0--3-0-|--0--------------|-5--3---0-3-0--|----------------------------------
--0--3-0-|--0-----3-5-5----|-5--3---0-3-0--|----------------------------------
---------|--------3-5-5----|-3--1----------|----------------------------------
---------|-----3---------3-|---------------|----------------------------------
         __play 3 times___________________    the solo is below               

------------------------|----15--------------17b19-|------17b19-17b19-17b19|--
--18b20---18b20---18b20-|-------18b20rp15----------|------17----17----17---|--
------------------18b19-|-----------------17-------|-----------------------|--
------------------------|--------------------------|-----------------------|--
------------------------|--------------------------|-----------------------|--
------------------------|--------------------------|-----------------------|--



-17b18---17b18--------|--------------------------------|---|-----|------------
-17b18---17b18----17--|-17b19--17b19---17b19p15-----15-|---|-----|------------
------------------17--|-17b19--17b19---17b19p15-----15-|---|-----|------------
----------------------|-------------------------17-----|---|---5-|------------
----------------------|--------------------------------|---|---5-|------------
----------------------|--------------------------------|---|---3-|------------
                     verse

---------------|-----------------|------------|-----------------|-------------
---------------|-----------------|------------|-----------------|-------------
---------------|-5---5---3-0-3---|------------|-------------3---|-------------
---5-------5---|-5---5---3-0-3-5-|--3-5-----5-|-----5-------3-5-|-------------
---5-------5---|-3-3-3-3-1-----5-|--3-5-----5-|-----5---------5-|-------------
-3---3-3-3---3-|---------------3-|------3-3---|-3-3---3-3-3---3-|-------------


---------------|------------------|-------------|------------|--------------|-
---------------|------------------|-------------|------------|-----7-----5--|-
---------------|--5---5---3-0-3---|-------------|-5---4--5-6-|-7---7-----5--|-
---5-------5---|--5---5---3-0-3-5-|---3-5-----5-|-5---4--5-6-|-7-0---0-0--00|-
---5-------5---|--3-3-3-3-1-----5-|---3-5-----5-|-3---2--3-4-|-5------------|-
-3---3-3-3---3-|----------------3-|-------3-3---|------------|--------------|-
                          -

---------------------|---------------|----------------------------------------
-3-----1--0--1p0-----|---------------|----------------------------------------
-4-----2---------2p0-|-----5------3--|-x2-------------------------------------
---0-0---------------|-----5------3--|----------------------------------------
---------------------|-33333--33333--|----------------------------------------
---------------------|---------------|----------------------------------------
             play the last 3 bars above 4 times then intro riff for chorus    

-----------------------------|-----------------------------|------------------
--17b18--17b18--17b18--17b18-|-17b18--17b18-17-15-17-------|------------------
--17b19--17b19--17b19--17b19-|-17b19--17b19-17-15-17-------|------------------
-----------------------------|-----------------------17-15-|------------------
-----------------------------|-----------------------------|------------------
-----------------------------|-----------------------------|------------------


----------------------------------------|-------------------------------------
-17--17-15b16--------17--17-15b16-------|-------------------------------------
-17--17-15b16--------17--17-15b16-------|-------------------------------------
---------------17-15--------------17-15-|-------------------------------------
----------------------------------------|-------------------------------------
----------------------------------------|-------------------------------------
          x2                             play first 2 bars then go below      

--------------------------|-----------------------------15-------18b20-|------
-18b20--18-r15--18--15-18-|-17b18p15----15--------18b20----18p15-------|------
--------------------------|----------17---15---------------------------|------
--------------------------|-----------------17-15----------------------|------
--------------------------|--------------------------------------------|------
--------------------------|--------------------------------------------|------


---18-----181715----|-----18-----------------|-------15------------------|----
-----------------18-|-17---------------------|----------18---------------|----
--------------------|--------17b19p15-15--17-|-17b19-------17b19--15--17-|----
--------------------|------------------------|---------------------------|----
--------------------|------------------------|---------------------------|----
--------------------|------------------------|---------------------------|----


-------------------------------------|---15---------15----|-------18-------|--
----------------------18b20p0--15b17-|------15rb17-----15-|-18b20----18b19-|--
-17b19p15-17p15----------------------|--------------------|----------18b19-|--
----------------17p15----------------|--------------------|----------------|--
-------------------------------------|--------------------|----------------|--
-------------------------------------|--------------------|----------------|--
 hold the last bend in the first bar above for the whole next bar.            

----------------------------|-------------------|---------------------------|-
-------18-18-18-------17b18-|-17b18-------------|---------------------------|-
-17b19----------17r15-17b19-|-17b19----------17-|-17b18-17b18----17b18-17b18|-
----------------------------|----------17-17----|-------------19------------|-
----------------------------|-------------------|---------------------------|-
----------------------------|-------------------|---------------------------|-
 do the same again here.      all sorts of funny shit in these bends.         

-------15----15------15--------|-------------------------|-15b17-15-15b17-12|-
-15b17----15----15------15rp13-|-15-15b17-13-15-13-------|------------------|-
-------------------------------|-------------------14-12-|------------------|-
-------------------------------|-------------------------|------------------|-
-------------------------------|-------------------------|------------------|-
-------------------------------|-------------------------|------------------|-
 and again here.                                                              

-15b17--15b17rp12-----------------|---------------------------------------|---
------------------15b17-15b17rp13-|-1313----------------------------------|---
----------------------------------|------1412141412----1212---------------|---
----------------------------------|-----------------14------1412121210----|---
----------------------------------|------------------------------------12-|---
----------------------------------|---------------------------------------|---
                                     these notes are v.fast!!!.

---------------------------|---------------|----------|---------------|-------
---------------------------|---------------|--2b3r--0-|-5b6r-3--------|-------
---------------------------|-12------------|--2b3r--0-|-5b6r-3--------|-------
-10b11---------------10-12-|-1412-10-12/--|----------|---------0-3-0-|-------
--------12p10-12--12-------|---------------|----------|---------0-3-0-|-------
---------------------------|---------------|----------|---------------|-------


---------|-------------------|------------------------------------------------
-2b3r--0-|-12b13r--10--------|------------------------------------------------
-2b3r--0-|-12b14r--10--0-3-0-|------------------------------------------------
---------|-------------0-3-0-|-x2---------------------------------------------
---------|-------------------|------------------------------------------------
---------|-------------------|------------------------------------------------
  last four bars are repeated

---------------|--------13-----|----------------|-------------|------------|--
--12-----15----|-13-----16b18--|--12-----15-----|-13-----10---|-12----15---|--
--14b16--17b19-|-15b17---------|--14b16--17b19--|-15b17--13b15|-14b16-17b19|--
---------------|---------------|----------------|-------------|------------|--
---------------|---------------|----------------|-------------|------------|--
---------------|---------------|----------------|-------------|------------|--


---------13------|--------------|-13------15-----|----------------------------
-13------16b18---|-12-----15----|-16b18---18b20--|----------------------------
-15b17-----------|-14b16--17b19-|----------------|----------------------------
-----------------|--------------|----------------|----------------------------
-----------------|--------------|----------------|----------------------------
-----------------|--------------|----------------|----------------------------
    improvise the ending solo..slash did!. jam in G dorian.                   

----------------- Acordes -----------------
