Guns N' Roses - You Ain't The First

Afinação Meio Tom Abaixo

Intro:
E|-----------------------------------------------------------------------------|
B|--7/9-12-14-7b(8)-2-0-2-5-7-5---7/9-12-14-7b(8)--2-0-2-5-7-5-----------------|
G|-----------------------------------------------------------------------------|
D|-----------------------------------------------------------------------------|
A|-----------------------------------------------------------------------------|
E|-----------------------------------------------------------------------------|

Verso:
I tried so hard.... But your head's so far from the realness of truth
E|-----------------------------------------------------------------------------|
B|--7/9-12-14-7b(8)-2-0-2-5-7-5---7/9-12-14-7b(8)--2-0-2-5-7-5-----------------|
G|-----------------------------------------------------------------------------|
D|-----------------------------------------------------------------------------|
A|-----------------------------------------------------------------------------|
E|-----------------------------------------------------------------------------|

Was it just a come on in the dark... I think you've worn your welcome honey...
E|-------------------------------------------------------------------------------|
B|--12b(14)r12-9p7-9p7-9p7-5-2-0-2-5-7-5--12b(14)r12-9p7-9p7-9p7-5-2-0-2-5-7-5---|
G|-------------------------------------------------------------------------------|
D|-------------------------------------------------------------------------------|
A|-------------------------------------------------------------------------------|
E|-------------------------------------------------------------------------------|


E|---------------------------------------------------------------------------|
B|--9-5----------------------------------------------------------------------|
G|---------------------------------------------------------------------------|
D|---------------------------------------------------------------------------|
A|---------------------------------------------------------------------------|
E|---------------------------------------------------------------------------|

E|-----12----------------------------------------------------------------------|
B|--12-----12-11-10------------------------------------------------------------|
G|-----------------------------------------------------------------------------|
D|-----------------------------------------------------------------------------|
A|-----------------------------------------------------------------------------|
E|-----------------------------------------------------------------------------|

E|--9p7----------------------------------------------------------------------|
B|------8h9------------------------------------------------------------------|
G|---------------------------------------------------------------------------|
D|---------------------------------------------------------------------------|
A|---------------------------------------------------------------------------|
E|---------------------------------------------------------------------------|

E|-----------------------------------------------------------------------------|
B|--0-0h1-1h2-2h4--0-0h1-1h2-2h4-----------------------------------------------|
G|-----------------------------------------------------------------------------|
D|-----------------------------------------------------------------------------|
A|-----------------------------------------------------------------------------|
E|-----------------------------------------------------------------------------|

so look for me walkin' down your street at night
E|-----------------------------------------------------------------------------|
B|--5-5/9-9-9-7-5h7------------------------------------------------------------|
G|-----------------------------------------------------------------------------|
D|-----------------------------------------------------------------------------|
A|-----------------------------------------------------------------------------|
E|-----------------------------------------------------------------------------|

I'll be in with another, deep down inside
E|-----------------------------------------------------------------------------|
B|--0-0h1-1h2-2h4----4/12------------------------------------------------------|
G|-----------------------------------------------------------------------------|
D|-----------------------------------------------------------------------------|
A|-----------------------------------------------------------------------------|
E|-----------------------------------------------------------------------------|

DEEP DOWN INSIDE
E|-----------------------------------------------------------------------------|
B|--10-9-7-5-------------------------------------------------------------------|
G|-----------------------------------------------------------------------------|
D|-----------------------------------------------------------------------------|
A|-----------------------------------------------------------------------------|
E|-----------------------------------------------------------------------------|

Outra parte:
E|-------------12------------------------12-----------------------12-----------|
B|--9h10-9/10-----9h10-8-5--9h10-9/10----9h10-8-5--9h10-9/10-----13h14-12------|
G|-----------------------------------------------------------------------------|
D|-----------------------------------------------------------------------------|
A|-----------------------------------------------------------------------------|
E|-----------------------------------------------------------------------------|

E|------------------------12---------------------------------------------------|
B|--9h10-8-5--9h10-9/10-----13h14-12--9h10-8-5--9h10-8-5-----------------------|
G|-----------------------------------------------------------------------------|
D|-----------------------------------------------------------------------------|
A|-----------------------------------------------------------------------------|
E|-----------------------------------------------------------------------------|

E          A             E              A
I tried so hard just to get through to you
E                   A
But your head's so far
          E           A
from the realness of truth
E                      A
Was it just a come on in the dark
        E             A
Wasn't meant to last long
E                         A
I think you've worn your welcome honey
           E          A                 G6     E
I'll just see you along as I sing you this song

E              A
Time can pass slowly,
E              A
things always change
E               A
You day's been numbered
E                        A
And I've read your last page
E                    A
You was just a temporary lover
        E            A
Honey you ain't the first
E                     A
Lots of others came before you woman
        E               A
Said but you been the worst
                  G6   E
Sa' you been the worst

   E          G#
So goodbye to you girl
 A         B
So long, farewell
E               G#
I can't hear you cryin'
A                  B
Your jivin's been hell
  E             G#
So look for me walkin'
      A              B
Down your street at night
  E              G#
I'll be in with another
 A          B
Deep down inside
A            G6   E
DEEP DOWN INSIDE

----------------- Acordes -----------------
A = X 0 2 2 2 0
B = X 2 4 4 4 2
E = 0 2 2 1 0 0
G# = 4 3 1 1 1 4
G6 = 3 X 2 4 3 X
