Roberto Carlos - Detalhes

(intro)  A  A7M A A7M A#º

    A     A7M       A     A7M   A#º
E|-----0-------0-------0--------------------|
B|---2-------2-------2-------2--------------|
G|-2-----1---------2-----1-----0------------|
D|-----------------------------2------------|
A|-0-------0-------0-------0---1------------|
E|------------------------------------------|

Bm7             E7
   Não adianta nem tentar
A  A7M  A  A7M  A#º
     me esquecer
Bm7                      E7
   durante muito, muito tempo em sua vida,
A  A7M  A  A7M  A#º
    eu vou viver.
Bm7          E7
   Detalhes tão pequenos de nós dois
A A7M  A             A7M     A#º
  são coisas muito grandes prá esquecer
Bm7                     G
   e a toda hora vão estar presentes,
   E            E7
você vai ver.

Bm7                 E7
   Se um outro cabeludo aparecer
A  A7M  A    A7M  A#º
    na sua rua
Bm7                E7
   e isto lhe trouxer saudades minhas,
A  A7M  A        A7M  A#º
     a culpa é sua.
Bm7              E7
   O ronco barulhento do seu carro
A           A7M         A               A7M  A#º
   A velha calça, desbotada ou coisa assim
Bm7               G            E         E7
   Imediatamente você vai lembrar de mim.

Bm7                            E7
   Eu sei que um outro deve estar falando
A  A7M  A       A7M  A#º
    ao seu ouvido
Bm7              E7
   Palavras de amor como eu falei,
A  A7M  A       A7M  A#º
    mas eu duvido.
Bm7                E7
   Duvido que ele tenha tanto amor
A          A7M           A          A7M  A#º
  e até os erros do meu português ruim
Bm7              G             E         E7
   E nessa hora você vai, lembrar de mim.

Bm7                  E7
    E à noite, envolvida no silêncio
A  A7M  A          A7M  A#º
       do seu quarto
Bm7             E7
   Antes de dormir você procura
A  A7M  A      A7M  A#º
     o meu retrato
Bm7                       E7
   mas da moldura não sou eu quem lhe sorri
A         A7M            A            A7M  A#º
   Mas você vê o meu sorriso mesmo assim
Bm7                   G                 E          E7
   e tudo isto vai fazer você      lembrar de mim.

Bm7                     E7
   Se alguém tocar seu corpo como eu
A  A7M  A      A7M  A#º
   não diga nada.
Bm7                  E7
   Não vá dizer meu nome, sem querer
A  A7M  A       A7M  A#º
  à pessoa errada.
Bm7               E7
   Pensando ter amor nesse momento
A            A7M            A    A7M  A#º
   desesperada você tenta até o fim
Bm7               G
   e até nesse momento, você vai
     E             E7
lembrar de mim.

Bm7                    E7
   Eu sei que esses detalhes vão sumir
A  A7M  A  A7M  A#º
    na longa estrada
Bm7                   E7
   do tempo que transforma todo amor
A  A7M  A       A7M  A#º
    em quase nada.
Bm7              E7
   Mas quase também é mais um detalhe
A              A7M     A            A7M  A#º
   um grande amor não vai morrer assim

    Bm7                          G
por isso é que de vez em quando você vai
E       E7
   lembrar de mim.

Bm7             E7
   Não adianta nem tentar
A A7M A     A7M  A#º     Bm7  E7  A
   me esquecer...

----------------- Acordes -----------------
A = X 0 2 2 2 0
A#º = X 1 2 0 2 0
A7M = X 0 2 1 2 0
Bm7 = X 2 4 2 3 2
E = 0 2 2 1 0 0
E7 = 0 2 2 1 3 0
G = 3 2 0 0 0 3
