Roberto Carlos - Esperando Você

Intro:

E|-----------------|---------------|------------------|
B|-----------------|---------------|------------------|
G|-----------------|---------------|------------------|
D|-----------------|---------------|------------------|
A|--8-10-10h12-10-8|----5--8-------|--8/10-8-10-12-8--|
E|-----------------|--6-------6--8-|------------------|

E|-----------------|---------------|-------------------|
B|-----------------|---------------|-------------------|
G|-----------------|---------------|-------------------|
D|-----------------|---------------|-------------------|
A|--8-10-10h12-10-8|----5--8-------|-8h10--8-7--7h8----|
E|-----------------|--6-------6--8-|-------------------|

F
 Não sei porque acreditei
 Quando você me prometeu
          C7
 Logo voltar
 Fiquei feliz até pensei
                              F
 Agora então não vou mais chorar
 Mas quanto tempo já se passou
                               C7
 E esperando por você ainda estou
 Já fiz promessa e oração
 Pedi aos anjos
                          F   F7
 Que guardassem o nosso amor
           Bb          Db           F E Eb D7
 Mas finalmente eu cheguei a conclusão
            Gm         C7           F  F7
 Que consegui meu coração tranquilizar
          Bb         Db           F  E Eb  D7
 Que se você me ama logo vai voltar
           Gm          C7             F
 E em tristezas nunca mais eu vou pensar

E|---------------------|------------------|
B|---------------------|------------------|
G|---------------------|------------------|
D|---------------------|------------------|
A|--8-10--8-----5------|--8/10-8-10-12-8--|
E|-----------6----6-8--|------------------|

E|-----------------|---------------|------------------|
B|-----------------|---------------|------------------|
G|-----------------|---------------|------------------|
D|-----------------|---------------|------------------|
A|--8-10-10h12-10-8|----5--8-------|--8h10-8-7-7h8----|
E|-----------------|--6-------6--8-|------------------|

----------------- Acordes -----------------
Bb = X 1 3 3 3 1
C7 = X 3 2 3 1 X
D7 = X X 0 2 1 2
Db = X 4 6 6 6 4
E = 0 2 2 1 0 0
Eb = X 6 5 3 4 3
F = 1 3 3 2 1 1
F7 = 1 3 1 2 1 1
Gm = 3 5 5 3 3 3
