Harmonia do Samba - Tic Nervoso

G                  Am        D7
Essa menina tem um tic nervoso
G                  Am        D7
Escuta um solinho e começa a mexer o corpo
G                  Am        D7
Até dentro de casa seu tic nunca para
G                  Am                   D7
No final de semana é muito volume na caixa
G                  Am        D7
Afasta a cadeira e o sofá só não pede pra parar
G                  Am        D7
Quebradeira é o seu dom dom dom dom dom dom dom
G                  Am        D7
1, 2, 3 Eu vou contar prepare pra empinar
G                  Am        D7
Atenção ai meninas
G               D7
1, 2, 1, 2, 3 Joga
G
Joga vai jogando assim
Am        D7
Joga vai jogando assim

G
Joga vai jogando assim
Am        D7
Jogando o bumbum pra cima
G
Vai jogando assim impina
Am        D7
Vai jogando assim impina
G                  Am   D7
Vai jogando assim impina

----------------- Acordes -----------------
Am = X 0 2 2 1 0
D7 = X X 0 2 1 2
G = 3 2 0 0 0 3
