Harmonia do Samba - Vitamina de Brasil

[Intro]  D  Em  D  G

 D                                                       Em
Vem nesse bonde tudo é festa e harmonia pode vim pode chegar
                            D                                                   G
Está tudo preparado o show já vai começar, e nesse embalo sei que vou a mais de 100
D                                                       Em
Se eu tô contigo se comigo meu amigo vamos  nessa seja homem
                            G  F#m  Em  D  D          G
Nessa vida que levamos se correr o bicho ppppeegggga........ e se ficar o bicho come
 D                                              Em
Botei no liquide, liquide, liquide, liquidi liquidificador,
                                       D
sei que com muito carinho o meu samba ecôo
                          G
De lá eu pode ouvir você cantar
 D                                     Em
Botei no liquide, liquide, liquide, liquidi liquidificador,
                                        D
sei que com muito carinho o meu samba ecôo
                            G
De lá eu pode ouvir, você cantar


 D                                                      Em
Vem nesse bonde tudo é festa e harmonia pode vim pode chegar,
                                 D                                            G
Está tudo preparado o show já vai começar, e nesse embalo sei que vou a mais de 100
 D                                                   Em
Se eu tô contigo se comigo meu amigo vamos nessa seja homem
                          G  F#m  Em  D  D              G
Nessa vida que levamos se correr o bicho     ppppeegggga.....e se ficar o bicho come
   D                                                   Em
Botei no liquide, liquide, liquide, liquidi liquidificador,
                                       D
sei que com muito carinho o meu samba ecôo
                           G
De lá eu pode ouvir você cantar
D                                    Em
Botei no liquide, liquide, liquide, liquidi liquidificador,
                                        D
sei que com muito carinho o meu samba ecôo
                           G
De lá eu pode ouvir, você cantar

Rap Falando:  "Bote a Bahia, e o Rio de Janeiro, um pouquinho
de São Paulo, pitadinha de mineiro, o pote está cheio é melhor ligar,
Vitamina de Brasil, aaaahhhh, deixar  eu tomar"
D                                     Em
Botei no liquide, liquide, liquide, liquidi liquidificador,
                                        D
sei que com muito carinho o meu samba ecôo
                            G
De lá eu pode ouvir você cantar
    D                                          Em
Botei no liquide, liquide, liquide, liquidi liquidificador,
                                       D
sei que com muito carinho o meu samba ecôo
                            G
De lá eu pode ouvir, você cantar

----------------- Acordes -----------------
D = X X 0 2 3 2
Em = 0 2 2 0 0 0
F#m = 2 4 4 2 2 2
G = 3 2 0 0 0 3
