Chico Buarque - Samba de Orly

E|---------0-|---0-0---2-2-|---2---2-4-|---5-4-----0-|---------0-2-|---3-2---0---|
B|-2-2---2-2-|---2-2-----2-|---2---2-4-|---------7---|---0-0---0-2-|-----------3-|
G|-1-1---1-2-|---2-2-----2-|---2---2-5-|-------------|-----------3-|-------------|
D|-2-2---2---|-------------|-----------|-------------|---6-6---6---|-------------|
A|-0---------|-0-----------|-6---6-----|-------------|-4-----------|-------------|
E|-----0-----|-------0-----|-----------|-4-----4-----|-------4-----|-2-----2-----|

E|---------------|-------------|---------0-|-----------|-------5-5-|---4-2---0---|
B|-----0---0--0--|---------0---|-----------|---2-------|-------2-2-|-----------4-|
G|---0-----0--0--|---7-6-----2-|-------2---|---4---4-2-|-------2-2-|-----------4-|
D|---------12-11-|-------------|---4-------|---3-------|---4-------|-----------4-|
A|---------------|-0-----------|-5---5-----|-----------|-----------|-------------|
E|-0-----0-------|-------0-----|-----------|-3---3-----|-2---2-----|-2-----2-----|

E|---------5-5-|---4-2---0---|---0-------|-----------|---------0-|---0---2-2-|
B|---------4-4-|-----------3-|---------2-|---2---1-2-|---2---2-2-|---2-----2-|
G|---4-4---4-4-|-----------2-|-------2-1-|---1---1-1-|---1---1-2-|---2-----2-|
D|---4-4-------|-4---------3-|-----4---0-|---0---0-2-|---2---2---|-----------|
A|-6-----6-----|-------0-----|-2---------|-----------|-0---------|-0---------|
E|-------------|-------------|-----------|-0---0-----|-----0-----|-----0-----|


E|---2---2-4-|---5-4-----0-|---------0-2-|---3-2---0-0-|---------5-|---5---0---|
B|---2---2-4-|---------7---|---0-0---0-2-|-----------0-|-----------|---7-----2-|
G|---2---2-5-|-------------|-----------3-|-----------0-|---7-6-7---|---6-----2-|
D|-----------|-------------|---6-6---6---|-------------|-----------|---------0-|
A|-6---6-----|-------------|-4-----------|-------------|-----------|-0---0-----|
E|-----------|-4-----4-----|-------4-----|-2-----2-----|-0---------|-----------|

E|---------|-5-5-5---0---|-----------3-|---3-3-------|---------0-|---0-------|
B|---0---0-|-3-3-3-----3-|---2-1---2-3-|---3-3-----2-|---0---0-2-|---2---2-0-|
G|-----3---|-4-4-4-----3-|-----------3-|---3-3---3-2-|-----3---1-|---1-------|
D|---------|-3---------2-|-------------|-------------|-0---------|-----------|
A|---------|-------0-----|-------------|-7-----7-----|-----------|-----------|
E|-2-------|-------------|-2-----2-----|-------------|-----------|-0---0-----|

E|---------5-|---5-5---0---|---------5-|---5---0---|---------3-|---3-------|
B|---------7-|---7-7---2-2-|---0---0-3-|---3-----3-|---2---2-3-|---3-----2-|
G|---------6-|---6-6-----2-|-----3---4-|---4-----3-|---3-5---3-|---3---3-2-|
D|---7-6-7---|-------------|-1---------|-3---------|-----------|-----------|
A|-0---------|-0-----0-----|-----------|-----0-----|-----------|-7---7-----|
E|-----------|-------------|-----------|-----------|-2---------|-----------|

E|---------0-|---0-------|-----------|---------|------|------|
B|---0---0-2-|---2---2-0-|---0---0---|---------|-2----|------|
G|-----3---1-|---1-------|---1---1-2-|---2---2-|-1----|------|
D|-0---------|-----------|---------2-|---2---2-|-2----|------|
A|-----------|-----------|-0---0-----|-0-------|-0----|------|
E|-----------|-0---0-----|-----------|-----0---|------|------|

----------------- Acordes -----------------
