Adoniran Barbosa - Bom Dia Tristeza

[intro]

   Em7(9)                 G7                 C#4(7) 
E|-----------------2-0-------------3-5-3-------------------|
B|--------0-2-3---3----3---------3-------3--------7-7------|
G|------0--------0-------------4----------------4-----4----|
D|----2---------2------------3-------------3--6--------6---|
A|--------------------------5----------------4-----------4-|
E|-0----------------------3--------------------------------|

   F#7              Bm       
E|----------2---------------2------------------------------|
B|--------2---2-----------3--------------------------------|
G|------3-------3-------4----------------------------------|
D|----2-----------2---4------------------------------------|
A|------------------2--------------------------------------|
E|-2-------------------------------------------------------|

              Bm
Bom dia tristeza
Em7(9)        Bm
Que tarde tristeza

    Bm/A   G7      C#4(7)
Você veio hoje me ver
      G7    F#7
Já estava ficando
  G7      Em7(9)
Até meio triste
    F#7
De estar tanto tempo
           Bm  B7/Eb
Longe de você
             Em7     A7
Se chegue, tristeza
           D7M
Se sente comigo
   G7              F#7  B7/Eb
Aqui nessa mesa de bar
             Em7(9)
Beba do meu copo
   F#7      Bm    Bm/A
Me dê o seu ombro
    G7   C#4(7)    F#7
Que é para eu chorar
           G7     F#7
Chorar de tristeza
              Bm
Tristeza de amar

----------------- Acordes -----------------
A7 = X 0 2 0 2 0
B7/Eb = X X 1 2 0 2
Bm = X 2 4 4 3 2
Bm/A = X 0 4 4 3 X
C#4(7) = X 4 4 6 0 X
D7M = X X 0 2 2 2
Em7 = 0 2 2 0 3 0
Em7(9) = X 7 5 7 7 X
F#7 = 2 4 2 3 2 2
G7 = 3 5 3 4 3 3
