Parangolé - Na Chapa

Intro: A

                    A        F#m        Bm
Tec tec nori tecnologia é o parambo da Bahia
 E7             A           F#m        Bm
Escute a  swingueira e vai cercando a madeira
E7            A                 F#m       Bm      E7 A F#m Bm E7
Esse é meu dilema eu gosto é de criar problema ma ma
A          F#m    Bm       E7
E pega ela aí,  pega ela aí, vai
A        F#m     Bm      E7
E pega ela aí,  pega ela aí, vai
 A           F#m     Bm           E7
Chama ela na chapa chama que ela vem
 A           F#m     Bm           E7
E chama ela na chapa chama que ela quer
   A           F#m     Bm       E7
E chama ela na chapa senta na biriba
 A             F#m         Bm           E7
E chama ela na chapa chama chama essa mulher


 A           F#m     Bm           E7
Chama ela na chapa chama que ela vem
 A           F#m     Bm           E7
E chama ela na chapa chama que ela quer
   A           F#m     Bm       E7
E chama ela na chapa senta na biriba
 A             F#m         Bm           E7
E chama ela na chapa chama chama essa mulher

A         F#m     Bm          E7
Joga de ladinho e joga o pescocinho
A         F#m     Bm          E7
Joga de ladinho e joga o pezinho
A         F#m     Bm          E7
Joga de ladinho e joga um montinho
A         F#m         Bm          E7
Joga de ladinho joga joga esse pezinho

A         F#m     Bm          E7
La vem o pacotão segure o porradão
A         F#m     Bm       E7
Maluco e maluca mora na muvuca
A               F#m         Bm          E7
Não tô pra brincadeira, não tô fazendo graça
A         F#m     Bm           E7
Prepara a moçada pra chamar na chapa

 A           F#m     Bm           E7
Chama ela na chapa chama que ela vem
 A           F#m     Bm           E7
E chama ela na chapa chama que ela quer
   A           F#m     Bm       E7
E chama ela na chapa senta na biriba
 A             F#m         Bm           E7
E chama ela na chapa chama chama essa mulher

 A           F#m     Bm           E7
Chama ela na chapa chama que ela vem
 A           F#m     Bm           E7
E chama ela na chapa chama que ela quer
   A           F#m     Bm       E7
E chama ela na chapa senta na biriba
 A             F#m         Bm           E7
E chama ela na chapa chama chama essa mulher

( A  F#m  Bm  E7 ) (2x)

A      F#m          Bm         E7        F#m
Mas se você quer alegria vem curtir Parangolé
           Bm               E7             A
Swing é diferente eu vou mostrar como é que é
   F#m    Bm       E7         F#m
Se ligue parede na idéia do momento
            Bm          E7         A      F#m  Bm  E7
Chama ela na chapa pra fazer o movimento

 A           F#m     Bm           E7
Chama ela na chapa chama que ela vem
 A           F#m     Bm           E7
E chama ela na chapa chama que ela quer
   A           F#m     Bm       E7
E chama ela na chapa senta na biriba
 A             F#m         Bm           E7
E chama ela na chapa chama chama essa mulher

 A           F#m     Bm           E7
Chama ela na chapa chama que ela vem
 A           F#m     Bm           E7
E chama ela na chapa chama que ela quer
   A           F#m     Bm       E7
E chama ela na chapa senta na biriba
 A             F#m         Bm           E7
E chama ela na chapa chama chama essa mulher

( A  F#m  Bm  E7 ) (2x)

----------------- Acordes -----------------
A = X 0 2 2 2 0
Bm = X 2 4 4 3 2
E7 = 0 2 2 1 3 0
F#m = 2 4 4 2 2 2
