Adão Negro - Na Paz de Jah

Riff:
E|---------------------|
B|---------------------|
G|----------6----------|
D|-7-7-7--9---7-9------|4x
A|-----------------7-7-|
E|---------------------|

A E
Dreadlocks can''t live in a tenement yard (4x)
A E
Too much su-su-su-su-su, too much what, what you are (2x)

Viva a vida como tem que ser
Faça não espere acontecer
Fique feliz encontre a paz de Jah
Seja feliz encontre a paz de Jah
Hoje eu to feliz
Hoje estou na paz de Jah
Paz de Jah!
A E
Dreadlocks can''t live in a tenement yard (4x)

A E
Too much su-su-su-su-su, too much what, what you are (2x)

Viva a vida como tem que ser
Faça não espere acontecer
Fique feliz encontre a paz de Jah
Seja feliz encontre a paz de Jah
Hoje eu to feliz
Hoje estou na paz de Jah
A E
Na paz de Deus eu caminho à vontade
Na paz de Deus eu caminho à vontade
Na paz de Deus eu caminho à vontade
Na paz de Deus eu caminho à vontade

----------------- Acordes -----------------
A = X 0 2 2 2 0
E = 0 2 2 1 0 0
