Adão Negro - Nada não

(A Bm)
Não tem nada não
É simples como o meu coração
Não tem nada não
É simples como o coraçõ do povão

(A Bm)
Guitarra faz assim
Keyboard faz assim, ô now
O baixo faz assim
Batera faz assim, ô now

E|--------------|---------
B|--------------|---------
G|-6-2-----2/4--|--4/2----
D|-----4-4------|---------
A|--------------|---------
E|--------------|---------

----------------- Acordes -----------------
A = X 0 2 2 2 0
Bm = X 2 4 4 3 2
