Zezé Di Camargo e Luciano - Eu Tô Na Pista, Eu Tô Solteiro

Intro: D A G A

D
É doce mel Azul do céu
                                  A
É tão gostosa e só me da muita alegria

No coracão só emocão
                                  D G
Eu penso nela dia e noite todo dia
D
Ja me falaram me aconselharam
D7                               G
Pra eu parar de viver pensando assim

Mais isso é tudo de bom
                      D
Nao vou trocar meu vidão
         A              G             D
Por uma só que vai querer mandar em mim


D                                                A
Eu tô na pista eu tô solteiro e chega ai quem quizer
                                                  D
Meu coracão tá pra negocio só não faz quem não quer
                                          A
Mulher bonita e cheirosa a pressão vai a mil
               G             A          D
Se eu pudesse namorava todas do meu Brasil
D                                                A
Eu tô na pista eu tô solteiro e chega ai quem quizer
                                                  D
Meu coracão tá pra negocio só não faz quem não quer
                                          A
Mulher bonita e cheirosa a pressão vai a mil
               G             A          D
Se eu pudesse namorava todas do meu Brasil

(Repete tudo)

----------------- Acordes -----------------
A = X 0 2 2 2 0
D = X X 0 2 3 2
D7 = X X 0 2 1 2
G = 3 2 0 0 0 3
