Cássia Eller - Luz Dos Olhos

Intro 4x: Am  D9/F#

Primeira Parte:

 Am                 Am7/G   D9/F#
Ponho os meus olhos em você
      Am     C/G  D9(11)/A
Se você está
 Am                 Am7/G  D9/F#
Dona dos meus olhos é você
   Am       C/G  D9(11)/A
Avião no ar
 Am                  Am7/G     D9/F#
Dia pra esses olhos sem te ver
           Am        C/G  D9(11)/A
É como o chão do mar
 Am                  Am7/G  D9/F#
Liga o rádio a pilha à TV
          F7M/C  G6/D
Só pra você escutar
F7M/C                       G6/D
      A nova música que eu fiz agora

F7M/C                  G6/D
      Lá fora a rua vazia chora

Intro 2x: Am  D9/F#

Segunda Parte:

Am                   Am7/G     D9/F#
Os meus olhos vidram ao te ver
          Am         C/G  D9(11)/A
São dois fãs, um par
 Am                   Am7/G   D9/F#
Pus no olhos vidros pra poder
          Am       C/G  D9(11)/A
Melhor te enxergar
 Am                       Am7/G  D9/F#
Luz nos olhos para anoitecer
        Am        C/G  D9(11)/A
É só você se afastar
Am                       Am7/G  D9/F#
Pinta os lábios para escrever
       F7M/C   G6/D
A tua boca em mim
F7M/C                        G6/D
      Que a nossa música eu fiz agora
F7M/C                    G6/D
      Lá fora a lua irradia a glória

Refrão:

     Am          Am7/G  D9/F#
E eu    te chamo
      Am          C/G  D9(11)/A
Eu te    peço vem
 Am                Am7/G  D9/F#
Diga que você me quer
               Am         C/G  D9(11)/A
Porque eu te quero também

Terceira Parte:

G  Am
G
  Faço as pazes lembrando

Passo as tardes tentando
          Am
Te telefonar
G
  Cartazes te procurando

Aeronaves seguem pousando
                  Am
Sem você desembarcar
F7M/C            G6/D
Pra eu te dar a mão nessa hora
F7M/C                     G6/D
      Levar as malas pro Fusca lá fora

Refrão Final:
         Am         Am7/G  D9/F#
E eu vou    guiando
      Am            C/G  D9(11)/A
Eu te    espero vem
 Am                  Am7/G  D9/F#
Siga aonde vão meus pés
              Am         C/G  D9(11)/A
Porque eu te sigo também

   Am        Am7/G  D9/F#
Eu    te amo
      Am          C/G  D9(11)/A
Eu te    peço vem
 Am                Am7/G  D9/F#
Diga que você me quer
               Am         C/G  D9(11)/A
Porque eu te quero também

Am

----------------- Acordes -----------------
Am = X 0 2 2 1 0
Am7/G = 3 X 2 0 1 0
C/G = 3 3 2 0 1 0
D9(11)/A = 5 5 4 0 3 0
D9/F# = 2 X 0 2 3 0
F7M/C = X 3 3 2 1 0
G = 3 2 0 0 3 3
G6/D = X 5 5 4 3 0
