Pitty - 20 Passos


   E                            C7m
Da janela ao corredor 20 passos

Um cigarro, a mesma cor
              E
Um dia pra gastar
                                                  C7m
Quantas portas pra fechar lavar o cheiro e o gosto

Foi sem hora pra voltar
A                               E
Feche os olhos quando eu for mostrar o meu mundo pra você que está sempre aqui
   A                    A9    E
Em tudo o que existe ao meu redor

----------------- Acordes -----------------
A = X 0 2 2 2 0
A9 = X 0 2 2 0 0
E = 0 2 2 1 0 0
