Pitty - Déjà Vu

[Intro]

[Riff 1]

E|--------------------------------------------------------------------------|
B|---0---0----0---0---0---0----0---0---0---0---0---0---0---0-------0-p1-0---|
G|---------------------------------------------------------------0----------|
D|-2---2---0----0-----------------------------------------------------------|
A|------------------3---3---0----0-------------------0---0---3--------------|
E|-----------------------------------0---0---3---3--------------------------|

E|-------------------------------------0---------0--------0-----------------|
B|---0---0----0---0---0---0----0---0-----0---------0--------0--------0-p1-0-|
G|-----------------------------------------0---------0--------0----0--------|
D|-2---2---0----0-----------------------------------------------------------|
A|------------------3---3---0----0----------------------0-------3-----------|
E|-----------------------------------0--------3-----------------------------|

[Riff 1]
Nenhuma verdade me machuca
Nenhum motivo me corrói

Até se eu ficar só na vontade, já não dói
Nenhuma doutrina me convence
Nenhuma resposta me satisfaz
Nem mesmo o tédio me surpreende mais

 D             Em
Mas eu sinto que eu tô viva
D             Em            C       Cm   [Riff 2]     G
A cada banho de chuva que chega molhando o meu corpo nu


E|-3-3-2-2-5-5-3-3-0-0------0-0---3-2-|
B|--0-0-0-0-0-0-0-0-0-0---1-1-0-0-0---|
G|------------------------------------|
D|------------------------------------|
A|------------------------------------|
E|------------------------------------|

[Riff 1]
Nem um sofrimento me comove
Nem um programa me distrai
Eu ouvi promessas e isso não me atrai
E não há razão que me governe
Nenhuma lei pra me guiar
Eu tô exatamente aonde eu queria estar

 D             Em
Mas eu sinto que eu tô viva
D             Em            C       Cm   [Riff 2]  G
A cada banho de chuva que chega molhando o meu corpo

D             Em
A minha alma nem me lembro mais
D               Em
Em que esquina se perdeu
C          Cm    [Riff 3]  G
Ou em que mundo se      enfiou
                  Am   C
Mas já faz algum tempo
              Am    C
Já faz algum tempo
              Am    Cm
Já faz algum tempo
           G
Faz algum tempo

[Solo]

        Am       Em    Am       Em    Am    Cm     G
E|----7/8-7-------7/8-7------7/8-7------7-11--14/15-15r---|
B|----------10r---------10r--------10r--------------------|
G|--------------------------------------------------------|
D|--------------------------------------------------------|
A|--------------------------------------------------------|
E|--------------------------------------------------------|

D             Em
A minha alma nem me lembro mais
D               Em
Em que esquina se perdeu
C          Cm    [Riff 3]  G
Ou em que mundo se      enfiou
                   Am   C
Mas eu não tenho pressa
               Am    C
Já não tenho pressa
               Am    Cm
Eu não tenho pressa
            G
Não tenho pressa

[Riff 2]

E|---------------------------------------------|
B|---------------------------------------------|
G|--5-5-5-5/8-8-8-8/12-12-12-12/16-16-16-16-16-|
D|--x-x-x-x-x-x-x-x-x--x--x--x--x--x--x--x--x--|
A|--3-3-3-3/6-6-6-6/10-10-10-10/14-14-14-14-14-|
E|---------------------------------------------|

[Riff 3]

E|---------------------------------------------|
B|---------------------------------------------|
G|--5-5-5-5/8-8-8-8/12-12-12-12----------------|
D|--x-x-x-x-x-x-x-x-x--x--x--x-----------------|
A|--3-3-3-3/6-6-6-6/10-10-10-10----------------|
E|---------------------------------------------|

----------------- Acordes -----------------
Am = X 0 2 2 1 0
C = X 3 2 0 1 0
Cm = X 3 5 5 4 3
D = X X 0 2 3 2
Em = 0 2 2 0 0 0
G = 3 2 0 0 0 3
