Pitty - Equalize

[INTRO]

E|-----------------------------------------------------------------|
B|---------------------------------------------------7---7---------|
G|-------------7-------------7-----------------7-----7-----7---7---|
D|-----------9-----------------9-------------9-------7-------7-----|
A|--7--9--10--------7--9--10--------7--9--10---------5-------------|
E|-------------------------------------------------------------------|

E|--------------------------------------------------------|
B|---------------------------------------------------7----|
G|-------------7-------------7-----------------7-----7----|
D|-----------9-----------------9-------------9-------7----|
A|--7--9--10--------7--9--10--------7--9--10---------5----|
E|--------------------------------------------------------|


[VERSO 1]

E|----------------------------7---------------------|
B|--------------------------------------------------|
G|------------------------7-------------------------|
D|---12-----9-------9---9---9-----------------------|
A|---12-----9-------9-------------------------------|
E|---10-----11------7-------------------------------|


E|---------------------------------------------------------------|
B|----------10----8------------------------10--------------------|
G|------9------9----9--------------11------------------------11--|
D|----9---9-----------9----------------11-----------------12-----|
A|--7---------------------7/9---9----------------------12--------|
E|-0------------------------------------------------10-----------|

E|----------------------------7--------------------|
B|-------------------------------------------------|
G|------------------------7------------------------|
D|---12-----9-------9---9---9----------------------|
A|---12-----9-------9------------------------------|
E|---10-----11------7------------------------------|

E|-------------------------------------------------|
B|----------10----8------------------------10------|
G|------9------9----9--------------11--------------|
D|----9---9-----------9----------------11----------|
A|--7---------------------7/9---9------------------|
E|-0-----------------------------------------------|

E|-------------------------------------------------|
B|-------------------------------------------------|
G|---------12----------------14--------------------|
D|------12----12---------14------------------------|
A|---10--------------12----------------------------|
E|-------------------------------------------------|

E|-------------------------------------------------------------------|
B|---------------------------------------------------7---7---------|
G|-------------7-------------7-----------------7-----7-----7-------|
D|-----------9-----------------9-------------9-------7-------7-----|
A|--7--9--10--------7--9--10--------7--9--10---------5---------5---|
E|-------------------------------------------------------------------|

E|------------------------------------------------|
B|------------------------------------------------|
G|-------------7-------------7-----------------7--|
D|-----------9-----------------9-------------9----|
A|--7--9--10--------7--9--10--------7--9--10------|
E|------------------------------------------------|

E|------------------------------------------------|
B|--8-----------10--------------------------------|
G|----7---7--------9------------------------------|
D|------5------------7----------------------------|
A|------------------------------------------------|
E|------------------------------------------------|


[PRÉ-REFRÃO]

B5 A5 G5


[REFRÃO]

D5 B5 D5 B5 D5 B5

A5 G5


[PÓS-REFRÃO]

E|-------------------------------------------------|
B|-------------------------------------------------|
G|-------------------------------------------------|
D|-----------------------7-7-7-9-------------------|
A|--------------5-5-7/9----------------------------|
E|--3--3-3-5/7-------------------------------------|

E|-----------------------------------10------------|
B|------5----5-----5-----5---5--5/7----------------|
G|-7------7----7-----7-----7-----------------------|
D|----0----0-----0-----0---------------------------|
A|-------------------------------------------------|
E|-------------------------------------------------|

[VERSO 2]

E|----------14---17--15--14-----------------------|
B|---------------------------14----15-------------|
G|---------------------------------14-------------|
D|-12---11----------------------------------------|
A|-12---11----------------------------------------|
E|-10---9-----------------------------------------|

E|--14---17--15--14------------------------------|
B|--15---------------14--------------------------|
G|--14-------------------------------------------|
D|-----------------------------------------------|
A|-----------------------------------------------|
E|-----------------------------------------------|

E|-----------------------------------------------|
B|----------12---------14------------------------|
G|-------12--------------------------------------|
D|----12----------14-----------------------------|
A|-10----------12--------------------------------|
E|-----------------------------------------------|

E|-------------------------------------------------------------------|
B|---------------------------------------------------7---7---------|
G|-------------7-------------7-----------------7-----7-----7-------|
D|-----------9-----------------9-------------9-------7-------7-----|
A|--7--9--10--------7--9--10--------7--9--10---------5---------5---|
E|-------------------------------------------------------------------|

E|------------------------------------------------|
B|------------------------------------------------|
G|-------------7-------------7-----------------7--|
D|-----------9-----------------9-------------9----|
A|--7--9--10--------7--9--10--------7--9--10------|
E|------------------------------------------------|

E|------------------------------------------------|
B|--8-----------10--------------------------------|
G|----7---7--------9------------------------------|
D|------5------------7----------------------------|
A|------------------------------------------------|
E|------------------------------------------------|


Ponte:

E5 D5 E5 D5


Pré-Refrão:

B5 A5 G5


Refrão:

D5 B5 D5 B5 D5 B5

A5 G5


Final:

E|-------------------------------------------------|
B|-------------------------------------------------|
G|-------------------------------------------------|
D|-----------------------7-7-7-9-------------------|
A|--------------5-5-7/9----------------------------|
E|--3--3-3-3/7-------------------------------------|

E|-------------------------------------------------|
B|-------------------------------------------------|
G|-------------------------------------------------|
D|-----------------------7-7-7-9-------------------|
A|--------------5-5-7/9----------------------------|
E|--3--3-3-3/7-------------------------------------|

E|-------------------------------------------------|
B|---------------------------------------------15--|
G|----------------------------------7--7/11--------|
D|-----------------------7--7--7--9----------------|
A|--------------5-5-7/9----------------------------|
E|--3--3-3-5/7-------------------------------------|

----------------- Acordes -----------------
A5 = X 0 2 2 X X
B5 = X 2 4 4 X X
D5 = X 5 7 7 X X
E5 = 0 2 2 X X X
G5 = 3 5 5 X X X
