Fernando e Sorocaba - Hoje Eu Voltei

Am             C
Hoje eu voltei aonde tudo começou
F
E agora não adianta chorar
Am      C            F
E ve se sai da minha frente

Am             C
Hoje eu voltei aonde tudo começou
F
E agora não adianta chorar
Am      C            F
E ve se sai da minha frente

----------------- Acordes -----------------
Am = X 0 2 2 1 0
C = X 3 2 0 1 0
F = 1 3 3 2 1 1
