Fernando e Sorocaba - Hoje Tem Festa Na Cidade

E|--------------------------------------------------9---7---5--|
B|-------------------------------------------------------------|
G|---------------------------------------------7/9----7---6----|
D|-----7-9-11-9-7----------------------------------------------|
A|---7------------7-7h9-9/12-12-9-9h11-9-9-5h7-----------------|
E|-------------------------------------------------------------|

E|----5-7-9-7-5-----7---9-10-9-7---------------12-10-9---------|
B|--5-----------9-7---7----------10-9--10-12-----------12-10---|
G|--------------------------------------9----------------------|
D|-------------------------------------------------------------|
A|-------------------------------------------------------------|
E|-------------------------------------------------------------|

E|-------------------------------------------------------------|
B|---------2---------------------------------------------------|
G|-----2-4---4-2-------2-2-------------------------------------|
D|---2-----------2-2h4-----4-4h6-4-4-0-0h2---------------------|
A|-------------------------------------------------------------|
E|-------------------------------------------------------------|


A                    D              E           A A4
Hoje tem festa na cidade, eu quero ver você dançar,
                         D            E            A A4
Você é a estrela do meu céu, você é fogo é água é ar,
                      D             E            A A4
Hoje tem festa na cidade, eu quero ver você dançar,
                         D            E            A A4
Você é a estrela do meu céu, você é fogo é água é ar,

                       E                      A
Com seu corpo ninguém pode, você manda no salão,
                    E            D             A
Vai mexendo essa cintura, vai descendo até o chão,
                   E                      A
Vem me mata de alegria, me machuca de paixão,
                  D           E       A
ela é feita de açúcar ela é pura sedução,

             E                 D                    A
Vai, Vai Requebra, Rebola a Cintura, Chega mais pra cá, é a
A7            D             E       A
Moça mais bonita que eu ja vi no Paraná

             E                 D                     A
Vai, Vai Requebra, Rebola a Cintura, Chega mais pra cá, é a
A7            D            E        A A4
Moça mais bonita que eu ja vi no Paraná

----------------- Acordes -----------------
A = X 0 2 2 2 0
A4 = X 0 2 2 3 0
A7 = X 0 2 0 2 0
D = X X 0 2 3 2
E = 0 2 2 1 0 0
