Fernando e Sorocaba - Madri

Intro:

(parte 1)              (parte 2)
     G5                   D4
E|-----x-------x----|-----x-------x---------|
B|---3-x-3-3---x-3--|---3-x-3-3---x-3-------|
G|---0-x-2-2h4-x-2--|---0-x-2-2h4-x-0-------|
D|-----x-------x----|-0---x-0-----x---------|
A|-----x-------x----|-----x-------x---------|
E|-3---x-3-----x----|-----x-------x---------|

(parte 3)                (parte 4)
       C9                  Em
E|-----x-----------x---|-0------------------|
B|---3-x---3-------x---|-0-8-7/3---3--------|
G|---0-x---0-------x-0-|-0-------4----------|
D|-----x-x-----0h2-x---|-2------------------|
A|-3---x-----3-----x---|-2------------------|
E|-----x-----------x---|-0------------------|

    (parte 5)             (parte 6)

(repete parte 1, 2 e 3) Em
E|--------------------|-0-------------------|
B|--------------------|-0-3-3/5-3---3---3-0-|
G|--------------------|-0-0-0---2---2h4-2-0-|
D|--------------------|-2---------0-------0-|
A|--------------------|-2-------------------|
E|--------------------|-0-------------------|

Primeira Parte:
      G5 (Padrão)      D5
E|-----x-----x----|-----x-------x---------|
B|---3-x-3-3-x-3--|---3-x-3-----x---------|
G|---0-x-0-0-x-0--|---2-x-2-0h2-x-0-------|
D|-----x-----x----|-0---x-0-----x---x-0---|
A|-----x-----x----|-----x-------x---------|
E|-3---x-3---x----|-----x-------x---------|

   Em7             C9 (na 2ª vez, não tocar a última nota)
E|-----x-----x---|-----x----------------|
B|---3-x-3-3-x-3-|---3-x-3-3-3-------3--|
G|---0-x-0-0-x-0-|---0-x-0-0-0-----0----|
D|-----x-----x---|-----x-2-2-2-0h2------|
A|-----x-----x---|-3---x-3--------------|
E|-0---x-0---x---|-----x----------------|

G5        D5
  Que saudade amor
Em7                          C9
  Estou sabendo que ai na espanha tudo é lindo
G5       D5
  Você me deixou
Em7                      C9
  E aqui dentro meu coração ficou partido
Segunda Parte:
(manter o padrão do Ritmo em todos os acordes, com
exceção do primeiro C9)

       Em7            D/F#
E|-----x-----x----|-----x-----x----|
B|---3-x-3-3-x-3--|---3-x-3-3-x-3--|
G|---0-x-0-0-x-0--|---2-x-2-2-x-2--|
D|-----x-----x----|-----x-----x----|
A|-----x-----x----|-----x-----x----|
E|-0---x-0---x----|-2---x-2---x----|

     C9
E|-----x-----x-------x-------------------|
B|---3-x-3-3-x-3---3-x-------------------|
G|---0-x-0-0-x-0---0-x-------------------|
D|-----x-----x-------x---------5-5h7-----|
A|-3---x-----x---3---x-3-3-5/7-------7\0-|
E|-----x-3---x-------x-------------------|

(tocar todos os acordes com o padrão)

Em7        D/F#          C9
  Nessa cidade, não vou mais sorrir
Em7          D/F#        C9                        G5
  Que bom seria, se são paulo fosse do lado de madri
      D5        C9
  Iêêêê    Uôôôôô

Refrão:
G5            D5       C9        Em7       D/F#
  No puedo más mi corazón, ta doendo aqui na solidão
G5            D/F#        C9
  No puedo más vivir sin ti, volta logo pra são paulo
  Ou eu vou pra madri

(repete intro 5 e 6)

(repetir parte 1 e 2 da música, tocando sempre o padrão do ritmo)

G5              D5
  Que saudade amor
Em7                    C9
  Volta logo pro hemisfério sul do mundo
G5        D5
  Ficar sem você
Em7                      C9
  Me mostrou o quanto é bom estarmos juntos
Em7          D/F#           C9
  Sonho tão lindo é ter você aqui
Em7          D/F#        C9                        G5
  Que bom seria, se são paulo fosse do lado de madri
      D5        C9
  Iêêêê    Uôôôôô

Refrão:
G5            D5       C9        Em7       D/F#
  No puedo más mi corazón, ta doendo aqui na solidão
G5            D/F#        C9
  No puedo más vivir sin ti, volta logo pra são paulo
  Ou eu vou pra madri
Solo:
E|-2h3-2---2h3-2---2h3-2---2h3-2---------------------|
B|-------3-------3-------3-------3-------------------|
G|---------------------------------------------------|
D|---------------------------------------------------|
A|---------------------------------------------------|
E|---------------------------------------------------|

E|-2-3-5-5/7-------3-3-2-----------------------------|
B|-----------3-3/5-------5-3-5-3---------------------|
G|-------------------------------5-4-5-4-2---2/4-----|
D|-----------------------------------------5---------|
A|---------------------------------------------------|
E|---------------------------------------------------|
E|-2h3-2---2h3-2---2h3-2---2h3-2---------------------|
B|-------3-------3-------3-------3-------------------|
G|---------------------------------------------------|
D|---------------------------------------------------|
A|---------------------------------------------------|
E|---------------------------------------------------|

E|-2-3-5-5/7-8---8-5-3-3-2--------------------------|
B|-------------5-----------5-3-5-3------------------|
G|---------------------------------5-4-2---2---2/4--|
D|---------------------------------------5---5------|
A|--------------------------------------------------|
E|--------------------------------------------------|

(Refrão)

(Solo Final)

(repetir toda a intro, substituindo a parte final por essa)

E|-0-----------7-5-3---|
B|-0-3-3/5-3-----------|
G|-0-0-0---2---7-5-4---|
D|-2---------0---------|
A|-2-------------------|
E|-0-------------------|


----------------- Acordes -----------------
C9 = x 3 2 0 3 0
D/F# = 2 X 0 2 3 2
D4 = x x 0 0 3 x
D5 = x x 0 2 3 0
Em = 0 2 2 0 0 0
Em7 = 0 2 2 0 3 0
G5 = 3 0 0 0 3 0
