Fernando e Sorocaba - Nada Faz Sentido

Intro:

E|-0-0-0--------------------------|-0----0-0----------------------|
B|-5-3-2-----------------5--------|-3/5--3-2----------------------|
G|--------4-2--------2/4---4-4/6~-|-----------4\2-------4p2-------|
D|------------4-------------------|---------------4---------4-2---|
A|--------------------------------|-------------------------------|
E|--------------------------------|-------------------------------|

      A             D    E            A               D   E           A
E|-0---0-0------------------------|-0---0-0-----------------------|
B|-3/5-3-2---------------5--------|-3/5-3-2-----------------------|
G|-----------4\2-----2/4---4-4/6~-|-----------4\2-----4-2h4p2----2|
D|---------------4----------------|---------------4-----------4-- |
A|--------------------------------|-------------------------------|
E|--------------------------------|-------------------------------|

Primeira Parte 4x:
         D           E             A
E|---2-x-0-|-----x---|-----x-------x---|
B|---3-x-0-|---0-x-0-|---2-x-2---2-x-0-|
G|---2-x-0-|---1-x-0-|---2-x-2---2-x-0-|
D|-0---x-0-|---2-x-0-|---2-x-2---2-x-0-|
A|-----x---|-----x-0-|-0---x---0---x-0-|
E|-----x---|-0---x---|-----x-------x---|


                 D  E      A
Os dias não tem nexo sem você
                       D    E            A
Minha vida é um livro aberto, tente entender
               D    E           A
Que é muito difícil ter que aceitar
                  D   E        A
Que a chama de um amor pode apagar

Segunda Parte:
                   E
É que as vezes me pego pensando
G                   E
Quanto eu já fui feliz

  E (parada)
É, um dia fui feliz

E|-----5-|                              e|---------|
B|-5h7---|                              B|---------|
G|-------|       e outro violão         G|-----2p0-|
D|-------|   ao mesmo tempo tocando:    D|-0h2-----|
A|-------|                              A|---------|
E|-------|                              E|---------|

Refrão:
 A                D            E             A
O futebol meu violão meu carro meus amigos
                  D       E             A
Já não significam nada sem você comigo
                      D    E               A
Domingo sem você tem cara de segunda-feira
                           D         E              A
Não tenho mais para quem ligar a madrugada inteira

        G       D
Sozinho no cinema
            E              A
O filme fica sempre sem cor
                  D
Nada faz sentindo
       E        A
Sem o seu amor

(Intro)

E|-0-0-0--------------------------|-0----0-0----------------------|
B|-5-3-2-----------------5--------|-3/5--3-2----------------------|
G|--------4-2--------2/4---4-4/6~-|-----------4\2-------4p2---2---|
D|------------4-------------------|---------------4---------4-----|
A|--------------------------------|-------------------------------|
E|--------------------------------|-------------------------------|

      A             D    E            A               D   E           A
E|-0---0-0------------------------|-0---0-0-----------------------|
B|-3/5-3-2---------------5--------|-3/5-3-2-----------------------|
G|-----------4\2-----2/4---4-4/6~-|-----------4\2-----4-2h4p2---2-|
D|---------------4----------------|---------------4-----------4---|
A|--------------------------------|-------------------------------|
E|--------------------------------|-------------------------------|



Solo gaita:

       D    E        A                 D      E           A
E|-10/12~-10~~-|-10/12-10-9--------12/14~-13h14-13h14-12~~----------|
B|-------------|-------------12-10----------------------------------|
G|-------------|----------------------------------------------------|
D|-------------|----------------------------------------------------|
A|-------------|----------------------------------------------------|
E|-------------|----------------------------------------------------|

       A                 D      E             A                     D      E
E|-10/12-10-9--------12~~---------12---------|-10/12-10-9-------12/14~-13h14-13h14-12~-|
B|------------12-10---------10/12----12/14---|------------12-10------------------------|
G|-------------------------------------------|-----------------------------------------|
D|-------------------------------------------|-----------------------------------------|
A|--------------------------------------------|-----------------------------------------|
E|-------------------------------------------|-----------------------------------------|


Segunda Parte :
        D         E        A
E|---2-2-|-----x---|-------|
B|---3-3-|---0-x-0-|---2-2-|
G|---2-2-|---1-x-0-|---2-2-|
D|-0-----|---2-x-0-|---2-2-|
A|-------|-----x-0-|-0-----|
E|-------|-0---x---|-------|


                 D  E      A
Os dias não tem nexo sem você
                         D    E            A
Minha vida é um livro aberto, tente entender

E|-5/7\5-5/7\5-|
B|-5/7\5-5/7\5-|
G|-------------|
D|-------------|
A|-------------|
E|-------------|

               D    E           A
Que é muito difícil ter que aceitar
                  D   E        A
Que a chama de um amor pode apagar


                   E
É que as vezes me pego pensando
G                   E
Quanto eu já fui feliz

  E (parada)
É, um dia fui feliz

E|-----5-|                              e|---------|
B|-5h7---|                              B|---------|
G|-------|       e outro violão         G|-----2p0-|
D|-------|   ao mesmo tempo tocando:    D|-0h2-----|
A|-------|                              A|---------|
E|-------|                              E|---------|

Refrão:
A                D            E             A
O futebol meu violão meu carro meus amigos
                  D       E             A
Já não significam nada sem você comigo
                      D    E               A
Domingo sem você tem cara de segunda-feira
                           D         E              A
Não tenho mais para quem ligar a madrugada inteira

                  D
Sozinho no cinema
            E              A
O filme fica sempre sem cor
                  D
Nada faz sentindo
       E        A
Sem o seu amor

Abafado:
E|-x(5)-x(5)-x(5)-|
B|-x(5)-x(5)-x(5)-|
G|----------------|
D|----------------|
A|----------------|
E|----------------|

 A               D            E             A
O futebol meu violão meu carro meus amigos
                  D       E             A
Já não significam nada sem você comigo
                      D    E               A
Domingo sem você tem cara de segunda-feira
                           D         E              A
Não tenho mais para quem ligar a madrugada inteira

                  D
Sozinho no cinema
            E              A
O filme fica sempre sem cor
                  D
Nada faz sentindo
       E        A
Sem o seu amor

(Final)

E|-0-0-0--------------------------|-0----0-0----------------------|
B|-5-3-2-----------------5--------|-3/5--3-2----------------------|
G|--------4-2--------2/4---4-4/6~-|-----------4\2-------4p2---2---|
D|------------4-------------------|---------------4---------4-----|
A|--------------------------------|-------------------------------|
E|--------------------------------|-------------------------------|

      A             D   E              A             D    E            A
E|-0---0-0------------------------|-0---0-0----------|--------------0--|
B|-3/5-3-2---------------5--------|-3/5-3-2----------|--------------2--|
G|-----------4\2-----2/4---4-4/6~-|-----------4\2----|-4-2h4p2------2--|
D|---------------4----------------|---------------4--|---------4--2-2--|
A|--------------------------------|------------------|-----------------|
E|--------------------------------|------------------|-----------------|

----------------- Acordes -----------------
A = X 0 2 2 2 0
D = X X 0 2 3 2
E = 0 2 2 1 0 0
G = 3 2 0 0 0 3
