Fernando e Sorocaba - Porto da Paixão

D         A Bm              G
Desse lugar, eu quero fugir
D         A Bm
desse lugar
D         A Bm              G
Vou te levar, eu quero fugir
D         A Bm
desse lugar

Ehhhh

D         A Bm              G
Ela voltou depois de muito tempo, eu sei
D         A Bm
ainda a amo
D         A Bm              G
Meu coracao nao sabe ficar so, nao quer
D         A Bm
ficar tao solto
D         A Bm
E no porto da paixao,

Bm              G
ancorei meu coracao
D         A Bm
Mas voce deixou meu cas,
D         A Bm
e nao quer mais
Bm              G
Me dar o seu perdao
D         A Bm              G
Desse lugar, eu quero fugir
D         A Bm
desse lugar
D         A Bm              G
Vou te levar, eu quero fugir
D         A Bm
desse lugar

Ehhhh
D         A Bm
E no porto da paixao,
Bm              G
ancorei meu coracao
D         A Bm
mas voce deixou meu cas,
D         A Bm
e nao quer mais
Bm              G

me dar o seu perdao
D         A Bm  G
Desse lugar, eu quero fugir
D         A Bm
desse lugar
D         A Bm  G
Vou te levar, eu quero fugir
D         A Bm
desse lugar
D         A Bm  G
Uhhhh uh uhh
D         A Bm
eu quero fugir
D         A Bm  G
Ahhhh ah ahh
D         A Bm  G
desse lugar
D         A Bm  G
Uhhhh uh uhh
D         A Bm  G
eu quero fugir
D         A Bm  G
Ahhhh ah ahh
D         A Bm  G
desse lugar

----------------- Acordes -----------------
A = X 0 2 2 2 0
Bm = X 2 4 4 3 2
D = X X 0 2 3 2
G = 3 2 0 0 0 3
