Fernando e Sorocaba - Te Amo Meu Paraná

Intro: D

   D                    D9
Paraná é rica sua história
      G
É abençoado seu sagrado chão
 D                     A
Orgulho do Brasil seu povo
      G
Incansável inspira toda a nação
   D                   D9                 G
Terra vermelha do trigo, da soja e do milho, café e feijão
  D                 A
Natureza bela cidades modernas
    G
Quem mora aqui não sai mais não

D A G
Ahhhhhhhhhhhhhh, Aqui é o meu lugar
D A G
Ahhhhhhhhhhhhhh, Te Amo meu Paraná

D A G
Ahhhhhhhhhhhhhh, Aqui é o meu lugar
D A G                                D
Ahhhhhhhhhhhhhh,Te Amo meu Paraná

----------------- Acordes -----------------
