Elvis Presley - Get On Up Get On Down

Intro/verse

e--------------------------------------------------------------
B--------------------------------------------------------------
G--------------------------------------------------------------
D-----------------2--4--5--4-*2--------------------------------
A--2--4--5--4-*4-0--0--0--0------------------------------------
E-0--0--0--0---------------------------------------------------

e--------------------------------------------------------------
B--------------------------------4-4-----------2-2-------------
G--------------------------------4-4-----------2-2-------------
D--------------------------------4-4-----------2-2-------------
A--2--4--5--4--2--4--5--0-2-3-2--2-2--0-2-3-0--0-0-------------
E-0--0--0--0--0--0--0------------------------------------------

e--------------------------------------------------------------
B--------------------------------------------------------------
G---------------2-0--------------------1-3-2-------------------
D-------------------2-0-----------2-0--0-2-1-------------------
A-----------------------2-0---2-0------1-3-2-------------------
E--2/3-2/3-2/3--------------3----------------------------------


Thats all I can work out. For the verses elvis alternates between two chords
I cant figure out instead of the  2, 4, 5, 4 thing, but this version still
works ok.

----------------- Acordes -----------------
