Elvis Presley - Rock My Soul

(f)Rock (c)a (f) my soul in the bosom of (gm)Abra(f)ham

(gm)Rock(f)a (gm) my (c7) soul in the (gm) bosom of A(dm)bra(c)ham

(f)Rock(c)a (f) my soul in the bosom of A(dm)bra(c)ham

(c)O (gm) rocka (c7) my (f)soul


(f)So high you can't get (d7)o(c7)ver (d7)it

(gm)So low you (gm)can't get under (c)it

(f) So wide you can't get (d7) round (c7)it

(d7) you (c) must go (c7) in (dm) at (c7) the (f) door

----------------- Acordes -----------------
