Paramore - All We Know

(parte 1)

E|----------------------------------------------------------------|
B|----------------------------------------------------------------|
G|----------------------------------------------------------------|
D|-2-0-2---7-7...---------------2-0-2---5-5...--------------2-0-2-|
A|-2-0-2---7-7...---------------2-0-2---5-5...--------------2-0-2-|
D|-2-0-2---7-7...(10x abafado)--2-0-2---5-5...(10x abafado)-2-0-2-|
                                                                       (2x)
E|---------------------------------------------------------|
B|---------------------------------------------------------|
G|-5---5-5-5-5---5-5-5---5---5-5---5---5-5-5---5-5-5---5---|
D|-5---5-5-5-5---5-5-5---5---5-5---5---5-5-5---5-5-5---5---|
A|-3---3-3-3-3---3-3-3---3---3-3---3---3-3-3---3-3-3---3---|
D|---------------------------------------------------------|

E|---------------------------------------------------------------|
B|---------------------------------------------------------------|
G|---------------------------------------------------------------|
D|-2-0-2---7-7...---------------9-9-9---5-...--------------2-0-2-|
A|-2-0-2---7-7...---------------9-9-9---5-...--------------2-0-2-|
D|-2-0-2---7-7...(10x abafado)--9-9-9---5-...(11x abafado)-2-0-2-|
                                                                    (1x)

E|---------------------------------------------------------|
B|---------------------------------------------------------|
G|-5---5-5-5-5---5-5-5---5---5-5---5---5-5-5---5-5-5---5---|
D|-5---5-5-5-5---5-5-5---5---5-5---5---5-5-5---5-5-5---5---|
A|-3---3-3-3-3---3-3-3---3---3-3---3---3-3-3---3-3-3---3---|
D|---------------------------------------------------------|

(refrão)
E|-------------------------------------------------------------------------------------|
B|-------------------------------------------------------------------------------------|
G|---------------------------4-4-4--5...-----------------------------------------------|
D|-0-2...--------------------4-4-4--5...---------------0-0--7--7-7-7---0-0--5--5-5-5---|
A|-0-2...--------------------2-2-2--3...(13x batida)---0-0--7--7-7-7---0-0--5--5-5-5---|
D|-0-2...(11x batida)----------------------------------0-0--7--7-7-7---0-0--5--5-5-5---|

E|---------------------------------------------------------------------------------------------|
B|---------------------------------------------------------------------------------------------|
G|--------------------4-4-4--5...--------------------------------------------------------------|
D|-0-2...-------------4-4-4--5...-------0-0--7--7-7-7---0-0--5--5-5-5-----2-2...---------------|
A|-0-2...-------------2-2-2--3...(13x)--0-0--7--7-7-7---0-0--5--5-5-5-----2-2...---------------|
D|-0-2...(11x)--------------------------0-0--7--7-7-7---0-0--5--5-5-5-----2-2...(10x bafado)---|

(parte 2)
E|----------------------------------------------------------|
B|----------------------------------------------------------|
G|----------------------------------------------------------|
D|-2-0-2---7-7...---------------2-0-2---5-5...--------------|
A|-2-0-2---7-7...---------------2-0-2---5-5...--------------|
D|-2-0-2---7-7...(10x abafado)--2-0-2---5-5...(10x abafado)-|
                                                                         (2x)
E|-----------------------------------------------------------------|
B|-----------------------------------------------------------------|
G|---------5---5-5-5-5---5-5-5---5---5-5---5---5-5-5---5-5-5---5---|
D|-2-0-2---5---5-5-5-5---5-5-5---5---5-5---5---5-5-5---5-5-5---5---|
A|-2-0-2---3---3-3-3-3---3-3-3---3---3-3---3---3-3-3---3-3-3---3---|
D|-2-0-2-----------------------------------------------------------|

E|----------------------------------------------------------------|
B|----------------------------------------------------------------|
G|----------------------------------------------------------------|
D|-2-0-2---7-7...---------------9-9-9---5...--------------2-0-2---|
A|-2-0-2---7-7...---------------9-9-9---5...--------------2-0-2---|
D|-2-0-2---7-7...(10x abafado)--9-9-9---5...(11x abafado)-2-0-2---|
                                                                    (1x)
E|---------------------------------------------------------|
B|---------------------------------------------------------|
G|-5---5-5-5-5---5-5-5---5---5-5---5---5-5-5---5-5-5---5---|
D|-5---5-5-5-5---5-5-5---5---5-5---5---5-5-5---5-5-5---5---|
A|-3---3-3-3-3---3-3-3---3---3-3---3---3-3-3---3-3-3---3---|
D|---------------------------------------------------------|

(refrão)
E|------------------------------------------------------------------------------------|
B|------------------------------------------------------------------------------------|
G|---------------------------4-4-4--5...----------------------------------------------|
D|-0-2...--------------------4-4-4--5...--------------0-0--7--7-7-7---0-0--5--5-5-5---|
A|-0-2...--------------------2-2-2--3...(13x batida)--0-0--7--7-7-7---0-0--5--5-5-5---|
D|-0-2...(11x batida)---------------------------------0-0--7--7-7-7---0-0--5--5-5-5---|

E|-----------------------------------------------------------------------------------|
B|-----------------------------------------------------------------------------------|
G|----------------4-4-4--5...--------------------------------------------------------|
D|-0-2...---------4-4-4--5...-------0-0--7--7-7-7---0-0--5--5-5-5-----2--------------|
A|-0-2...---------2-2-2--3...(13x)--0-0--7--7-7-7---0-0--5--5-5-5-----2--------------|
D|-0-2...(11x)----------------------0-0--7--7-7-7---0-0--5--5-5-5-----2-(deixe soar)-|

(outro 4x)
E|--------------------------------------------|
B|--------------------------------------------|
G|---7-----9-----5----------------------------|
D|---7-----9-----5----------------------------|
A|---5-----7-----3---(deixe soar cada nota)---|
D|--------------------------------------------|

E|----[12](deixe soar)-----------------------------------------|
B|-----------------------[7](deixe soar)-----------------------|
G|------------------------------------------[5](deixe soar)----|

(1x)
E|-------------------------------------------------------------------------------------------|
B|-------------------------------------------------------------------------------------------|
G|--------------------------5--5----[5](harmônico)-----------------------------------------5-|
D|-0-0-0-0-0-2--------------5--5----------------------------0-2--2--2-2-2--4--4-4--5--5-5--5-|
A|-0-0-0-0-0-2--------------3--3----------------------------0-2--2--2-2-2--4--4-4--5--5-5--3-|
D|-0-0-0-0-0-2(abafado)-------------------------------------0-2--2--2-2-2--4--4-4--5--5-5----|

(1x)
E|--------------------------------------------------------|
B|--------------------------------------------------------|
G|-5--5----[5](harmônico)---------------------------------|
D|-5--5----------------------0-2--2--2-2-2--0--0--0-0-0---|
A|-3--3----------------------0-2--2--2-2-2--0--0--0-0-0---|
E|---------------------------0-2--2--2-2-2--0--0--0-0-0---|

(solo 2x)
E|-----------------------------------------------------------|
B|-----------------------------------------------------------|
G|--5...-----------------------------------------------------|
D|--5...---------------2...-------------0--0...--------------|
A|--3...(15x batida)---2...-------------0--0...--------------|
E|---------------------2...(7x batida)--0--0...(7x batida)---|

(1x)
E|-------------------------------------------------|
B|-------------------------------------------------|
G|-5---5-5-5-5---5-5-5---5---5-5---5---5-5-5---5---|
D|-5---5-5-5-5---5-5-5---5---5-5---5---5-5-5---5---|
A|-3---3-3-3-3---3-3-3---3---3-3---3---3-3-3---3---|
D|-------------------------------------------------|

(solo)

E|-------------------------------------------15(4x)-19(4x)--------15(4x)-19(4x)--------|
B|-12(4x)-10(4x)-15(8x)------------------------------------17(7x)---------------15(7x)-|
G|-----------------------9-9(6x)--11-11(6x)--------------------------------------------|
D|-------------------------------------------------------------------------------------|
A|-------------------------------------------------------------------------------------|
D|-------------------------------------------------------------------------------------|

E|---------------------------------|
B|-17(4x)-19(4x)-20(8x)-12--12(7x)-|
G|---------------------------------|
D|---------------------------------|
A|---------------------------------|
D|---------------------------------|

(refrão)
E|-------------------------------------------------------------------------------------|
B|-------------------------------------------------------------------------------------|
G|---------------------------4-4-4--5...-----------------------------------------------|
D|-0-2...--------------------4-4-4--5...---------------0-0--7--7-7-7---0-0--5--5-5-5---|
A|-0-2...--------------------2-2-2--3...(13x batida)---0-0--7--7-7-7---0-0--5--5-5-5---|
D|-0-2...(11x batida)----------------------------------0-0--7--7-7-7---0-0--5--5-5-5---|

E|------------------------------------------------------------------------------------|
B|------------------------------------------------------------------------------------|
G|-----------------------4-4-4--5...--------------------------------------------------|
D|-0-2...----------------4-4-4--5...--------------0-0--7--7-7-7---0-0--5--5-5-5---2---|
A|-0-2...----------------2-2-2--3...(13x batida)--0-0--7--7-7-7---0-0--5--5-5-5---2---|
D|-0-2...(11x batida)-----------------------------0-0--7--7-7-7---0-0--5--5-5-5---2---|

----------------- Acordes -----------------
