Paramore - Hallelujah-the Final Riot!

(intro)

D#|---------------------------------------------------------------------------------|
A#|-------12------------9------------12------------9------9--9-----9------11--------|
F#|-------11------------8------------11------------8-9----9----9----9-----11--11----|
C#|-----9-------------6------------9-------------6-----6--9-9----9----9---11-----11-|
G#|---9-------------6------------9-------------6------------------------------------|
C#|-9--------9-8--6-------6-8--9--------9-8--6--------------------------------------|

D#|---------------------------------------------------------------------------------|
A#|-------12------11-----11---------------------------------------------------------|
F#|----------11---11-11-----11------------------------------------------------------|
C#|-----9-------9-11----11-----11---------------------------------------------------|
G#|---9-----------------------------------------------------------------------------|
C#|-9-------------------------------------------------------------------------------|

D#|---------------------------------------------------------------------------------|
A#|-------12------------9------------12------------9------9--9-----9------11--------|
F#|-------11------------8------------11------------8-9----9----9----9-----11--11----|
C#|-----9-------------6------------9-------------6-----6--9-9----9----9---11-----11-|
G#|---9-------------6------------9-------------6------------------------------------|
C#|-9----------8--6---------8--9----------8--6--------------------------------------|


D#|---------------------------------------------------------------------------------|
A#|-------12------11-----11---------------------------------------------------------|
F#|----------11---11-11-----11------------------------------------------------------|
C#|-----9-------9-11----11-----11---------------------------------------------------|
G#|---9-----------------------------------------------------------------------------|
C#|-9-------------------------------------------------------------------------------|

D#|---------------------------------------------------------------------------------|
A#|-------12------------9------------12------------9------9--9-----9------11--------|
F#|-------11------------8------------11------------8-9----9----9----9-----11--11----|
C#|-----9-------------6------------9-------------6-----6--9-9----9----9---11-----11-|
G#|---9-------------6------------9-------------6------------------------------------|
C#|-9--------9-8--6-------6-8--9--------9-8--6--------------------------------------|

D#|---------------------------------------------------------------------------------|
A#|-------12------11-----11---------------------------------------------------------|
F#|----------11---11-11-----11------------------------------------------------------|
C#|-----9-------9-11----11-----11---------------------------------------------------|
G#|---9-----------------------------------------------------------------------------|
C#|-9-------------------------------------------------------------------------------|

D#|---------------------------------------------------------------------------------|
A#|-----9--9--11---12---12--------------9-------------------------------------------|
F#|-----9--9--11---11------11---------9---9-----------------------------------------|
C#|-----9--9--11---13-13------13----9-------9---------------------------------------|
G#|-7-7----7--9----11/-----------/7-------------------------------------------------|
C#|---------------------------------------------------------------------------------|

D#|---------------------------------------------------------------------------------|
A#|---------11------------------11------------------12-----------------12-----------|
F#|------11----11------------12----12------------13----13-----------13----13--------|
C#|---11----------11------12----------12------13----------13-----13----------13-----|
G#|-9------------------10------------------11-----------------11--------------------|
C#|---------------------------------------------------------------------------------|

D#|---------------------------------------------------------------------------------|
A#|-------9------------9------------------------------------------------------------|
F#|-----9---9--------9---9----------8-------------8---------------------------------|
C#|---9-------9----9-------9------6---6---------6---6-------------------------------|
G#|-7------------7--------------6-------6-----6-------6-----------------------------|
C#|---------------------------6-------------6---------------------------------------|

D#|---------------------------------------------------------------------------------|
A#|--------12---------------11-----------12-----------------------------------------|
F#|-----------11---------11----11--------11-----------------------------------------|
C#|-----9--------9----11----------11-----9------------------------------------------|
G#|---9-------------9--------------------9------------------------------------------|
C#|-9------------------------------------9------------------------------------------|

(then the actual song begins)

(also) (intro)

D#|-7--7--7--9--9--9--11--11--11--14--14--14--14--14--14--14------------------------|
A#|-0--0--0--0--0--0--0---0---0---0---0---11--11--11--11--11------------------------|(x6)
F#|---------------------------------------------------------------------------------|
C#|---------------------------------------------------------------------------------|
G#|---------------------------------------------------------------------------------|
C#|---------------------------------------------------------------------------------|

(verse 1)

D#|-9----6-6-6---8--8--8----9--9--9----6-6-6---8--8--8------------------------------|
A#|-x----x-x-x---x--x--x----x--x--x----x-x-x---x--x--x-----------------------------|
F#|-11---8-8-8---10-10-10---11-11-11---8-8-8---10-10-10-----------------------------|
C#|-11---8-8-8---10-10-10---11-11-11---8-8-8---10-10-10-----------------------------|
G#|-9----6-6-6---8--8--8----9--9--11---6-6-6---8--8--8------------------------------|
C#|---------------------------------------------------------------------------------|

D#|---------------------------------------------------------------------------------|
A#|-------------------------12-12-11-11-11------------------------------------------|
F#|-----------8-8-9-9-11-11-----------------------------8-8-9-9-8-8-------8-8-8-----|
C#|-9-9-11-11------------------------------9-9-9-11-11-------------11-11------------|
G#|---------------------------------------------------------------------------------|
C#|---------------------------------------------------------------------------------|

D#|---------------------------------------------------------------------------------|
A#|---------------------------12-12-11-11-11----------------------------------------|
F#|-------------8-8-9-9-11-11-----------------------------8-8-9-9-8-8---------------|
C#|-9-9-9-11-11------------------------------9-9-9-11-11--------------11(let ring)--|
G#|---------------------------------------------------------------------------------|
C#|---------------------------------------------------------------------------------|

(chorus)

D#|-7--7--7--9--9--9--11--11--11--14--14--14--14--14--14--14------------------------|
A#|-0--0--0--0--0--0--0---0---0---0---0---11--11--11--11--11------------------------|(x6)
F#|---------------------------------------------------------------------------------|
C#|---------------------------------------------------------------------------------|
G#|---------------------------------------------------------------------------------|
C#|---------------------------------------------------------------------------------|

D#|-----11-----9-----11-----7(let ring)---------11-----9-----11-----7(let ring)-----|
A#|---------------------------------------------------------------------------------|
F#|-8-9----8-9---8-9----8-9-----------------8-9----8-9---8-9----8-9-----------------|
C#|---------------------------------------------------------------------------------|
G#|---------------------------------------------------------------------------------|
C#|---------------------------------------------------------------------------------|

(verse 2)

D#|-9----6-6-6---8--8--8----9--9--9----6-6-6---8--8--8------------------------------|
A#|-x----x-x-x---x--x--x----x--x--x----x-x-x---x--x--x-----------------------------|
F#|-11---8-8-8---10-10-10---11-11-11---8-8-8---10-10-10-----------------------------|
C#|-11---8-8-8---10-10-10---11-11-11---8-8-8---10-10-10-----------------------------|
G#|-9----6-6-6---8--8--8----9--9--11---6-6-6---8--8--8------------------------------|
C#|---------------------------------------------------------------------------------|

D#|---------------------------------------------------------------------------------|
A#|-------------------------12-12-11-11-11------------------------------------------|
F#|-----------8-8-9-9-11-11-----------------------------8-8-9-9-8-8-------8-8-8-----|
C#|-9-9-11-11------------------------------9-9-9-11-11-------------11-11------------|
G#|---------------------------------------------------------------------------------|
C#|---------------------------------------------------------------------------------|

D#|---------------------------------------------------14(let ring)--------------- --|
A#|---------------------------12-12-11-11-11-11-12-12-------------------------------|
F#|-------------8-8-9-9-11-11-------------------------------------------------------|
C#|-9-9-9-11-11---------------------------------------------------------------------|
G#|---------------------------------------------------------------------------------|
C#|---------------------------------------------------------------------------------|

D#|-7--7--7--9--9--9--11--11--11--14--14--14--14--14--14--14------------------------|
A#|-0--0--0--0--0--0--0---0---0---0---0---11--11--11--11--11------------------------|
F#|---------------------------------------------------------------------------------|
C#|---------------------------------------------------------------------------------|
G#|---------------------------------------------------------------------------------|
C#|---------------------------------------------------------------------------------|

D#|-------14-------14-------14(let ring)--------------------------------------------|
A#|-11/12----11/12----11/12---------------------------------------------------------|
F#|---------------------------------------------------------------------------------|
C#|---------------------------------------------------------------------------------|
G#|---------------------------------------------------------------------------------|
C#|---------------------------------------------------------------------------------|

(chorus)

D#|-7--7--7--9--9--9--11--11--11--14--14--14--14--14--14--14------------------------|
A#|-0--0--0--0--0--0--0---0---0---0---0---11--11--11--11--11------------------------| (x4)
F#|---------------------------------------------------------------------------------|
C#|---------------------------------------------------------------------------------|
G#|---------------------------------------------------------------------------------|
C#|---------------------------------------------------------------------------------|

D#|-----11-----9-----11-----7(let ring)---------11-----9-----11-----7(let ring)-----|
A#|---------------------------------------------------------------------------------|
F#|-8-9----8-9---8-9----8-9-----------------8-9----8-9---8-9----8-9-----------------|
C#|---------------------------------------------------------------------------------|
G#|---------------------------------------------------------------------------------|
C#|---------------------------------------------------------------------------------|

(bridge)
(comes in when rhythm guitar has already started playing the bridge)

D#|---------------------------------------------------------------------------------|
A#|---------------------------------------------------------------------------------|
F#|-16--16--16--16/18-18-18-15-15---16--16--16--16-16-16-16-15-15-15----------------|
C#|---------------------------------------------------------------------------------|
G#|-14--14--14--14/16-16-16-13-13---14--14--14--14-14-14-14-13-13-13----------------|
C#|---------------------------------------------------------------------------------|

D#|---------------------------------------------------------------------------------|
A#|---------------------------------------------------------------------------------|
F#|-16-16-16-15-15-15-6-6-6-6-6-6-6-6--16-16-16-15-15-15--9--9--9--9--9--9--9--9----|
C#|---------------------------------------------------------------------------------|
G#|-14-14-14-13-13-13-8-8-8-8-8-8-8-8--14-14-14-13-13-13--11-11-11-11-11-11-11-11---|
C#|---------------------------------------------------------------------------------|

D#|---------------------------------------------------------------------------------|
A#|---------------------------------------------------------------------------------|
F#|-16-16-16-15-15-15-6-6-6-6-6-6-6-6--16-16-16-15-15-15--9--9--9--9--9--9--9--9----|
C#|---------------------------------------------------------------------------------|
G#|-14-14-14-13-13-13-8-8-8-8-8-8-8-8--14-14-14-13-13-13--11-11-11-11-11-11-11-11---|
C#|---------------------------------------------------------------------------------|

D#|-------------------------7-/-9-/-11-/-12-/-11/-----------------------------------|
A#|-/7--7-7-7-7-5-5-5-5-7-4---------------------------------------------------------|
F#|---------------------------------------------------------------------------------|
C#|---------------------------------------------------------------------------------|
G#|---------------------------------------------------------------------------------|
C#|---------------------------------------------------------------------------------|

D#|-7--7--7--9--9--9--11--11--11--14--14--14--14--14--14--14------------------------|
A#|-0--0--0--0--0--0--0---0---0---0---0---11--11--11--11--11------------------------| (x4)
F#|---------------------------------------------------------------------------------|
C#|---------------------------------------------------------------------------------|
G#|---------------------------------------------------------------------------------|
C#|---------------------------------------------------------------------------------|

D#|-----11-----9-----11-----7(let ring)---------11-----9-----11-----7(let ring)-----|
A#|---------------------------------------------------------------------------------|
F#|-8-9----8-9---8-9----8-9-----------------8-9----8-9---8-9----8-9-----------------|
C#|---------------------------------------------------------------------------------|
G#|---------------------------------------------------------------------------------|
C#|---------------------------------------------------------------------------------|

D#|--9--9----9----------------------------------------------------------------------|
A#|--x--x----x---------------------------------------------------------------------|
F#|--11-11---11--(let ring)---------------------------------------- ----------------|
C#|--11-11---11---------------------------------------------------------------------|
G#|--9--9----9----------------------------------------------------------------------|
C#|---------------------------------------------------------------------------------|

----------------- Acordes -----------------
