Mamonas Assassinas - Lá Vem o Alemão

[Intro] D  F#m  G  A

    D                                       
E|10-10-10-10-------10--10-12-10-12-10---------------|
B|------------10-12----------------------------------|
G|---------------------------------------------------|
D|---------------------------------------------------|
A|---------------------------------------------------|
E|---------------------------------------------------|

   F#m                          G
E|---------------------------------------------------|
E|-----------------------------10-9------------------|
B|10-10-10-10-7-8-10--10-12-10-----10----------------|
G|---------------------------------------------------|
D|---------------------------------------------------|
A|---------------------------------------------------|
E|---------------------------------------------------|

  A
E|12-12-12-12--12-12---------------------------------|
B|---------------------------------------------------|
G|---------------------------------------------------|
D|---------------------------------------------------|
A|---------------------------------------------------|
E|---------------------------------------------------|


 D                                F#m
Só de pensar que nós dois éramos dois
                       G
Eu o feijão, você o arroz
                  A
Temperados com Sazón
 D                               F#m
Só de lembrar nós na Kombi no domingo
                    G
Nosso amor era tão lindo
                   A
Nós descíamos pro Boqueirão
D                        F#m
A Kombi quebrada lá na praia
                G
E você de mini-saia
                   A
Dando bola para um alemão
  D                      F#m
O alemão de carro conversível
                   G
Eu mexendo nos "fuzível"
                    A
Nem vi quando você me deixou

         D
Subiu a serra
                    F#m
Me deixou no Boqueirão
                  G
Arrombou meu coração
                A
Depois desapareceu
           D
Fiquei na merda
                  F#m
Nas areias do destino
                    G
Me tratou como um suíno
                       A
Cuspiu no prato que comeu

[Solo]  D  F#m  G  A
        D  F#m  G  A

    D                                       
E|10-10-10-10-------10--10-12-10-12-10---------------|
B|------------10-12----------------------------------|
G|---------------------------------------------------|
D|---------------------------------------------------|
A|---------------------------------------------------|
E|---------------------------------------------------|

   F#m                          G
E|---------------------------------------------------|
E|-----------------------------10-9------------------|
B|10-10-10-10-7-8-10--10-12-10-----10----------------|
G|---------------------------------------------------|
D|---------------------------------------------------|
A|---------------------------------------------------|
E|---------------------------------------------------|
    A
E|12-12-12-12--9-10-12-14----------------------------|
B|---------------------------------------------------|
G|---------------------------------------------------|
D|---------------------------------------------------|
A|---------------------------------------------------|
E|---------------------------------------------------|

    D                                       
E|10-10-10-10-------10--10-12-10-12-10---------------|
B|------------10-12----------------------------------|
G|---------------------------------------------------|
D|---------------------------------------------------|
A|---------------------------------------------------|
E|---------------------------------------------------|

   F#m                          G
E|---------------------------------------------------|
E|-----------------------------10-9------------------|
B|10-10-10-10-7-8-10--10-12-10-----10----------------|
G|---------------------------------------------------|
D|---------------------------------------------------|
A|---------------------------------------------------|
E|---------------------------------------------------|

  A
E|12-12-12-12--12-12---------------------------------|
B|---------------------------------------------------|
G|---------------------------------------------------|
D|---------------------------------------------------|
A|---------------------------------------------------|
E|---------------------------------------------------|

    D                      F#m
O amor é uma faca de dois legumes
                      G
A luz anal de um vagalume
                      A
Que ilumina o meu sofrer
D                        F#m
Eu ainda sinto o seu perfume
                    G
Um cheirinho de estrume
                   A
Não tá fácil de te esquecer
 D                             F#m
Toda a vez que eu lembro de você
                    G
Me dá vontade de bater
                     A
Te espancar, ó meu amor
 D                              F#m
Só porque ele é lindo, loiro e forte
                     G
Tem dinheiro e um Escort
                   A
Como Modess, você me trocou

         D
Subiu a serra
                    F#m
Me deixou no Boqueirão
                  G
Arrombou meu coração
                A
Depois desapareceu
           D
Fiquei na merda
                  F#m
Nas areias do destino
                    G
Me tratou como um suíno
                       A
Cuspiu no prato que comeu

         D
Subiu a serra
                    F#m
Me deixou no Boqueirão
                  G
Arrombou meu coração
                A
Depois desapareceu
           D
Fiquei na merda
                  F#m
Nas areias do destino
                    G
Me tratou como um suíno
                       A
Cuspiu no prato que comeu

----------------- Acordes -----------------
A = X 0 2 2 2 0
D = X X 0 2 3 2
F#m = 2 4 4 2 2 2
G = 3 2 0 0 0 3
