Mamonas Assassinas - Solo Bento Hinoto

Zeummm.... zeumm....tchaih tchaih tchaih
O legítimo japonês italiano,vindo da tazmânia
A mãe vem da áfrica,o pai vem da alemanha
Com vocês as peripersas do diabinho,bento hinoto...

E|--------|-------------------------------------------------|----------|
B|--------|-------------------------------------------------|---(3x)---|
G|-2-4-2--|-5--2--4--2--5--2--4--2--5--2--4--2--5--2--4--2--|----------|
D|--------|-------------------------------------------------|----------|
A|--------|-------------------------------------------------|----------|
E|--------|-------------------------------------------------|----------|

E|-----|-----------------------8--12-8---------------------------------|
B|-----|-------------------10-----------10-----------------------------|
G|-2---|-------------5--9-------------------9--5-----------------------|
D|-----|----------7-------------------------------7--------------------|
A|-----|--------7------------------------------------5-----------------|
E|-----|--5--8------------------------------------------8--------------|

E|--------------------------7------------------------------------------|
B|-----------------------9-----9---------------------------------------|
G|-----------------7--9-----------9--7---------------------------------|
D|-----------6--9-----------------------9--6---------------------------|
A|-----5--7-----------------------------------7--5---------------------|
E|--7------------------------------------------------------------------|


E|-------------------------5-------------------------------------------|
B|-------------------5--8-----8--5-------------------------------------|
G|----------------6------------------6---------------------------------|
D|----------5--7-------------------------7--5--------------------------|
A|-------7--------------------------------------7----------------------|
E|-5--9--------------------------------------------9-------------------|

E|----------------------------10---13---10-----------------------------|
B|-----------------------10-----------------10-------------------------|
G|---------------7--10--------------------------10--7------------------|
D|------------7----------------------------------------7---------------|
A|-----5---8-----------------------------------------------------------|
E|--5------------------------------------------------------10---8------|

E|---------------------------------------------------------------------|
B|--------------------------9---12---9---------------------------------|
G|----------------------10---------------10--7-------------------------|
D|---------------9--12----------------------------9---6----------------|
A|--------8--11-------------------------------------------8------------|
E|-7--10------------------------------------------------------7--------|

E|----------------------------------------5-------8--------12----8---16|
B|--------------------------------5-----------5-------10---------------|
G|-----------------------5------------5--------------------------------|
D|---------------7------------7----------------------------------------|
A|------7------------7-------------------------------------------------|
E|--5-------8----------------------------------------------------------|

E|--------------------------------------17--15--13---------------------|
B|-----13--17--13-------15--17--15--13--------------17--15--13---------|
G|-14---------------16-------------------------------------------16----|
D|---------------------------------------------------------------------|
A|---------------------------------------------------------------------|
E|---------------------------------------------------------------------|

E|------------------17--15--13--------------19--17--15-----------------|
B|-----14---17--14--------------17--14--15--------------18--17--15-----|
G|-14------------------------------------------------------------------|
D|---------------------------------------------------------------------|
A|---------------------------------------------------------------------|
E|---------------------------------------------------------------------|

E|------------------------------------17--15---------------------------|
B|--------15------18--17--15------------------18--17--15---------------|
G|----16------16--------------16--17----------------------17--16-------|
D|17-------------------------------------------------------------------|
A|---------------------------------------------------------------------|
E|---------------------------------------------------------------------|

E|---------------------------------------------------------17----------|
B|-----------------18--17--15--------------18------------------16------|
G|-----14--17--14--------------17------16------19--17------------------|
D|-15------------------------------18------------------19--------------|
A|---------------------------------------------------------------------|
E|---------------------------------------------------------------------|

E|----16-------14---------12---------10---------9--------7----5----4---|
B|-17----17-15----15--14-----14--12-----12--10----10--9---9-7--7-5---5-|
G|---------------------------------------------------------------------|
D|---------------------------------------------------------------------|
A|---------------------------------------------------------------------|
E|---------------------------------------------------------------------|

E|-7--4-----0--7--4--------0--7--4--------0---7--4------0--------------|
B|-------5------------5----------------5------------5------------------|
G|---------------------------------------------------------------------|   (2x)
D|---------------------------------------------------------------------|
A|---------------------------------------------------------------------|
E|---------------------------------------------------------------------|

E|-7--4-----0--14--11------0--17--14------0--12--9------0--------------|
B|-------5-------------12-------------15------------10-----------------|
G|---------------------------------------------------------------------|   (4x)
D|---------------------------------------------------------------------|
A|---------------------------------------------------------------------|
E|---------------------------------------------------------------------|

E|-19--16------0--7--4-----0--17--14------0--5--2-----0----------------|
B|---------17-----------5-------------15-----------3-------------------|
G|---------------------------------------------------------------------|   (2x)
D|---------------------------------------------------------------------|
A|---------------------------------------------------------------------|
E|---------------------------------------------------------------------|

E|-22--19-------0---10--7------0---20---17-------0--8--5------0--------|
B|----------20--------------8---------------18------------6------------|
G|---------------------------------------------------------------------|   (2x)
D|---------------------------------------------------------------------|
A|---------------------------------------------------------------------|
E|---------------------------------------------------------------------|

E|-22--19--16------19--16----------------------------------------------|
B|------------18----------18----------18-------------------------------|
G|----------------------------19--16------19----16---------------------|
D|---------------------------------------------------18----------------|
A|---------------------------------------------------------------------|
E|---------------------------------------------------------------------|

E|---------------------------------------------------------------------|
B|---------------------------------------------------------------------|
G|-19---16-------------16----------------------------------------------|
D|----------18---15-------18---15--------18---15------------15---------|
A|----------------------------------17-------------17---14------17-14--|
E|-------------------------------------------------------------------16|

E|----------|----------|--------|-------------------12-----------------|
B|----------|----------|--------|---------5----------------------------|
G|-------2--|----------|--------|------------9-------------------------|
D|-------2--|---2------|--------|------2-----------------14------------|
A|-------0--|---2------|--------|---7----------------------------------|
E|--17------|---0--0---|---0----|-----------------------------0--------|

E|--24---|-------------------------------------------------------------|
B|-------|------------------------------------------9--10--12----------|
G|-------|--------------------------------7--9--10---------------------|
D|-------|-------------------6--7--9--10-------------------------------|
A|-------|----------5--7--8--------------------------------------------|
E|-------|-5--7--8-----------------------------------------------------|

E|-----10--12--13--16--17--19--20--22---24---24---24------29-----------|
B|-13------------------------------------------------------------------|
G|---------------------------------------------------------------------|
D|---------------------------------------------------------------------|
A|---------------------------------------------------------------------|
E|---------------------------------------------------------------------|

----------------- Acordes -----------------
