Aerosmith - Angel

Afinação Meio Tom Abaixo (Somente na tablatura, os acordes estão no tom da música)

Intro: Eb Bb Ab 3x
       Bb Cm Bb Ab Absus Ab ...


E|--------12---------------------------------------------------------
B|-------------------------------------------------------------------
G|-------------------------------------------------------------------
D|-----------------------------------------------9-11br----9--11/14--
A|-----------------------------------------7-9/11--------------------
E|-------------------------------------------------------------------

+--------------------------------------------------12----12---------
+---------------------12br---12---12-12-12-12---12b---12b---12b-----
+-------11----11----------13-------13-13-13-13----------------------
+-11-14----14----14-------------------------------------------------
+-------------------------------------------------------------------
+-------------------------------------------------------------------

+-16------------------------------16b-r-b-r-b-r---12----------------
+-------------------------------------------------------------------
+-------------------------------------------------------------------
+-------------------------------------------------------------------
+-------------------------------------------------------------------
+-------------------------------------------------------------------

+-12r11-------------------------------------------------------------
+------14-12-10-9--------------------------9-10---------------------
+----------------11-9-11--9-11\9-----9-9-9------11--9b--------------
+-----------------------11-------9-11-------------------------------
+-------------------------------------------------------------------
+-------------------------------------------------------------------

1° Verso:

Dedilhado:

      Eb                            Ab             Absus Ab
I'm alone yeah I don't know if can face the night

   E                                A
+---------0---0-----------0---0--|-----5---5---5---------------------
+---------0---0-----------0---0--|-----5---5---5---3---3---2---2-----
+-----1---------------1----------|-----------------2---2---2---2-----
+---2---2---2---2---2---2---2---2|---------------2---2---2---2---2---
+--------------------------------|---7---7---7-----------------------
+-0---------------0--------------|-5---------------------------------

    Eb             Cm                      Gm    Ab
I'm tears and the cryin' that I do is for you

   E               C#m               G#m               A
+---------0---0--|----------------|-----------------|------------------
+---------0---0--|-----5---5---5--|-----4---4---4---|----2---2---2-2---
+-----1----------|-----6---6---6--|-----4---4---4---|----2---2---2-2---
+---2---2---2---2|---6---6---6---6|-------6---6---6-|--2---2---2-------
+----------------|-4--------------|---6-------------|0-----------------
+-0--------------|----------------|-4---------------|------------------

Normal:

Bb          Cm          Ab
I want your love let´s break the wall between us
Bb            Cm          Ab
Don't make if tough I'll put away my pride
Bb        Cm            Ab                          Bb
Enought's enought, I've suffered and I've seen the light

Refrão:

                Eb    Bb Ab                   Bb  Cm  Bb  Ab
Baby, You're my angel       come and save me tonight
          Eb     Bb  Ab                   Bb  Cm   Bb  Ab
You're my angel         come and make it alright


2° Verso (igual ao primeiro)

Don't know what I'm gonna do about this feeling inside
Yes, it's true loneliness took me for a ride
Without your love I'm nothing but a beggar
Without your love I'm a dog without a bone
What can I do? I'm sleepin' in this bed alone

( Refrão )

Solo: Eb Bb Ab Bb Cm Bb Ab


+-------------------------------------------------------------------
+-------------------------------------------------------------------
+--------13-14-13-11/13\11------------------------------------------
+------14-----------------14-11h14p11-----------------9-7-6-6h7p6-7-
+-------------------------------------------------------------------
+-------------------------------------------------------------------

+-------------------------------------------------------------------
+-------------------------------------------------12br--------------
+-----------------------------6---9br------------------------11b----
+----------------------6--9-9---------------------------------------
+-7\4/7-----------7--9----------------------------------------------
+-------------------------------------------------------------------

+-12-------------------------------------------------------------9--
+-12-------------------------------------------------------------9--
+-----------------r11-----------9-9-------------9-11--11b---9-11-9--
+---------------------------9h11---------9-9-9h11-------------------
+-----------------------------------9h11----------------------------
+-------------------------------------------------------------------

+---------------------------------12--------------------------------
+-------------12-----------------------------------10-11-11-11b11.5-
+-9-------11b---------r11----11b----r11-9-11-9-11-------------------
+-----9-------------------11----------------------------------------
+-------------------------------------------------------------------
+-------------------------------------------------------------------

Ponte:

Bb
You're the reason I live
Ab
You're the reason I die
Eb                   Cm
You're the reason I give when I break down and cry
Ab                   Bb
Don't need no reason why,  Baby, baby

                Eb    Bb Ab
Baby, You're my angel
                 Bb Cm   Bb Ab
come and save me tonight
       Bb  Eb   Bb Ab
You're my angel
                  Bb Cm  Bb Ab
come and make it alright
             Bb   Eb   Bb Ab
Baby, You're my angel
                 Bb Cm   Bb Ab
come and save me tonight
       Bb  Eb   Bb Ab
You're my angel
                  Bb Cm  Bb Ab
come and make it alright
                 Bb  Eb
come and save me tonight
                 Bb  Ab
come and save me tonight
                 Bb  Cm
come and save me tonight
                 Bb  Ab
come and save me tonight
                 Bb  Eb
come and save me tonight

Final: Eb Bb Ab Bb Cm Bb Ab Bb Eb Bb

----------------- Acordes -----------------
A = X 0 2 2 2 0
Ab = 4 3 1 1 1 4
Absus = 4 3 1 1 1 4
Bb = X 1 3 3 3 1
C#m = X 4 6 6 5 4
Cm = X 3 5 5 4 3
E = 0 2 2 1 0 0
Eb = X 6 5 3 4 3
G#m = 4 6 6 4 4 4
Gm = 3 5 5 3 3 3
