Aerosmith - Beyond Beautiful

Afinação Drop D ( e B G D A D)

E|-------
B|-------
G|--10---
D|-------
A|-------
D|-------

essa é a introdução, faça duas vezes.


   F
E|-----------------------
B|-----------------------
G|--10p8--10p8---10------
D|------------11----10---
A|-----------------------
D|-----------------------


depois tem algo parecido com isso:

E|--------------------------*
B|--------------------------*
G|-----------77-------------*
D|-0-0--0--0-77--0-0--0-3---*
A|-0-0--0--0-55--0-0--0-3---*
D|-0-0--0--0-----0-0--0-3---*

faça aquilo duas vezes, then this comes in over that

E|----------------------
B|--13---13p12---12/15--
G|----------------------
D|----------------------
A|----------------------
D|----------------------

depois finalize a intro com isso

E|---------
B|---------
G|---------
D|--9--8---(ou coisa parecida)
A|--9--8---
D|--9--8---

para a primeira parte do verso, faça isso:

E|--------------------------
B|-66-66--66-66--66--66-----
G|-55-55--55-55--44--33-----
D|--------------------------
A|--------------------------
D|----------------------(0)-


depois para a segunda parte do verso, faça a parte com asteriscos que está lá em cima.


refrão:


      yeah, she's'a beyond beautiful, yeah she never been no body's
E|------------------------------------------------------------------
B|------------------------------------------------------------------
G|------------------------------------------------------------------
D|-11----------------------6--------8------------------------3------
A|-11----------------------6--------8------------------------3------
D|-11----------------------6--------8------------------------3------

     fool that you be stuck with, yeah, it's all about me and you
E|-------------------------------------------------------------------
B|-------------------------------------------------------------------
G|-------------------------------------------------------------------
D|---6---------------------------11--------------------6-------------
A|---6---------------------------11--------------------6-------------
D|---6---------------------------11--------------------6-------------

     believe it or not, this love that we got, is beyond beautiful
E|-------------------------------------------------------------------
B|-------------------------------------------------------------------
G|-------------------------------------------------------------------
D|------8-----------------------------------------10-----13----------
A|------8-----------------------------------------10-----13----------
D|------8-----------------------------------------10-----13----------

Solo:

E|---------------------------------------------------------------------
B|------------------------------------------13p12p10-13p12p10-13p12p10-
G|--14-12-14-12-14-12-14-----------13h14h15----------------------------
D|------------------------13h14h15-------------------------------------
A|---------------------------------------------------------------------
D|---------------------------------------------------------------------

E|--13p12p10-13p12p10-13p12p10-10-----b15r-13-------------13-----------
B|--------------------------------------------15p13----13----15p13--15-
G|--------------------------------------------------14-----------------
D|---------------------------------0-----------------------------------
A|---------------------------------------------------------------------
D|---------------------------------------------------------------------

E|------------------
B|----13-------13---
G|-14----12h14------
D|------------------
A|------------------
D|------------------

i'm not sure of the rest of the fast part there..so sue me, but the fast part ends like this:

E|---------------------------------------------------------------------
B|-13/15-15-15-15-15---------------------------------------------------
G|---------------------------------------------------------------------
D|--------------------------13-13--------13----------------------------
A|--------------------13h15--------13h15----15p13-13--11/15------------
D|-----------------------------------------------------------15--3/----back 
into chorus.
