Aerosmith - Draw The Line

E5 Fill
Checkmate honey; beat you at your own damn game
E5 Fill
No dice honey i'm living on a astral plane
E5 Fill
Feet's on the ground, and your head's going down the drain
 D5                  E5            G5
Oh,heads I win, tails you lose to the nevermind,
                        Fillx2
when to draw the line.
E5 Fill
Indian summer Carrie was all over the floor
E                                                       Fill
She was a wet net winner and rarely ever left the store
E5 Fill
She'd sting and dance all night and wrong all the right out of me
D5                      E5            G5
Pass me the vile and cross your fingers I don't take time
                        Fill
No where to draw the line


Solo     E5 A5
E5 Fill
Hiho Silver we were singing all your cowboy songs
E5 Fill
You told Carrie and promised her you wouldn't be long.
D5               E5                G5
Heads I win tails you lose Lord it's such a crime.
D5             E5                     G5
No dice honey you the salt you're the queen of the brine
E5            D5              E5
Checkmate honey you the only one who's gotta choose
                        Fill
where to draw the line.

----------------- Acordes -----------------
A5 = X 0 2 2 X X
D5 = X 5 7 7 X X
E5 = 0 2 2 X X X
G5 = 3 5 5 X X X
