Aerosmith - Dude Looks Like A Lady

  This is the intro and the main riff:

 Riff1/Guitar1:
      |  |  |  |  |  |  |  |     |  |  |  |  |  |  |  |
 e||--------------------------|-----2--------3-----2-----||
 H||--------------------------|-----3--------3-----3-----||
 G||--2-----2--------2--2--0--|--------2--2--------------||
 D||--2-----2--5-----2--2--0--|--0-----0--0-----0--------||
 A||--0-----0--5-----0--0-----|--------------------------||
 E||-----------3--------------|--------------------------||

 Riff2/Guitar2(later):
      |  |  |  |  |  |  |  |     |  |  |  |  |  |  |  |
 e||--------------------------|--------------------------||
 H||--------------------------|--------------------------||
 G||--------------------------|--------------------------||
 D||--------------------------|--7--9--7--7--10----9-----||
 A||--7-----7--5-----7--7--5--|--5--5--5--5--7--7--7--7--||

 E||--5-----5--3-----5--5-----|--------------------------||

                                ^......................^
                                  use palm mute in the
                                 second part of the verse

  Notes:
  Riff2 is the "real" main riff, you should play Riff1 only in the intro.

----------------- Acordes -----------------
A = X 0 2 2 2 0
D = X X 0 2 3 2
E = 0 2 2 1 0 0
G = 3 2 0 0 0 3
