Aerosmith - Hearts Done Time

INTRO
E |--------------|
B |--------------|
G |--------------|
D |--------------|
A |-0h2-0h2p0h2--|
E |--------------|

E |-------------------------0--|
B |---------------0h3p0h5p0----|
G |----------------------------|
D |-2---------2-2--------------|
A |-2---------2-2--------------|
E |-0-3p0-3p0-0-0--------------|

VERSE
E |----------------------|
B |----------------------|
G |-2-4-4-4-x-x-2-2-4-4--|
D |-2-4-4-4-x-x-2-2-4-4--|
A |-0-2-2-2-x-x-0-0-2-2--|
E |----------------------|


CHORUS
E |-------------------------------------------------------------------------0|
B |----------------------------------------------------------------0h3p0h5p0-|
G |-14-11-9-7-11--11-7--2-4-4-4--14-11-9-7-11--11-9--------------------------|
D |-14-11-9-7-11--11-7--2-4-4-4--14-11-9-7-11--11-9--2---------2-2-----------|
A |-12-9--7-5-9---9--9--0-2-2-2--12-9--7-5-9---9--7--2---------2-2-----------|
E |--------------------------------------------------0-3p0-3p0-0-0-----------|

----------------- Acordes -----------------
