Aerosmith - Legendary Child

Intro Parte 1:
E|-------------------------------
B|-------------------------------
G|--9~~~~------------------------
D|-------------------------------
A|-------------------------------
E|-------------------------------

E|---------10~----------------------------10-9-------12-11----10~
B|-9-10-12--------9-10-12---------9-10-12------------------12----
G|------------------------11~------------------11/13-------------
D|---------------------------------------------------------------
A|---------------------------------------------------------------
E|---------------------------------------------------------------

E|---------10~----------------------------10-9-------12-11-------
B|-9-10-12--------9-10-12---------9-10-12------------------12----
G|------------------------11~------------------11/13-------------
D|---------------------------------------------------------------
A|---------------------------------------------------------------
E|---------------------------------------------------------------


E|-10-----------------------------------
B|-13b15-------------------------------- (6x)
G|--------------------------------------
D|--------------------------------------
A|--------------------------------------
E|--------------------------------------

Intro Parte 2 - Riff:
E|--------------------------------------
B|------------------------------------5-
G|-------------------------------------- (2x)
D|---2---------2-----2---------2--------
A|--------------------------------5b7---
E|-0---0-3p0-0-----0---0-3p0-0----------

E|--------------------------------------
B|--------------------------------------
G|--------------------------------------
D|---2---------2-----2---------2--------
A|--------------------------------------
E|-0---0-3p0-0-----0---0-3p0-0----------
  Legen            dary...

E|--------------------------------------
B|--------------------------------------
G|--------------------------------------
D|---2---------2-----2---------2--------
A|--------------------------------------
E|-0---0-3p0-0-----0---0-3p0-0----------
  Child...       I’ll tell you what I’m talking about

Verso:
E|--------------------------------------
B|--------------------------------------
G|--------------------------------------
D|---2---------2-----2---------2-------- (2x)
A|--------------------------------------
E|-0---0-3p0-0-----0---0-3p0-0----------
Making love at 17, yeah we had the luck
But we traded dem toys for other joys And we didn’t give a (whoah)

E|------------------------------------------------
B|------------------------------------------------
G|------------------------------------------------
D|---2---------2-----------2---------2------------ (2x)
A|---------------2/10~----------------------------
E|-0---0-3p0-0-----------0---0-3p0-0----5/10~-----
I took a chance at the high school dance Never knowing wrong from right
And that same show 40 years ago Being televised tonight

Pré Refrão:
     A5                 G5             E5
E|----12----12----12----10---10---10---7---7---7---7---7---7
B|-10----10----10-----8----8----8----5---5---5---5---5---5--
G|----------------------------------------------------------
D|----------------------------------------------------------
A|----------------------------------------------------------
E|----------------------------------------------------------
Cause getting from inside my head to the Taj Mahal

     A5                 G5
E|----12----12----12----10---10---10--10-8---7---5---3---
B|-10----10----10-----8----8----8----------8---5---5-----
G|-------------------------------------------------------
D|-------------------------------------------------------
A|-------------------------------------------------------
E|-------------------------------------------------------
I went from never having none to want to have it all

     A5                 G5             E5         D5
E|----12----12----12----10---10---10---7---7---7---5---5---5
B|-10----10----10-----8----8----8----5---5---5---3---3---3--
G|----------------------------------------------------------
D|----------------------------------------------------------
A|----------------------------------------------------------
E|----------------------------------------------------------
I wanna keep that dream alive And eat that honey from the hive
With all the noise and all the glamour No surprise, you know I am a

Refrão 1:
E|------------------------------------------------
B|------------------------------------------------
G|------------------------------------------------
D|---2---------2-------5~---2---------2-----------
A|---------------5-4-5------------------4-5-4-5-4~
E|-0---0-3p0-0------------0---0-3p0-0-------------
   Legendary...

E|------------------------------------------------
B|------------------------------------------------
G|------------------------------------------------
D|---2---------2-------5~---2-----------2---------
A|---------------5-4-5----------------------------
E|-0---0-3p0-0------------0---0-3p0-0-------------
  Child...                I think a what I’m trying to say

Verso 2:
E|--------------------------------------
B|--------------------------------------
G|--------------------------------------
D|---2---------2-----2---------2-------- (2x)
A|--------------------------------------
E|-0---0-3p0-0-----0---0-3p0-0----------
Sticks and stones may break your bones At least they’ll rearrange
I’ll drop a dime, and every time, I get myself a nickel’s change

E|------------------------------------------------
B|------------------------------------------------
G|------------------------------------------------
D|---2---------2-----------2---------2------------ (2x)
A|---------------2/10~----------------------------
E|-0---0-3p0-0-----------0---0-3p0-0----5/10~-----
They say we don’t know jack At the plant we proved them wrong
We traded in our soul tonight and sold them for a song

Pré Refrão:
     A5                 G5             E5
E|----12----12----12----10---10---10---7---7---7---7---7---7-
B|-10----10----10-----8----8----8----5---5---5---5---5---5---
G|-----------------------------------------------------------
D|-----------------------------------------------------------
A|-----------------------------------------------------------
E|-----------------------------------------------------------
And if Satan had a lady friend it was Mary Jane

     A5                 G5
E|----12----12----12----10---10---10--10-8---7---5---3---
B|-10----10----10-----8----8----8----------8---5---5-----
G|-------------------------------------------------------
D|-------------------------------------------------------
A|-------------------------------------------------------
E|-------------------------------------------------------
I never wondered why she tried to drive us quite insane

     A5                 G5             E5         D5
E|----12----12----12----10---10---10---7---7---7---5---5---5-
B|-10----10----10-----8----8----8----5---5---5---3---3---3---
G|-----------------------------------------------------------
D|-----------------------------------------------------------
A|-----------------------------------------------------------
E|-----------------------------------------------------------
And how we got that golden fleece From toking on that pipe of peace
Yea as far as I can see There is a God 'cause I got me a

Refrão 2:
E|--------------------------------------
B|--------------------------------------
G|--------------------------------------
D|---2---------2-----2---------2--------
A|--------------------------------------
E|-0---0-3p0-0-----0---0-3p0-0----------
  Legen...         dary

E|------------------------------------------------
B|------------------------------------------------
G|------------------------------------------------
D|---2---------2-------5~---2----------2----------
A|---------------5-4-5----------------------------
E|-0---0-3p0-0------------0---0-3p0-0-------------
  Child...

E|--------------------------------------
B|--------------------------------------
G|--------------------------------------
D|---2---------2-----2---------2--------
A|--------------------------------------
E|-0---0-3p0-0-----0---0-3p0-0----------
  Legen...         dary                   Child...

Intro:
E|---------10~----------------------------10-9-------12-11----10~
B|-9-10-12--------9-10-12---------9-10-12------------------12----
G|------------------------11~------------------11/13-------------
D|---------------------------------------------------------------
A|---------------------------------------------------------------
E|---------------------------------------------------------------

E|---------10~----------------------------10-9-------12-11-------
B|-9-10-12--------9-10-12---------9-10-12------------------12----
G|------------------------11~------------------11/13-------------
D|---------------------------------------------------------------
A|---------------------------------------------------------------
E|---------------------------------------------------------------

E|-10----------------------------
B|-13b15------------------------- (6x)
G|-------------------------------
D|-------------------------------
A|-------------------------------
E|-------------------------------

Solo 3x: A5 B5 C5 D5

Refrão 3:
E|------------------------------------------------
B|------------------------------------------------
G|------------------------------------------------
D|---2---------2-----------2---------2------------ (4x)
A|---------------2/10~----------------------------
E|-0---0-3p0-0-----------0---0-3p0-0----5/10~-----
  Legendary....
  Child....

E|------------------------------------------------
B|------------------------------------------------
G|------------------------------------------------
D|---2---------2-----------2---------2------------ (4x)
A|---------------2/10~----------------------------
E|-0---0-3p0-0-----------0---0-3p0-0----5/10~-----
              Whoa.....             Whoa.....

E|--------------------------------------
B|--------------------------------------
G|--------------------------------------
D|---2---------2-----2---------2-------- (4x)
A|--------------------------------------
E|-0---0-3p0-0-----0---0-3p0-0----------

----------------- Acordes -----------------
A5 = X 0 2 2 X X
B5 = X 2 4 4 X X
C5 = X 3 5 5 X X
D5 = X 5 7 7 X X
E5 = 0 2 2 X X X
G5 = 3 5 5 X X X
