Aerosmith - Shame On You

(intro)

Riff 1:
E |------------------|---------------|------------------|-PH----------------|
B |------------------|---------------|------------------|-------------------|
G |------------------|-------12~~~~~-|------------------|----------12~~~~~~-|
D |------7-----------|-12h14---------|------7-----------|-14-12h14----------|
A |--4h5---5p4-------|---------------|--4h5---5p4-------|-------------------|
E |------------5p0---|---------------|------------5p0---|-------------------|

E |------------------|---------------|------------------|-------------------|
B |------------------|---------------|------------------|-------------------|
G |------------------|-------12~~~~~-|------------------|----------12~~~~~~-|
D |------7-----------|-12h14---------|------7-----------|-14-12h14----------|
A |--4h5---5p4-------|---------------|--4h5---5p4-------|-------------------|
E |------------5p0---|---------------|------------5p0---|-------------------|

Play Riff 1 twice for Intro

Verse
Riff 2:

E |------------------|---------------|------------------|-------------------|
B |------------------|---------------|------------------|-------------------|
G |------------------|---------------|------------------|-------------------|
D |------7---------5-|(5)--7---------|------7---------5-|(5)--7-------------|
A |--4h5---5p4-----5-|(5)--7---------|--4h5---5p4-----5-|(5)--7-------------|
E |------------5---3-|(3)--5---------|------------5---3-|(3)--5-------------|

E |------------------|---------------|------------------|-------------------|
B |------------------|---------------|------------------|-------------------|
G |------------------|---------------|------------------|-------------------|
D |------7---------5-|(5)--7---------|------7---------5-|(5)--7-------------|
A |--4h5---5p4-----5-|(5)--7---------|--4h5---5p4-----5-|(5)--7-------------|
E |------------5---3-|(3)--5---------|------------5---3-|(3)--5-------------|

Then Chorus with Riff 1 once
Verse and chorus play over again a few times to the out-chorus (same as the chorus but
out).