Aerosmith - Sweet Emotion

(intro)
|---------------------------|-------------------------|
|---------------------------|-------------------------|
|---------------------------|-------------------------| (8x)
|---------------------------|-------------------------|
|-------------4^(0)-0-3^(0)-|-------------4^(0)-3^(0)-|
|---3--5-5------------------|---3--5-5----------------|

(intro 2)
|------------------------------|---------------------------------|
|------------------------------|---------------------------------|
|------------------------------|---------------------------------| (4x)
|---2--2----2-----------2------|---2--2----2-----------2---------|
|---0--0----0--3--0-----0------|---0--0----0--3--0-----0---------|
|--------------------3-----(3)-|--------------------3-----(3)----|

(riff)
|---------------------------|---------------------------|
|---------------------------|---------------------------|
|---------------------------|---------------------------|
|---------------------------|---------------------------|
|--4-2-0--------------------|--4-2-0--------------------|
|---------0-2---2-3---3-3-4-|---------0-2---2-3---3-3-4-|


|---------------------------|---------------------------|
|---------------------------|---------------------------|
|---------------------------|---------------------------|
|---------------------------|---------------------------|
|--4-2-0--------------------|--4-2-0--------------------|
|---------0-2---2-3---3-3-4-|---------0-2---3---4---5---|

(intro)
         "sweet emotion
          sweet emotion
(intro 2)
"talk about things and nobody cares
wearin' out things that nobody wears
callin' my name but i gotta make clear
i can't say baby where i'll be in a year"

(riff)

(intro 2)
"some (sweat hoggin')? mama with a face like a gent
said my get up and go must've got up and went
well i got good news she's a real good liar
'cause a backstage a boogie set ya pants on fire"

(riff)

(intro)
"sweet emotion
sweet emotion"

(intro 2)
"i pulled into town in a police car
your daddy said i took you just a little too far
you tell 'em them things but your girlfriend lied
you can't catch me 'cause the rabbit done died (yes it did)"

(riff)

(intro 2)
"stand in the front just a shakin' your ass
i take you backstage you can drink from my glass
i talk about something you can sure understand
'cause a month down the road i'll be eatin' from your hand"

(riff) (no final do riff puxe a 6º corda, como aparece a baixo)

|---------------------------|---------------------------|
|---------------------------|---------------------------|
|---------------------------|---------------------------|
|---------------------------|---------------------------|
|--4-2-0--------------------|--4-2-0--------------------|
|---------0-2---2-3---3-3-4-|---------0-2^--------------|

(intro)
