Aerosmith - The Farm

intro: Em - C7
       Em - C7

Joe Perry plays this during the C7:
e|-----------------
B|-----------------
G|-3-3-3-3-3-3-2-0-
D|-----------------
A|-----------------
E|-----------------

verse:

   E|--7--7--7------6--6--5--------------------------------|
   B|--5--5--8--5---5--5--5--8-8b----r~~~~~~~--------------|
   G|------------------------------------------------------|
   D|------------------------------------------------------|
   A|------------------------------------------------------|
   E|------------------------------------------------------|

repeat that several times, then play this:


   E|--7--7--7------6--6--5--------------------------------|
   B|--5--5--8--5---5--5--5--8--5~~~~~~~~------------------|
   G|------------------------------------------------------|
   D|------------------------------------------------------|
   A|------------------------------------------------------|
   E|------------------------------------------------------|

A      B              C
           There's a cockroach in my coffee
A      B              C
           There's a needle in my arm
A      B              C
           And I feel like New York City
A      B            Em
                        Take me to the farm

(and I think the Buckle up straight jack part starts with:)

A     G    A                      G
           Buckle up straightjack sanity is such a drag
F#    F

----------------- Acordes -----------------
A = X 0 2 2 2 0
B = X 2 4 4 4 2
C = X 3 2 0 1 0
C7 = X 3 2 3 1 X
Em = 0 2 2 0 0 0
F = 1 3 3 2 1 1
F# = 2 4 4 3 2 2
G = 3 2 0 0 0 3
