Bob Marley - Corner Stone

        B                  E         B
        the stone taht the builder refused
        E           B      E           B      E
        will always be the head conerstone
        B                  E         B
        the stone that the builder refused
        E           B      E           B      E
        will always be the head cornerstone

        C#m                    B
         you're a builder, oh, la di la
        C#m                 B
         here i am a stone
        C#m                  B
         don't you think and refuse me
        B           E     B      E
         cause the things people refuse
        B         E     B           E
         are the things they should refuse
        F#
         do you hear me, hear what i say


        B                  E         B
        the stone taht the builder refused
        E           B      E           B      E
        will always be the head conerstone
        B                  E         B
        the stone that the builder refused
        E           B      E           B      E
        will always be the head cornerstone


        i can be soft as a pillow
        weep like a willow
        caress and bring happiness
        don't refuse me, don't you refuse
        don't don't don't you refuse

----------------- Acordes -----------------
B = X 2 4 4 4 2
C#m = X 4 6 6 5 4
E = 0 2 2 1 0 0
F# = 2 4 4 3 2 2
