Fresno - Revanche

D#|---------------------------
A#|---------------------------
F#|----10--------------------
C#|------------8-------5-----
G#|----8------8-------5------
C#|------------8-------5-----

D#|-----------------------------|
A#|-----------------------------|
F#|-----------------------------|
C#|---------------------0-0-0-0-|
G#|--------3-------5---0-0-0-0--|
C#|-3-2-3---3-2-3-----0-0-0-0---|

(verso)

D#|-------------------------------|
A#|-------------------------------|
F#|--7---6---5---4----------------|
C#|--------------------8-----5--0-|
G#|-5---4---3---2----8-----5--0---|
C#|--------------------8-----5--0-|


(repete o riff)

(2ª parte do verso)
D#|-------------------------------|
A#|-------------------------------|
F#|--7---6---5---4----------------|
C#|--------------------8-----10---|
G#|-5---4---3---2----8-----10-----|
C#|--------------------8-----10---|

(refrão)
D#|-----------------------------------|
A#|-----------------------------------|
F#|--------------------8--------------|
C#|--8---5------0-----------8---5-----|
G#|--8---5------0----6-----8---5------|
C#|--8---5------0-----------8---5-----|

----------------- Acordes -----------------
