Maneva - Meu Pai É Rastafar-I

[Intro] Em  C  B
        Em  C  B
        Em  C  B
        Em  C  B

[Riff]

E|----------------------------------------------------|
B|----------------------------------------------------|
G|----------------------------------------------------|
D|--------10--9---------10--9-------------------------|
A|-7-7-7---------7-7-7--------------------------------|
E|----------------------------------------------------|

E|----------------------------------------------------|
B|----------------------------------------------------|
G|----------------------------------------------------|
D|----------------------------------------------------|
A|-------10----10---------9----9----------------------|
E|-8-8-8----8------7-7-7-----7------------------------|


[Primeira Parte]

                Em
Depois de três meses que minha mãe acabara de falecer
     C                          B                        Em    C  B
Recebi uma carta de quem eu pensei que nunca mais iria aparecer
        Em
Quando li tinha palavras amargas
          C                    B                   Em
Podia sentir o papel ainda molhado de lágrimas ou coisa assim
                 C  B
A carta dizia assim

[Segunda Parte]

 Em
Cansei de São Paulo
Resolvi mudar de estado
       C          B
Pra poder espairecer
            Em
Deixei meu cabelo crescer
A minha barba por fazer
       C
Não sabia se ia engordar
      B
Ou se ia emagrecer
         Em
Até que pensei
Como um cara da minha idade
                    C
Tive você com dezesseis
                   B
Precisava de mais liberdade
   Em
Subi num caminhão e sem direção
 C
Como um covarde
        B
Eu cheguei no Maranhão
        Em
Aqui estava mais confiante e feliz
             C
Com vários amigos
                    B
Fazendo um reggae raiz
    Em
Mandei essa carta
Pra você não se espantar
        C
Aqui está meu endereço
       B
Venha me visitar

[Pré-Refrão]

Am        Em
 Fui visitá-lo
E ele estava bem mudado
                C
De cabelo rastafari
                 B
Enrolando um baseado
                    Em
Foi aí que eu percebi
Que ele estava mais lesado
              C
Com idéias rebeldes
                   B
Com o olho avermelhado
       Em
Perguntei por que tinha isso na mão
               C
Se quando eu usava
                  B
Me diziam que não era bom
         Em
E respondeu, humildemente
            C
Faça sua cabeça
                  B
E se sente com a gente

[Refrão]

           Em        C  B
Meu pai é Rastafar-I
           Em        C  B
Meu pai é Rastafar-I
           Em        C  B
Meu pai é Rastafar-I
           Em        C  B
Meu pai é Rastafar-I

[Solo] Em  C  B
       Em  C  B
       Em  C  B
       Em  C  B

E|-19-15h17p15------15--------------------------------|
B|--------------17------17--15-17-17~--17-15------15--|
G|--------------------------------------------16------|
D|----------------------------------------------------|
A|----------------------------------------------------|
E|----------------------------------------------------|

E|-----15p14-15-14------------------------------------|
B|-17---------------15------15/17--15-12-15-15--------|
G|----------------------16----------------------------|
D|----------------------------------------------------|
A|----------------------------------------------------|
E|----------------------------------------------------|

E|----------------------------------------------------|
B|-12-15-12-------------------------------------------|
G|-----------15-14--12h14--------------------------12-|
D|-------------------------14-17-14---------12-14-----|
A|-----------------------------------12-14------------|
E|----------------------------------------------------|

E|-------12-------12-------12-------------------------|
B|----12-------12-------12----15-17-15------15-17-----|
G|-14-------14-------14-----------------16------------|
D|----------------------------------------------------|
A|----------------------------------------------------|
E|----------------------------------------------------|

E|----------------------------------------------------|
B|-15-17-15----17-15-17-15-17-20-20-20-17----17-------|
G|----------16----------------------------19----19-16-|
D|----------------------------------------------------|
A|----------------------------------------------------|
E|----------------------------------------------------|

E|----------------------------------------------------|
B|----------------------------------------------------|
G|-19-16------16--------------------------------------|
D|--------19------19-17-19-17------17-----------------|
A|-----------------------------19------19-17----------|
E|----------------------------------------------------|

E|----------------------------------------------------|
B|----------------------------------------------------|
G|----------------------------------------------------|
D|----------------------------17----17----------------|
A|-19-17----17----17-19-17-19----19-------------------|
E|-------19----19-------------------------------------|

E|----------------------------------------------------|
B|----------------------------------------------------|
G|----------------------------------------------------|
D|-19-17-19-17----------------------------------------|
A|-------------19-17--19~-----------------------------|
E|----------------------------------------------------|

[Segunda Parte]

 Em
Cansei de São Paulo
Resolvi mudar de estado
       C          B
Pra poder espairecer
            Em
Deixei meu cabelo crescer
A minha barba por fazer
       C
Não sabia se ia engordar
      B
Ou se ia emagrecer
         Em
Até que pensei
Como um cara da minha idade
                    C
Tive você com dezesseis
                   B
Precisava de mais liberdade
   Em
Subi num caminhão e sem direção
 C
Como um covarde
        B
Eu cheguei no Maranhão
        Em
Aqui estava mais confiante e feliz
             C
Com vários amigos
                    B
Fazendo um reggae raiz
    Em
Mandei essa carta
Pra você não se espantar
        C
Aqui está meu endereço
       B
Venha me visitar

[Pré-Refrão]

Am        Em
 Fui visitá-lo
E ele estava bem mudado
                C
De cabelo rastafari
                 B
Enrolando um baseado
                    Em
Foi aí que eu percebi
Que ele estava mais lesado
              C
Com idéias rebeldes
                   B
Com o olho avermelhado
       Em
Perguntei por que tinha isso na mão
               C
Se quando eu usava
                  B
Me diziam que não era bom
         Em
E respondeu, humildemente
            C
Faça sua cabeça
                  B
E se sente com a gente

[Refrão]

           Em        C  B
Meu pai é Rastafar-I
           Em        C  B
Meu pai é Rastafar-I
           Em        C  B
Meu pai é Rastafar-I
           Em        C  B
Meu pai é Rastafar-I

[Final] Em  C  B
        Em  C  B
        Em  C  B
        Em  C  B

E|----------------------------------------------------|
B|-12-10----------------------------------------------|
G|--------12-11-12-11-9------9------------------------|
D|-----------------------12-----12-9------------------|
A|------------------------------------12-10-----------|
E|----------------------------------------------------|

E|----------------------------------------------------|
B|----------------------------------------------------|
G|--------------------------7-9-----------------------|
D|---------7-9--7------7-9---------------7-9--7-------|
A|-7-9-10----------10------------7-9-10----------10---|
E|----------------------------------------------------|

E|----------------------------------------------------|
B|----------------------------------------------------|
G|-------------------------------------7-9------------|
D|--------------------7-9--7------7-9-----------------|
A|-9-7-7/9-7--7-9-10----------10----------------------|
E|----------------------------------------------------|

E|----------------------------------------------------|
B|--------10-12-10------------------------10-12-10----|
G|-9-11-12---------12-11-9-9/11-9--9-11-12---------12-|
D|----------------------------------------------------|
A|----------------------------------------------------|
E|----------------------------------------------------|

E|--------10-12---------------------------------------|
B|-10-12-----------------10-12-10---------------------|
G|---------------9-11-12---------12--11-9-9/11-9------|
D|----------------------------------------------------|
A|----------------------------------------------------|
E|----------------------------------------------------|

E|-------------------------------10-12~---------------|
B|----------10-12-10------10-12-----------------------|
G|-9-11-12------------12------------------------------|
D|----------------------------------------------------|
A|----------------------------------------------------|
E|----------------------------------------------------|

----------------- Acordes -----------------
A = X 0 2 2 2 0
B = X 2 4 4 4 2
C = X 3 2 0 1 0
Em = 0 2 2 0 0 0
