Corinhos Evangélicos - Jesus, Neste Nome Há Poder

 A                  F#m
Jesus, Neste nome há poder
 D                  E
Jesus, Neste nome há poder

 A                  F#m
Jesus, Neste nome há poder
 D                  E
Jesus, Neste nome há poder

       A                   F#m
E Ele está aqui e vai te abençoar
                               D
O nosso Deus é fogo ele vai te queimar
                                E
E com o Espírito Santo Ele vai batizar


----------------- Acordes -----------------
A = X 0 2 2 2 0
D = X X 0 2 3 2
E = 0 2 2 1 0 0
F#m = 2 4 4 2 2 2
