Eagles - Love Will Keep us Alive

Intro: A-F#m-D-E-A

A
I was standing
                      F#m
All alone against the world outside
         D
You were searching
               E
For a place to hide
         A
Lost and lonely
                     F#m
Now you given me the will to survive
           D         E                 A
When we're hungry... love will keep us alive

(Do Stanza Chords A-F#m-D-E-A)

Don't you worry
Sometimes you've just gotta let it ride
The world is changing
Right before your eyes
Now I've found you
There's no more emptiness inside
When we're hungry... love will keep us alive

        D
I would die for you
F#m
Climb the highest mountain
Bm                               E-D-C#m-B
Baby, there's nothing I wouldn't do

(Do Stanza Chords A-F#m-D-E-A)
Now I've found you
There's no more emptiness inside
When we're hungry... love will keep us alive

        D
I would die for you
F#m
Climb the highest mountain
Bm                               E-D-C#m-B
Baby, there's nothing I wouldn't do

(Do Stanza Chords A-F#m-D-E-A)
I was standing
All alone against the world outside
You were searching
For a place to hide
Lost and lonely
Now you given me the will to survive
When we're hungry... love will keep us alive
When we're hungry... love will keep us alive
When we're hungry... love will keep us alive

===================================

VERSÃO 2:


VERSE :
-------
  [----------------- Fill I ------------------------]
  Asus2                      Asus2
e:-------0--------------0--|-------0--------------0--|
B:----------0--------0-----|----------0--------0-----|
G:----------------2--------|----------------2--------|
D:----2--------------------|----2--------------------|
A:-0-----------------------|-0-----------------------|
E:-------------------------|-------------------------|
...standing                  All alone...

  Esus4/F#                   Esus4/F#
e:-------0--------------0--|-------0--------------0--|
B:----------0--------0-----|----------0--------0-----|
G:----------------2--------|----------------2--------|
D:----2--------------------|----2--------------------|
A:-------------------------|-------------------------|
E:-2-----------------------|-2-----------------------|
...world outside

  E7sus4/B                   E7sus4/B
e:-------0--------------0--|-------0--------------0--|
B:----------0--------0-----|----------0--------0-----|
G:----2-----------2--------|----2-----------2--------|
D:-------------------------|-------------------------|
A:-2-----------------------|-2-----------------------|
E:-------------------------|-------------------------|  End of VERSE
...searching..                  ...for a place...

 [------------------- Fill II ----------------------]
  E                          E
e:-------0--------------0--|--------------------0----|
B:----------0--------0-----|----------0------0-------|
G:----------------1--------|-------1-----1h2------2--|
D:----2--------------------|----2--------------------|
A:-------------------------|-------------------------|
E:-0-----------------------|-0-----------------------|
...hide

 [------- Fill III -------]
e:-------0-----------0-----|
B:----------1-----------1--|
G:----------------2--------|
D:----2--------------------|
A:-------------2-----------|
E:-0-----------------------|
   Love    ....keep

CHORUS:
-------
  D                          D
e:-------2--------------2--|--------2--------------2--|
B:----------3--------3-----|-----------3--------3-----|
G:----2-----------2--------|-----2-----------2--------|
D:-0-----------------------|--0-----------------------|
A:-------------------------|--------------------------|
E:-------------------------|--------------------------|
 ..die for you..            ..highest mountain

  F#m                        F#m
e:-------2--------------2--|--------2--------------2--|
B:----------2--------2-----|-----------2--------2-----|
G:----------------2--------|-----------------2--------|
D:----4--------------------|-----4--------------------|
A:-------------------------|--------------------------|
E:-2-----------------------|--2-----------------------|

  Bm7                        Bm7
e:-------2--------------2--|--------2--------------2--|
B:----------3--------3-----|-----------3--------3-----|
G:----------------2--------|-----------------2--------|
D:----4--------------------|-----4--------------------|
A:-2-----------------------|--2-----------------------|
E:-------------------------|--------------------------|

  E
e:----------0-----------0-----------0-------|
B:-------0-----------0-----------0----------|
G:----1-----------1-----------1-------------|
D:-------------0----------------------------|
A:-------------------------4-----------2----|
E:-0----------------------------------------|  END of CHORUS


END:
----
  Asus2  X 3                 Asus2
e:-------0--------------0--|----0--------------------|
B:----------0--------0-----|----0--------------------|
G:----------------2--------|----2--------------------|
D:----2--------------------|----2--------------------|
A:-0-----------------------|----0--------------------|
E:-------------------------|-------------------------|


Intro : Verse + Fill II
-----

Verse + Fill II :
----------------
                 I was standing
                 All alone against the world outside
                 You were searching
                 For a place to hide
Verse + Fill III:
----------------
                 Lost and lonely
                 Now you've given me the will to survive
                 When we're hungry...love will keep us alive
Fill I :
--------
Verse + Fill II :
----------------
                 Don't you worry
                 Sometimes you've just gotta let it ride
                 The world is changing
                 Right before your eyes
Verse + Fill III :
-----------------
                 Now I've found you
                 There's no more emptiness inside
                 When we're hungry...love will keep us alive
Fill I :
--------
     CHORUS     :
     ------------
                 I would die for you
                 Climb the highest mountain
                 Baby, there's nothing I wouldn't do
Verse + Fill III :
-----------------
                 Now I've found you
                 There's no more emptiness inside
                 When we're hungry...love will keep us alive
SOLO
----
     CHORUS     :
     ------------
                 I would die for you
                 Climb the highest mountain
                 Baby, there's nothing I wouldn't do
Verse + Fill II  :
-----------------
                 I was standing
                 All alone against the world outside
                 You were searching
                 For a place to hide
Verse + Fill III + END :
-----------------------
                 Lost and lonely
                 Now you've given me the will to survive
                 When we're hungry...love will keep us alive    X 3


=============================

VERSÃO 3:

A                                    F#
-----0----------0--|-----0---------0-|-----0---------0-|-----0---------0---   
-------0------0----|-------0-----0---|-------0-----0---|-------0-----0-----  
---2--------2------|---2-------2-----|---2-------2-----|---2-------2------- 
-------------------|-----------------|-----------------|------------------- 
-0-----------------|-0---------------|-----------------|------------------- 
-------------------|-----------------|-2---------------|-2----------------- 

D                                    E
-----0----------0--|-----0---------0-|-----0---------0-|-----0-----------0 
-------0------0----|-------0-----0---|-------0-----0---|-------0-------0-- 
---2--------2------|---2-------2-----|---1-------1-----|---1-------1_2---- 
-0-----------------|-0---------------|-----------------|------------------ 
-------------------|-----------------|-----------------|------------------ 
-------------------|-----------------|-0---------------|-0---------------- 


Chorus goes as follows:

D                                    Gb Minor
-----2----------2--|-----2---------2-|-----2---------2-|-----2---------2-- 
-------3------3----|-------3-----3---|-------2-----2---|-------2-----2---- 
---2--------2------|---2-------2-----|---2-------2-----|---2-------2------ 
-0-----------------|-0---------------|-----------------|------------------ 
-------------------|-----------------|-----------------|------------------ 
-------------------|-----------------|-2---------------|-2---------------- 


Bsus                                                   
-----2----------2--|-----2---------2-|-------0-------0-|-------0---------- 
-------0------0----|-------0-----0---|-----0-------0---|-----0------------ 
---2--------2------|---2-------2-----|---1-------1-----|---1-------------- 
-------------------|-----------------|-2-------0-------|------------------ 
-2-----------------|-2---------------|-----------------|-4-------2-------- 
-------------------|-----------------|-----------------|------------------ 

Don Felder's Solo goes as follows (use main chord progressions):

(with slide on electric guitar, reverb and chorus (?) )

        A                 F#                  D                        E
--------------------------------------------------------------10----10-------- 
------5-5/7\5~~~-----7\5--------------------5-5/7~~~-----7/10----10----10/14~~ 
--5/6---------------------5/6~~~--------5/6---5/7~~~-------------------------- 
------------------------------------------------------------------------------ 
------------------------------------------------------------------------------ 
------------------------------------------------------------------------------ 


------------------------------------------------------------------------------ 
-14/15--13/14--10\5~~~-------------------------------------------------------- 
------------------------------------------------------------------------------ 
------------------------------------------------------------------------------ 
------------------------------------------------------------------------------ 
------------------------------------------------------------------------------ 

Tab notation:

~~~  Vibrato
/    Slide up
\    Slide Down
_    Hammer on/pull off

----------------- Acordes -----------------
A = X 0 2 2 2 0
Asus2 = X 0 2 2 0 0
B = X 2 4 4 4 2
Bm = X 2 4 4 3 2
Bm7 = X 2 4 2 3 2
Bsus = X 2 4 4 5 2
D = X X 0 2 3 2
E = 0 2 2 1 0 0
E7sus4/B = X 2 0 2 0 0
Esus4/F# = X X 4 4 5 4
F# = 2 4 4 3 2 2
F#m = 2 4 4 2 2 2
G = 3 2 0 0 0 3
