Eagles - The Sad Cafe

Capo Casa 7

 Bm9                                     A/B (an A works as well)
| -9------------------------------------- | -x------------------------------- |
| -7---------------2-3-5-7-7/8--5/7------ | -10-------3-2-------------------- |
| -7--4-4h6p4p3-4------------------------ | -9---2-4------0-2-2h4-2---------- |
| -7------------------------------------- | -11----------------------4/2----- |
| -9------------------------------------- | -12--------------------------5/7- |
| -7------------------------------------- | -9------------------------------- |

   Em                              ******repeat******          F#7
-7--------0------0------0------0 | ---7p0---10p0- | -----7-6-7-9-10-9-10-12/14-2 |
-8------0------0------0------0-- | --8-----8----- | ---8-----------------------2 |
-9----0------2------4------7---- | -9-----9------ | -9-------------------------3 |
-9--2------4------5------9------ | -------------- | -----------------2---------- |
-x------------------------------ | -------------- | ---------------4------------ |
-x------------------------------ | -------------- | -------------2-------------- |

(*5 bars of percussion then play)

    Bm9                                    A/B
| -9----2h3p2---2-2---2--- | ------------- | -x-----------------------
| -7----------5-----5---3- | -5p3---3----- | -10------3p2---2--2------
| -7--4------------------- | -----4---2/4- | -9---2-4-----4------2--4-
| -7---------------------- | ------------- | -11----------------------
| -9---------------------- | ------------- | -12----------------------
| -7---------------------- | ------------- | -9-----------------------

                                  Em
-----------------7--9-10-9-10- | -12\----------0--------0--------0-
-----5-8--7-7-8h10------------ | ------------0--------0--------0---
-6-7-------------------------- | ----------0--------2--------4-----
------------------------------ | -------2--------4--------5--------
------------------------------ | ----------------------------------
------------------------------ | ----------------------------------

                               F#7
-------0-7p0---10-12-10---- | ---9-9h10p9/7-7h9p7/6--3-2-2-2-3-2--0-2---------- |
-----0-------0----------12- | ----------------------------------------3--2----- |
---7----------------------- | ---------------------------------------------4-3- |
-9------------------------- | ------------------------------------------------- |
--------------------------- | ------------------------------------------------- |
--------------------------- | ------------------------------------------------- |

(*the next part is repeated throughout the song with minor variations)
 (capoed on 7th fret of a 12 string)

 | -----------0----- | ------2----- | ------0------- | ----------0- | ----------0------- |
 | -------0--------- | ----0---2-4- | ----3-----3--- | ------0----- | ------1----------- |
 | -----0---0---0-2- | --2--------- | --2-----2---2- | ----0---0--- | ----0-----------0- |
 | ---2------------- | 1----------- | 0------------- | --2--------- | --2-----2---0h2--- |
 | ----------------- | ------------ | -------------- | 4----------- | 3----------------- |
 | -0--------------- | ------------ | -------------- | ------------ | ------------------ |

 | -------3------ | ------------0--- | -----------2--- |
 | -----0-----0-- | --------1------- | -------0------- |
 | ---0-----0---- | ------0---0----- | ---0-2---2----- |
 | -------------- | ----2----------- | --------------- |
 | -2------------ | --0------------- | -2------------- |
 | -------------3 | --------------0- | --------------- |

(*this is the bass run which leads into the song)
    Bm         F#               A          E
 | ---------- | ---------------- | ----------- | -------------0- |
 | ---------- | ---------------- | ----------- | --------------- |
 | ---------- | ---------------- | ----------- | -------1---1--- |
 | ------2-4- | -2-----0h2p0---- | ----------- | -----0---0----- |
 | -5-------- | -------------4-- | -4----5-7\- | 2--2----------- |
 | ---------- | ---------------- | ----------- | --------------- |
    G                D              Em         F#
 | ----------------- | ------------- | ---------- | ----------- |
 | ----------------- | ------------- | ---------- | ----------- |
 | ----------------- | ------------- | ---------- | ----------- |
 | ----------------- | ---0---/4---- | -2----4-5- | -4h5p4p2-4- |
 | -2----4---5-(5)\- | 4----0-----5- | ---------- | ----------- |
 | ----------------- | ------------- | ---------- | ----------- |

 Bm                        F#
On a dark desert highway, cool wind in my hair
A                     E
Warm smell of colitas rising up through the air
G                         D
Up ahead in the distance, i saw a shimmering light
Em
My head grew heavy and my sight grew dim
F#
I had to stop for the night

 Bm                               F#
There she stood in the doorway;  i heard the mission bell
A                                          E
And i was thinking to myself this could be heaven or this could be hell
G                        D
Then she lit up a candle, and she showed me the way
Em                                   F#
There were voices down the corridor, i thought i heard them say

D |---------5--
A |---1-2-4-5--
E |-2----------

G                        D         *1st time           *second time
Welcome to the Hotel California.
B |-3-3--3--3-------- E|-9--9--9-/7-7-7/5-5\
G |-2-2--4--2-/6-4-2- B|-10-10-10/8-8-8/7-5\
D |-----------/7-5-4-
A |------------------

       Em                   Bm7
such a lovely place, such a lovely face
D |---------2-4-5-
A |2--4--5--------

    G                               D
(1)plenty of room at the hotel california
E |-9--9-/7-7-7-7/5-5-5\
B |-10-10/8-8-8-8/7-7-7\

(2)they livin' it up at the hotel california
E |-9--9--9-/7-7-7/5-5\
B |-10-10-10/8-8-8/7-7\

        Em                                      F#
(1)any time of year (any time of year) you can find it here
(2)what a nice surprise (what a nice surprise) bring your alibis

Her mind is tiffany twisted, she got the mercedes bends
She got a lot of pretty, pretty boys that she calls friends
How they dance in the courtyard, sweet summer sweat
Some dance to remember, some dance to forget

So i called up the captain;  "please bring me my wine."
"we haven't had that spirit here since nineteen sixty-nine"
And still those voices are calling from far away
Wake you up in the middle of the night, just to hear them say

(chorus - with ending 2)

Mirrors on the ceiling, the pink champagne on ice
And she said "we are all just prisoners here, of our own device"
And in the master's chambers, they gathered for the feast
They stab it with their steely knives, but they just can't kill the beast

Last thing i remember, i was running for the door
I had to find the passage back to the place i was before
"relax" said the nightman, "we are programmed to receive"
"you can check out anytime you like, but you can never leave"

(1st solo 5:35)
           Bm                     F#
 | ------- | --------------------- | -7-5-3-2----9-10- |
 | ------- | --------------------- | ----------------- |
 | -----6- | 9--9-9-9-9--6-9-7-6-- | -7-6-4-3--------- |
 | -8-9--- | --------------------- | ----------------- |
 | ------- | --------------------- | ----------------- |
 | ------- | --------------------- | ----------------- |
  A                                       E
 | -12-12-12-12~~~12-10-9----10-9------- | ------------- |
 | -----------------------12------12-10- | -9----------- |
 | ------------------------------------- | ---9--------- |
 | ------------------------------------- | -----9------- |
 | ------------------------------------- | -------9h11-- |
 | ------------------------------------- | ------------2 |
      G                             D
 | -------------------------------- | ----------- |
 | -------------------------------- | ----------- |
 | ----------------------------2/4- | 2-----4---- |
 | --------------2----4-2--5-4----- | ---12---4-- |
 | -----0-2--5-4---5--------------- | ---- | ---- |
 | ---3---------------------------- | ---- | ---- |
                                       |
                                      --harmonic

    Em                       F#7
 | -0------0------0-------0- | ---2----------2-2-
 | ---0------0------0-----0- | -----2----------2-
 | -----0------0------0---0- | -------3----------
 | -------2------2------2--- | ---------4------4-
 | ------------------------- | -----------4------
 | ------------------------- | -2-----------2----
  *****roll w/pick hand finger***********

(2nd solo)
                           Bm
------------------------ | ---------------------------------------------------- |
------------------------ | ---------------------------------------------------- |
------------------9-11-- | 11h12p11\9-11----9-11-11h12p11\9-9h11p9--7h9p7------ |
-9h11p9\8-9-11-12------- | --------------12----------------------------------9- |
------------------------ | ---------------------------------------------------- |
------------------------ | ---------------------------------------------------- |
    F#                          A
 | -------------------14------- | ------------------------ |
 | -------12-14-12-11---------- | --7-7-7-5-5-5----------- |
 | ---6-9---------------------- | --------------7-7-6-4-2- |
 | -8---------------------12\-- | 7----------------------- |
 | ---------------------------- | ------------------------ |
 | ---------------------------- | ------------------------ |
    E                                  G
 | -------------------------0-------- | --------------------------------3- |
 | ---3-3h5p3--2h3p2------------------|----------------------------------- |

----------------- Acordes -----------------
Capotraste na 7ª casa
A*  = X 0 2 2 2 0 - (*E na forma de A)
A/B*  = X 2 2 2 2 X - (*E/F# na forma de A/B)
Bm*  = X 2 4 4 3 2 - (*F#m na forma de Bm)
Bm7*  = X 2 4 2 3 2 - (*F#m7 na forma de Bm7)
Bm9*  = X 2 4 6 3 2 - (*F#m9 na forma de Bm9)
D*  = X X 0 2 3 2 - (*A na forma de D)
E*  = 0 2 2 1 0 0 - (*B na forma de E)
Em*  = 0 2 2 0 0 0 - (*Bm na forma de Em)
F#*  = 2 4 4 3 2 2 - (*C# na forma de F#)
F#7*  = 2 4 2 3 2 2 - (*C#7 na forma de F#7)
G*  = 3 2 0 0 0 3 - (*D na forma de G)
