SOJA - No Done Yet

[Intro] Bm  G  D  A
        Bm  G  D  A

E|----------------------------------------------------------------------|
B|---------10----10-10--------------------------------------------------|
G|------------12-------12-11-----11-11-9-----------9b11r9--9b11r9--7----|
D|--9-9-12-------------------12----------12-11----------------------9~--|
A|----------------------------------------------------------------------|
E|----------------------------------------------------------------------|

E|--------------------------------------------------------|
B|---------10----10-10--------------------------10-12~~---|
G|------------12-------12-11-----11-11-9------------------|
D|--9-9-12-------------------12----------12-11------------|
A|--------------------------------------------------------|
E|--------------------------------------------------------|

       Bm                            G
It's hard for me when I think about the things that never been
       D                             A
They keep coming back again like they got something to prove

       Bm                            G
I love my memories, but they are awake, controlling me at times
       D                             A
And I'm so lost without you, yeah, yeah

E|-------------------------------------------------------------------------------|
B|-8/10-----10/12-10----8/10-------------8/10----10/12-10---8/10-----------------|
G|-------11------------------11-11/12---------11-----------------11-11-9----9-10~|
D|-------------------------------------------------------------------------------|
A|-------------------------------------------------------------------------------|
E|-------------------------------------------------------------------------------|

      G                             Bm
And I can't get far from it, and from what went wrong
      A                           Bm
And I know it's stupid cause its been so long
      G                             Bm
The farther I get away, the more that I hold on
      A                             C#7
It's just this feeling I get, it's like I'm not done yet

I'm not done yet

( Bm  G  D  A )
( Bm  G  D  A )

    Bm                        G
I think about those times when we were young,
    D
And everything was so brand new
    A
And our words were so true you
    Bm                        G
Looked into my eyes, that one last time
                     D                           A
If I had known back then, would I be living with today?
You might have stayed, but

E|-------------------------------------------------------------------------------|
B|-8/10-----10/12-10----8/10-------------8/10----10/12-10---8/10-----------------|
G|-------11------------------11-11/12---------11-----------------11-11-9----9-10~|
D|-------------------------------------------------------------------------------|
A|-------------------------------------------------------------------------------|
E|-------------------------------------------------------------------------------|

      G                           Bm
I can't get far from it, and from what went wrong
      A                            Bm
And I know it's stupid cause it's been so long
      G                           Bm
The farther I get away, the more that I hold on
      A                           C#7
It's like I try to forget, somehow I'm not done yet
I'm not done yet

( Bm  G  D  A )
( Bm  G  D  A )

     Bm                           G
It's hard for me when I think about the things that never been
     D                               A
They keep coming back again like they got something to prove

E|-------------------------------------------------------------------------------|
B|-8/10-----10/12-10----8/10-------------8/10----10/12-10---8/10-----------------|
G|-------11------------------11-11/12---------11-----------------11-11-9---------|
D|-------------------------------------------------------------------------------|
A|-------------------------------------------------------------------------------|
E|-------------------------------------------------------------------------------|

It's like I'm not done yet
I'm not done yet

( Bm  G  D  A )

E|----------------------------------------------|
B|--12-10-12-----12-10-12-----12-10-12-10----10-|
G|----------------------------------------11----|
D|----------------------------------------------|
A|----------------------------------------------|
E|----------------------------------------------|

E|--------------------------------------------|
B|--12-10-12-----12-10-12-----12-10-12-10-----|
G|----------------------------------------11--|
D|--------------------------------------------|
A|--------------------------------------------|
E|--------------------------------------------|

----------------- Acordes -----------------
A = X 0 2 2 2 0
Bm = X 2 4 4 3 2
C#7 = X 4 3 4 2 X
D = X X 0 2 3 2
G = 3 2 0 0 0 3
