SOJA - Slow Down

Intro: Em C D (2x)
       Eb°


Solo da introdução (Sopro)

E|--3-2-0--------3--2--|-3-2-0-------3-2-|-3-2-0---0---3-3-|-3-2-0---2--3-3-|
B|--------3-0----------|-------3-0-------|-------3---------|-------3--------|
G|---------------------|-----------------|-----------------|----------------|
D|---------------------|-----------------|-----------------|----------------|
A|---------------------|-----------------|-----------------|----------------|
E|---------------------|-----------------|-----------------|----------------|


E|--3-2-0--------3--2--|-3-2-0-------3-2-|-3-2-0---0---3-3-|-3-2-0---2------|
B|--------3-0----------|-------3-0-------|-------3---------|-------3--------|
G|---------------------|-----------------|-----------------|----------------|
D|---------------------|-----------------|-----------------|----------------|
A|---------------------|-----------------|-----------------|----------------|
E|---------------------|-----------------|-----------------|----------------|


         Em
You can search the world for signs of life
                                   C                D
And realize the truth is in your heart, is in your heart
         Em
You can try to become who you want
                                 C               D
And never get away from who you are, is who you are
         Em
You can trust another like no other
                                   C                   D
Watch them fall and then you fall apart, it there's you apart
Em
Always seen myself alone
                                      C                       D   Eb°
But in my darkest hours is there you are, it's where's my guitar
              Em
So I can say
             D                      Am
Oh now, oh now, oh now, now now now now
            D       Eb°              Em
Oh now, oh now, oh now, now now now
                        D
Oh now you gotta slow down
                     Am
Oh now all I have is now
            D       Eb°
Oh now, oh now, oh now

          Em
I've been all around the world to find it
                               C          D
Travel east and west like everyday, everyday
          Em
I've been high and low since I have lost it
                            C                   D
How do I get back to yesterday, it feels like a game
        Em
I have seen the look in people's eyes sometimes
                         C                D
All I do is chase them away, chase them away
                  Em
Cause I have been all around the world
                                           C                 D   Eb°
To find it every time I do I don't let it stay, I chase it away
              Em
So now I say
             D                      Am
Oh now, oh now, oh now, now now now now
            D       Eb°              Em
Oh now, oh now, oh now, now now now
                        D
Oh now you gotta slow down
                     Am
Oh now all I have is now
            D       Eb°
Oh now, oh now, oh now


Mesmo Solo da Introdução (Sopro)

E|--3-2-0--------3--2--|-3-2-0-------3-2-|-3-2-0---0---3-3-|-3-2-0---2--3-3-|
B|--------3-0----------|-------3-0-------|-------3---------|-------3--------|
G|---------------------|-----------------|-----------------|----------------|
D|---------------------|-----------------|-----------------|----------------|
A|---------------------|-----------------|-----------------|----------------|
E|---------------------|-----------------|-----------------|----------------|


E|--3-2-0--------3--2--|-3-2-0-------3-2-|-3-2-0---0---3-3-|-3-2-0---2------|
B|--------3-0----------|-------3-0-------|-------3---------|-------3--------|
G|---------------------|-----------------|-----------------|----------------|
D|---------------------|-----------------|-----------------|----------------|
A|---------------------|-----------------|-----------------|----------------|
E|---------------------|-----------------|-----------------|----------------|

Solo de Guitarra

E|--7-7--7h8p7p5-7----7h8p7p5-7-8-10-10b12---14b15-14~~~~--|
B|---------------------------------------------------------|
G|---------------------------------------------------------|
D|---------------------------------------------------------|
A|---------------------------------------------------------|
E|---------------------------------------------------------|

E|--14b15r14-12-14-12--10-12-10--8-10-8—7~~----------------|
B|---------------------------------------------------------|
G|---------------------------------------------------------|
D|---------------------------------------------------------|
A|---------------------------------------------------------|
E|---------------------------------------------------------|

E|--7-8-10-8-7--------10-10---10---------------------------|
B|-------------10b12----------12r10--8---------------------|
G|--------------------------------------9~~----------------|
D|---------------------------------------------------------|
A|---------------------------------------------------------|
E|---------------------------------------------------------|

( Em C D ) (2x)
( Eb°   Em )

(Revisão Cifra e Tab - Ricardo Caldas)

----------------- Acordes -----------------
Am = X 0 2 2 1 0
C = X 3 2 0 1 0
D = X X 0 2 3 2
Eb° = X X 1 2 1 2
Em = 0 2 2 0 0 0
