Art Popular - Mulherada

Intro: D G D

     D                    A                       G                      D  A7
Essa Noite tá tudo muito lindo, hoje eu tô rindo á toa,vou para a madrugada
      D                      A                 G                       D   A7
Pro pagode, rever os meus amigos ao som da batucada sambar a noite inteira
      D              A              G                    D  A7
E tentar beijar muito você..muito muito você..se você quiser
     D                       A                      G                            D  A7
Pois eu sei que sou um cara respeitador..muito muito respeitador, tenho amor pra dar
    A7                        D                      Em7                  A7         (A7 - D)
Pois a mulher é uma coisa bem singela..Meiga, pura e sincera e cheia de amor pra dar
D                      A
A mulherada dominou geral Ôôôô..
                       D   G    D
Rapazeada tá passando mal..maaaal..
                          A
Não adianta querer reprimir Ôôôô..
                         D
A mulherada é quem manda aqui


D                 A
Laiá..laiá..laiá..laía...
                  D
Laiá..laiá..laiá..laía...


----------------- Acordes -----------------
A = X 0 2 2 2 0
A7 = X 0 2 0 2 0
D = X X 0 2 3 2
Em7 = 0 2 2 0 3 0
G = 3 2 0 0 0 3
