Jorge e Mateus - Cavaco de Pau

G                                          D
Cadê o pessoal, cadê o pessoal, cadê o pessoal
                       G
que arranca cavaco com pau

G
cadê a turma de baixo
                D
cadê a turma de cima
                                            G
cadê a turma do meio, pra gente entra no clima
                                           C
cadê a turma da republica e da latinha na mão
                  D                         G
cadê a turma do rodeio que mete a bota no chão

G                                          D
Cadê o pessoal, cadê o pessoal, cadê o pessoal
                       G
que arranca cavaco com pau


G
cadê a turma de baixo
                D
cadê a turma de cima
                                            G
cadê a turma do meio, pra gente entra no clima
                                          C
cadê a turma da republica e da latinha na mão
                  D                         G
cadê a turma do rodeio que mete a bota no chão

----------------- Acordes -----------------
C = X 3 2 0 1 0
D = X X 0 2 3 2
G = 3 2 0 0 0 3
