Jorge e Mateus - Chove Quando Você

Refrão:
B5(9)               E
 Chove quando voce some
        F#              B5(9)
Chove amor quando se esconde
       G#m         E
Chove só de te querer
        F#            B
Chove Chove em mim você!

     B                   E5       F#4
E|--------------------------------------------|
B|--------------------------------------------|
G|-------8---------8--------9----------11-----|
D|-----9---9-----9---9----9---9-----9------9--|
A|----------------------7--------9------------|
E|--7---------7-------------------------------|


     B         G#m      E5       F#4         B5(9)
E|------------------------------------------2-|
B|------------------------------------------2-|
G|-------8---------8-------9--------11------4-|
D|-----9---9-----9---9---9---9----9----9----4-|
A|------------11-------7--------9--------9--2-|
E|--7-----------------------------------------|



Intro: B5(9)  E  F#  B5(9)  G#m  E  F#  B5(9)  F#
E|--------------4------|
B|--7-7-7-4-7-4-5-7----|
G|--4-4-4-4-4-4---4----|
D|---------------------|
A|---------------------|
E|---------------------|


E|---------------------|
B|-6h7-7-7-5-5-4-5-4---|
G|-4---4-4-4-4-4-4-4---|
D|---------------------|
A|---------------------|
E|---------------------|


E|-------------------------------------|
B|--4--------4----5-----5----7-5-4---4-|
G|--4--4-4-4-4--4-4-------4--------6-4-|
D|-----4-4-4----4-----6--------------4-|
A|------------------7------------------|
E|-------------------------------------|


E|-------------------------------------|
B|-4-5-6-7-----------------------------|
G|-------------------------------------|
D|---------4---------------------------|
A|-------------------------------------|
E|-------------------------------------|


Primeira Parte:
B5(9)                   F#
     Achei que fosse fácil Amor ,
C#m7           E              B5(9)
    mas foi difícil achar você
                  F#
Faltou só um pouquinho Flor
C#m7           E             B5(9)
   pra aquele beijo acontecer
         F#             C#m7
E sem motivo quer me achar
          E                B5(9)
Olha pro céu que eu vo tá lá
          F#          C#m7
 Em cada gota que chover
  E
amor molhar voce

 (A partir da segunda estrofe)
E|-14-x-x-14-x-x-14-x-x---------|
B|-12-x-x-12-x-x-12-x-x---------|
G|-11-x-x-11-x-x-11-x-x---------|
D|------------------------------|
A|------------------------------|
E|------------------------------|


E|-14-x-14-x-x-14-x-x-----------|
B|-14-x-14-x-x-14-x-x-----------|
G|-11-x-11-x-x-11-x-x-----------|
D|------------------------------|
A|------------------------------|
E|------------------------------|


E|-12-x-12-x-x-12-x-12-11-------|
B|-14-x-14-x-x-14-x-------14-12-|
G|-13-x-13-x-x-13-x-------------|
D|------------------------------|
A|------------------------------|
E|------------------------------|


E|-14-x-x-14-x-x-14-x-x---------|
B|-12-x-x-12-x-x-12-x-x---------|
G|-11-x-x-11-x-x-11-x-x---------|
D|------------------------------|
A|------------------------------|
E|------------------------------|


E|-14-x-14-x-x-14-x-x-----------|
B|-11-x-14-x-x-14-x-x-----------|
G|-11-x-11-x-x-11-x-x-----------|
D|------------------------------|
A|------------------------------|
E|------------------------------|


E|-12-x-12-x-x-12-x-12-11-------|
B|-14-x-14-x-x-14-x-12-12-------|
G|-13-x-13-x-x-13-x-------------|
D|------------------------------|
A|------------------------------|
E|------------------------------|


Segunda Parte:
G#m                    C#m7 G#m
   Juro eu quero te tocar
                   E
Em seu corpo deslizar
  F#
Amor te ter!
Solo:

E|--11p7---11p7---11p7------|
B|-------9------9-----------|
G|--------------------------|
D|--------------------------|
A|--------------------------|
E|--------------------------|


E|--12p9---12p9---12p9------|
B|-------9------9-----------|
G|--------------------------|
D|--------------------------|
A|--------------------------|
E|--------------------------|


E|--11p7---11p7---11p7------|
B|-------9------9-----------|
G|--------------------------|
D|--------------------------|
A|--------------------------|
E|--------------------------|


E|-11--11--11---------------|
B|-12--12--12---------------|
G|---------11---------------|
D|--------------------------|
A|--------------------------|
E|--------------------------|


Refrão:
B5(9)                   E
     Chove quando voce some
        F#              B5(9)
Chove amor quando se esconde
       G#m         E
Chove só de te querer
        F#              B5(9)
Chove Chove em mim você! (2x)
    F#    E   F#
Iê,Iê,Iê,Iê...

Intro: B5(9)  E  F#  B5(9)  G#m  E  F#  B5(9)  F#
E|--------------4------|
B|--7-7-7-4-7-4-5-7----|
G|--4-4-4-4-4-4---4----|
D|---------------------|
A|---------------------|
E|---------------------|


E|---------------------|
B|-6h7-7-7-5-5-4-5-4---|
G|-4---4-4-4-4-4-4-4---|
D|---------------------|
A|---------------------|
E|---------------------|


E|-------------------------------------|
B|--4--------4----5-----5----7-5-4---4-|
G|--4--4-4-4-4--4-4-------4--------6-4-|
D|-----4-4-4----4-----6----------------|
A|------------------7------------------|
E|-------------------------------------|


E|-------------------------------------|
B|-4-5-6-7-----------------------------|
G|-------------------------------------|
D|---------4---------------------------|
A|-------------------------------------|
E|-------------------------------------|


Primeira Parte:
B5(9)                   F#
     Achei que fosse fácil Amor ,
C#m7           E              B5(9)
    mas foi difícil achar você
                  F#
Faltou só um pouquinho Flor
C#m7           E             B5(9)
   pra aquele beijo acontecer
         F#             C#m7
E sem motivo quer me achar
          E                B5(9)
Olha pro céu que eu vo tá lá
          F#          C#m7
 Em cada gota que chover
  E
amor molhar voce

Segunda Parte:
G#m                    C#m7 G#m
   Juro eu quero te tocar
                   E
Em seu corpo deslizar
  F#
Amor te ter!

(repete refrão) (2x)

    F#    E   F#
Iê,Iê,Iê,Iê...

Refrão:
B5(9)               E
 Chove quando voce some
        F#              B5(9)
Chove amor quando se esconde
       G#m         E
Chove só de te querer
        F#            B
Chove Chove em mim você!

    F#    E   F#
Iê,Iê,Iê,Iê...
 E              B5(9)
Chove em mim voce. (3x)
    F#    E   F#
Iê,Iê,Iê,Iê...
(Violão 1)

E|---------------|
B|-9-8-6---8--8--|
G|-------8-9--9--|
D|---------------|
A|---------------|
E|---------------|


(Violão 2)

E|---------------|
B|-9-7-----7-7---|
G|-----6-8-8-8---|
D|---------------|
A|---------------|
E|---------------|

----------------- Acordes -----------------
A = X 0 2 2 2 0
B = X 2 4 4 4 2
B5(9) = X 2 4 4 2 2
C#m7 = X 4 6 4 5 4
E = 0 2 2 1 0 0
E5 = 0 2 2 X X X
F# = 2 4 4 3 2 2
F#4 = 2 4 4 4 2 2
G#m = 4 6 6 4 4 4
