Jorge e Mateus - Tem Que Ser Agora

(intro 2x) G D/F# Em A7 C D G

   G         D/F#       Em                  A7                  C        D        G
E|-10-10-10-10H12-10--------------------------------------------8-7------------------
B|-------------------12-10-8-8---8-10-10H12-10-8-8-8---8---8-10-----10-8---8-10-8-8--
G|-----------------------------9---------------------9---9---------------9-----------
D|-----------------------------------------------------------------------------------
A|-----------------------------------------------------------------------------------
E|-----------------------------------------------------------------------------------

             D/F#       Em                  A7                      C   D         G
E|-10-10-10-10H12-10------------------------------------------------8-7--------------
B|-------------------12-10-8-8---8-10-10H12-10-8---------------8-10---------------8--
G|-----------------------------9---------------------------7-9----------9-7-7H9-7----
D|--------------------------------------------------7-9-10---------------------------
A|-----------------------------------------------10----------------------------------
E|-----------------------------------------------------------------------------------

          G              D/F#  Em
Não faz charme, não me esnoba
                     A7            D
Eu tirei dez na sua prova de sedução

       C                                     D
Já li mais de um milhão de palavras nos teus olhos
         G           D/F#        A7
Já percebi o calor saindo pelos poros
        C
Não precisa dizer nada
          Am                           D
Só não se esqueça como é curta a madrugada e vem

(refrão 2x)
 G          D/F#              G
  Mas se quiser tem que ser agora
  D/F#       Em         E7       Am
Depois não dá eu tenho que ir embora
        Am7/G          C
Não sei quando vou voltar
           A7                      C
Fica combinado a gente mata a vontade
                      D                          G
Deixa um lugar pra saudade e tenta não se apaixonar

  G         D/F#       Em                  A7                  C        D        G
E|-10-10-10-10H12-10--------------------------------------------8-7------------------
B|-------------------12-10-8-8---8-10-10H12-10-8-8-8---8---8-10-----10-8---8-10-8-8--
G|-----------------------------9---------------------9---9---------------9-----------
D|-----------------------------------------------------------------------------------
A|-----------------------------------------------------------------------------------
E|-----------------------------------------------------------------------------------

             D/F#       Em                  A7                      C   D         G
E|-10-10-10-10H12-10------------------------------------------------8-7--------------
B|-------------------12-10-8-8---8-10-10H12-10-8---------------8-10---------------8--
G|-----------------------------9---------------------------7-9----------9-7-7H9-7----
D|--------------------------------------------------7-9-10---------------------------
A|-----------------------------------------------10----------------------------------
E|-----------------------------------------------------------------------------------

          G              D/F#  Em
Não faz charme, não me esnoba
                     A7            D
Eu tirei dez na sua prova de sedução
       C                                     D
Já li mais de um milhão de palavras nos teus olhos
         G           D/F#        A7
Já percebi o calor saindo pelos poros
        C
Não precisa dizer nada
          Am                           D
Só não se esqueça como é curta a madrugada e vem

(refrão 2x)
 G          D/F#              G
  Mas se quiser tem que ser agora
  D/F#       Em         E7       Am
Depois não dá eu tenho que ir embora
        Am7/G          C
Não sei quando vou voltar
           A7                      C
Fica combinado a gente mata a vontade
                      D                          G
Deixa um lugar pra saudade e tenta não se apaixonar

 C         A7                      C
Fica combinado a gente mata a vontade
                      D                          G
Deixa um lugar pra saudade e tenta não se apaixonar

    G        D/F#       Em                  A7                      C   D         G
E|-10-10-10-10H12-10------------------------------------------------8-7--------------
B|-------------------12-10-8-8---8-10-10H12-10-8---------------8-10---------------8--
G|-----------------------------9---------------------------7-9----------9-7-7H9-7----
D|--------------------------------------------------7-9-10---------------------------
A|-----------------------------------------------10----------------------------------
E|-----------------------------------------------------------------------------------

----------------- Acordes -----------------
A7 = X 0 2 0 2 0
Am = X 0 2 2 1 0
Am7/G = 3 0 2 0 1 0
C = X 3 2 0 1 0
D = X X 0 2 3 2
D/F# = 2 X 0 2 3 2
E7 = 0 2 2 1 3 0
Em = 0 2 2 0 0 0
G = 3 2 0 0 0 3
