R.E.M. - Electrolite

G              Cadd9          G
Your eyes are burning holes through me.
Cadd9     G
I'm gasoline.
Cadd9         G    Cadd9
I'm burnin' clean.

G         Cadd9         G
Twentieth Century go to sleep
Cadd9         G
You're plasticine.
Cadd9        G
That is obscene.
Cadd9        D
That is obscene.

  Am           D
You are the star tonight.
   Am            D
Your sun electric, outta sight.
            B                    Em   G
Your light eclipsed the moon tonight.

  Am     Em     G     Am  Em   G D
Elecrolite. You're outa sight.

(Piano lead-in)

e|--3--2--3------ 
B|------------3--- 

G     Cadd9       G
If I ever want to fly.
Cadd9      G
Mulholland Drive.
Cadd9    G
I am alive.

G    Cadd9         G
Hollywood is under me.
Cadd9      G
I'm Martin Sheen
Cadd9      G
I'm Steve McQueen
Cadd9     D
I'm Jimmy Dean

    Am             D
You are the star tonight.
           Am              D
Your sun electric, outta sight.
             B                Em      G
Your light eclipsed the moon tonight.
  Am    Em
Elecrolite.
G      Am    Em     G D
You're outta sight.

Solo section:
B-Am  (x3)
C-D

(Piano lead-in)

G     Cadd9         G
If you want to fly.
Cadd9      G
Mulholland Drive.
Cadd9     G
Up in the sky.
Cadd9      G          Cadd9       G
Stand on a cliff and look down there.
Cadd9      G      Cadd9       G
Don't be scared, you are alive.
Cadd9      D
You are alive.

    Am            D
You are the star tonight.
          Am            D
Your sun electric, outta sight.
            B               Em        G
Your light eclipsed the moon tonight.
  Am   Em
Elecrolite.
G     Am     Em    G D
You're outa sight.

G          Cadd9      G
Twentieth century go and sleep
Cadd9     G
Really deep
Cadd9        G Cadd9
We won't blink

G               Cadd9                G
You're eyes are burnin' holes through me.
Cadd9       G
I'm not scared
Cadd9      G
I'm outa here.
Cadd9      G
I'm not scared.
I'm outa here.

----------------- Acordes -----------------
Am = X 0 2 2 1 0
B = X 2 4 4 4 2
Cadd9 = X 3 5 5 3 3
D = X X 0 2 3 2
Em = 0 2 2 0 0 0
G = 3 2 0 0 0 3
