R.E.M. - Losing My Religion

Capo Casa 5

Introdução:

                C
E|-5-7-5-0---3---3-3-----0-0-0-0------------|
B|-0-0-0-0---1-x-1-1-3-x-1-1-1-1------------|
G|-0-0-0-0---0-x-0-0-0-x-0-0-0-0------------|
D|-----------2-x-2-2-2-x-2-2-2-2------------|
A|-----------3-x-3-3-3-x-3-3-3-3------------|
E|------------------------------------------|

      D        Em
E|-5-7-5-0--3-3-3---3-3---3-3---------------|
B|-7-7-7-7--0-0-0---0-0---0-0---------------|
G|-7-7-7-7--0-0-0---0-0---0-0---------------|
D|-0-0-0-0--2-2-2-2-2-2-2-2-2---------------|
A|----------2-2-2-x-x-x-x-x-x---------------|
E|----------0-----2-----3-------------------|

      Em/B      C
E|-5-7-5-0---3---3-3-----0-0-0-0------------|
B|-0-0-0-0---1-x-1-1-3-x-1-1-1-1------------|
G|-0-0-0-0---0-x-0-0-0-x-0-0-0-0------------|
D|-x-x-x-x---2-x-2-2-2-x-2-2-2-2------------|
A|-x-x-x-x---3-x-3-3-3-x-3-3-3-3------------|
E|-7-7-7-7----------------------------------|


      D        Em             D9
E|-5-7-5-0--3-3--3-3-3-3---0--------0-------|
B|-7-7-7-7--0-0--0-0-0-0---3------0---3-0---|
G|-7-7-7-7--0-0--0-0-0-0---2--0-2---------2-|
D|-0-0-0-0--2-2--2-2-2-2---0----------------|
A|----------2-2--2-2-2-2--------------------|
E|----------0-------------------------------|


Primeira Parte:

     Em
Oh, life is bigger
Bm
  It's bigger than you
                 Em
And you are not me
                         Bm
The lengths that I will go to
                       Em
The distance in your eyes
Bm                      Am
  Oh, no I've said too much
         D9
I set it up


      D9
E|-0--------0-------------------------------|
B|-3------0---3-0---------------------------|
G|-2--0-2---------2-------------------------|
D|-0----------------------------------------|
A|------------------------------------------|
E|------------------------------------------|

                     Em
That's me in the corner
                   Bm
That's me in the spot light
             Em
Losing my religion
                 Bm
Trying to keep up with you
       Em
And I don't know if I can do it

Bm                      Am
  Oh no, I've said too much
                 D9
I haven't said enough


Refrão:

                C
E|-5-7-5-0---3---3-3-----0-0-0-0------------|
B|-0-0-0-0---1-x-1-1-3-x-1-1-1-1------------|
G|-0-0-0-0---0-x-0-0-0-x-0-0-0-0------------|
D|-----------2-x-2-2-2-x-2-2-2-2------------|
A|-----------3-x-3-3-3-x-3-3-3-3------------|
E|------------------------------------------|

      D        Em
E|-5-7-5-0----0-0---0-0---0-0---------------|
B|-7-7-7-7----0-0---0-0---0-0---------------|
G|-7-7-7-7----0-0---0-0---0-0---------------|
D|-0-0-0-0--2-2-2-2-2-2-2-2-2---------------|
A|----------2-2-2-x-x-x-x-x-x---------------|
E|----------0-----2-----3-------------------|

      Em/B      C
E|-5-7-5-0---3---3-3-3---0-0-0-0------------|
B|-0-0-0-0---1-x-1-1-1-x-1-1-1-1------------|
G|-0-0-0-0---0-x-0-0-0-x-0-0-0-0------------|
D|-x-x-x-x---2-x-2-2-2-x-2-2-2-2------------|
A|-x-x-x-x---3-x-3-3-3-x-3-3-3-3------------|
E|-7-7-7-7----------------------------------|

      D        Em             D9
E|-5-7-5-0----0--0-0-0-0---0--------0-------|
B|-7-7-7-7----0--0-0-0-0---3------0---3-0---|
G|-7-7-7-7----0--0-0-0-0---2--0-2---------2-|
D|-0-0-0-0--2-2--2-2-2-2---0----------------|
A|----------2-2--2-2-2-2--------------------|
E|----------0-------------------------------|

                            C
I thought that I heard you laughing
    D                       Em   Em/B
I thought that I heard you sing
    C                    D    Em  D9
I think I thought I saw you try


Repete a Primeira Parte:

           Em
Every whisper
                 Bm
Of every waking hour
                    Em
I'm choosing my confessions
           Bm
Trying to keep an eye on you

        Em
Like a hurt, lost and blinded fool, fool
Bm                      Am
  Oh, no I've said too much
         D9
I set it up

      D9
E|-0--------0-------------------------------|
B|-3------0---3-0---------------------------|
G|-2--0-2---------2-------------------------|
D|-0----------------------------------------|
A|------------------------------------------|
E|------------------------------------------|

           Em
Consider this, consider this
     Bm
The hint of the century
           Em
Consider this
                Bm
The slip that brought me

To my knees failed
Em
What if all these fantasies
     Bm
Come    flailing around
          Am  D9
Now I've said    too much

Repete o Refrão:

                           C
I thought that I heard you laughing
    D                       Em   Em/B
I thought that I heard you sing
    C                    D    Em  D9
I think I thought I saw you try


Segunda Parte:

      Em                 D
E|-7-7-7--5-5-5-5-5-------------------------|
B|-0-0-0--0-0-0-0-0---8-8-8--5-5-5-5-5------|
G|-0-0-0--0-0-0-0-0---0-0-0--0-0-0-0-0------|
D|--------------------0-0-0--0-0-0-0-0------|
A|-7-7-7--7-7-7-7-7---5-5-5--5-5-5-5-5------|
E|------------------------------------------|

      C                  D
E|-7-7-7--5-5-5-5-5-------------------------|
B|-0-0-0--0-0-0-0-0---8-8-8--5-5-5-5-5------|
G|-0-0-0--0-0-0-0-0---0-0-0--0-0-0-0-0------|
D|--------------------0-0-0--0-0-0-0-0------|
A|-3-3-3--3-3-3-3-3---5-5-5--5-5-5-5-5------|
E|------------------------------------------|

      G                  A9
E|-7-7-7--5-5-5-5-5-------------------------|
B|-0-0-0--0-0-0-0-0---8-8-8--5-5-5-5-5------|
G|-0-0-0--0-0-0-0-0---0-0-0--0-0-0-0-0------|
D|-0-0-0--0-0-0-0-0---0-0-0--0-0-0-0-0------|
A|------------------------------------------|
E|-3-3-3--3-3-3-3-3---5-5-5--5-5-5-5-5------|

     G                   A9
E|-7-7-7--5-5-5-5-5---0--------0------------|
B|-0-0-0--0-0-0-0-0---0------0---3-0--------|
G|-0-0-0--0-0-0-0-0---2--0-2---------2-0----|
D|-0-0-0--0-0-0-0-0---2---------------------|
A|--------------------0---------------------|
E|-3-3-3--3-3-3-3-3-------------------------|


      G       A9
But that was just a dream
  G       A9
That was just a dream


Repete a Primeira Parte:

                     Em
That's me in the corner
                   Bm
That's me in the spot light
             Em
Losing my religion
           Bm
Trying to keep up with you
       Em
And I don't know if I can do it
Bm             Am
  Oh, no I've said too much
                 D9
I haven't said enough


Refrão Final:

                C
E|-5-7-5-0---3---3-3-----0-0-0-0------------|
B|-0-0-0-0---1-x-1-1-3-x-1-1-1-1------------|
G|-0-0-0-0---0-x-0-0-0-x-0-0-0-0------------|
D|-----------2-x-2-2-2-x-2-2-2-2------------|
A|-----------3-x-3-3-3-x-3-3-3-3------------|
E|------------------------------------------|

      D        Em
E|-5-7-5-0----0-0---0-0---0-0---------------|
B|-7-7-7-7----0-0---0-0---0-0---------------|
G|-7-7-7-7----0-0---0-0---0-0---------------|
D|-0-0-0-0--2-2-2-2-2-2-2-2-2---------------|
A|----------2-2-2-x-x-x-x-x-x---------------|
E|----------0-----2-----3-------------------|

      Em/B      C
E|-5-7-5-0---3---3-3-3---0-0-0-0------------|
B|-0-0-0-0---1-x-1-1-1-x-1-1-1-1------------|
G|-0-0-0-0---0-x-0-0-0-x-0-0-0-0------------|
D|-x-x-x-x---2-x-2-2-2-x-2-2-2-2------------|
A|-x-x-x-x---3-x-3-3-3-x-3-3-3-3------------|
E|-7-7-7-7----------------------------------|

      D        Em
E|-5-7-5-0----0-0---0-0---0-0---------------|
B|-7-7-7-7----0-0---0-0---0-0---------------|
G|-7-7-7-7----0-0---0-0---0-0---------------|
D|-0-0-0-0--2-2-2-2-2-2-2-2-2---------------|
A|----------2-2-2-x-x-x-x-x-x---------------|
E|----------0-----2-----3-------------------|

      Em
E|-7-7-7--7-7-7-7-7---7-7-7--7-7-7-7-7------|
B|-0-0-0--0-0-0-0-0---0-0-0--0-0-0-0-0------|
G|-0-0-0--0-0-0-0-0---0-0-0--0-0-0-0-0------|
D|------------------------------------------|
A|-7------------------7--------------5------|
E|-0------------------0---------------------|

      Em
E|-7-7-7--7-7-7-7-7---7-7-7--7-7-7-7-7------|
B|-0-0-0--0-0-0-0-0---0-0-0--0-0-0-0-0------|
G|-0-0-0--0-0-0-0-0---0-0-0--0-0-0-0-0------|
D|------------------------------------------|
A|-7------------------7--------------5------|
E|-0------------------0---------------------|

      Em
E|-7-7-7--7-7-7-7-7---7-7-7--7-7-7-7-7------|
B|-0-0-0--0-0-0-0-0---0-0-0--0-0-0-0-0------|
G|-0-0-0--0-0-0-0-0---0-0-0--0-0-0-0-0------|
D|------------------------------------------|
A|-7------------------7--------------5------|
E|-0------------------0---------------------|

      Em
E|-7-7-7--7-7-7-7-7---7-5------5------------|
B|-0-0-0--0-0-0-0-0---0-0-8--5-0-8-5-8------|
G|-0-0-0--0-0-0-0-0---0-0-0--0-0-0-0-0------|
D|------------------------------------------|
A|-7------------------7---------------------|
E|-0------------------0---------------------|


                            C
I thought that I heard you laughing
    D                       Em   Em/B
I thought that I heard you sing
    C                    D    Em  Em/B
I think I thought I saw you try
      C                   D
But that was just a dream
  Em               Em/B
Try, cry, why, try
  C
That was just a dream
 D       Em            D9         Em
Just a dream, just a dream, dream

----------------- Acordes -----------------
Capotraste na 5ª casa
A9*  = X 0 2 2 0 0 - (*D9 na forma de A9)
Am*  = X 0 2 2 1 0 - (*Dm na forma de Am)
Bm*  = X 2 4 4 3 2 - (*Em na forma de Bm)
C*  = X 3 2 0 1 0 - (*F na forma de C)
D*  = X X 0 2 3 2 - (*G na forma de D)
D9*  = X X 0 2 3 0 - (*G9 na forma de D9)
Em*  = 0 2 2 0 0 0 - (*Am na forma de Em)
Em/B*  = X 2 2 0 0 0 - (*Am/E na forma de Em/B)
G*  = 3 2 0 0 0 3 - (*C na forma de G)
