R.E.M. - Pop Song 89

Intro:  GC GC GC GC

     G      C           G           C
1.   Hello, I saw you, I know you, I knew you,
        G            C           G      C
    I think I can remember your name...name.
    GC GC GC GC        G        C        G      C
                    Hello, I'm sorry, I lost myself,
        G       C               G       C
    I think I thought you were someone else
 D             F              C        - A
    Should we talk about the weather?

D             F              C          - A
    Should we talk about the government?
    GC GC GC GC       G       C            G           C
1.                Hello, how are you , I know you, I knew you,
        G            C           G      C
    I think I can remember your name...name
    GC GC GC GC      G       C       G      C
                  Hello I'm sorry I lost myself

        G       C               G       C
    I think I thought you were someone else  + REFRAIN
    GC GC GC GC      G        C              G         C
3.                Hello, my friend, are you visible today?
         G            C                 G       C
    And no one ever knew that it could be so strange,
       G   -C GC GC GC     G       C       G      C
    strange             Hello I'm sorry I lost myself,
        G       C               G       C
    I think I thought you were someone else. + REFRAIN.

----------------- Acordes -----------------
A = X 0 2 2 2 0
C = X 3 2 0 1 0
D = X X 0 2 3 2
F = 1 3 3 2 1 1
G = 3 2 0 0 0 3
