Vibrações Rasta - Mãe África

Intro: Dm  Am

Refrão:
   Dm
Mãe africa
                    Am
Não quero mais chorar
    Dm
Mãe africa
                     Am
Seu poder vou envocar

Dm            Am
No inicio era selva
Dm                Am
Mais o cenario mudou
Dm                         Am
Era luta pela sobrevivencia na floresta
Dm                         Am
Hoje a ganancia se ploriferou
G                         Bm
Mais eu não vou desistir

G                                        Bm
Nunca vou deixar de lembrar da minha raiz
C                D
Porqeu mãe africa
C
Eu sei que sou teu filho
                  D
Meu inicio eu não posso negar

    Dm                             Am
Eu sei que governantes donos do poder

finacero!!!
     Dm                            Am
Não visão divisão só querem dinheiro
    Dm                             Am
Eu sei que mercenarios donos do poder

financero!!!
     Dm                                        Am
Não pensão em divisão união tem cede de dinheiro
G                                    Bm
Mais a primeira batalha é no interior
G                                     Bm
Preciso descobrir meu verdadeiro valor
C                   D
Pois pra vercemos a opreção
C                          D
É preciso esta bom nosso coração

Refrão:
  Dm
Mãe africa
                    Am
Não quero mais chorar
    Dm
Mãe africa
                     Am
Seu poder vou envocar

Solo: Dm  Am

----------------- Acordes -----------------
Am = X 0 2 2 1 0
Bm = X 2 4 4 3 2
C = X 3 2 0 1 0
D = X X 0 2 3 2
Dm = X X 0 2 3 1
G = 3 2 0 0 0 3
