Vibrações Rasta - nuvem passara

Intro: F  Am (2x)
       F  Am  G  E
       Am G   C  Dm  Em

E|--1-1-----1---0-----0--------1-1----1--0-1p0h1p0------1-1--5-3-1-0------------------------------
B|--1-1-----1---1-1-----3------1-1----1--1--------------1-1----------3~--1-3-5~--3~/9-9~---5-7-9--
G|--2-2-----2---2---2----------2-2----2--2--------------2-2---------------------------------------
D|--3-3-----3---2--------------3-3----3--2--------------3-3---------------------------------------
A|--3-3-----3---0--------------3-3----3--0--------------3-3---------------------------------------
E|--1-1-----1------------------1-1----1-----------------1-3---------------------------------------


[VERSO 1]
Am      G       Dm              Em      Am
Trovão roncou depois que raio rasgou o céu (éu)
Am         G        Dm         Em         Am
O tempo fechou, vento forte veio e balançou
Dm         Em              Am
mas a tormenta não nos derrubará,
Dm           Em                 Am
ela justamente é quem despertará

Dm           Em                 Am
A força interna, o dom de resistir
      G              E
E o tempo agirá, a nuvem passará

[REFRÃO]
 F                   Am
 Olha amor o sol sorriu pra nós
 F               Am
 Tudo mais clareou...
      F                 Am                G         F         G         F
 Vida é viver em busca de harmonia dia-a-dia, todo dia, calmaria, rebeldia...

[SOLO]
E|----5--8-7--3~----5-3-0---------------------------------------
B|--5--------------------------8--------------------------------
G|-------------------------7-9----9-7---5~----------------------
D|--------------------------------------------------------------
A|--------------------------------------------------------------
E|--------------------------------------------------------------

[BASE SOLO]
E|----5----5----5----5-----3---3---3---3-------5-----5-----7----7------------
B|----5----5----5----5-----3---3---3---3-------6-----6-----8----8------------
G|----5----5----5----5-----4---4---4---4-------7-----7-----9----9------------
D|--7----7-----7----7----5---5----5---5-----7----7-----9-----9---------------
A|--7----7-----7----7----5---5----5---5-----5----5-----7-----7---------------
E|--5----5-----5----5----3---3----3---3--------------------------------------


[REPETE VERSO e REFRÃO]

----------------- Acordes -----------------
Am = X 0 2 2 1 0
C = X 3 2 0 1 0
Dm = X X 0 2 3 1
E = 0 2 2 1 0 0
Em = 0 2 2 0 0 0
F = 1 3 3 2 1 1
G = 3 2 0 0 0 3
