Mano Walter - Eu Não Vou Mudar

[Refrão]

        D        A
Eu não vou mudar
                     E                  F#m
Respeita esse é meu jeito acanhado e matuto
        D        A
Mas eu sei amar
              E                  F#m
Na cama carinhoso na pista sou bruto

( D  A  E  F#m )
( D  A  E  F#m )

[Primeira parte]

 F#m
Moça olhe bem pra esse vaqueiro
                   E
Já rodou brasil inteiro correndo gado
 F#m
Posso até ter ganhado dinheiro

                 E
Ter virado fazendeiro mas eu sou do mato

 A
Gosto do cuzcuz com leite
            E                 F#m
Da água do pote do peixe do açude
     D                    A
Não deixa essas mãos calejadas
               E                   F#m
Essa calça rasgada é que nada me ilude

[Segunda parte]

 F#m
Meu portugues todo errado
                E
Não sei se incomoda o jeito deu falar
D                     A
Em vez de emcima é irriba
              E              F#m
Pra onde pro donde mas originá

[Pré-refrão]

 A
Moça esquece a cidade vem
           E                 F#m
Ver de verdade o que é ser amada
D                  A
Eu só te peço uma coisa
                E                     F#m
Respeita o meu jeito eu não mudo por nada

[Refrão]

        D        A
Eu não vou mudar
                     E                  F#m
Respeita esse é meu jeito acanhado e matuto
        D        A
Mas eu sei amar
              E                  F#m
Na cama carinhoso na pista sou bruto

        D        A
Eu não vou mudar
                     E                  F#m
Respeita esse é meu jeito acanhado e matuto
        D        A
Mas eu sei amar
              E                  F#m
Na cama carinhoso na pista sou bruto

( D  A  E  F#m )
( D  A  E  F#m )

[Primeira parte]

 F#m
Moça olhe bem pra esse vaqueiro
                   E
Já rodou brasil inteiro correndo gado
 F#m
Posso até ter ganhado dinheiro
                 E
Ter virado fazendeiro mas eu sou do mato

 A
Gosto do cuzcuz com leite
            E                 F#m
Da água do pote do peixe do açude
     D                    A
Não deixa essas mãos calejadas
               E                   F#m
Essa calça rasgada é que nada me ilude

[Segunda parte]

 F#m
Meu portugues todo errado
                E
Não sei se incomoda o jeito deu falar
D                     A
Em vez de emcima é irriba
              E              F#m
Pra onde pro donde mas originá

[Pré-refrão]

 A
Moça esquece a cidade vem
           E                 F#m
Ver de verdade o que é ser amada
D                  A
Eu só te peço uma coisa
                E                     F#m
Respeita o meu jeito eu não mudo por nada

[Refrão]

        D        A
Eu não vou mudar
                     E                  F#m
Respeita esse é meu jeito acanhado e matuto
        D        A
Mas eu sei amar
              E                  F#m
Na cama carinhoso na pista sou bruto

        D        A
Eu não vou mudar
                     E                  F#m
Respeita esse é meu jeito acanhado e matuto
        D        A
Mas eu sei amar
              E                  F#m
Na cama carinhoso na pista sou bruto

----------------- Acordes -----------------
A = X 0 2 2 2 0
D = X X 0 2 3 2
E = 0 2 2 1 0 0
F#m = 2 4 4 2 2 2
