Mano Walter - Vai Me Amar de Novo

C#
E tá tudo certo termino com você
Bbm
É só você me devolver aquele abraço
Fm
É só você me devolver todos os beijos
 F#
Tudo do mesmo jeito do último ao primeiro

 C#                                            Bbm
Mas na verdade eu vir buscar as frases que eu falei
                                            Fm
Estou com saudade, eu te amo foi o que lembrei
               F#                               D#m
O que me fez apaixonar, tento esquecer mas não dá
                            F#
Será se você vai se sentir bem
                                 C#
Quando devolver tudo o que você tem de mim
         G#
E descobrir tudo o que vem depois do fim


             D#m                        F#
Se você me amou uma vez, vou fazer me amar outra vez
                  C#                  G#
Vai ser coisa de louco, eu e você de novo
             D#m                        F#
Se você me amou uma vez, vou fazer me amar outra vez
                  C#                    G#
Vai ser coisa de louco, passear no seu corpo
                D#                         F#
Vai me amar de novo, de novo, de novo, de novo
                C#                         G#
Vai me amar de novo, de novo, de novo, de novo

( D#m  F#  C#  G# )
( D#m  F#  C#  G# )

             D#m                        F#
Se você me amou uma vez, vou fazer me amar outra vez
                  C#                  G#
Vai ser coisa de louco, eu e você de novo
             D#m                        F#
Se você me amou uma vez, vou fazer me amar outra vez
                  C#                    G#
Vai ser coisa de louco, passear no seu corpo
                D#                         F#
Vai me amar de novo, de novo, de novo, de novo
                C#                         G#
Vai me amar de novo, de novo, de novo, de novo

( D#m  F#  C#  G# )
( D#m  F#  C#  G# )

----------------- Acordes -----------------
Bbm = X 1 3 3 2 1
C# = X 4 6 6 6 4
D#m = X X 1 3 4 2
F# = 2 4 4 3 2 2
Fm = 1 3 3 1 1 1
G# = 4 3 1 1 1 4
