Raul Seixas - Dê-me Tua Mão

e|----------------------------------------------------------------------|
B|-----------------3---------5--5------------3---7-5/4/5--4-2/1/2-------|
G|-----------------4----6--4-6----6-2-1------4--------------------------|
D|--------------------4-----------------4--4----------------------------|
A|----------------------------------------------------------------------|
E|-5-4-2-0-5-4-5-6------------------------------------------------4-5-6-|

  Bm    E      A    F#m
Enxugue essas lágrimas,
    Bm     E       A
Não fique triste assim.
   Bm     E     A       F#m
Um dia eu voltarei, meu bem,
   Bm    E   A
Aqui não é o fim.

D     E     A
Dê-me a tua mão.
  D     E       A
É seu o meu coração.
    D           E
Não vou te esquecer,

     D         E
Não fique a temer,
 D            E               A
Pois o nosso amor não foi em vão.

----------------- Acordes -----------------
A = X 0 2 2 2 0
Bm = X 2 4 4 3 2
D = X X 0 2 3 2
E = 0 2 2 1 0 0
F#m = 2 4 4 2 2 2
