Gabriel Diniz - É Bom Demais Junior

Am         F
Mais uma vez
          C
Não deu certo
      G
Assumir relacionamento sério

Am              F
Bem que eu tentei
               C
Mas não tem jeito
              G
Se a minha sina é ser solteiro


Am         F
Mais uma vez
          C
Não deu certo
      G
Assumir relacionamento sério


Am              F
Bem que eu tentei
               C
Mas não tem jeito
              G            Am
Se a minha sina é ser solteiro

          Dm
Dei um bye bye
        Am
Desapeguei
        F              E
E pros contatin voltei

 Am                   F
Fiquei solteiro outra vez
                      C
Eu tô pegando todo mundo

É bom demais junior
   G
É bom demais junior

 Am               F
Escapei da minha ex
                         C
Eu não quero nenhum assunto

É bom demais junior
    G
É bom demais junior

----------------- Acordes -----------------
Am = X 0 2 2 1 0
C = X 3 2 0 1 0
Dm = X X 0 2 3 1
E = 0 2 2 1 0 0
F = 1 3 3 2 1 1
G = 3 2 0 0 0 3
