Green Day - 16

intro/verso:

    ....      ....      .
e|---------------------------0--------------------------------0--------------|
B|-------------------------0-0------------------------------0-0--------------|
G|--4--4--4---2--2--2------1-1--4---4-4----4--4-4--2-2-2----1-1--4---4-4-----|
D|--4--4--4---2--2--2---2--2-2--4---4-4----4--4-4--2-2-2--2-2-2--4---4-4-----|
A|--2--2--2---0--0--0---2-------2---2-2----2--2-2--0-0-0--2------2---2-2-----|
E|----------------------0---------------------------------0------------------|

REFRÃO:

e|---------------------------------------------------------------------------|
B|---------------------------------------------------------------------------|
G|--5-5-5-5-7-7-7-7-4-4-4-4-4-4-4--------------------------------------------|
D|--5-5-5-5-7-7-7-7-4-4-4-4-4-4-4--------------------------------------------|
A|--3-3-3-3-5-5-5-5-2-2-2-2-2-2-2--------------------------------------------|
E|---------------------------------------------------------------------------|

PASSAGEM:


e|---------------------------------------------------------------------------|
B|----7-----------------------7----------------------------------------------|
G|--8---7--7-7--7-7--7--7---8---7--7-7--7-7--7--7----------------------------|
D|------9--9-9--9-9--9--9-------9--9-9--9-9--9--9----------------------------|
A|------9--9-9--9-9--9--9-------9--9-9--9-9--9--9----------------------------|
E|------7--7-7--7-7--7--7-------7--7-7--7-7--7--7----------------------------|

----------------- Acordes -----------------
