Green Day - American Eulogy

Part 1: Mass Hysteria

Intro/Chorus (X4)
e|---------------------------------------------------------------------------|
B|---------------------------------------------------------------------------|
G|--5-66---------------------------------------------------------------------|
D|--5-66--66666666-----------------------------------------------------------|
A|--3-44--66666666-----------------------------------------------------------|
E|--------44444444-----------------------------------------------------------|

Guitar 2 (X4)
e|-------99------------------------------------------------------------------|
B|---------99----------------------------------------------------------------|
G|---------------------------------------------------------------------------|
D|---------------------------------------------------------------------------|
A|---------------------------------------------------------------------------|
E|---------------------------------------------------------------------------|

Verse (X2)
e|---------------------------------------------------------------------------|
B|---------------------------------------------------------------------------|
G|--666666-----------666666----------666666----------------------------------|
D|--666666--66666666-666666-44444444-666666-6666666-44444444-66666666--------|
A|--444444--66666666-444444-44444444-444444-6666666-44444444-66666666--------|
E|----------44444444--------22222222--------4444444-22222222-44444444--------|


Intro/Chorus
Verse
Intro/Chorus

Interlude
e|---------------------------------------------------------------------------|
B|----------6---------------6---------------2--------------------------------|
G|------6-----6---6-----6-----6---6-----3-----3---3---------5----------------|
D|----6---6-----6-----6---6-----6-----3---3-----3-------6-----6---6----------|
A|--4---------------3---------------1-----------------6---6-----6------------|
E|--------------------------------------------------4------------------------|

e|---------------------------------------------------------------------------|
B|--------------------------6---------------6---------------6----------------|
G|----------3-----------6-----6---6-----6-----6---6-----6-----6---6----------|
D|------4-----4---4---6---6-----6-----6---6-----6-----6---6-----6------------|
A|----4---4-----4-------------------4---------------4------------------------|
E|--2---------------4--------------------------------------------------------|

e|---------------------------------------------------------------------------|
B|--------------------------4~-----------------------------------------------|
G|-6~---5~---3~-------------3~-----------------------------------------------|
D|-6~---6~---3~---6~---4~---1~----5-66----5-66-------------------------------|
A|-4~---3~---1~---6~---4~---------5-66----5-66-------------------------------|
E|----------------4~---2~---------3-44----3-44-------------------------------|

Solo

Guitar 1
e|9~\8~\6~\4~/~8/11~---9~\8~\6~\4~/5~/10\------------------------------------|
B|---------------------------------------------------------------------------|
G|---------------------------------------------------------------------------|
D|---------------------------------------------------------------------------|
A|---------------------------------------------------------------------------|
E|---------------------------------------------------------------------------|

Guitar 2
e|---------------------------------------------------------------------------|
B|---------------------------------------------------------------------------|
G|------------------------------6----6-------------------------------------7-|
D|--444444444444444-66666666-66-6-66-6--444444444444444--66666666-77777777-7-|
A|--444444444444444-66666666-66-4-66-4--4444444444444444-66666666-77777777-5-|
E|--222222222222222-44444444-44---44----2222222222222222-44444444-55555555---|


Part 2-Modern World

Intro
e|----------------------------------------------------------------------------|
B|----------------------------------------------------------------------------|
G|--7-------------7-----------------------------------------------------------|
D|--7-7-5-77-5-7--7-7-5-77-7--------------------------------------------------|
A|--5-7-5-77-5-7--5-7-5-77-7--------------------------------------------------|
E|----5-3-55-3-5----5-3-55-5--------------------------------------------------|


Chorus (X4)
e|---------------------------------------------------------------------------|
B|---------------------------------------------------------------------------|
G|--7777---------------------------------------------------------------------|
D|--7777-7777-5555-7777------------------------------------------------------|
A|--5555-7777-5555-7777------------------------------------------------------|
E|-------5555-3333-5555------------------------------------------------------|


Verse
e|---------------------------------------------------------------------------|
B|---------------------------------------------------------------------------|
G|--77----------77--77--------------77----------77--77----------7------------|
D|--77--77--55--77--77--77--55--77--77--77--55--77--77--77--5-7-7------------|
A|--55--77--55--55--55--77--55--77--55--77--55--55--55--77--5-7-5------------|
E|------55--33----------55--33--55------55--33----------55--3-5--------------|

Chorus (X4)


Bridge
e|---------------------------------------------------------------------------|
B|---------------------------------------------------------------------------|
G|--44444----------------7777-----44444--------------------------------------|
D|--44444-44444444-55555-7777-----44444-44444444-55555--7-7-7-7-7-7-7-7------|
A|--22222-44444444-55555-5555-4~--22222-44444444-55555--7-7-7-7-7-7-7-7------|
E|--------22222222-33333----------------22222222-33333--5-5-5-5-5-5-5-5------|

Solo

Guitar 1
e|---------------------10-------10-12-10--12-12-10-b12-b12-10~---------------|
B|--10~--10-10-8-7~--8----8-7~-----------------------------------------------|
G|---------------------------------------------------------------------------|
D|---------------------------------------------------------------------------|
A|---------------------------------------------------------------------------|
E|---------------------------------------------------------------------------|

Guitar 2 plays this
e|----------------------------|----------------------------------------------|
B|----------------------------|----------------------------------------------|
G|--7777-----------7777-------|--7777----------7-----------------------------|
D|--7777-7777-5555-7777--(X3)-|--7777-7777-5-7-7-----------------------------|
A|--5555-7777-5555-5555-------|--5555-7777-5-7-5-----------------------------|
E|-------5555-3333------------|-------5555-3-5-------------------------------|

Verse. Then this
                             "Cause I don't give a shit about the modern age"
e|-------------------------------------------------------------------------0-|
B|-------------------------------------------------------------------------0-|
G|-----------------------------7-------------------------------------------0-|
D|-----------------------------7-------------------------------------------0-|
A|--5~-------------------------5-------------------------------------------0-|
E|-------------------------------------------------------------------------0-|

Play the chorus until the song fades out

| /  slide up
| \  slide down
| h  hammer-on
| p  pull-off
| ~  vibrato
| +  harmonic
| x  Mute note

----------------- Acordes -----------------
