Green Day - Android

Pm-palm mute
.-slowly release Pm
~-let ring
x-mute
()-ghost note)
/-slide down
\-slide up

Intro:
      A#5 G5  G#5   F5         
e-------------------------|
b-------------------------|
g---x-3-3-----------------|
D|---x-3-3-5-5-66-6-3-33--|
A|---x-1-1-5-5-66-6-3-33--|(x2)
E|---------3-3-44-4-1-11--|
Pm-----| |-| |--| |-------|

Bridge:
   A#5 G5 G#5  F5
e--------------------|
b--------------------|
g---3----------------|
D|---3--55--66-3-33--|(x2)
A|---1--55--66-3-33--|
E|------33--44-1-11--|


Verse:
           A#5           Eb5
e----------------------------------|
b----------------------------------|
g---3333333333333333-88-xx-88-xx---|
D|---3333333333333333-88-xx-88-xx--|(x2)
A|---1111111111111111-66-xx-66-xx--|
E|---------------------------------|
Pm--------------....|

Chorus:
        D#          A#5          G#5        F5
e-----------------------------------------------------|
b-----------------------------------------------------|
g---------------3-3-3-3-3-3---------------------------|
D|---1-1-1-1-1-1-3-3-3-3-3-3-6-6-6-6-6-6-3-3-3-3-3-3--|(x4)
A|---1-1-1-1-1-1-1-1-1-1-1-1-6-6-6-6-6-6-3-3-3-3-3-3--|
E|---------------------------4-4-4-4-4-4-1-1-1-1-1-1--|

Play A#5 over the "waste away" part

Then Pm the A#5

Bridge x2

Verse x2

Chorus x4

Bridge x2

Interlude (w/ slight feedback):
         A#5       G#5         G5       F5
e------------------------------------------------|
b------------------------------------------------|
g------------------------------------------------|
D|---8-88888888-6-66666666-5-55555555-3333-3333---|(x2)
A|---8-88888888-6-66666666-5-55555555-3333-3333---|
E|---6-66666666-4-44444444-3-33333333-1111-1111---|
Pm-| |--------| |--------| |--------|

Bridge x4

Break:

e----------------------------------------------------|
b----------------------------------------------------|
g----------------------------------------------------|
D|---3\~~~-------------------------------------------|
A|---3\~~~-------------------------------------------|
E|---1\~~~-------------------------------------------|

Fill:
    A#5        G#5        G5         F5
e-----------------------------------------------|
b-----------------------------------------------|
g-----------------------------------------------|
D|------8----------6----------5-----------3~~~--|(x2)
A|-------8~~~-------6~~~-------5~~~------3------|
E|---(6)--------(4)--------(3)--------(1)-------|

   A#5
e--------|
b--------|
g--------|
D|---8~--|
A|---8~--|
E|---6~--|

Fill x1
       A#5
e--------------|
b--------------|
g--------------|
D|---88888888--|
A|---88888888--|
E|---66666666--|
Pm-------------|

End of Chorus x1

Bridge x4

End on an A#5

----------------- Acordes -----------------
A#5 = X 1 3 3 X X
D# = X 6 5 3 4 3
Eb5 = X 6 8 8 X X
F5 = 1 3 3 X X X
G#5 = 4 6 6 X X X
G5 = 3 5 5 X X X
