Green Day - East Jesus Nowhere

(intro)

                           (4x - depois os outros instrumentos entram)
E|-------------xx-xx-xx-------|-------------xx-xx-xx-----------------------|
B|-------------xx-xx-xx-------|-------------xx-xx-xx-----------------------|
G|--9-12-9-7-9-xx-xx-xx-------|--9-12-9-7-9-xx-xx-xx------9-12-9-7 9-------|
D|--9/12/9/7/9-xx-xx-xx--(X4)-|--9/12/9/7/9-xx-xx-xx-(X3)-9/12/9/7/9\------|
A|--7/10/7/5/7-xx-xx-xx-------|--7/10/7/5/7-xx-xx-xx------7/10/7/5/7\------|
E|-------------xx-xx-xx-------|-------------xx-xx-xx-----------------------|

(verse)
E|--------xx-xx-xx-------|-------------xx-xx-xx----------------------------|
B|--------xx-xx-xx-------|-------------xx-xx-xx----------------------------|
G|--7---9-xx-xx-xx-------|--9-12-9-7-9-xx-xx-xx------9-12-9-7-9------------|
D|--7-7-9-xx-xx-xx--(X4)-|--9/12/9/7/9-xx-xx-xx-(X3)-9/12/9/7/9\-----------|
A|--5-7-7-xx-xx-xx-------|--7/10/7/5/7-xx-xx-xx------7/10/7/5/7\-----------|
E|----5---xx-xx-xx-------|-------------xx-xx-xx----------------------------|

(pré-refrão)
E|-------------------------|-----------------------------------------------|
B|-------------------------|-----------------------------------------------|
G|--7----------------------|--7------------77777777------------------------|
D|--7-7-999999999999--(X3)-|--7-7-99999999-77777777------------------------|
A|--5-7-999999999999-------|--5-7-99999999-55555555------------------------|
E|----5-777777777777-------|----5-77777777---------------------------------|


(chorus)
E|--000000------------------------000000-----------------------------------|
B|--000000------------------------000000-----------------------------------|
G|--000000--------222222-555-444--000000--------222222-555-777-------------|
D|--222222-555555-222222-555-444--222222-555555-222222-555-777-------------|
A|--222222-555555-000000-333-222--222222-555555-000000-333-555-------------|
E|--000000-333333-----------------000000-333333----------------------------|

(intro novamente - guitarra 2 toca isso 2x)
E|-------------------------------------------------------------------------|
B|-------------------------------------------------------------------------|
G|--9/13/16/19/17/14/13/---------------------------------------------------|
D|--x/x-/x-/x-/x-/x-/x-/---------------------------------------------------|
A|--7/11/14/17/15/12/11/---------------------------------------------------|
E|-------------------------------------------------------------------------|

(para a parte "Oh bless me Lord for I have sinned.." é apenas baixo, não há guitarra)

(verse 2)
E|--------xx-xx-xx------|--------------------------------------------------|
B|--------xx-xx-xx------|--------------------------------------------------|
G|--7-----xx-xx-xx------|--7----------777777-------------------------------|
D|--7-7-9-xx-xx-xx-(X3)-|--7-7-999999-777777-------------------------------|
A|--5-7-9-xx-xx-xx------|--5-7-999999-555555-------------------------------|
E|----5-7-xx-xx-xx------|----5-777777--------------------------------------|

(chorus)
(intro com a segunda guitarra 4x)

"Don't test me"
E|--------------------|----------------------------------------------------|
B|--------------------|----------------------------------------------------|
G|--999999999999------|-9--9--9--7------------------------------------------|
D|--999999999999-(X3)-|-9--9--9--7--7----------------------------------------|
A|--777777777777------|-7--7--7--5--7----------------------------------------|
E|--------------------|-------------5---------------------------------------|

(verse 2 again)

(solo - segunda guitarra toca o refrão)
E|----------------------------------------------12----12-14-------------12-|
B|-----------------------10---10-12-13----12-------12-------15----15-------|
G|--9---9-11-12----12-------9----------12----11----------------12----12----|
D|----9---------12----12---------------------------------------------------|
A|-------------------------------------------------------------------------|
E|-------------------------------------------------------------------------|

E|----12-14-15----14-12~~~-------------------------------------------------|
B|-12----------15----------------------------------------------------------|
G|-------------------------------------------------------------------------|
D|-------------------------------------------------------------------------|
A|-------------------------------------------------------------------------|
E|-------------------------------------------------------------------------|

(tremolo picking for this part 4x)
E|0-0-0-0-0-0-4-7-7-7-7-7-10-8-8-8-8-8-8-5-4-4-4-4-------------------------|
B|-------------------------------------------------------------------------|
G|-------------------------------------------------------------------------|
D|-------------------------------------------------------------------------|
A|-------------------------------------------------------------------------|
E|-------------------------------------------------------------------------|

"A fire burns today..."  (X2)
E|-------------------------------------------------------------------------|
B|----9--------12--------14--------17--------16----------------------------|
G|---9-------12--------14--------17--------16------------------------------|
D|--9------12--------14--------17--------16--------------------------------|
A|-7-----10--------12--------15--------14----------------------------------|
E|-------------------------------------------------------------------------|

(outro)

(guitar 1)
E|-------------xx-xx-xx----------------------------------------------------|
B|-------------xx-xx-xx----------------------------------------------------|
G|-------------xx-xx-xx-------------------7---9----9999--------------------|
D|--9/12/9/7/9-xx-xx-xx-(X3)-9/12/9/7/9\--7-7-9----9999--------------------|
A|--7/10/7/5/7-xx-xx-xx------7/10/7/5/7\--5-7-7----7777--------------------|
E|-------------xx-xx-xx---------------------5------------------------------|

(guitarra 2)
E|-------------------------------------------------------------------------|
B|-------------------------------------------------------------------------|
G|-9/13/16/19/17/14/13-----------------------------------------------------|
D|-------------------------------------------------------------------------|
A|-------------------------------------------------------------------------|
E|-------------------------------------------------------------------------|

(guitarra 3)
E|-------------------------------------------------------------------------|
B|-------------------------------------------------------------------------|
G|--9/13/16/19/17/14/13/---------------------------------------------------|
D|--x/x-/x-/x-/x-/x-/x-/---------------------------------------------------|
A|--7/11/14/17/15/12/11/---------------------------------------------------|
E|-------------------------------------------------------------------------|

(both guitar two and three play throughout what guitar 1 is playing)

| /  slide up
| \  slide down
| ~  vibrato
| x  scratch/mute note

----------------- Acordes -----------------
