Green Day - Haushinka

Intro
|---------|
|---------|
|-5-7:----|
|-5-7:----|
|-3-5:----|
|---------|

Verse
|-----------------------|
|-7-----8----10-----8---|
|---7-----7-----7-----7-|
|-----------------------|
|-----------------------|
|-----------------------|

Chorus
|-------------------------------------------------------------|
|-------------------------------------------------------------|
|-7-7-7-7-7-7-7-7-5-5-5-5-5-5-5-5-----------------------------|
|-7-7-7-7-7-7-7-7-5-5-5-5-5-5-5-5-5-5-5-5-5-5-5-5-3-3-3-3-5-5-|
|-5-5-5-5-5-5-5-5-3-3-3-3-3-3-3-3-5-5-5-5-5-5-5-5-3-3-3-3-5-5-|
|---------------------------------3-3-3-3-3-3-3-3-1-1-1-1-3-3-|


Bridge
|-------------------------------------------------------------|
|-------------------------------------------------------------|
|-------------------------------------------------------------|
|-9-9-9-9-9-9-9-7-7-7-7-7-7-7-4/5-5-5-5-5-5-5-4/5-5-5-5-5-5-5-|
|-9-9-9-9-9-9-9-7-7-7-7-7-7-7-4/5-5-5-5-5-5-5-4/5-5-5-5-5-5-5-|
|-7-7-7-7-7-7-7-5-5-5-5-5-5-5-2/3-3-3-3-3-3-3-2/3-3-3-3-3-3-3-|
pm_______________________________|
|-------------------------------------------------------|
|-------------------------------------------------------|
|-------------------------------------------------------|
|-5-5-5-5-5-5-5-5-5-5-5-5-5-5-5-5-5-5-5-5-5-5-5-5-5-5-5-|
|-5-5-5-5-5-5-5-5-5-5-5-5-5-5-5-5-5-5-5-5-5-5-5-5-5-5-5-|
|-3-3-3-3-3-3-3-3-3-3-3-3-3-3-3-3-3-3-3-3-3-3-3-3-3-3-3-|

Post bridge
|-----------------------------|
|-----------------------------|
|-------7-7-7-----------------|
|-7-7-7-7-7-7-5-5-5-5-5-7-7-7-|
|-7-7-7-5-5-5-5-5-5-5-5-7-7-7-|
|-5-5-5-------3-3-3-3-3-5-5-5-|

----------------- Acordes -----------------
