Green Day - Letterbomb

E|------------------------------------------------------|
B|------------------------------------------------------|
G|-9-9-9-9-9-9-9-9--9-9-9-9-9-9-9-9--9-9-9-9-9-9-9-9----|
D|------------------------------------------------------|
A|-7-7-7-7-7-7-7-7--7-7-7-7-7-7-7-7--7-7-7-7-7-7-7-7----|
E|------------------------------------------------------|

E|------------------------------------------------------|
B|------------------------------------------------------|
G|-8-8-8-8-8-8-8-8--9-9-9-9-9-9-9-9--9-9-9-9-9-9-9-9----|
D|------------------------------------------------------|
A|-6-6-6-6-6-6-6-6--7-7-7-7-7-7-7-7--7-7-7-7-7-7-7-7----|
E|------------------------------------------------------|

      E5     G#5    C#5    A
E|---------------------------|
B|---------------------------|
G|----------------6----------| 
D|--2------6------6------7---|
A|--2------6------4------7---|
E|--0------4-------------5---|



(Where have all the bastards gone...)
     E5 (PM) A5   F#5 A5  E5          G#5 C#5 G#5 C#5 A5 E5
E|----------------------------------------------------------|
B|----------------------------------------------------------|
G|----------------------------------------6-------6---------|
D|-2-------7----4---7---2-2-2-2-2-2---6---6---6---6---7--4--|
A|-2-------7----4---7---2-2-2-2-2-2---6---4---6---4---7--4--|
E|-0-------5----2---5---0-0-0-0-0-0---4-------4-------5--2--|

      B5      B5
E|-------------|
B|-------------|
G|-------------|
D|--9--7/8--9--|
A|--9--7/8--9--|
E|--7--5/6--7--|


(Where have all the riots gone...)
      E5 (PM)A5   F#5 A5  E5          G#5 C#5 G#5 C#5 A5 E5
E|----------------------------------------------------------|
B|----------------------------------------------------------|
G|----------------------------------------6-------6---------|
D|-2-------7----4---7---2-2-2-2-2-2---6---6---6---6---7--4--|
A|-2-------7----4---7---2-2-2-2-2-2---6---4---6---4---7--4--|
E|-0-------5----2---5---0-0-0-0-0-0---4-------4-------5--2--|

      B5
E|------------------------------------|
B|------------------------------------|
G|------------------------------------|
D|-9--7/8--9-9-9---7/8--9-9-9---7/8--9-9-9--|
A|-9--7/8--9-9-9---7/8--9-9-9---7/8--9-9-9--|
E|-7--5/6--7-7-7---5/6--7-7-7---5/6--7-7-7--|


(The television's an obstructionist...)
     A5                        B5
E|----------------------------------------------------|
B|----------------------------------------------------|
G|----------------------------------------------------|
D|--7-7-7-7-7---6/7--7-7-7-7-7---6/9-9-9-9-9-9---7/9--9-9-9-9--7/9--9-9-7/9---|
A|--7-7-7-7-7---6/7--7-7-7-7-7---6/9-9-9-9-9-9---7/9--9-9-9-9--7/9--9-9-7/9---|
E|--5-5-5-5-5---4/5--5-5-5-5-5---4/7-7-7-7-7-7---5/7--7-7-7-7--5/7--7-7-5/7---|


(It's not over till you're underground...)
     E5  B5  A5      E5  B5  A5
E|-----------------------------|
B|-----------------------------|
G|-9---------------9-----------|
D|-9---9---7-------9---9---7---|
A|-7---9---7-------7---9---7---|
E|-----7---5-----------7---5---|

     E5  B5  A5 F5   E5  B5  A5
E|-----------------------------|
B|-----------------------------|
G|-9---------------9-----------|
D|-9---9---7--3----9---9---7---|
A|-7---9---7--3----7---9---7---|
E|-----7---5--1--------7---5---|

(Well there is nothing left to analyze...)
     F#5     A
E|-------------|
B|-------------|
G|-------------|
D|--4------7---|
A|--4------7---|
E|--2------5---|


Guitar 1                           (Where will all the...)
E|------------------------------------------------------|
B|------------------------------------------------------|
G|-9-9-9-9-9-9-9-9--9-9-9-9-9-9-9-9--9-9-9-9-9-9-9-9----| 
D|------------------------------------------------------|
A|-7-7-7-7-7-7-7-7--7-7-7-7-7-7-7-7--7-7-7-7-7-7-7-7----|
E|------------------------------------------------------|

Guitar 2
E|------------------------------------------------------|
B|-----------------------------------9-----9-----9------|
G|--------------------------------------9-----9----9----|
D|------------------------------------------------------|
A|------------------------------------------------------|
E|------------------------------------------------------|

Guitar 1
E|------------------------------------------------------|
B|------------------------------------------------------|
G|-8-8-8-8-8-8-8-8--9-9-8-4-4-6-6-8--9-9-8-9-9----------|
D|------------------------------------------------------|
A|-6-6-6-6-6-6-6-6--7-7-6-2-2-4-4-6--7-7-6-7-7----------|
E|---------------------------------------------/////////|
                                               ^pick-slide
Guitar 2
E|------------------------------------------------------|
B|-7-----7-----7----9-----9-----9----10----10----10-----|
G|----8-----8----8-----9-----9----9-----9-----9----9----|
D|------------------------------------------------------|
A|------------------------------------------------------|
E|------------------------------------------------------|

      E5              G#5             C#5       A
E|------------------------------------------------------|
B|------------------------------------------------------|
G|----------------------------------6-------------------| 
D|--2---------------6---------------6---------7---------|
A|--2---------------6---------------4---------7---------|
E|--0---------------4-------------------------5---------|   


Guitar 1                          (Well don't look back...)
      E5              G#5
E|------------------------------------------------------|
B|------------------------------------------------------|
G|----------------------------------9-8-4-8--9-8-4-4----| 
D|--2---------------6-----------------------------------|
A|--2---------------6---------------7-6-2-6--7-6-2-2----|
E|--0---------------4-----------------------------------|

Guitar 2
E|------------------------------------------------------|
B|------------------------------------------------------|
G|-9---9---9---9-9--8-8-8h9p8-8-6-4---------------------|
D|---9---9---9--9---------------------------------------|
A|------------------------------------------------------|
E|------------------------------------------------------|


(You're not the Jesus of Suburbia...)
      B5                  A5      B5
E|-------------------------------------------------|
B|-------------------------------------------------|
G|-------------------------------------------------|
D|--9-7/9-99--7/9-99--6/7--7-7--6/9--9-9--7/9--9--7/9----|
A|--9-7/9-99--7/9-99--6/7--7-7--6/9--9-9--7/9--9--7/9----|
E|--7-5/7-77--5/7-77--4/5--5-5--4/7--7-7--5/7--7--5/7----|


(It's not over till you're underground...)
     E5  B5  A5      E5  B5  A5
E|-----------------------------|
B|-----------------------------|
G|-9---------------9-----------|
D|-9---9---7-------9---9---7---|
A|-7---9---7-------7---9---7---|
E|-----7---5-----------7---5---|

     E5  B5  A5 F5   E5  B5  A5
E|-----------------------------|
B|-----------------------------|
G|-9---------------9-----------|
D|-9---9---7--3----9---9---7---|
A|-7---9---7--3----7---9---7---|
E|-----7---5--1--------7---5---| 


(She said I can't take this place...)
      E5     G#5    C#5    A
E|---------------------------|
B|---------------------------|
G|----------------6----------| 
D|--2------6------6------7---|
A|--2------6------4------7---|
E|--0------4-------------5---|

(Well she said I can't take this town...)
      E5     G#5    C#5    A
E|---------------------------|
B|---------------------------|
G|----------------6----------| 
D|--2------6------6------7---|
A|--2------6------4------7---|
E|--0------4-------------5---|


Guitar 1
E|------------------------------------------------------|
B|------------------------------------------------------|
G|------------------------------------------------------|
D|-2------2-2-------2--------2-2------2------2-2--------2--|
A|-2------2-2-------2--------2-2------2------2-2--------2--|
E|-0------0-0-------0--------0-0------0------0-0--------0--|
                                                     (let ring)
Guitar 2
E|------------------------------------------------------|
B|------------------------------------------------------|
G|-9-9-9-9-9-9-9-9-9-9-9-9-9-9-9-9-9-9-9-9-9-9-9-9-9-9--|
D|------------------------------------------------------|
A|-7-7-7-7-7-7-7-7-7-7-7-7-7-7-7-7-7-7-7-7-7-7-7-7-7-7--|
E|------------------------------------------------------|
                                                     (let ring)

Lyrics:

No body likes you
Everyone left you
They're all out without you
Having fun

Where have all the bastards gone?
The underbelly's accidental high
The dummy failed the crash test
Collecting unemployment checks
You're fucking only along for the ride

Where have all the riots gone?
Acid City's model gets pulverized
What's in love is now in debt
On your birth certificate
So strike the fucking match to light this fuse

The television's an obstructionist
And you don't even know that you exist.
Standin' still with suit and tie
You better run for your fucking life

It's not over 'till you're underground
It's not hope before it's too late
This city's burning.  It's not my burden
It's not hope before it's too late

There is nothing left to analyze

Where will all the martyrs go when the virus cures itself?
And where we will all go when it's too late

Well don't look back

You're not the Jesus of Suburbia
That St. Jimmy is a figment of
Your father's rage and your mother's love
That's made the idiot America

It's not over till you're underground
It's not hope before it's too late
This city's burning.  It's not my burden
It's not hope before it's too late

She said I can't take this place
I'm leaving it behind
Well she said I can't take this town
I'm leaving you tonight


----------------- Acordes -----------------
A = X 0 2 2 2 0
A5 = X 0 2 2 X X
B5 = X 2 4 4 X X
C#5 = X 4 6 6 X X
E5 = 0 2 2 X X X
F#5 = 2 4 4 X X X
F5 = 1 3 3 X X X
G#5 = 4 6 6 X X X
