Green Day - Warning

Riff 1:
E|------------------------------------
B|------------------------------------
G|------------------------------------
D|---------0-0-2-4-5-5-4-2-0-0--------
A|-0-0-2-4----------------------4-2---
E|------------------------------------

Riff 2:
E|----------------------------
B|----------------------------
G|----------------------------
D|----------------------------
A|--0-4-0------0-4-4-0--------
E|---------3-0----------3-0---


Intro 4x: A  D  G  D

A                    D                  G        D
This is a public service announcement, this is only a test


( A  D  G  D )

A       D   G          D      (A     D     G     D)
Emergency evacuation protest

     A           D            G         D
"May Impair  your ability to operate machinery"
A             D   G            D
Can't quite tell just what it means to me
  A             D            G            D
"Keep out of reach of children", "don't you talk to strangers"
A             D            G            D
Get your philoshophy from a bumper sticker

A     D   G          D            (A     D     G     D)
Warning. Live without warning
 A     D      G     D
I Say warning. Live without warning
A     D     G     D
                Without. Alright.

( A  D  A  G  A  D  G )

( A  D  G  D)

A          D          G          D       (A     D     G     D)
Better homes and safety-sealed communities.
A          D          G          D       (A     D     G     D)
Did you remember to pay the utility?
A          D          G          D
CAUTION:Police Line -You Better Not Cross!
A          D          G          D
Is it the cop or am I the one that's really dangerous?
A          D          G         D
Sanitation, expiration date, question everything.
A          D          G          D
Oh shut up and be a victim of authority

A     D   G          D            (A     D     G     D)
Warning. Live without warning
       A     D     G          D
I Say, warning. Live without warning
A     D     G      D
                Without. Alright.

( A  D  A  G  A  D  G )

A     D     A     G      A     D     G
Better homes and saftey-sealed communities.
( A   D   A   G    A   D   G  )
A     D     A     G      A     D     G
Did you remember to pay the pay the utility?

( A   D   A   G    A   D   G )

A          D          G           D
CAUTION: Police Line You Better Not Cross!
A          D          G           D
Is it the cop, or am I the one that's really dangerous
A          D          G           D
Sanitation, expiration date, question everything.
A          D          G
Oh shut up and be a victim of authority

A          D          G           D   (A     D     G      D)
Warning. Live without warning
A     D     G      D               (A     D     G      D)
Say warning. Live without warning
A          D          G           D   (A     D     G      D)
Say warning. Live without warning
A          D          G           D
Say warning. Live without warning
A          D          G           D
This is a public service announcement, this is only a test

----------------- Acordes -----------------
A = X 0 2 2 2 0
D = X X 0 2 3 2
G = 3 2 0 0 0 3
