Green Day - Wow! That's Loud

 Intro:
|---------7-9~-11-12~-11-12-11-9-7----|
|----9-11~------------------------11~-|
|-11~---------------------------------|
|-------------------------------------|
|-------------------------------------|
|-------------------------------------|

 Verse 1:
    |3x*************|  |2x*************|  |2x*************|
|-----------------------------------------------------------|
|-----------------------------------------------------------|
|----------------------4-4-4-4-4-4-4-4-x--------------------|
|-2-4-4-4-4-4-4-4-4-x--4-4-4-4-4-4-4-4-x--4-4-4-4-4-4-4-4-x-|
|-2-4-4-4-4-4-4-4-4-x--2-2-2-2-2-2-2-2-0--4-4-4-4-4-4-4-4-x-|
|-0-2-2-2-2-2-2-2-2-0---------------------2-2-2-2-2-2-2-2-0-|

 Pre-Chorus:
|-----------------------------------------------------------------|
|-----------------------------------------------------------------|
|-2-2-2-2-2-2-2-2-----------------2-2-2-2-2-2-2-2-----------------|
|-2-2-2-2-2-2-2-2-4-4-4-4-4-4-4-4-2-2-2-2-2-2-2-2-4-4-4-4-4-4-4-4-|
|-0-0-0-0-0-0-0-0-4-4-4-4-4-4-4-4-0-0-0-0-0-0-0-0-4-4-4-4-4-4-4-4-|
|-----------------2-2-2-2-2-2-2-2-----------------2-2-2-2-2-2-2-2-|


 Chorus:
|---------------------|
|---------------------|
|-4-4-4-4-5-5-6-6-6-6-|
|-4-4-4-4-5-5-6-6-6-6-|
|-2-2-2-2-3-3-4-4-4-4-|
|---------------------|

|---------7-9~-11-12~-11-12-11-9-7----|
|----9-11~------------------------11~-|
|-11~---------------------------------|
|-------------------------------------|
|-------------------------------------|
|-------------------------------------|

 Verse 2:
    |2x*************|  |2x*************|  |2x*************|
|-----------------------------------------------------------|
|-----------------------------------------------------------|
|----------------------4-4-4-4-4-4-4-4-x--------------------|
|-2-4-4-4-4-4-4-4-4-x--4-4-4-4-4-4-4-4-x--4-4-4-4-4-4-4-4-x-|
|-2-4-4-4-4-4-4-4-4-x--2-2-2-2-2-2-2-2-0--4-4-4-4-4-4-4-4-x-|
|-0-2-2-2-2-2-2-2-2-0---------------------2-2-2-2-2-2-2-2-0-|

 Pre-Chorus:
|-----------------------------------------------------------------|
|-----------------------------------------------------------------|
|-2-2-2-2-2-2-2-2-----------------2-2-2-2-2-2-2-2-----------------|
|-2-2-2-2-2-2-2-2-4-4-4-4-4-4-4-4-2-2-2-2-2-2-2-2-4-4-4-4-4-4-4-4-|
|-0-0-0-0-0-0-0-0-4-4-4-4-4-4-4-4-0-0-0-0-0-0-0-0-4-4-4-4-4-4-4-4-|
|-----------------2-2-2-2-2-2-2-2-----------------2-2-2-2-2-2-2-2-|

 Chorus:
|---------------------|
|---------------------|
|-4-4-4-4-5-5-6-6-6-6-|
|-4-4-4-4-5-5-6-6-6-6-|
|-2-2-2-2-3-3-4-4-4-4-|
|---------------------|

 Bridge/Solo:
  |3x*******************************|
|---------7-9~-11-12~-11-12-11-9-7----|
|----9-11~------------------------11~-|
|-11~---------------------------------|
|-------------------------------------|
|-------------------------------------|
|-------------------------------------|

|--------------------------------------|
|-14-----------------14-----14----14---|
|-16b-16~16~-16~-16~-16b-16~--16~-16b\-|
|--------------------------------------|
|--------------------------------------|
|--------------------------------------|

|---------7-9~-11-12~-11-12-11-9-7----|
|----9-11~------------------------11~-|
|-11~---------------------------------|
|-------------------------------------|
|-------------------------------------|
|-------------------------------------|

 Guitar 1 - Solo (*i'll try to add the solo later*)
|---------------------------------------------------|
|---------------------------------------------------|
|---------------------------------------------------|
|---------------------------------------------------|
|---------------------------------------------------|
|---------------------------------------------------|

 Guitar 2
|---------------------|
|---------------------|
|-4-4-4-4-5-5-6-6-6-6-|
|-4-4-4-4-5-5-6-6-6-6-|
|-2-2-2-2-3-3-4-4-4-4-|
|---------------------|

 Guitar 1    *(2:18min.)
|--------------------------------------------------------------|
|--------------------------------------------------------------|
|--------------------------------------------------------------|
|-4------------------------------------------------------------|
|-4------------------------------------------------------------|
|-2~2~-------/7\6~/7~/9~-/12~-\6~-/9~-/12~-12~-12~-12~-12~-\6~-|

          Verse 3:
                 *(2:46)    *(2:51)
|------------------------------------------|
|------------------------------------------|
|------------------------------------------|
|------------------------------------------|
|------------------------------------------|
|-\-\-\-\-2~-2~--/7~---7/9\-2~-----\-\-\-\-|

 Pre-Chorus:
|-----------------------------------------------------------------|
|-----------------------------------------------------------------|
|-2-2-2-2-2-2-2-2-----------------2-2-2-2-2-2-2-2-----------------|
|-2-2-2-2-2-2-2-2-4-4-4-4-4-4-4-4-2-2-2-2-2-2-2-2-4-4-4-4-4-4-4-4-|
|-0-0-0-0-0-0-0-0-4-4-4-4-4-4-4-4-0-0-0-0-0-0-0-0-4-4-4-4-4-4-4-4-|
|-----------------2-2-2-2-2-2-2-2-----------------2-2-2-2-2-2-2-2-|

 Chorus:
|---------------------------------|
|-7--7--7--7-8---9---9---9---9----|
|-9b-9b-9b-9b10b-11b-11b-11b-11b\-|
|---------------------------------|
|---------------------------------|
|---------------------------------|

 Outro:
  |4x*******************************|
|---------7-9~-11-12~-11-12-11-9-7----|
|----9-11~------------------------11~-|
|-11~---------------------------------|
|-------------------------------------|
|-------------------------------------|
|-------------------------------------|

                      *(3:42)
|------------------------------------|
|-2--2--2--2--2--2----11-9-11-9-11-9-|
|-4b-4b-4b-4b-4b-4b---x--x-x--x-x--x-|
|---------------------8--6-8--6-8--6-|
|------------------------------------|
|------------------------------------|

  *(3:49) *(3:53)
|----------------------------------|
|----------------------------------|
|----------------------------------|
|-4-------4------------------------|
|-4-------4------------------------|
|-2-2~----2-2~~~~~2b~~~~2~~~~2b~~~-|

----------------- Acordes -----------------
