Green Day - X-kid

  INTRO/VERSO
E|------------------------------------------------------------|
B|------------------------------------------------------------|
G|--9--99---9--99---9--99---9--99-----------------------------|  X 4
D|--9--99---9--99---9--99---9--99-----------------------------|
A|--7--77---x--xx---x--xx---0--00-----------------------------|
E|----------9--99---7--77-------------------------------------|

 PRÉ-REFRÃO: " I fell in love..."
E|--------------------------------------------|
B|--------------------------------------------|
G|---9--99--9--99---9--99--9-99---------------|
D|---9--99--9--99---9--99--9-99---------------|
A|---7--77--x--xx---x--xx--0-00---------------|
E|----------7--77---9--99---------------------|

E|------------------------------------------------------|
B|------------------------------------------------------|
G|--9--99---9--99---9--99-------------------------------|
D|--9--99---9--99---9--99---7777777777777777--9---------|
A|--7--77---x--xx---x--xx---7777777777777777--9---------|
E|----------9--99---7--77---5555555555555555--7---------|


          REFRÃO
E|-------------------------------------------------|
B|-------------------------------------------------|
G|--------------44444444--66666666-----------------|
D|--2222222222--44444444--66666666--77777777--9----|
A|--2222222222==22222222==44444444==77777777=-9====|
E|--0000000000----------------------55555555--7----|

E|----------------------------------------------------------|
B|----------------------------------------------------------|
G|--------------44444444--66666666--------------------------|
D|--2222222222--44444444--66666666--77777777-777777777--9---|
A|--2222222222--22222222--44444444--77777777-777777777--9---|
E|--0000000000----------------------55555555-555555555--7---|


         VERSO
E|------------------------------------------------------------|
B|------------------------------------------------------------|
G|--9--99---9--99---9--99---9--99-----------------------------|  X 3
D|--9--99---9--99---9--99---9--99-----------------------------|
A|--7--77---x--xx---x--xx---0--00-----------------------------|
E|----------9--99---7--77-------------------------------------|

      PRE-REFRÃO: " You fell in love.."

E|--------------------------------------------|
B|--------------------------------------------|
G|---9--99--9--99---9--99--9-99---------------|
D|---9--99--9--99---9--99--9-99---------------|
A|---7--77--x--xx---x--xx--0-00---------------|
E|----------7--77---9--99---------------------|

E|------------------------------------------------------|
B|------------------------------------------------------|
G|--9--99---9--99---9--99-------------------------------|
D|--9--99---9--99---9--99---777777777-7777777--9---------|
A|--7--77---x--xx---x--xx---777777777-7777777--9---------|
E|----------9--99---7--77---555555555-5555555--7---------|

     REFRÃO
E|-------------------------------------------------|
B|-------------------------------------------------|
G|--------------44444444--66666666-----------------|
D|--2222222222--44444444--66666666--77777777--9----|
A|--2222222222==22222222==44444444==77777777=-9====|
E|--0000000000----------------------55555555--7----|

E|---------------------------------------------------------|
B|---------------------------------------------------------|
G|--------------44444444--66666666-------------------------|
D|--2222222222--44444444--66666666--77777777-777777777-----|
A|--2222222222--22222222--44444444--77777777-777777777-----|
E|--0000000000----------------------55555555-555555555-----|


     PONTE

E|----------------------------|
B|----------------------------|
G|----------------------------|
D|--7-7-7-7--2--9999999999----| x 3
A|--7-7-7-7--2--9999999999----|
E|--5-5-5-5--0--7777777777----|

E|-------------------------------------------------------------|
B|-------------------------------------------------------------|
G|-------------------------------------------------------------|
D|-7-7-7-7-7-7-7-7-7-7-7-7-7-7-7-7-7-7-7-7-7-7-7-7-7-7----9----|
A|-7-7-7-7-7-7-7-7-7-7-7-7-7-7-7-7-7-7-7-7-7-7-7-7-7-7----9----|
E|-5-5-5-5-5-5-5-5-5-5-5-5-5-5-5-5-5-5-5-5-5-5-5-5-5-5----7----|
   . . . . . . . . . . . . . . . . . . . . . . . . . .


 SOLO(BASE):
E|------------------------------------------------|
B|------------------------------------------------|
G|-99999999--66666666-----------------------------|
D|-99999999--66666666--99999999-77777777----------|   X 2
A|-77777777--44444444--99999999-77777777----------|
E|---------------------77777777-55555555----------|

E|-----------------------------|
B|-----------------------------|
G|-----------------------------|
D|--7-7-7-7--2--9-999999999----| x 3
A|--7-7-7-7--2--9-999999999----|
E|--5-5-5-5--0--7-777777777----|

E|------------------------------|
B|------------------------------|
G|------------------------------|
D|--7-7-7-7--2--9-999999999--6--|
A|--7-7-7-7--2--9-999999999--6--|
E|--5-5-5-5--0--7-777777777--4--|

 SOLO:

E|----------------------------------------------------------------------------|
B|----------------------------------------------------------------------------|
G|----0--0--0--0--0--0----0--0--0--0--0--0--0--0--0--0--0--0--0-0-0-0-0-0-0---|
D|---13-13-13-13-11/13---13-13-13-13-14-13-11-11-11-11-11-13-11-9-9-9-9-9-9---|
A|----X--X--X--X--X/-X----X--X--X--X--X--X--X--X--X--X--X--X--X-X-X-X-X-X-X---|
E|---11-11-11-11--9/11---11-11-11-11-12-11--9--9--9--9--9-11--9-7-7-7-7-7-7---|

E|----------------------------------------------------------------------------|
B|----------------------------------------------------------17--12--1717171717|
G|--b-14-14br-14-13-------13-14--b14br-14-13------13---14---------------------|
D|-------------------14-14------------------14-14----14-----------------------|
A|----------------------------------------------------------------------------|
E|----------------------------------------------------------------------------|

E|--------------------------------------------------------------------------------|
B|-------------------------------------12-12--15brb-15brb--17-17-17-17-16-14-12-12|
G|14-14-14-14-13-11-9-8~-14-14-14-14-13-------------------------------------------|
D|--------------------------------------------------------------------------------|
A|--------------------------------------------------------------------------------|
E|--------------------------------------------------------------------------------|

E|----------------------------19-19-19--|
B|---17-17-17-17--16-19-19-19-----------|
G|--------------------------------------|
D|--------------------------------------|
A|--------------------------------------|
E|--------------------------------------|

      FIM DO SOLO~

E|------------------------------------------------------------|
B|------------------------------------------------------------|
G|--9--99---9--99---9--99---9--99-----------------------------|  X 2
D|--9--99---9--99---9--99---9--99-----------------------------|
A|--7--77---x--xx---x--xx---0--00-----------------------------|
E|----------9--99---7--77-------------------------------------|

E|------------------------------------------------------|
B|------------------------------------------------------|
G|--9--99---9--99---9--99-------------------------------|
D|--9--99---9--99---9--99---7777777777777777--9---------|
A|--7--77---x--xx---x--xx---7777777777777777--9---------|
E|----------9--99---7--77---5555555555555555--7---------|

     REFRÃO
E|-------------------------------------------------|
B|-------------------------------------------------|
G|--------------44444444--66666666-----------------|
D|--2222222222--44444444--66666666--77777777--9----| X 3
A|--2222222222==22222222==44444444==77777777=-9====|
E|--0000000000----------------------55555555--7----|

E|-----------------------------------------------------------------|
B|-----------------------------------------------------------------|
G|--------------44444444--66666666---------------------------------|
D|--2222222222--44444444--66666666--77777777-7777777-77777777-9----|
A|--2222222222==22222222==44444444==77777777=7777777-77777777-9====|
E|--0000000000----------------------55555555-5555555-55555555-7----|


     FIM
E|------------------------------------------|
B|------------------------------------------|
G|--9--99---9--99---9--99---9--9-9----------|
D|--9--99---9--99---9--99---9--9-9----2-----|
A|--7--77---x--xx---x--xx---0--0-X----2-----|
E|----------9--99---7--77--------7-0~-0-----|

----------------- Acordes -----------------
