Green Day - Xmas Time Of The Year

Intro
E|--­­3--­­­3­3­3­3­3­3---------------­­­­­­­­­­­­­­­­­­­­­­­­­­­­­|
B|­­--3­­­--3­3­3­3­3­3---­­­­1­­--1­1­1­1­1­1­1­­­­­­­­­--|
G|­­--0­­­--0­0­0­0­0­0-­­­­--0­­--0­0­0­0­0­0­0­­­­­­­­­--|
D|­­--0­­­--0­0­0­0­0­0­­­­---2­­--2­2­2­2­2­2­2­­­­­­­­­--|
A|­­--2­­­--2­2­2­2­2­2­­­­---3­­--3­3­3­3­3­3­3­­­­­­­­­--|
E|­­--3­­­--3­3­3­3­3­3---------------­­­­­­­­­­­­­­­­­­­­­­­­­­­­­|

E|--­­3--­­­3­3­3­3­3­3------------­­­­­­­­­­­­­­2­2­2­2­­­­­­­­--|
B|--­­3--­­­3­3­3­3­3­3---­­­­1--­­1­1­1­­---3­3­3­3­­­­­­­­--|
G|­­--0--­­­0­0­0­0­0­0­­­­---0--­­0­0­0---­­2­2­2­2­­­­­­­--|
D|--­­0­­­--0­0­0­0­0­0­­­­---2­­--2­2­2---­­0­0­0­0­­­­­­­­--|
A|--­­2­­­--2­2­2­2­2­2­­­­---3--­­3­3­3­­­­­­­­­­­­­­­­­---------|
E|­­--3--­­­3­3­3­3­3­3------------------­­­­­­­­­­­­­­­­­­­­­­­­­­­­­|

e|­­­­­­­­­­­­­­­­---------|
B|­­­­­­­­­­­­­­­­---------|
G|--­­7­7­7­7­7­7­7­|
D|­­--7­7­7­7­7­7­7­|
A|­­--5­5­5­5­5­5­5­|
E|­­­­­­­­­­­­­­­­---------|


Verso
e|­­­­­­­­­­­­­­­­­­­­­­­­­­­­­­­­­­­­­­­­­­---------------------------|
B|--------------------------­­­­­­­­­­­­­­­­­­­­­­­­­­­­­­­­­­­­­-­­­­|
G|--------------­­­­­­­­­­­­­­­­­­­­5--­­­5­5­5­5­55----­­­­­­­|
D|--­­5--­­­5­5­5­5­5­­­­5---­­­5--­5­5­5­5­55----­­­­­­­|
A|--­­5­­­--5­5­5­5­55­---­­­3--­­­3­3­3­3­3­3­­­­­­­----|
E|--­­3--­­­3­3­3­3­3­3----------------­­­­­­­­­­­­­­­­­­­­­­­­­|

E|---------------------------­­­­­­­­­­­­­­­­­­­­­­­­­­­­­­­­­­­­­­­­­­­­­­|
B|­­­­­­­­­­­­­­­­­­­­­­­­­­­­­­­­­­­­­­­­­­­­­­---------------------------|
G|­­­­­­­­­­­­­­­­­­--------------­5--­­­5­5­7­7­7­7­----­­­­|
D|--­­5­­­--5­5­5­5­5­5­­­---5--­­­5­5­7­7­7­7­­­­­­­----|
A|­­--5­­­--5­5­5­5­5­5---­­­3­­­--3­3­5­5­5­5­­­­­­----­|
E|--­­3­­­--3­3­3­3­3­3----------------­­­­­­­­­­­­­­­­­­­­­­­­­­­­­|

E|---------------------------­­­­­­­­­­­­­­­­­­­­­­­­­­­­­­­­­­­­­­­­­­­­­­|
B|­­­­­­­­­­­­­­­­­­­­­­­­­­­­­­­­­­­­­­­­­­­­­­---------------------------|
G|­­­­­­­­­­­­­­­­­­---------------------------|
D|--­­5­­­--5­5­5­5­5­55­5­5­5­5­5­5­5­5­­­-------|
A|­­--5­­­--5­5­5­5­5­55­5­5­5­5­5­5­5­5-------|
E|--­­3­­­--3­3­3­3­3­33­3­3­3­3­33­3­3-------­­­­­­­­­­­­­­­­­­­­­­­­­­­­­|


Chorus

E|------------------------------------------------­­­­­­­­­­­­­­­­­­­­­­­­­­­­­­­­­­­­­­­­­­­­­­­­­­­­­­­­­­­­­­­­­­­­­­­­­­­­­­|
B|­­­­­­­­­­­­­­­­­­­­­­­­­­­­­­­­­­­­­­­­­­­­­­­­­­­­­­­­­­­­­­­­­­­­­­­­­­­­­­------------------------------------------------|
G|­­--5--­­5­5­5­5­5­5­­­­­­­­­­­­­­­­­­­--------------7­7­7­7­7­7­7­7­7­­---5­5­5­5­5­5­5­5­5--­­|
D|­­--5--­­5­5­5­5­5­5---­­5­5­5­5­5­5­5­5­­---7­7­7­7­7­7­7­7­7---­­5­5­5­5­5­5­5­5­5­--­|
A|--­­3--­­3­3­3­3­3­3---­­5­5­5­5­5­5­5­5---­­5­5­5­5­5­5­5­5­5---­­3­3­3­3­3­3­3­3­3­­--|
E|­­­­­­­­­­­­­­­­­­--------------3­3­3­3­3­3­3­3--------------------------­­­­­­­­­­­­­­­­­­­­­­­­­­­­­­­­­­­­­­­­­|

Solo
e|­­­­­­­­­­­­­­­­­­­­­­­­­­­­­­­­­­­­­­­­­­­­­­­­­­­­­­­­­­­­­­­­­­­­­-------------------------------------------------------------------|
B|­­12­­­­---12­­­­­­­­­­­­­­­­­­­­­­­­­­­­­­­­­­­­­­­­­­­­­­­­­­­­­­­­­­------------------------------------------------------------­|
G|­­14b­­­--14b--­­12­--14-----­­­­­12-­14b­-14b-­14b-14­-12-----­­­­­12---­­­­12---­­­14­­­­­­---------­­|
D|­­­­­­­­­­­­­­­­­­­­­­­­­­­­­­­­­­­­­­­­­­­­­­­­­­­­­­­­­­­­­­­­­­---------------------------------------------------------------14--|
A|­­­­­­­­­­­­­­­­­­­­­­­­­­­­­­­­­­­­­­­­­­­­­­­­­­­­­­­­­­­­­­­­­­­­-------------------------------------------------------------------­|
E|­­­­­­­­­­­­­­­­­­­­­­­­­­­­­­­­­­­­­­­­­­­­­­­­­­­­­­­­­­­­­­­­­­­-------------------------------------------------------------------­­|

e|­­­­­­­­­­­­­­­­­­­­­­­­­­­­--------------------|
B|---­­­­­­­­­12-­15--­­15b--­­15b­­­--|
G|­­­­­­­­­­­­­­­­­­--------------------­|
D|­­­­­­­­­­­­­­­­­­­­­­­­­­­­--------------------|
A|--------------------­­­­­­­­­­­­­­­­­­­­­­­­­­­­|
E|­­­­­­­­­­­­­­­­­­­­­­­­­­­­--------------------|

e|­­­­­­­­­­­­­­­­­­­­­­­­­­­­­­­­­­­­­­­­­­­­­­­­­­­­­­­­­­­­­­­­­­­­­­­­­­­­­­­­­­­­­­­­­­­­­­­­­­­­­­­­­­­­­­­­­­---------------------------------------|
B|­­--17-­17-­17---­­­17-­15­-17-­15--­­15h17p15­-15­­­­­­­­­­­­­­­­­­­­­­­­­­­­­­­­­­­­­­­­­­­­­­­­­­­­­­­­­­­­--­|
G|---------------------------------------­­­­­­­­­­­­­­­­­­­­­­­­­­­­­­­­­­­­­­­­­­­­­­­­­­­­­­­­­­­­­­­­­­­­­­­­­­­­­­|
D|---------------------------------------­­­­­­­­­­­­­­­|
A|---------------------------------------­­­­­­­­­­­­­­­­­­­­­­­­­­­­­­­­­­­­­­­­­­­­­­­­­­­­­­­­­­­­­­­­­­­­­­­­­­­­­­­­­­­­­­­­­­­­­­­­­­­­­­­­­­­­­­­­­|
E|­­­­­­­­­­­­­­­­­­­­­­­­­­­­­­­­­­­­­­­­­­­­­­­­­­­­­­­­­­­­­­­­­­­­­­­­­­­­­­­­­­­­­­­­­­­­­­­­­­­­­­­­­­­­­­­­­---------------------------------------|

E|----------------------------------------­­­­­­­­­­­­­­­­­­­­­­­­­­­­­­­­­­­­­­­­­­­­­­­­­­­­­­­­­­­­­­­­­­­­­­­­­­­­­­­­­­­­­­­­­­­­­­­­­­­­­­­­­­­­­­­­­­|
B|----------------------------------------­­­­­­­­­­­­­­­­­­­­­­­­­­­­­­­­­­­­­­­­­­­­­­­­­­­­­­­­­­­­­|
G|­­­­­­­­­­­­­­­­­­­­­­­­­­­­­­­­­­­­­­­­­­­­­­­­­­­­­--14-­12----­­­­12­-14-14b-­12-----­­­­­­7-----------­­­­­­­­­­­­­­­­­­­­­­­­­|
D|­­­-----------­­­­­­­­­­­­­­­­­­­­­­­­­­­­­­­­­­­­­­­­­­­­­­­­­­­­­­­­­­14­­­­­­­­­­­­­­­­­­­­­­­­­­--------------------7b­­--5--­­­­­­­­­­­­­­­|
A|----------------------------------------­­­­­­­­­­­­­­­­­­­­­­­­­­­­­­­­­­­­­­­­­­­­­­­­­­­­­­­­­­­­­­­­­­­­­­­­­­­­­­­­­­­­­­­­­­­­­­­­­­­­­­­­­­­­­­­­­|
E|----------------------------------------­­­­­­­­­­­­­­­­­­­­­­­­­­­­­­­­­­­­­­­­­­­­­­­­­­­­­­­­­­­­­­­­­­­­­­­­­­­­­­­­­­­­­­­­­­­­­­­­­­­­­­­­­­­­­­­­­|


Ultimo Verso
E|---------------------------------------------­­­­­­­­­­­­­­­­­­­­­­­­­­­­­­­­­­­­­­­­­­­­­­­­­­­­­­­­­­­­|
B|­­­­­­­­­­­­­­­­­­­­­­­­­­­­­­­­­­­­­­­­­­­­­­­­­­­­­­­­­­­­---------------------------------------------|
G|­­­­­­­­­­­­­­­­­­-------------9--­­9­9­9­9­9­9­­---5--­­5­5­5­­­---7­7­7--------­­­­­­­­­­|
D|--­­5--­­­5­5-­5­5---­­­­­9--­­9­9­9­9­9­9­­---5--­­5­5­5---­­­7­7­7-----­­­­5­­­­­--|
A|­­--5--­­­5­5­-5­5---­­­­­7­­--7­7­7­7­7­7---­­3--­­3­3­3­­­---5­5­5­­­­-----5--­­­­­|
E|­­--3­­­--3­3­-5­5--------------------------------­­­­­­­­­­­­­­­­­­­­­­­­­­­­­­­­­­­­­­­­­3--­­­­­|


Intro
Seasons greeting cards and Christmas
Lights light up the city
At the end of the year
This time I got no resolutions
Giving thanks for nothing
But joy into the year

Verso
Tonight friends are what its worth
Peace and love on Earth
And another year giving thanks again
The sleigh bells deck the halls with good will
Say a prayer the lost souls
Christmas time of the year

Chorus
Tonight friends are what its worth
Peace and love on Earth
And another year giving thanks again

Verso
The sleigh bells deck the halls with good will
Say a prayer the lost souls
Christmas time of the year

Solo

Chorus
Tonight friends are what its worth
Peace and love on Earth
And another year giving thanks again

Ultimo Verso
Somewhere around a plastic manger
Giving thanks to strangers
Christmas time of the year

----------------- Acordes -----------------
A = X 0 2 2 2 0
B = X 2 4 4 4 2
D = X X 0 2 3 2
E = 0 2 2 1 0 0
G = 3 2 0 0 0 3
