Ney Matogrosso - Vereda Tropical

E|--------|---------------------------------|--------|---------------------------------|
B|-1------|-1---0---1---0-------------------|--------|---------------------------------|
G|--------|-----------------2---0-----------|--------|---------------------------------|
D|--------|-------------------------3---2---|-0------|-0---0---2---0---3---2---0-------|
A|--------|---------------------------------|--------|-----------------------------3---|
E|--------|---------------------------------|--------|---------------------------------|

E|--------|---------------------------------|--------|--------|-----------------------|
B|--------|---------------------------------|--------|--------|-----------------------|
G|--------|---------------------------------|--------|--------|-----------------------|
D|-0------|-0---0---2---0---3---2---0---2---|--------|--------|-----------------------|
A|--------|---------------------------------|-3------|-3------|-3---------3---3---3---|
E|--------|---------------------------------|--------|--------|-----------------------|

E|-----------------------|-----------------|--------|-----------------------|-----------------------|
B|-----------------------|-----------------|--------|-----------------------|-----------------------|
G|-----------------------|-----------------|-5------|-5---------------------|-----------------------|
D|-----------------------|-2-----3----5----|--------|-----------------------|-----------------------|
A|-5---------5---5---5---|-----------------|--------|-----------3---3---3---|-5---------5---5---5---|
E|-----------------------|-----------------|--------|-----------------------|-----------------------|


E|-----------------|--------|-----------------------|-----------------------|------------------------------|
B|-----------------|--------|-----------------------|-----------------------|------------------------------|
G|-----------------|-2------|-2---------2---2---2---|-2-----2---2---4---2---|-5----4---2-------2---4---2---|
D|-2-----3----5----|--------|-----------------------|-----------------------|------------------------------|
A|-----------------|--------|-----------------------|-----------------------|------------------------------|
E|-----------------|--------|-----------------------|-----------------------|------------------------------|

E|------------------------------|---------------------|--------|-------------|--------|
B|------------------------------|---------------------|--------|-------------|-1------|
G|-5----4---2-------2---4---2---|-5----4----2----4----|-0------|-0-----------|--------|
D|------------------------------|---------------------|--------|-------------|--------|
A|------------------------------|---------------------|--------|-------------|--------|
E|------------------------------|---------------------|--------|-------------|--------|

E|---------------------------------|--------|---------------------------------|--------|
B|-1---0---1---0-------------------|--------|---------------------------------|--------|
G|-----------------2---0-----------|--------|---------------------------------|--------|
D|-------------------------3---2---|-0------|-0---0---2---0---3---2---0-------|-0------|
A|---------------------------------|--------|-----------------------------3---|--------|
E|---------------------------------|--------|---------------------------------|--------|

E|---------------------------------|--------|-------------|--------|-------------|
B|---------------------------------|--------|-------------|--------|-------------|
G|---------------------------------|--------|-------------|--------|-------------|
D|-0---0---2---0---3---2---0---2---|--------|-------------|-0------|-0------0----|
A|---------------------------------|-3------|-3------3----|--------|-------------|
E|---------------------------------|--------|-------------|--------|-------------|

E|-------------|-------------|--------|-------------|-------------|-------------|--------|
B|-------------|-------------|--------|-------------|-------------|-------------|-1------|
G|-------------|-------------|--------|-------------|-------------|-------2-----|--------|
D|-2-----------|-------------|-0------|-0------0----|-2-----------|-------------|--------|
A|-------3-----|-3------3----|--------|-------------|-------3-----|-3-----------|--------|
E|-------------|-------------|--------|-------------|-------------|-------------|--------|

E|-------------|--------|---------------------------|-----------------|-----------------|
B|-1-----0-----|--------|-----1---1---1---0---------|-----------------|-----------------|
G|-------------|-0------|-0---------------------2---|-0-----2-----0---|-----------------|
D|-------------|--------|---------------------------|-----------------|-0-----3-----2---|
A|-------------|--------|---------------------------|-----------------|-----------------|
E|-------------|--------|---------------------------|-----------------|-----------------|

E|--------|-------------|-------------|-----------------|-------------|--------|-----------------|
B|--------|-------------|-------------|-----------------|------1------|-1------|-1---------------|
G|--------|-------------|-0-----0-----|-0-----0----0----|-2----0------|-0------|-0---------------|
D|--------|--------2----|-------------|-----------------|------2------|-2------|-2---------------|
A|-3------|-3-----------|-2-----2-----|-2---------------|-------------|--------|-----------------|
E|--------|-------------|-------------|-----------------|-------------|--------|-----------------|

----------------- Acordes -----------------
