Eduardo Costa - Mentes Tão Bem

Intro 2x: G D/F# Em7 D/F#

C               D                   G     D/F#
Me Promete Amor Sincero Uma Vida Inteira
Am7                   D               G   D/F#
Que Com Você o Meu Inverno Vira primavera
Em7        G/B               C9
Vive me Jurando Estar apaixonada
         G/B                    Am7 Am/G
Prometeu o Mundo e nunca me deu nada, Você Não Cumpri
   D/F#
nada

Am7                      D                     G   D/F#
Que Se Eu Seguir o seu caminho eu Chegarei ao Céu
Am7                      D                  G   D/F#
Eu Vou provando O Gosto amargo do Seu Doce Mel
Em7             G/B                  C9
Na mentira das Palavras Entro no seu jogo
          G/B               Am7 Am/G             D/F#
Procurando água só encontro fogo Me queimo nesse Fogo


            C9               D
Quando Você Fala, tão apaixonada
             G        D/F#  Em
Meu Amor eu Sempre estarei contigo
              C                    D
Olho nos seus olhos me emociono e choro
              G          D/F#   Em
Sei Que É mentira mais me sinto Vivo
             C        Am7             D
Mesmo sendo falso o Ar, Sinto que respiro

 C9        D
Tom: G

Intro 2x: G D/F# Em7 D/F#

C               D                   G     D/F#
Me Promete Amor Sincero Uma Vida Inteira
Am7                   D               G   D/F#
Que Com Você o Meu Inverno Vira primavera
Em7        G/B               C9
Vive me Jurando Estar apaixonada
         G/B                    Am7 Am/G
Prometeu o Mundo e nunca me deu nada, Você Não Cumpri
   D/F#
nada

Am7                      D                     G   D/F#
Que Se Eu Seguir o seu caminho eu Chegarei ao Céu
Am7                      D                  G   D/F#
Eu Vou provando O Gosto amargo do Seu Doce Mel
Em7             G/B                  C9
Na mentira das Palavras Entro no seu jogo
          G/B               Am7 Am/G             D/F#
Procurando água só encontro fogo Me queimo nesse Fogo

            C9               D
Quando Você Fala, tão apaixonada
             G        D/F#  Em
Meu Amor eu Sempre estarei contigo
              C                    D
Olho nos seus olhos me emociono e choro
              G          D/F#   Em
Sei Que É mentira mais me sinto Vivo
             C        Am7             D
Mesmo sendo falso o Ar, Sinto que respiro

 C9        D
Mentes Tão Bem,
               G   D/F#
Que Parece Verdade
               Em
O Que Você Me Fala
      Em7
Vou Acreditando

 C9        D
Mentes Tão Bem,
                   Em7
Que até chego a imaginar

     G/B           A
que não quer me enganar
              Am7  D
Que ama de Verdade
               Em7
Mentes Tão Bem

            C9               D
Quando Você Fala, tão apaixonada
             G        D/F#  Em
Meu Amor eu Sempre estarei contigo
              C                    D
Olho nos seus olhos me emociono e choro
              G          D/F#   Em
Sei Que É mentira mais me sinto Vivo
             C        Am7             D
Mesmo sendo falso o Ar, Sinto que respiro

 C9        D
Mentes Tão Bem,
               G   D/F#
Que Parece Verdade
               Em
O Que Você Me Fala
      Em7
Vou Acreditando

 C9        D
Mentes Tão Bem,
                   Em7
Que até chego a imaginar
     G/B           A
que não quer me enganar
              Am7  D
Que ama de Verdade
               Em7 Am7
Mentes Tão Bem
              C    D
Não ama de Verdade
                G D/F# G D/F# G D/F#
Você mente tão bem

      G   D/F#
Que Parece Verdade
               Em
O Que Você Me Fala
      Em7
Vou Acreditando

 C9        D
Mentes Tão Bem,
                   Em7
Que até chego a imaginar

     G/B           A
que não quer me enganar
              Am7  D
Que ama de Verdade
               Em7
Mentes Tão Bem

            C9               D
Quando Você Fala, tão apaixonada
             G        D/F#  Em
Meu Amor eu Sempre estarei contigo
              C                    D
Olho nos seus olhos me emociono e choro
              G          D/F#   Em
Sei Que É mentira mais me sinto Vivo
             C        Am7             D
Mesmo sendo falso o Ar, Sinto que respiro

 C9        D
Mentes Tão Bem,
               G   D/F#
Que Parece Verdade
               Em
O Que Você Me Fala
      Em7
Vou Acreditando

 C9        D
Mentes Tão Bem,
                   Em7
Que até chego a imaginar
     G/B           A
que não quer me enganar
              Am7  D
Que ama de Verdade
               Em7 Am7
Mentes Tão Bem
              C    D
Não ama de Verdade
                G D/F# G D/F# G D/F#
Você mente tão bem

----------------- Acordes -----------------
