Charlie Brown Jr. - Corra Vagabundo

  Transcrita por Marcelo Godinho Wolff


Intro 1:
  Eb    E        C#       Eb         E
E|---------------------------------------------------------|
B|----------9---------------------------9------------------|
G|-8-----9-----9--6--8--9--8---------9-----9--6--8--9--8\--|
D|------------------------------8--------------------------|
A|---------------------------------------------------------|
E|---------------------------------------------------------|

Intro 2:
  Eb             E     C#
E|------------6------------------|      |----------------|
B|----6/8--9-----9-----6/8-------|      |----------------|
G|-8----------------9-------7/8--|      |-7-7--7-7---7-7-|
D|-------------------------------|(3x)  |-7-7--7-7---7-7-|
A|-------------------------------|      |-6-6--6-6---6-6-|
E|-------------------------------|      |----------------|


Eb
Corra vagabundo olha a polícia aí!
               E
Porque eu não quero ficar na cadeia
   C#
o dia inteiro a noite inteira
Eb                                          E
o dia passa na doideira e também passa do ponto
                   C#
Chegamos onde deveria ser
     Eb
Vagabundo deitado, mão na cabeça, identidade
           E                          C#
Não minta não porque, se não vai ser pior pra você!

 Eb                                (Riff 1)
Corra vagabundo olha a polícia ai!
 Eb                                (Riff 2)
Corra vagabundo olha a polícia ai!

(Intro 2)
(Verso)
(Refrão)2x
(Intro 1)
(Riff 2)7x
(Eb E)8x

Eb                          E                     C#
E|-----------------|-------------|----------------
B|-----------------|-------------|----------------
G|----8-----------|---9---------|-----6-----------
D|----8-----------|---9---------|-----6------------
A|----6-----------|---7---------|-----4-------------
E|----------------|--------------|-------------------



Riff2 :
E|--------------------|
B|--------------------|
G|--------------------|
D|----------8---------|
A|-6--6--7-----7--6---|
E|--------------------|

----------------- Acordes -----------------
