Charlie Brown Jr. - Local

RIFF 1, O RIFF É ULTILIZADO NA INTRO E NO REFRÃO:

C# G# Bb F#

e|-----------------------------------
B|-----------------------------------
G|-66--------------------------------
D|-66---44---88--66------------------
A|-44---44---88--66------------------
E|------22---66--44------------------

BASE: C#m - A#m - G#m

tu vai em festa , q só entra gente q não presta...

(depois use a mesma base , só q num ritmo mais lento..)

vc flagou, flagou flaguei o q o q??

estão no rumo errado estão sujeito a se fuder 2x


(a musica é isso ai raça ,  se eu conseguir tirar os solos eu
mando ... anderson (dê) guitarrista da banda xamuska !!!

----------------- Acordes -----------------
A#m = X 1 3 3 2 1
Bb = X 1 3 3 3 1
C# = X 4 6 6 6 4
C#m = X 4 6 6 5 4
F# = 2 4 4 3 2 2
G# = 4 3 1 1 1 4
G#m = 4 6 6 4 4 4
