Charlie Brown Jr. - Ninguem Entende Você

Afine a 6ª corda (mi) em Ré(D),deixado assim:
D,a,d,g,b,e

Introdução
e |-----------------------------------------------------------------|
B |-----------------------------------------------------------------|
G |-----------------------------------------------------------------|
D |-----------------------------------------------------------------|
A |-----------------------------------------------------------------|
D |-4-4-4-4-4-4-4-4-4-4-4-4-6-6-4-6-1-1-1-1-1-1-1-1-1-1-1-6-6-4-6-4-|

e |-----------------------------------------------------------------|
B |-----------------------------------------------------------------|
G |-----------------------------------------------------------------|
D |-----------------------------------------------------------------|
A |-----------------------------------------------------------------|
D |--4-4-4-4-4-4-4-4-4-4-4-4-6-6-4-6-1-1-1-1-1-1-1-1-1-1-1-1-1-1-1--|
                                                |____abafando____|


Repete 2x

e |-----------------------------------------------------------------|
B |-----------------------------------------------------------------|
G |-----------------------------------------------------------------|
D |-4-4-4-4-4-4-4-4-4-4-4-4-6-6-4-6-1-1-1-1-1-1-1-1-1-1-1-6-6-4-6-4-|
A |-4-4-4-4-4-4-4-4-4-4-4-4-6-6-4-6-1-1-1-1-1-1-1-1-1-1-1-6-6-4-6-4-|
D |-4-4-4-4-4-4-4-4-4-4-4-4-6-6-4-6-1-1-1-1-1-1-1-1-1-1-1-6-6-4-6-4-|


Verso
e |-----------------------------------------------------------------|
B |-----------------------------------------------------------------|
G |-----------------------------------------------------------------|
D |--4---------------------------6-1----------------------------6-4-|
A |--4---------------------------6-1----------------------------6-4-|
D |--4---------------------------6-1----------------------------6-4-|

e |-----------------------------------------------------------------|
B |-----------------------------------------------------------------|
G |-----------------------------------------------------------------|
D |-6-1---------------------------6-4--------------------------6-1--|
A |-6-1---------------------------6-4--------------------------6-1--|
D |-6-1---------------------------6-4--------------------------6-1--|

Refrão
e |-----------------------------------------------------------------|
B |-----------------------------------------------------------------|
G |-----------------------------------------------------------------|
D |-----------------------------------------------------------------|
A |-----------------------------------------------------------------|
D |-4-4-4-4-4-4-4-4-4-4-4-4-6-6-4-6-1-1-1-1-1-1-1-1-1-1-1-6-6-4-6-4-|



Repete
e |-----------------------------------------------------------------|
B |-----------------------------------------------------------------|
G |-----------------------------------------------------------------|
D |--4---------------------------6-1----------------------------6-4-|
A |--4---------------------------6-1----------------------------6-4-|
D |--4---------------------------6-1----------------------------6-4-|

e |-----------------------------------------------------------------|
B |-----------------------------------------------------------------|
G |-----------------------------------------------------------------|
D |-6-1---------------------------6-4--------------------------6-1--|
A |-6-1---------------------------6-4--------------------------6-1--|
D |-6-1---------------------------6-4--------------------------6-1--|

Solo
e |-----------------------------------------------------------------|
B |---11-12-11-12-14-12-11-12-11-12-11b12b11-11---------------------|
G |-----------------------------------------------------------------|
D |---------------------------------------------11------------------|
A |-----------------------------------------------------------------|
D |-----------------------------------------------------------------|

e |------------------------------------13---14----15----16----------|
B |---11-12-11-12-14-12-11-12-11-12-12----12---12----12-------------|
G |-----------------------------------------------------------------|
D |-----------------------------------------------------------------|
A |-----------------------------------------------------------------|
D |-----------------------------------------------------------------|

e |-----------------------------------------------------------------|
B |---11-12-11-12-14-12-11-12-11-12-11b12b11-11---------------------|
G |-----------------------------------------------------------------|
D |---------------------------------------------11------------------|
A |-----------------------------------------------------------------|
D |-----------------------------------------------------------------|

Repete Introdução

Desfecho(2x)
e |-----------------------------------------------------------------|
B |-----------------------------------------------------------------|
G |-----------------------------------------------------------------|
D |-4-4-4-4-4-4-4-4-4-4-4-4-6-6-4-6-1-1-1-1-1-1-1-1-1-1-1-6-6-4-6-4-|
A |-4-4-4-4-4-4-4-4-4-4-4-4-6-6-4-6-1-1-1-1-1-1-1-1-1-1-1-6-6-4-6-4-|
D |-4-4-4-4-4-4-4-4-4-4-4-4-6-6-4-6-1-1-1-1-1-1-1-1-1-1-1-6-6-4-6-4-|

e |-----------------------------------------------------------------|
B |-----------------------------------------------------------------|
G |-----------------------------------------------------------------|
D |--4-4-4-4-4-4-4-4-4-4-4-4-6-6-4-6-1-1-1-1-1-1-1-1-1-1-1-6-6-4--1-|
A |--4-4-4-4-4-4-4-4-4-4-4-4-6-6-4-6-1-1-1-1-1-1-1-1-1-1-1-6-6-4--1-|
D |--4-4-4-4-4-4-4-4-4-4-4-4-6-6-4-6-1-1-1-1-1-1-1-1-1-1-1-6-6-4--1-|

----------------- Acordes -----------------
