Charlie Brown Jr. - O Futuro É Um Labirinto Pra Quem Não Sabe o Que Quer

E|----------------------------------| 
A|----------------------------------| 
D|---------------------10-----------|5x 
G|---------10~-------8--------------| 
B|--13~--9------------------8---9---| 
e|--------------11~-----------------| 

Refrão:
E|--------------------9--6----------| 
A|-3-6-10--2-8--10----11-8----------| 
D|-5-8-12--5-10-12------------------| 
G|----------------------------------| 
B|----------------------------------| 
e|----------------------------------|

E|----------------------------------| 
A|----------------------------------| 
D|---------------------10-----------|5x 
G|---------10~-------8--------------| 
B|--13~--9------------------8---9---| 
e|--------------11~-----------------| 


Refrao:

E|--------------------9--6----------| 
A|-3-6-10--2-8--10----11-8----------| 
D|-5-8-12--5-10-12------------------| 
G|----------------------------------| 
B|----------------------------------| 
e|----------------------------------|

E|------------------------------------------------------| 
A|-88888888-11p10-888888-11p10--99999-11p10-99999-11p10-| 
D|------------------------------------------------------|5x 
G|------------------------------------------------------| 
B|------------------------------------------------------| 
e|------------------------------------------------------| 

Refrao

E|--------------------9--6----------| 
A|-3-6-10--2-8--10----11-8----------| 
D|-5-8-12--5-10-12------------------| 
G|----------------------------------| 
B|----------------------------------| 
e|----------------------------------|

----------------- Acordes -----------------
