Charlie Brown Jr. - O Que É Da Casa É Da Casa / Papo Reto (Pot-Pourri)

Intro: Beat-box mais ou menos assim

puf if pu caf Charlie, pu caf puf Brown
puf if pu caf Charlie, pu caf puf Brown
puf if pu caf Charlie, pu caf puf Brown

puf if pu caf pu puf
pu puf puf

Depois vai a música inteira com o seguinte beat-box e com o solo de baixo:

Beat-box: puf if caf puf puf caf

Solo de baixo:
G|----------------------------------------|
D|----------------------------------------|
A|-7-5-7-5-7-5-5-3-7-5-7-5-7575-7-5-7-5-3-|
E|----------------------------------------|

O que é da casa, é da casa
eu tô na minha, eu tô na área

Meu irmão
xota da índia massacô no pau dentro veneno do cão
Não vou ficar explicando não!

Basta tu prestar mas atenção

tu vai em festa que só entra quem não presta
olha pra cara do sujeito,
quer saber se o cara manda bem

Ele te prova quem é, mostrando a base que tem

Vagabundo do skate!
Não tem prá ninguém!Não tem prá ninguém!
Não tem prá ninguém!Não tem prá ninguém!

É bem por isso tu vai encontrar
Charlie Brown, na área
Meu irmão qual é, que há?
É bem por isso que tu vai perceber
que o que é da casa ladrão

logo e sempre vai levar!

É bem por isso tu vai encontrar
Charlie Brown, na área
Meu irmão qual é, que há?
É bem por isso que tu vai perceber
que o que é da casa ladrão

logo e sempre pá levar! logo e sempre pá levar!
logo e sempre pá levar! logo e sempre pá levar!

YEAH!!!            PORRA!!!!

Solo: (G D Em C)
Intro: 4x

E|---------------------------------------
B|---------------------------------------
G|---------------------------------------
D|--7-7-5-5-------4-5-5-5-4-5-5-0--------
A|--5-5-3-3-5-5-5-2-3-3-3-2-3-3-0--------
E|----------3-3-3------------------------

Riff 1

E|--3-3-3-3-3---2--0-0--3-3-3-3--------| 
B|--3-3-3-3-3---3--1-1--3-3-3-3-----|
G|--0-0-0-0-0---2--0-0--0-0-0-0------|
D|--0-0-0-0-0---0--2-2--2-2-2-2|na primeira parte esse riff é tocado 3 vezes seguido
A|--2-2-2-2-2---0--3-3--3-3-3-3-|pelo Riff 2
E|--3-3-3-3-3---0--0-0-----------|


Riff 2

E|-----------------------|
B|-----------------------|
G|-----------------------|
D|--5-5-5-5-5-5-5-5-5--5-|
A|--5-5-5-5-5-5-5-5-5--5-|
E|--3-3-3-3-3-3-3-3-3--3-|
   |----Abafado------| 

Riff 3

E|-----------------------|
B|-----------------------|
G|-----------------------|
D|--5-5-5-5-5-5-5-5--5-5-|
A|--5-5-5-5-5-5-5-5--5-5-|
E|--3-3-3-3-3-3-3-3--3-3-|
   |----Abafado----| 

Riff 1
Otário, eu vou te avisar:
Riff 1
O teu intelecto de
              Riff 1  Riff 2
 é de mosca de bar
G
 Você deixou ela de
  D
  lado pra falar
            Em
 Com seus amigos
            C
 Sobre suas coisas chatas
G                       D
 Ela deu brecha eu me aproximei
         Em                   C
 Porque eu me fortaleço é na sua falha
G                D
 Ela estava ali sozinha
                 Em                     C
   querendo atenção e alguém pra conversar
G                   D                      Em
 Você deixou ela de lado vai pagar pela mancada,
             C
 pode acreditar
         G  D
Então já era
    E9              C9
Eu vou fazer de um jeito
          G
 que ela não vai
       D  E9 C9
 esquecer
           G  D
Se for já era
    E9              C9
Eu vou fazer de um jeito
          G            D  E9 C9
 que ela não vai esquecer
           G  D
Se for já era
    Em              C             G            D  Em C
Eu vou fazer de um jeito que ela não vai esquecer

Riff 1
Otário, eu vou te avisar:
Riff 1
O teu intelecto de
             Riff 1  Riff 3
é de mosca de  bar
   G                            D
 Você falou pra ela que eu sou louco e canto mal,
             Em                       C
 Que eu não presto que eu sou um marginal
             G                        D
 Que eu não tenho educação que eu só falo palavrão
   Em                   C
E pra socialite eu não tenho vocação
 G                     D
Sei que isso tudo é verdade mais,
        Em                       C
Mas eu quero que se f*da essa porra de sociedade
G                           D                     Em                C
Pago minhas coisa sou limpinho, não sou como você filho da pu*a viadinho
         G  D
Então já era
    E9              C9
Eu vou fazer de um jeito
          G            D  E9 C9
 que ela não vai esquecer
           G  D
Se for já era
    E9              C9
Eu vou fazer de um jeito
           G            D  E9 C G C
  que ela não vai esquecer
Agora é uma base q o marcão faz mais ou menos assim:
2x
e|-3-3--3-3-3-3-3-|
B|-3-3--3-3-3-3-3-|
G|-0-0--0-0-0-0-0-|
D|-0-0--2-2-2-2-2-|
A|-2-2--3-3-3-3-3-|
E|-3-3--0-0-0-0-0-|


Riff 1
Mexeu com a família agora se vira
Riff 1
Segura a seqüência essa

sai da quadrilha
Riff 1
Charlie Brown,
     Riff 3
     Charlie Brown,
     Charlie Brown
Solo 2x:
E|-------------------------------------------------------------------9--------------------
B|--11----11----11----11-9----9----12-11----11----11----11-9----9------11----9-11----9-11-
G|-----11----11----11------11---11-------11----11----11------11---11------11------11------
D|----------------------------------------------------------------------------------------
A|----------------------------------------------------------------------------------------
E|----------------------------------------------------------------------------------------

E|----------------------------------
B|-----12-11----12-11----9-11-------
G|--11-------11-------11------------
D|----------------------------------
A|----------------------------------
E|----------------------------------

Depois do solo toque essas notas nessa ordem abafadas:
|:D|C|G|C|D|D|C|G|C|D|G|D|Em|C:| AI CAI NO REFRÃO

G                   D
 Você deixou ela de lado pra falar
            Em
 Com seus amigos
             C
Sobre as sua coisas chatas
G                         D
 Ela deu brecha e eu me aproximei
       Em                    C
Porque eu me fortaleço é na sua falha
G                 D                   Em
 Ela estava ali sozinha querendo atenção
                    C
E alguém pra conversar
G                   D
 Você deixou ela de lado
                   Em              C
Vai pagar pela mancada, pode acreditar
          G  D
Então já era
    E9              C9
Eu vou fazer de um jeito
          G            D  E9 C9
 que ela não vai esquecer
           G  D
Se for já era
    E9              C9
Eu vou fazer de um jeito
          G            D  E9 C9
 que ela não vai esquecer
 G                      C                Em  D
Se não quiser ficar só cuide dela bem melhor
G                     C                  Em  D
 Ou vai ficar só o pó, ou vai ficar só o pó
G
Ferro na boneca, pedrada na vidraça
C                              Em     D
Tudo o que eu tenho eu conquistei na raça
G
Eu não sou simpático a ninguém
         C
Hoje eu vou de Limousine
        Em           D    G
 mas eu já andei de trem

----------------- Acordes -----------------
C = X 3 2 0 1 0
C9 = X 3 5 5 3 3
D = X X 0 2 3 2
E9 = 0 2 4 1 0 0
Em = 0 2 2 0 0 0
G = 3 2 0 0 0 3
