Charlie Brown Jr. - Skate Vibration

Só lembrando q Cbjr afina meio tom abaixo

riff1
Eb|------------------------------
Bb|------------------------------
Gb|-------------12-12-12-12-12-12- 4x
Db|-14141214---------------------
Ab|-14121414---------------------
Eb|-12121412---------------------

riff2
Eb|------------
Bb|------------
Gb|------------
Db|-777-88-555- 4x
Ab|-777-88-555-
Eb|-555-66-333-

riff3
Eb|-------
Bb|-------

Gb|-------
Db|---5-7-
Ab|---5-7- 2x
Eb|---3-5-

Eb|---------------------------
Bb|---------------------------
Gb|--------------------------- 2x com phaser
Db|---------------------------
Ab|-----3-------3-------------
Eb|-3-5---5-3-5---3-5~--------

solo[ta meio por cima,ñ ta igual]
Eb|--------------------------------------/17-17h16h15h14-------------------------------------------
Bb|--12~~~-----------3h5h6-3h5h6-3h5h6~~----------------16h15h14h13--------------------------------
Gb|--14b~~-12-14~~-------------------------------------------------16h15h12h13---------------------
Db|---------------------------------------------------------------------------15h14h13h12----------
Ab|--------------------------------------------------------------------------------------15h14h13h12

cont..
Eb|14h13h12h11--------------------------------------------------------------------------------------

só colocar os riffs na ordem certa

----------------- Acordes -----------------
