Charlie Brown Jr. - Vida de Magnata

Legenda:
/ = slide
x = palm mute
PM = palm mute

"ahhh...isso não tem nada a ver com amor
esse sacana devia tá era satisfeito
mas ele derruba tudo que ele mesmo constrói
ele fica perdido no dia a dia
o dia a dia tá perdido no tempo
e o tempo já se perdeu no incompreensível"

Riff 1
|---------------------------------------------------------------------|
|---------------------------------------------------------------------|
|---------------------------------------------------------------------|
|---------------------------------------------------------------------|
|-0-2-3-0--5-3-2----0-------------------------------------------------|
|-0-2-3-0--5-3-2----0--7-8-0-7-8-0------------------------------------|
           | PM |      |    PM    |
|---------------------------------------------------------------------|
|---------------------------------------------------------------------|
|------9-9-------6-6--------------------------------------------------|
|------9-9-------6-6--------------------------------------------------|
|-0-0-------0-0-------------------------------------------------------|
|-0-0-------0-0-------------------------------------------------------|
  |PM|      |PM|

Riff 1
eu não posso dar isso a nenhum filha da puta
que convida a história pra comemorar
exuberantemente imundo o seu mundo
chique pra caralho
eu nunca vou me igualar

Riff 2
|-------------------------------------------------------------------|
|------8-9-------------------8-9-8-9--------8-9---------------------|
|------7-8-------------------7-8-7-8--------7-8----------------9-9--|
|--------------------------------------------------------------9-9--|
|-0-0-------0--7-9-0----0-0-0----------0-0-------0----------0-------|
|-0-0-------0--7-9-0----0-0-0----------0-0-------0--7-9-0---0-------|
 |PM|     |PM|          |PM |          |PM|    |PM|       |PM|

|---------------------------------------------------------------------|
|---------------------------------------------------------------------|
|------9-9-------6-6--------------------------------------------------|
|------9-9-------6-6--------------------------------------------------|
|-0-0-------0-0-------------------------------------------------------|
|-0-0-------0-0-------------------------------------------------------|
  |PM|     |PM|

Riff 2
vida de magnata
mordomia e mesa farta
futilidade que alimenta a desgraça
enquanto o povo se mata (2x)

Riff 3

|---------------------------------------------------------------------|
|---------------------------------------------------------------------|
|------9-9-----3/4-x-4/5-x-5/7----------------------------------------|
|------9-9-----3/4-x-4/5-x-5/7----------------------------------------|
|-0-0-----------------------------------------------------------------|
|-0-0-----------------------------------------------------------------|
  |PM|

|---------------------------------------------------------------------|
|---------------------------------------------------------------------|
|---------------------------------------------------------------------|
|---------------------------------------------------------------------|
|-7--x-7--x-x--9--x--9------------------------------------------------|
|-7--x-7--x-x--9--x--9------------------------------------------------|

Riff 3

(parte do chorão)

realidade nua e crua diferente da sua
aqui só sobrevive quem é cria da rua

Riff 1
eu não consigo conter o ódio q fode em mim
o mundo criou mas não forçaram em mim
a sociedade prega o bem mas alimenta o mal
eu sei disso muito bem
eu anarquizo geral


Riff 1
lixo...bem perto, eu como bicho...bem perto
eu como lixo e o lixo são vocês
lixo que expressa o que eu sinto
que agulça o meu ódio que eu sinto por vocês

Riff 2
vida de magnata
mordomia e mesa farta
futilidade que alimenta a desgraça
enquanto o povo se mata (2x)
 
Riff 3
(parte do chorão)

Riff 1
não faça nada de errado deixe tudo pra mim
eu sobrevôo sobre a morte como abutre sim
somos migalhas, eu e você
somos ... que se fodam todos eles

vida de magnata (4x)

----------------- Acordes -----------------
