Charlie Brown Jr. - Vinheta Beat Box II / Como Tudo Deve Ser (Pot-Pourri)

Vinheta Beat Box II:
Bm t K t Bm Bm K t Bm (Essa e a base, que fica durante os scratches)

Scratches:
Chewe-chi pes t-K t-K t-k bes (3x)
chewi-chi B t B B B chewi-chi B t Brown!

Intro:

Baixo
G|-------13----11h13-18--16-----------------------------16--14-13h14p13-|
D|----11-------------16------18-16-14-------16----14h16-14--------------|
A|-12-------12------------------------16-16----16-----------------------|
E|----------------------------------------------------------------------|

Baixo (desse jeito da pra tocar no violao)
e|---------------------------------------------------------------|
B|---------------------------------------------------------------|
G|---------------6----4----------------------4----2---1-2-1------|
D|------6---4h6--4--4---4-6-4-------4---2h4--2--2---2------------|
A|---4----4-------------------7-6-4---4--------------------------|
E|-5-------------------------------------------------------------|


Solo da intro
e|------------------------------------------------------------------------------------|
B|--------5------------------------------------------------------------4-5-4----------|
G|--6--4---8--6-4---------------6--4-------4------6-----------4----4-6-------6-4--4h6-|
D|----------------6-4-6----4--6------6-4-6-----------4--6-6-4---6----------------6----|
A|-----------------------4---------------------7--------------------------------------|
E|------------------------------------------------------------------------------------|

|-------9~------------|
|-------9~----9h10-9--|
|-/6----9~------------|
|---------------------|
|---------------------|
|---------------------|

Verso: O baixo fica como na introdução
       O violão fica fazendo um solinho em C#m

Um belo sonho veio então despertar minha vontade
tudo vale a pena para te reencontrar
me livrei de tudo aquilo e consegui mudar
tudo que foi feito em troca de uma
amizade a mais / mas felicidade é poder estar com
quem voce gosta em algum lugar, é foda
ser louco, advogado do mundo mas, como tudo deve ser?
é foda ser taxado de doido vagabundo mas, como tudo deve ser?

Refrão:

   Baixo
G|------------------|
D|-4--4-4--6-5--7/9-|
A|------------------|
E|------------------|

   Solinho do Refrão
e|-------------------------------------|
B|-12-----12-----12-----9-----9---10---|
G|----9-9----9-9----9-9---9-9---9----9-|
D|-------------------------------------|
A|-------------------------------------|
E|-------------------------------------|

Foi quando te encontrei
ouvindo um som e olhando o mar
Foi quando te encontrei
ouvindo o som do mar rolar

Verso:

Eu não nasci ontem, bem como, quando e por onde mas
como tudo deve ser, com as balizas do nosso sistema
Sigo imprimindo meu sonho na história como tudo deve ser
Um belo sonho veio então despertar minha vontade
Tudo vale a pena para te reencontrar
Me livrei de tudo aquilo e consegui mudar
Tudo que foi feito em troca de uma amizade mas

(Refrão)

Verso:

Eu não preciso de promessas e acho que você também
Eu não tento ser perfeito e acho que você também
Dias e noites pensando no que fiz
 eu sou um vencedor eu lutei pelo que quis
Mas quando não se pode mais mudar, tanta coisa errada
Vamos viver nossos sonhos, temos tão pouco tempo

(Refrão)

Solo:

e|---------------------------------------------------------------------------
B|-10/12-----10/9-------10/12---10/9-------10/12---10/9----------------------
G|----------------9~~-9--------------9~~-9---------------9~~-----------------
D|---------------------------------------------------------------------------
A|---------------------------------------------------------------------------
E|---------------------------------------------------------------------------

e|---------------------------------------------------------------------------
B|----------------------12----------------------------12---------------------
G|---------9----9h11~~--11b--9----------9-----9h11~~--11b--9-----------------
D|-11-9h11---11----------------11--9h11----11----------------11--------------
A|---------------------------------------------------------------------------
E|---------------------------------------------------------------------------

e|--------------------------------------------------------------------------
B|--------------------------------------------------------------------------
G|----------------------------------------------------8-9-11----------------
D|-9/11-----------9/11----------9/11------------9/11------------------------
A|------9-7h9----------9-7/9/7--------9-7h9---------------------------------
E|------------9-----------------------------9-------------------------------

e|-------------------------------------------------------------------------
B|--10/12~~----10/9-------10/12---10/9-------10/12---10/9------------------
G|------------------9~~-9--------------9~~-9--------------9~~--------------
D|-------------------------------------------------------------------------
A|-------------------------------------------------------------------------
E|-------------------------------------------------------------------------

e|-----------------------------------------------------------12--------------
B|----------------------12-------------------------------------12------------
G|---------9----9h11~~--11b--9----------9-----9h11~~---11b13------11r13------
D|-11-9h11---11----------------11--9h11----11--------------------------------
A|---------------------------------------------------------------------------
E|---------------------------------------------------------------------------

e|-12-11----12-11----14-12-----14-12-----------------------------------------
B|-------9--------9--------12--------12--------------------------------------


e|--16-------16-------16-------14-------14----17----|
B|-----12-12----12-12----12-12----12-12----12----12-|
G|--------------------------------------------------|
D|--------------------------------------------------|
A|--------------------------------------------------|
E|--------------------------------------------------|

Foi quando te encontrei
ouvindo o som e olhando o mar
Foi quando te encontrei
ouvindo o som do mar rolar

----------------- Acordes -----------------
B = X 2 4 4 4 2
Bm = X 2 4 4 3 2
C#m = X 4 6 6 5 4
