Armandinho - Senoritas

B7M                          A7M    F#11/E       B7M         A7M
Dá um arrepio quando entra a série, neguinho sai remando pra outside
F#11/E    B7M           A7M       F#11/E      B7M       A7M
Pegue sua alma e a Deus entregue, Se não bota pra baixo tu não sai
C#m7         A7M       C#m7          A7M
Buenos días, señorita, Buenas tardes cavalheiro
C#m7         A7M       C#m7          A7M
Buenos días, señorita, Buenas tardes cavalheiro
F#11/E           B7M          A7M      F#11/E    B7M           A7M
Se existe alguma pedra em seu caminho, a vida no peru vai mais alem
F#11/E         B7M         A7M      F#11/E  B7M           A7M
Assim como uma flor tem um espinho, divinas señoritas tem tambem

C#m7 G#m7    A7M       C#m7 G#m7     A7M
Buenos días, señorita, Buenas tardes cavalheiro
C#m7 G#m7    A7M       C#m7 G#m7     A7M
Buenos días, señorita, Buenas tardes cavalheiro

F#11/E           B7M          A7M      F#11/E    B7M           A7M
Se existe alguma pedra em seu caminho, a vida no peru vai mais alem
F#11/E         B7M         A7M      F#11/E  B7M           A7M
Assim como uma flor tem um espinho, divinas señoritas tem tambem


C#m7 G#m7    A7M       C#m7 G#m7     A7M
Buenos días, señorita, Buenas tardes cavalheiro
C#m7 G#m7    A7M       C#m7 G#m7     A7M
Buenos días, señorita, Buenas tardes cavalheiro
C#m7 G#m7    A7M       C#m7 G#m7     A7M
Buenos días, señorita, Buenas tardes cavalheiro

----------------- Acordes -----------------
A7M = X 0 2 1 2 0
B7M = X 2 4 3 4 2
C#m7 = X 4 6 4 5 4
F#11/E = 0 4 4 4 2 2
G#m7 = 4 X 4 4 4 X
