Nx Zero - Mais Além

Riff 1:
E|------------------------------------------------------------------------------------
B|------------0-------------------0--------------------0--------------------0---------
G|-----4---4-----4----------4---4-----4----------8---8-----8----------6---6-----6-----
D|---2---2-----2---2------2---2-----2---2------6---6-----6---6------4---4-----4---4---
A|------------------------------------------------------------------------------------
E|------------------------------------------------------------------------------------

    G#m          F#
E|--0--     e --0--
B|--0--     B --0--
G|--4--     G --3--
D|--6--     D --4--
A|--6--     A --4--
E|--x--     E --x--

Riff 1

Eu iria mais além se pudesse

Meu limite é aqui,infelizmente


Deixo a vida decidir

O que devo fazer

Abriria mão de tudo
               C#5
Se você fizesse
               E
o mesmo por mim
         G#m    F#
Não deixaria você
     E                G#m        F#
Talvez,Deus tenha um plano pra mim,
C#5
Bem maior,que sonhei
        G#m
Só dou tempo ao tempo
     F#
Deve estar escrito em algúm lugar

Riff 1

As coisas nunca são como a gente quer

Sei que só tem coragem

Quem tem medo

Deixo a vida decidir, o que devo fazer

Abriria mão de tudo

              C#5
Se você fizesse
               E
o mesmo por mim
         G#m    F#
Não deixaria você
     E                G#m        F#
Talvez,Deus tenha um plano pra mim,
C#5
Bem maior,que sonhei
        G#m
Só dou tempo ao tempo
     F#
Deve estar escrito em algúm lugar

(E 2x, G#m, F# )

G#m                        F#
Horas,dias,meses que se vão
                                      B5
O passado está presente no mesmo lugar
                               C#5
O futuro está escrito,meu irmão
                 E                    F#
Nunca é tarde demais pra tentar terminar o que começou !
G#m
Dizer o que não disse
        B5             C#5
Sem medo iria mais além
                               E
Se você fizesse o mesmo por mim
         G#m    F#
Não deixaria você
     E                G#m        F#
Talvez,Deus tenha um plano pra mim,
C#5
Bem maior,que sonhei
        G#m
Só dou tempo ao tempo
     F#
Deve estar escrito em algúm lugar

----------------- Acordes -----------------
A = X 0 2 2 2 0
B = X 2 4 4 4 2
B5 = X 2 4 4 X X
C#5 = X 4 6 6 X X
D = X X 0 2 3 2
E = 0 2 2 1 0 0
F# = 2 4 4 3 2 2
G = 3 2 0 0 0 3
G#m = 4 6 6 4 4 4
