﻿Nx Zero - Milianos

Afinação Meio Tom Abaixo

[Intro]

[Parte 1]
                A         B    C#m
E|--------------------------------9-9-x--|
B|----------------5---------------9-9-x--|
D|--4h6p4-------6---6-----8-------9-9-x--|
G|--------6-6/7-------7/9--------11---x--|
A|-------------------------------11---x--|
E|---------------------------9-9--9------|

                A         B    C#m
E|-----------------------------------------------------------------|
B|----------------5------------------------------------------------|
D|--4h6p4-------6---6-----8-----------------------9-11-11/13\11-9--|
G|--------6-6/7-------7/9--------------------9-11------------------|
A|--------------------------------------9-11-----------------------|
E|---------------------------9--9-11-12----------------------------|

     A          B    C#m
E|--------------------12/14\12--9/12\9---------------|
B|------5-------7-----12/14\12--9/12\9---------------|
D|----6---6-----8-----------------------9h11p9-------|
G|--7-------7/9--------------------------------11-9--|
A|---------------------------------------------------|
E|-----------------9---------------------------------|


     A       B     C#m
E|-----------------9--|
B|------5----------9--|
D|----6---6-----8--9--|
G|--7-------7/9---11--|
A|----------------11--|
E|-----------------9--|

PARTE 2:

[GUITARRA 1]:

                  A
E|---------------5--|    |--4--|
B|---------------5--|    |--4--|
D|---------------5--| 3x |--4--|
G|-----4h6-4-----6--|    |--6--|
A|-4-4-------7-6-7--|    |--6--|
E|---------------5--|    |--4--|

[GUITARRA 2]:

E|---------------------------|
B|---------------------------|
D|--------11h13-11-----------|
G|--11-11----------14-13-----|
A|-----------------------12--|
E|---------------------------|

E|---------------------------------------|
B|-----------------------12-14/16-14-14--|
D|--------11h13-11----13-----------------|
G|--11-11----------14--------------------|
A|-----------------------12--------------|
E|---------------------------------------|

                                                   G#m7
E|----------------------------------------------11--11--------|
B|----------------------------------------------12-----12-----|
D|--------11h13-11-----------------12-----------11--------11--|
G|--11-11----------14-13-----11-13----13-11-----13------------|
A|-----------------------12-----------------13--11------------|
E|------------------------------------------------------------|

VERSO:

[GUITARRA 1]:

                                                                G#m7
E|-----------------------------------------------------------4--|
B|-----------------------------------------------------------4--|
D|-----------------------------------------------------------4--|
G|------4h6-4--------------4h6-4--------------4h6-4----------4--|
A|--4-4-------7-6------4-4-------7-6-7----4-4-------7-6------6--|
E|----------------5-------------------------------------5----4--|

                                                                G#m7
E|-----------------------------------------------------------4--------------|
B|-----------------------------------------------------------4--------------|
D|-----------------------------------------------------------4-----4h6p4----|
G|------4h6-4--------------4h6-4--------------4h6-4----------4-----------6--|
A|--4-4-------7-6------4-4-------7-6-7----4-4-------7-6------6--------------|
E|----------------5-------------------------------------5----4--------------|

[GUITARRA 2]:

                               G#m7
E|---------------------------11-11-----------|
B|---------------------------12----12--------|
D|---------------------------11-------11-----|
G|------------4h6-4----------13----------13--|
A|--------4-4-------7-6------11--------------|
E|--12~~----------------5--------------------|

     C#m                        G#m7
E|---9---9---9--9--9--|    |--11-11----------11-------11-11-11-11-11-11--|
B|---9---9---9--9--9--|    |--12----12----12----12----12-12-12-12-12-12--|
D|---9---9---9--9--9--| 3x |--11-------11----------11-11-11-11-11-11-11--|
G|--11--11--11-11-11--|    |--13----------------------13-13-13-13-13-13--|
A|--11--11--11-11-11--|    |--11----------------------11-11-11-11-11-11--|
E|---9---9---9--9--9--|    |---------------------------------------------|

Orgia de ideias que o mundo te passa
A cidade te inspira, te rouba e te mata
Voltamos a viver como homem primata
Mas com gel no cabelo, terno e gravata
Só abrindo a cabeça, a visão não embaça
Viver pra reclamar é persona non grata
Um tiro na mente da criança que cresce
Vendo o mundo através do iPad, das luzes de led
Só manda e não pede, não é chamado e se mete

REFRÃO:
    A                                B          C#m
Há mili - mili - mili - mili - milianos na prisão
         A                             B            C#m
O mundo gira, gira, gira, gira, gira em outra direção
              A                          B                   C#m
Não dá pra parar, parar, parar, parar, parar, parar, parar não
           A                     B         C#m
Depois de mili - mili - mili - mili - milianos na função

VERSO:

[GUITARRA 1]:

                                                                G#m7
E|-----------------------------------------------------------4--|
B|-----------------------------------------------------------4--|
D|-----------------------------------------------------------4--|
G|------4h6-4--------------4h6-4--------------4h6-4----------4--|
A|--4-4-------7-6------4-4-------7-6-7----4-4-------7-6------6--|
E|----------------5-------------------------------------5----4--|

                                                                G#m7
E|-----------------------------------------------------------4--------------|
B|-----------------------------------------------------------4--------------|
D|-----------------------------------------------------------4-----4h6p4----|
G|------4h6-4--------------4h6-4--------------4h6-4----------4-----------6--|
A|--4-4-------7-6------4-4-------7-6-7----4-4-------7-6------6--------------|
E|----------------5-------------------------------------5----4--------------|

[GUITARRA 2]:

                               G#m7
E|---------------------------11-11-----------|
B|---------------------------12----12--------|
D|---------------------------11-------11-----|
G|------------4h6-4----------13----------13--|
A|--------4-4-------7-6------11--------------|
E|--12~~----------------5--------------------|

     C#m                        G#m7
E|---9---9---9--9--9--|    |--11-11----------11-------11-11-11-11-11-11--|
B|---9---9---9--9--9--|    |--12----12----12----12----12-12-12-12-12-12--|
D|---9---9---9--9--9--| 3x |--11-------11----------11-11-11-11-11-11-11--|
G|--11--11--11-11-11--|    |--13----------------------13-13-13-13-13-13--|
A|--11--11--11-11-11--|    |--11----------------------11-11-11-11-11-11--|
E|---9---9---9--9--9--|    |---------------------------------------------|

Triste é ver um velho aposentado
E o respeito de geral que pegou pesado, cadê?
O jeito é apelar pra quem tá do outro lado, mas quem tá do outro lado?
A fé que me mantém acordado, como diz o ditado: eu não durmo sentado

Fácil ter coragem com uma arma na mão
Mas essa arma só atira balas de ilusão
Não existe colete à prova de depressão
O Senado mata mais que a polícia
Mata mais que ladrão, prende mais que a prisão.
Pra que ele serve então?

REFRÃO:
    A                                B          C#m
Há mili - mili - mili - mili - milianos na prisão
         A                             B            C#m
O mundo gira, gira, gira, gira, gira em outra direção
              A                          B                   C#m
Não dá pra parar, parar, parar, parar, parar, parar, parar não
           A                     B         C#m
Depois de mili - mili - mili - mili - milianos na função

INTERLÚDIO:

[GUITARRA 1]:

     A   B C#m
E|--5-5-7-4----4-4-4-4----4----4-4-4-4------------------|
B|--5-5-7-4h5--5-5-4-4h5--4h5--5-5-4-4h5----------------|
D|--6-6-8-4h6--6-6-4-4h6--4h6--6-6-4-4h6----------------|
G|--7-7-9-4h6--6-6-4-4h6--4h6--6-6-4-4h6------7------9--|
A|--7-7-9-4----4-4-4-4----4----4-4-4-4----7-9----7-9----|
E|--5-5-7-----------------------------------------------|

[GUITARRA 2]:

E|--------------------------------------------------------------|
B|--------------------------------------------------------------|
D|------------------------------------------------14--------16--|
G|--9h11--11-11-9-9h11--9h11--11-11-9-9h11--14-16-----14-16-----|
A|--------------------------------------------------------------|
E|--------------------------------------------------------------|

Work hard, have fun, no drama

SOLO:

[GUITARRA 1]: BASE

( B  A  F#m ) 3x

E|--------------------------------------|
B|--------------------------------------|
D|--------------------------------------|
G|--------------------------------------|
A|--2-4-2-4--0-2-0-2--7-9-7-9--7-9-7-9--|
E|--------------------------------------|

E|-----------------------------------------------|
B|-----------------------------------------------|
D|-----------------------------------------------|
G|-----------------------------------------------|
A|--------------------------------------7-9-7-9--|
E|--4-5-4-5--4-5-4-5--7-9-7-9--7-9-7-9-----------|

[GUITARRA 2]: SOLO

E|--------------------------------------------|
B|--------------------------------------------|
D|--------14-16-16b18r16-14-16-14-------------|
G|--14-16--------------------------16-14-16~--|
A|--------------------------------------------|
E|--------------------------------------------|

E|-----------------------------------------------------------------|
B|-----------17b19-17-------17----------------------------14-17~~--|
D|--------14----------16b18----18r16-14-------------14-16----------|
G|--14-16-------------------------------16-16-14-16----------------|
A|-----------------------------------------------------------------|
E|-----------------------------------------------------------------|

E|----------------------------------------------------------|
B|--19b21-19-17--14-17-14-----------------------------------|
D|------------------------14-16-14-16p14----16p14----16p14--|
G|---------------------------------------16-------16--------|
A|----------------------------------------------------------|
E|----------------------------------------------------------|

E|----------------------------|
B|--17--------17----19-19-19--|
D|-----16-16-----16-----------|
G|----------------------------|
A|----------------------------|
E|----------------------------|

E|-------------------------------------------------------------------|
B|-------------------------------------------------------------------|
D|-------------------------------------------------------------------|
G|------------------------------------------------------14-16-14-16--|
A|--11-12-11-12--11-12-11-12--14-16-14-16--14-16-14-16---------------|
E|-------------------------------------------------------------------|



REFRÃO:

[GUITARRA 1]: BASE
 A                                B          C#m
Mili - mili - mili - mili - milianos na prisão
         A                             B            C#m
O mundo gira, gira, gira, gira, gira em outra direção
       A                          B                   C#m
Não parar, parar, parar, parar, parar, parar, parar não
           A                     B         C#m
Depois de mili - mili - mili - mili - milianos na função

[GUITARRA 2]: SOLO
E|-----------------------------------------------|
B|--9-----9-----9-----9-----9-----9--------------|
D|--11b13-11b13-11b13-11b13-11b13-11b13-11-9-----|
G|-------------------------------------------11--|
A|-----------------------------------------------|
E|-----------------------------------------------|

E|----------------------------------|
B|---------------12/14-19b21r19-17--|
D|-------9-11/13--------------------|
G|--9-11----------------------------|
A|----------------------------------|
E|----------------------------------|

E|--------------------------------------------------------------|
B|--19b21-19b21-19b21-19-17-14----14-17p14\12-14p12-10h12p10-9--|
D|-----------------------------16-------------------------------|
G|--------------------------------------------------------------|
A|--------------------------------------------------------------|
E|--------------------------------------------------------------|

E|-------------------------------|
B|--10\9--9\7--7\5--5\3-5-5/9~~--|
D|-------------------------------|
G|-------------------------------|
A|-------------------------------|
E|-------------------------------|

E|--------------------------------------------------|
B|--9-----9-----9-----9-----9-----9-----------------|
D|--11b13-11b13-11b13-11b13-11b13-11b13-11-9--------|
G|-------------------------------------------11b14--|
A|--------------------------------------------------|
E|--------------------------------------------------|

----------------- Acordes -----------------
A*  = X 0 2 2 2 0 - (*G# na forma de A)
B*  = X 2 4 4 4 2 - (*A# na forma de B)
C#m*  = X 4 6 6 5 4 - (*Cm na forma de C#m)
F#m*  = 2 4 4 2 2 2 - (*Fm na forma de F#m)
G#m7*  = 4 X 4 4 4 X - (*Gm7 na forma de G#m7)
