Nx Zero - Perto de Você

Intro 2x:
E|----------------------------------------------------------------------------------------
B|-------------------------------------------------------12---12---9---9---10-9-7h9p7-----
G|----------------------------------------------------------9----9---9---9----------------
D|----------------------------4-4--4-4----------------------------------------------------
A|-2-2-2-2-7-2-2-2-7-7-7-7-7--2-2--2-2--2-2-2-2-7-2-2-2-----------------------------------
E|-0-0-0-0-5-0-0-0-5-5-5-5-5------------0-0-0-0-5-0-0-0-----------------------------------

   E                       A
Os dias se passaram, e com eles vi tudo mudar
C#m                     B
Tento ser o mesmo mas, nada esta normal
 E                      A
Estou ficando louco, ou nada faz sentido
C#m                      B                     E        A
Às vezes só queria ser, como era antes de te conhecer
C#m       B            E        A       C#m          B
Mais por algum motivo o tempo parou, eu sigo a minha intuição
E         A         C#m        B         E         A         C#m  B
Fecho os meus olhos pra ficar mais perto de você, perto de você
E|----------------------------------------------------------------------------------------
B|-------------------------------------------------------12---12---9---9---10-9-7h9p7-----
G|----------------------------------------------------------9----9---9---9----------------   (2x)
D|----------------------------4-4--4-4----------------------------------------------------
A|-2-2-2-2-7-2-2-2-7-7-7-7-7--2-2--2-2--2-2-2-2-7-2-2-2-----------------------------------
E|-0-0-0-0-5-0-0-0-5-5-5-5-5------------0-0-0-0-5-0-0-0-----------------------------------


    E                       A
Palavras se perderam, em histórias do passado
C#m                         B
E eu dou muito mais valor, pra quem tá do meu lado

Solo pré refrão:
E|--------------------------
B|----9-----10--------------
G|--9-----9--------13----11-
D|--------------11-----9----
A|--------------------------
E|--------------------------

E                    A
Tô ficando louco, ou nada faz sentido
C#m                     B                     E       A
Às vezes só queria ser como era antes de te conhecer
C#m       B            E        A       C#m          B
Mais por algum motivo o tempo parou, eu sigo a minha intuição
E         A         C#m        B  E  A         C#m         B
Fecho os meus olhos pra ficar mais perto de você, perto de você
solo desta parte:
E|---------------------------------------------------------------------------
B|-9---9---9---9---10---10---10---10---9---9---9---9---12---12---12---12----- 
G|---9---9---9---9----9----9---9----9---9---9---9---9----9----9---9----9-----   (2x)
D|---------------------------------------------------------------------------
A|---------------------------------------------------------------------------
E|---------------------------------------------------------------------------

E        A         C#m        B        E        A       C#m        B
Fecho os meus olhos pra ficar perto de você....

Solo
E|---------------------------------------------------------------------------
B|---------------------------------------------------------------------------
G|-13-13-13-14-14-13-13-13-14-14-13-13-13-14-14-16-16-16-16---9-9------------
D|---------------------------------------------------------------------------
A|-11-11-11-12-12-11-11-11-12-12-11-11-11-12-12-14-14-14-14---7-7------------
E|---------------------------------------------------------------------------

E|---------------------------------------------------------------------------
B|---------------------------------------------------------------------------
G|-13-13-13-14-14-13-13-13-14-14-13-13-13-14-14-16-16-16-16------------------
D|---------------------------------------------------------------------------
A|-11-11-11-12-12-11-11-11-12-12-11-11-11-12-12-14-14-14-14------------------
E|---------------------------------------------------------------------------

               E        A
Antes de te conhecer...
C#m       B            E        A       C#m          B
Mais por algum motivo o tempo parou, eu sigo a minha intuição
E      A      C#m     B      E      A      C#m      B
Fecho os meus olhos pra ficar mais perto de você, perto de você

----------------- Acordes -----------------
A = X 0 2 2 2 0
B = X 2 4 4 4 2
C#m = X 4 6 6 5 4
E = 0 2 2 1 0 0
