﻿Nx Zero - Tarde Demais

Intro:
Riff 1
e||----------------------------------------------------------||
B||-------0----------0------------------5---4----------------||
G||-----------------------------------4---4---4-6-8-9--------||  2x
D||----2----------1---------1-2---1-2------------------------||
A||--0---------2----------4-----4---------------------4-6-7--||
E||----------------------------------------------------------||

SOLO 2 (BASE/SOLO)
e||-------------------------------------------------------------||
B||-------------------------------------------------------------||
G||--9-9-9-9-9-9--11-11-11-11-11-11---13-13-13-13-13-13-13--11--||  
D||--X-X-X-X-X-X---X-X-X-X-X-X-X-X-----X--X--X--X--X--X--X--X---||
A||--7-7-7-7-7-7---9-9--9--9--9--9----11-11-11-11-11-11-11 \9---||
E||-------------------------------------------------------------||

-----------------------------------------------------------||
-----------------------------------------------------------||
--9-9-9-9-9--8-8-8-8-8-9-9-9-9-9---8-8-8-8-8-8--9--9-8-6~--||
--X-X-X-X-X--X-X-X-X-X-X-X-X-X-X---X-X-X-X-X-X-X---X-X-X~--||
--7-7-7-7-7--6-6-6-6-6/7-7-7-7-7---6-6-6-6-6-6/7---7-6-4~--||
-----------------------------------------------------------||



SOLO 3 (CONTINUAÇÃO DA BASE/SOLO)
e||-------------------------------------------------------------------------------------------||
B||-------------------------------------------------------------------------------------------||
G||--9-9-9-9--11-11-11-11--13-13-13-13--11-11-11-11--13--13-13--13--16---13-13---14-14-14-14--||  
D||--X-X-X-X--X--X--X--X---X--X--X--X---X--X--X--X----X--X--X---X----X---X--X-----X-X--X--X---||
A||--7-7-7-7 /9--9--9--9 /11--11-11-11 \9--9--9--9  /11--11-11-11  /14  \11-11  /12-12-12-12--||
E||-------------------------------------------------------------------------------------------||

----------------------------------------||
----------------------------------------||
--16-16-16-16---14-14-14-14---13-13-13--||   (2 VEZES)
--X--X--X--X-----X-X--X--X----X--X---X--||
--14-14-14-14  \12-12-12-12  \11-11-11--||
----------------------------------------||


SOLO 4
e||--------------||
B||--------------||
G||--9------8----||
D||----9------9--||
A||--------------||
E||--------------||


A5   E5    B    Eb5  C#5    E      C#5, E
  As vezes perco a noção do tempo,
A5  E5    B     Eb5     C#5 E      C#5  E
  o mundo gira e eu não vejo tanta diferença
A5        B5            C#5
As horas passam pra mim, pra vc e nada muda
A5      B5           C#5         A5      B5
me olho no espelho e não consigo me entender.

A5           B5                 C#5
Meu pulso cortado se esquece da dor,
que é bem mais fraca que a dor,
A5         B5         C#5
da qual me faz a falta, do seu amor!!

(BAIXO)
O que passou, passou e não vai mas voltar,
E já não há nada que você possa falar!!

A5 B5 C#5
Não,      parece q foi tudo em vão!
A5 B5 C#5
Sei,      que dessa vez não fui eu que errei!!!!
A5 B5 C#5
Não,      parece q foi tudo em vão!
A5 B5 C#5
Sei,      q dessa vez não fui eu q errei!!!!

A5                      B5
Por mais q eu tente relevar e esquecer os erros
C#5
Os sonhos sempre acabam sendo os mesmos pesadelos!
A5                  B5
Do que adianta você vir dizendo que se importa,
C#5
se tudo o que vivemos ficou apenas na memória!

A5,E5    B,Eb5   C#5,E   C#5,E

Tarde demais!

A5               B5
(Ahhh)Mais tempo pra recomeçar,
C#5
Não adianta correr atrás!
A5            B5            C#5
Você diz quer quer uma nova chance,
agora é tarde demais!!

A primeira guitarra faz essas bases antes de entrar nos solos:

      A           B             C#    G# - A              B          C#
e||-------||-------------||-------------||---------||-------------||---------||
B||-------||-------------||-------------||---------||-------------||---------||
G||-------||-------------||-------------||-6-8-9-8-||-------------||---------||
D||-------||-------------||-------------||---------||-9-6/7-6-4-2-||-2/4-2-1-||
A||-4-6-7-||-------------||-6/7/9/11-11-||---------||-------------||---------||
E||-------||-7-4/5-4-2-0-||-------------||---------||-------------||---------||

(BAIXO)
Oq passou, passou e não vai mas voltar,
E já não há nada q vc possa falar!!

A5 B5 C#5
Não,      parece que foi tudo em vão!
A5 B5 C#5
Sei,      que dessa vez não fui eu que errei!!!!
A5 B5 C#5
Não,      parece que foi tudo em vão!
A5 B5 C#5
Sei,      que dessa vez não fui eu que errei!!!!

FINAL:
G||--9-9-9-9-9-9--11-11-11-11-||
D||--X-X-X-X-X-X--X--X--X--X--||
A||--7-7-7-7-7-7/ 9--9--9--9--||

----------------- Acordes -----------------
A = X 0 2 2 2 0
A5 = X 0 2 2 X X
B = X 2 4 4 4 2
B5 = X 2 4 4 X X
C# = X 4 6 6 6 4
C#5 = X 4 6 6 X X
E = 0 2 2 1 0 0
E5 = 0 2 2 X X X
Eb5 = X 6 8 8 X X
G# = 4 3 1 1 1 4
