Dazaranha - Chega Mais Cedo

[Intro] Em  Bm  Em  Bm
        Am  Bm  Em  Bm

[Tab - Intro]

E|--------7------------------------------------|
B|------8---8---10--10---8--7------------------|
G|----9------------------------9--7--9---------|
D|--9------------------------------------------|
A|---------------------------------------------|
E|---------------------------------------------|

E|------------7---10---------------------------|
B|--------8----------10--10--8--7--------------|
G|-----9-------------------------9--7--9-------|
D|--9------------------------------------------|
A|---------------------------------------------|
E|---------------------------------------------|

E|--12--14--15--12--14--14--12-------------12--|
B|------------------------------15--12--15-----|
G|---------------------------------------------|
D|---------------------------------------------|
A|---------------------------------------------|
E|---------------------------------------------|

E|--15--14-------------------------------------|
B|----------15---------------------------------|
G|--------------14/12/11-----------------------|
D|------------------------12--9----------------|
A|-------------------------------10--9---------|
E|-------------------------------------12--10--|

E|--------7------------------------------------|
B|------8---8---10--10---8--7------------------|
G|----9------------------------9--7--9---------|
D|--9------------------------------------------|
A|---------------------------------------------|
E|---------------------------------------------|

E|------------7---10---------------------------|
B|--------8----------10--10--8--7--------------|
G|-----9-------------------------9--7--9-------|
D|--9------------------------------------------|
A|---------------------------------------------|
E|---------------------------------------------|

E|-12--14--15--12--14--14--12----------------15|
B|----------------------------15--12--15-15/17-|
G|---------------------------------------------|
D|---------------------------------------------|
A|---------------------------------------------|
E|---------------------------------------------|

[Primeira Parte]

Em          Bm
Chega mais cedo
Em       Bm
Botei o vinho pra gelar
Em       Bm           Am  D
Botei a roupa mais bonita
     Em  Bm
Surpresa

Em             Bm
Se apagares a luz
Em            Bm
E o silêncio falar
Em         Bm                 Am         D
Até os sentidos deixarem a razão fora do ar
    Em  Bm   Em
Eu sei, eu sei

Vens de planeta
         Am
Eu de satélite
   D           Em
Orbitando em ti
          Bm         Am  D
És minha pista de voo, meu trampolim

[Pré-Refrão]

Em              Bm
És mais bonita que eu
Em
Tens mais dinheiro
 Bm
Lestes mais livros
Em       Bm          Am          D
Vivo da vida e tiro dela pra te dar

[Refrão]

    Em   Bm             Em
Prazer, misturado com amor
   Bm               Am
E nada pode ser melhor
 D               Em      Bm
Nada pode ser melhor, melhor
    Em   Bm             Em
Prazer, misturado com amor
   Bm               Am
E nada pode ser melhor
 D               Em      Bm
Nada pode ser melhor, melhor

----------------- Acordes -----------------
Am = X 0 2 2 1 0
Bm = X 2 4 4 3 2
D = X X 0 2 3 2
Em = 0 2 2 0 0 0
