Roxette - Black Moon

|------------------------------------------------------------|
|------------------------------------------------------------|
|------------------------/7-----------------5----------------|
|-7--10--7-----2--5--7\--/7---7--10--7--5/7-------7--10--7---|
|-7--10--7-----2--5--7\--/5---7--10--7--------8\5-7--10--7---|
|-5---8--5-----0--3--5\-------5---8--5------------5---8--5---|

1st time =======================||2nd time=======
|-------------------------------||---------------------------|
|-------------------------------||---------------------------|
|--------2-------------7--------||-----------2---4-----------|
|-5------2------3------7------5-||-3----5----2---4--5--------|
|---7\---0------3------5------5-||-3----5----0---2--5--------|
|---------------1-------------3-||-1----3-----------3--------|

|----------------------------------------------------------|
|----------------------------------------------------------|
|-------------------------------------------5--------------|
|--2--5--7-----------2--5--7------------5/7----------------|
|--2--5--7-----------2--5--7------------------8\5---0-3-0--|
|--0--3--5-----------0--3--5-------------------------------|



----------------- Acordes -----------------
