Roxette - Coma White

intro
E|------------------------------------------------------------|
B|--0--0--0--0--1-1-1---0--0--0--0--1-1-1---0--0--0--0--1-1-1-|
G|2--2--2--2----------2--2--2--2----------2--2--2--2----------|
D|------------------------------------------------------------|
A|------------------------------------------------------------|
E|------------------------------------------------------------|

E|-------------------|
B|-------------------|
G|--7-7-7-7-5-5-5-4--|repeat number of times
D|-------------------|
A|-------------------|
E|-------------------|

chorus
E|----------------------------------------------------------------|
B|----------------------------------------------------------------|
G|----------------------------------------------------------------|
D|-5-5-5-5-5-5-5--7-7-7-7-7-7-7--x-x-x--4-4-4-4-4-4--2-2-2-2-2-2--|
A|-5-5-5-5-5-5-5--7-7-7-7-7-7-7--x-x-x--4-4-4-4-4-4--2-2-2-2-2-2--|
E|-3-3-3-3-3-3-3--5-5-5-5-5-5-5--x-x-x--2-2-2-2-2-2--0-0-0-0-0-0--|


A               G/B  C             G        D
I______________________  have become, coma white

interlude after 2nd chorus do this twice clean the twice with distortion
E|------------------------------|
B|------------------------------|
G|---------5-7------------------|
D|-7-7-7-7-5-7-xx-4--4-4-4-5-5--|x2
A|-7-7-7-7-3-5-xx-4--4-4-4-5-5--|
E|-5-5-5-5-----xx-2--2-2-2-3-3--|

after keyboard interlude thingy
E|------------------------------|
B|------------------------------|
G|----------------------5-5-5-5-|
D|-444444-555555-777777-5-5-5-5-|into chorus then end of song
A|-444444-555555-777777-3-3-3-3-|
E|-222222-333333-555555---------|

A               G/B  C             G        D
I______________________  have become, coma white


SOLO 1:
E|---14vvvvvv-----12-14>15>14------------------------------------------------|
B|------------------------------15>17vvvvvvvvvv>15--15-14--------------------|
G|---------------------------------------------------------14----------------|
D|-------------------------------------------------------------14\12vvvvvv---|
A|---------------------------------------------------------------------------|
E|---------------------------------------------------------------------------|

E|--14>12--14>(15)>14--------------------------------------------------------|
B|-----------------------15>17---------15--14--------------------------------|
G|---------------------------------------------14------------------/12vvvvvv-|
D|-------------------------------------------------14\12--11--9--7-----------|
A|---------------------------------------------------------------------------|
E|---------------------------------------------------------------------------|

E|---------------------------------------------------------------|
B|---------------------------------------------------------------|
G|---11--------------11\9---9\7vvvvv----9>7------7---9---11>12---|
D|----------14--12----------------------------9------------------|
A|---------------------------------------------------------------|
E|---------------------------------------------------------------|

E|---15-14-12---------------------------------------------------|
B|------------15-12---------------------------------------------|
G|------------------12------------------------------------------|
D|---------------------12vvvvvvvv--10\9vvvvvvv---10\9\7vvvvv----|
A|--------------------------------------------------------------|
E|--------------------------------------------------------------|

                               v-- strike note
e-|----------------------------------------------------------|
B|-----------------------------------------------------------|
G|-11>(12)vvvvvvvv--9>(11)===(11)==>9>7----------------------|
D|---------------------------------------7/9\7vvvvvvvvvvv\---|
A|-----------------------------------------------------------|
E|-----------------------------------------------------------|

Bm                             A
OK . . .  You'll be coming back guick
                G  (D/F#)  Em
You'll no longer AHHH!!!
            Bm
But you will be getting very very sick
Come on now and stand up
                   A
I do believe that you feel good
                 G
You got to do your next show
Bm
Get up we've got to go
A               G/B  C          G                 D
and I___________________, have become comfortably numb


OUTRO SOLO:
|---------------------------------------------------------------|
|---------------------------------------------------------------|
|--7--9--9>(11)vvvvvv--9>(11)>9>7---7--9--9--7-------7vvvvvvv---|
|---------------------------------9-------------9--9------------|
|---------------------------------------------------------------|
|---------------------------------------------------------------|

|-------------------------------------------10------------------------------|
|--------10------10--12--12>(15)>12>10--12----------------------------------|
|---/11------11---------------------------------------7--9--9>(10)>9>7------|
|----------------------------------------------------------------------9vvvv|
|---------------------------------------------------------------------------|
|---------------------------------------------------------------------------|

|--------------------------------------------------------------------------|
|----10>7-------7----------------------------------------------------------|
|-----------9-------9---7-------------------------------7------------------|
|--------------------------9vvvvvvvvvv--------7---7--9-----9>7---9vvvvvv---|
|-----------------------------------------/9-------------------------------|
|--------------------------------------------------------------------------|

|--9--9>(10)----7-------7---------------------------|
|-------------------10-----10>(12)vvv----10>7-------|
|-----------------------------------------------9---|
|---------------------------------------------------|
|---------------------------------------------------|
|---------------------------------------------------|

|-------7--------------------------------------------------------|
|--7--7---10>7---------------------------------------------------|
|--------------9>(11)>9>7---9-7----------------------------------|
|-------------------------9-----9-7------------------------------|
|-----------------------------------9-8-7-5---5vvvvvvvvvvvvvv----|
|-------------------------------------------7--------------------|

|--------------------------7-------------------------------------------------|
|------------------------7---10>7--------------------------------------------|
|--7-7-7vvvvvvv---9>(11)----------9>(11)>9>7---9-7---------------------------|
|--------------------------------------------9-----9>7-----------------------|
|------------------------------------------------------9\7-5-7>5---5--7-7/9--|
|----------------------------------------------------------------7-----------|

|----------------------------7----------------------------7-----------------|
|--------------------------7---10--------7--------------7---10>7------------|
|-------------7---7-9>(11)--------9>(11)---7--9--9>(11)----------9>(11)>9>7-|
|--7-7-7--9>7---9-----------------------------------------------------------|
|---------------------------------------------------------------------------|
|---------------------------------------------------------------------------|

|----------------------------------------------------------------------------|
|---------------------------7--------------7-7-7------------------7-7-7------|
|----9-7--------------------7--------------7-7-7------------------7-7-7------|
|--9-----9-7----------------7--9vvvvvvv----7-7-7--"9"vvvvvvvvvv---7-7-7--9vvv|
|------------9-8-7-5---5>0---------------------------------------------------|
|--------------------7-------------------------------------------------------|

|---------------------------------------------7------------------------|
|--7---------------------------------------------10>7--10>(12)====>10--|
|--7----9>(11)>9>7-----7--9--9>(11)vvvvvvvv----------------------------|
|-----7-------------9--------------------------------------------------|
|----------------------------------------------------------------------|
|----------------------------------------------------------------------|

|----------7-------------------------------------------------------|
|--------7---10>7--------------------------------------------------|
|-9>(11)----------9>(11)>9>7-9>7---7---------------------------7---|
|--------------------------------9---9>7-9>7---7------------9--7---|
|--------------------------------------------9---9-8-7-------------|
|------------------------------------------------------10-7--------|

|-----------------------------------------------------------------------|
|----------7-----7>(8)>7--------------------------7-----------------7---|
|--------7-7-----7>(8)>7-----------------7>9>7----7-----------------7---|
|--9-7-9---7-----7>(8)>7-7vvvvvv-7>9------------9---9>7-----7-9>7>9-----|
|--------------------------------------------------------9--------------|
|-----------------------------------------------------------------------|

|-----------------------------------7-----17-17-17>(19)vvv--17-19-21-21>(22)vv|
|-------7---7---7--7------7---7--7--7-----------------------------------------|
|-9>7---7---7---7--7----7-7---7--7--7-----------------------------------------|
|-----9-----7-----------------------7-----------------------------------------|
|-----------------------------------------------------------------------------|
|-----------------------------------------------------------------------------|

|--21>(22)vvv-21-21>(22)>21--21>(22)-21>(22)-21>(22)>21--19>21>19-19-19\---|
|--------------------------------------------------------------------------|
|--------------------------------------------------------------------------|
|--------------------------------------------------------------------------|
|--------------------------------------------------------------------------|
|--------------------------------------------------------------------------|

|-----------------------------------------------------------------------------|
|-17-17-17--17>(19)>17>15----17-17-17vvvvvv---15--17-17>(18)>17>15vvv---------|
|-------------------------16-----------------------------------------16-16-16-|
|-----------------------------------------------------------------------------|
|-----------------------------------------------------------------------------|
|-----------------------------------------------------------------------------|

|----------------------------10---------10----12-12>(13)-10-12-------12--|
|--------------------10>(12)----10>(12)----10------------------12-12-----|
|--14-16vvv--------------------------------------------------------------|
|-----------14-12--------------------------------------------------------|
|-----------------14-----------------------------------------------------|
|------------------------------------------------------------------------|

|-------------------------------------------------------------|
|-12>(15)>12--12-10---------------------------------------7---|
|-------------------9>(11)>9>0--9>7---7-9>7---------------7---|
|-----------------------------------9-------9-7---------------|
|-----------------------------------------------9-8-7-5-------|
|-------------------------------------------------------------|

|-----------------------------------7--7--7--7---7---7---7--7-7--7---7--7--|
|---7--7--7--7--7-----7---7---7--7--7--7--7--7---7---7---7--7-7--7---7--7--|
|---7--7--7--7--7-----7---7---7--7-----------------------------------------|
|-------------------9---9---9----------------------------------------------|
|--------------------------------------------------------------------------|
|--------------------------------------------------------------------------|

|---7-----------------------------------------------||
|------10-------------------------------------------||
|----------9>(11)-9--7------------------------------||
|----------------------9-9-9-7----7-7>9-9>7-9vvvvv--||
|---------------------------------------------------||
|---------------------------------------------------||

----------------- Acordes -----------------
A = X 0 2 2 2 0
Bm = X 2 4 4 3 2
C = X 3 2 0 1 0
D = X X 0 2 3 2
D/F# = 2 X 0 2 3 2
Em = 0 2 2 0 0 0
G = 3 2 0 0 0 3
G/B = X 2 0 0 3 3
