Roxette - Do You Get

Intro 4x:  D A/C# Bm G/F#

           D  A/C#
When the day gets dark
     Bm     G/F#
Over a thousand streets
            D A/C#            G7+
And you feel your heart     is a living beat.
         D  A/C#         Bm      G/F#
When you're all alone     and you close your eyes,
            D A/C#
Naked to the bone
              G     A/G G7+ A
The dream comes alive.
           Dm    C    Bb      F
Do you get exci...................ted
       Dm               C/E      Bb     C
When I touch you in the night? my oh my...
             F  C     Bb          F
Do you get exci....................ted
      Dm              Em
When I meet you every night?

           Bb     A             D  A G7+ A
You won't let the night pass you by

(Intro)

(Riff)
E|--------------------------------------------------
B|--------------------------------------------------
G|--------------------------------------------------
D|-7h9p7-9-9-7-7\-----------------------------------
A|---------------5h7p5-7-7--------------------------
E|-------------------------5-7\---------------------

E|--------------------------------------------------
B|--------------------------------------------------
G|--------------------------------------------------
D|-7h9p7-9-9-7-7\-5/8-5/8---------------------------
A|----------------3/6-3/6--5h7p5-7-7----------------
E|------------------------------ ---5-7-------------

        D  A/C#               Bm    G/F#
When your body's hot,         the window's open wide
              D  A/C#                   G7+
This moment's all you got         in this race of life
           D   A/C#               Bm      G/F#
When you feel the fire         is getting close to you,
           D A/C#          G   A/G   G7+ A
Hey baby, you know       I'm lonely too.
             Dm      C    Bb      F
Do you get exci...................ted
       Dm               C/E      Bb   C
When I touch you in the night? my oh my...
             F  C     Bb          F
Do you get exci....................ted
       Dm             Em
When I meet you every night?
           Bb      A             D A G7+ A
You won't let the night pass you by

Base solo: Cm7 A# G# D#
         ( Fm7 G# )
         ( A#m7 G# F# C# )
         ( D#m7 F# )
         ( Cm D# )
         ( Cm D# )

Solo:
E|-------------------------------------------------------------
B|-----------------------10\--------------------9--------------
G|-3h5-3\1-3-1-0-1-0---------8h10-10-10-10b~~~p8-10-10-10~~~p8-
D|-------------------3-1-7\------------------------------------
A|-------------------------------------------------------------
E|-------------------------------------------------------------

E|---------------9-11-11~\-------------------------
B|-------------------------------------------------
G|----8h10-10-10—6/8--8~\--------------------------
D|-10----------------------------------------------
A|-------------------------------------------------
E|-------------------------------------------------

E|--------------------------------------------------
B|--------------------------------------------------
G|-------------------------6/8-8\-------------------
D|--6h8-6\4-6-4-3-4-3-------------------------------
A|-------------------6-4~--3/6-8\-------------------
E|--------------------------------------------------

E|------------------------------------------------6-9-----------
B|---------------7--------------9---------------9b----9-7-------
G|-6h8-8-8-8~~p6---8-8-8-8~~~p6---8-8-8-8~~~p6------------8~~\--
D|---------------------------------------------8----------------
A|--------------------------------------------------------------
E|--------------------------------------------------------------

E|--------------------------------------------------
B|------------------------4-------------------------
G|-------------------------3------------------------
D|----------1-1-1-1~xxx--1-------1------------------
A|-1h3-3-3~\-----------------1-4--------------------
E|--------------------------------------------------

E|--------------------------------------------------
B|------------------------4-------------------------
G|-------------------------3------------------------
D|----------1-1-1-1~xxx--1-------1------------------
A|-1h3-3-3~\-----------------1-4--------------------
E|--------------------------------------------------

             Fm    Eb      C#     Ab
Do you get exci....................ted
        Dm              Eb     C#    Eb
When I touch you in the night? My oh my...
             Ab   Eb   C#  Ab
Do you get exci....ted? Excited
       Fm              Eb    C#    C
When I meet you every night? My oh my...
             Fm     Eb   C#   Ab
Do you get exci.....ted? Excited
        Dm               Eb      C#    Eb
When I touch you in the night? My oh my...
             Ab    Eb      C#     Ab
Do you get exci...................ted?
       Fm              Eb
When I meet you every night?
           C#     C              F    C  Bb C
You won't let the night pass you by.. uhuh..
Dm     F
    I wanna know..
Dm     F
    I gotta know...

----------------- Acordes -----------------
A = X 0 2 2 2 0
A# = X 1 3 3 3 1
A#m7 = X 1 3 1 2 1
A/C# = X 4 X 2 5 5
A/G = 3 X 2 2 2 X
Ab = 4 3 1 1 1 4
Bb = X 1 3 3 3 1
Bm = X 2 4 4 3 2
C = X 3 2 0 1 0
C# = X 4 6 6 6 4
C/E = 0 3 2 0 1 0
Cm = X 3 5 5 4 3
Cm7 = X 3 5 3 4 3
D = X X 0 2 3 2
D# = X 6 5 3 4 3
D#m7 = X X 1 3 2 2
Dm = X X 0 2 3 1
Eb = X 6 5 3 4 3
Em = 0 2 2 0 0 0
F = 1 3 3 2 1 1
F# = 2 4 4 3 2 2
Fm = 1 3 3 1 1 1
Fm7 = 1 X 1 1 1 X
G = 3 2 0 0 0 3
G# = 4 3 1 1 1 4
G/F# = X X 4 4 3 3
G7+ = 3 X 4 4 3 X
