Roxette - We Like To Party

INTRO:
e|----------------------------------------------------|
B|----------------------------------------------------|
G|----------------------------------------------------|
D|----------------------------------------------------|
A|--------------------5/7-7vvvvvv--7/9\7\5vvvvvvvv----|
E|--/0vvvvvvvvvvv-------------------------------------|

e|----------------------------------------|
B|----------------------------------------|
G|----------------------------------------|
D|----------------------------------------|
A|-----2/5-5vvvvvvv-----------------------|
E|---3-----------------/0\/vvvvvvvvvvv----|

e|--------------------------------------------------------------------|
B|--------------------------------------------------------------------|
G|--------------------------------------------------------------------|
D|--------------------------------------------------------------------|
A|---5/7-7vvvv---7/9\7\5vvvv------2/5-(3)>5\-0vvvvvv------------------|
E|-----------------------------3-----------------------/0vvvvvvvvvv\--|


e|--------------------------------------------------------------|
B|--------------------------------------------------------------|
G|--------------------------------------------------------------|
D|--------------------------------------------------------------|
A|--5/7-7vvvvvvvv--7/9\7\5vvvvv-------2/5-5vvvvv--5/7-7vvvvvvv--|
E|--------------------------------3-----------------------------|

e|------------------------------------------------------------------------|
B|------------------------------------------------------------------------|
G|----------------------------------------------------------"9"\\\/\\-----|
D|------------------------------------------------------------------------|
A|--7/9\7\5vvvvvvv--------2/5(3)>5--5vvvvvvvvvv---------------------------|
E|-------------------3----------------------------/0vvvvvvvvvvvvvvvvvvvvv-|

e|-------------------------|
B|-------------------------|
G|-------------------------|
D|-------------------------|
A|-------------------------|
E|--///////0vvvvvvvvv------|

e|--------------------------------------|
B|--------------------------------------|
G|---------------------------7----------|
D|---0\----------------------7----------|
A|---0\----------------------5----------|
E|--------------------------------------|
                |                  |
---------"12">("10)---------------------------------------------------------|
---------------/3>(1)----"12"\"7"/"12"-----------------------  (0)----"12"\"7"/"12"--------------------------------------|      guitars. You
---------------/0>(-2)------------------------------------------------------|      can probably
----------------------------------------------------------------------------|      figure out
-------------------------------------------3/6--0vvvvvvvv\------------------|      the arangment

--------------------------------------------|
--------15--15>(17)======>15-------    0---------------------------------|
---7/9\7-\--------------------------------------------------------------|
---5/7\5-\--------------------------------------------------------------|
------------------------------------------------------------------------|

---0-----------0---0---0---0-----------------------------------|
---0----2>3>2--0---0---0---0-----------------------------------|
------------------------------'2'>'3'>'2'vvvvv--2>0--2vvvvvv---|
---------------------------------------------------------------|
---------------------------------------------------------------|
---------------------------------------------------------------|

----------------------------------------------------------------------|
----------------------------------------------------------------------|
----------------------------------------------------------9--7vvvvvv--|
--/2--5--/0---5--2>0------5-------------------------------9--7vvvvvv--|
----------------------2>0-----2>0--------------------/7---------------|
------------------------------------3---0vvvvvvvv---------------------|

------------------------------0------------------------------------------|
--/0-------------------3/5-------5vvvvv----------------------------------|
-------2>(4)>2vvvv-----------------------2-\/-\/vvvvvv---2--2/4>0-2vvv---|
-------------------------------------------------------------------------|
-------------------------------------------------------------------------|
-------------------------------------------------------------------------|

-----------------------------------------------------0--|
------------------------------------------------3/5-----|
--0>2--2vvvv----2>3>2>0--2--0>2vvvv\/vvvvv>0------------|
--------------------------------------------------------|
--------------------------------------------------------|
--------------------------------------------------------|

--0---5>0--0--3>0--0--5>0--0--3>0--0--5>0--0--3---2--2---\/-\/-\/-\/-vvvvv--|
----------------------------------------------5---3--3---\/-\/-\/-\/-vvvvv--|
----------------------------------------------------------------------------|
----------------------------------------------------------------------------|
----------------------------------------------------------------------------|
----------------------------------------------------------------------------|

------------0-------------------------------------------------------|
---(3)>5------3>0---------------------------------------------------|
-------------------2>(3)>2>0-----2----------------------------------|
------------------------------2------2----0>2>0---------------------|
--------------------------------------------------------------------|
--------------------------------------------------\5---0vvvvvvvvvv--|

--------------12--14--15--17>(19)vvvvv--17>(19)>17>15---17>(19)>17>15--17vvv-|
---15>(17)\------------------------------------------------------------------|
-----------------------------------------------------------------------------|
-----------------------------------------------------------------------------|
-----------------------------------------------------------------------------|
-----------------------------------------------------------------------------|

--17>(19)vvvvvvv------15--17vvvvvv\---0--0-----0----------------------|
--------------------------------------0--3/5---5------5\3>0-----------|
--------------------------------------------------------------2>(4)---|
----------------------------------------------------------------------|
----------------------------------------------------------------------|
----------------------------------------------------------------------|

--------------------------------------------------------------------|
--------------------------------------------------------------------|
--2>(4)>2>0-----2>0-------------------------------------------------|
-------------2--------2---0---2-------------------------------------|
-------------------------------------0------------------------------|
----------------------------------3-----3---0---0----/////0vvvvvv---|

-----------------------------/5---0---------------------------------|
-----------------------------/5-------5vvvvvv---8---8vvvv---7--7>8--|
--2>(4)---'0'vvvvv----------------------------------7vvvv-----------|
--------------------2vvvvvv-----------------------------------------|
--------------------------------------------------------------------|
--------------------------------------------------------------------|

---------------------------------------------------------------|
--8>(10>8>7-----8>7--------------------------------------------|
-------------9-------9>7---9>7----------2>0--------------------|
---------------------------------9\7>5------2>0----------------|
--------------------------------------------------5>(7)vvvv\---|
---------------------------------------------------------------|

----------------------12--14--15--15>(17)vvvvv--15--14>(12)---15vvvvvv---|
--15>(17)======>(15)-----------------------------------------------------|
-------------------------------------------------------------------------|
-------------------------------------------------------------------------|
-------------------------------------------------------------------------|
-------------------------------------------------------------------------|

---14>12-----------------12--------------------------------------|
----------15vvvvvvvvv---------------15---------------------------|
----------------------------14>(16)-----14vvvvvv---4---2vvvvvv---|
-----------------------------------------------------------------|
-----------------------------------------------------------------|
-----------------------------------------------------------------|

---------------------------------------------------|
----------------------------------7-------/8---0---|
----------------------------------7----------------|
--2---2---2>0----2vvvvvvvv>0------7--7--0----------|
---------------------------------------------------|
---------------------------------------------------|

--------------------------------------------------------|
--15>(17)vvvvvvv>15>12--14>(15)>12----------------------|
--------------------------------------14>(16)>14---12\--|
--------------------------------------------------------|
--------------------------------------------------------|
--------------------------------------------------------|

------14vvvvvvvv--14>(15)>14>12--14vvvvv\/vvvvvv--12--14--15--15>17vvvvv--|
---12---------------------------------------------------------------------|
--------------------------------------------------------------------------|
--------------------------------------------------------------------------|
--------------------------------------------------------------------------|
--------------------------------------------------------------------------|

--15>(17)--15--14>12--14>(15)========>14>12---12---------------|
--------------------------------------------15--15>(17)vvvvv\--|
---------------------------------------------------------------|
---------------------------------------------------------------|
---------------------------------------------------------------|
---------------------------------------------------------------|

---------------------------------------------|
------15VVVVvvvvvvvv-15>(17)>VVVVVVVVVV------|
--14-----------------------------------------|
---------------------------------------------|
---------------------------------------------|
---------------------------------------------|

--------------------------------------------------------------------------|
-------0------------------------------------------------------------------|
---------------12-\/--\/--14>(16)vvvvv--/12--14--14>(16)>14--12-----------|
-----------14----------------------------------------------------14vvv\---|
--------------------------------------------------------------------------|
---12---------------------------------------------------------------------|

------------------------0---0------------0---0---0----------------------|
------------------------0---0--3/5--3>0--0---0---5----------------------|
--0--'2'vvvv--0>2vvvvv------------------------------2>0-----------------|
--------------------------------------------------------2>0----2vvvvv---|
------------------------------------------------------------------------|
------------------------------------------------------------------------|

------------------------------------------------------------|
------------------------------------------------------------|
--0---------------------------------------------------------|
-----2>0--------------------0>2--0>2--5>2--5/7--7vvvvvvv----|
---------2>0----5-------------------------------------------|
-------------3-----3---0------------------------------------|

----------------------------------------------------|
----------------------------------------------------|
--------0-------2>(3)>2>0---2>0---------------------|
--0--2-----0>2--------------------2/4\2--0vvvvvvv---|
----------------------------------------------------|
----------------------------------------------------|

------12-------12--------12--------11-------12vvvvvvvv-----------|
--15>(17)--15>(17)---15>(17)---14>(16)--15>(17)vvvvvvv--    (17)vvvv---15>(17)vvv---17>(19)vv--19>(20)vvvvv--19>(20)vvvv---19>(20)--|
----------------------------------------------------------------------------|
----------------------------------------------------------------------------|
----------------------------------------------------------------------------|
----------------------------------------------------------------------------|

------17vvvv-------17vvvvvv------17------17------17------17------17---------19-|
--20>(22)vvv---20>(22)vvvvv--20>(22)-20>(22)-20>(22)-20>(22)-20>(22)-20>(22)---|
-------------------------------------------------------------------------------|
-------------------------------------------------------------------------------|
-------------------------------------------------------------------------------|
-------------------------------------------------------------------------------|

--19vvvvv--19vvvvvvvvvvv\----------------------------|
-----------------------------------------------------|
------------------------------2>(3)>2>0--------------|
------------------------------------------2vvvvvvv---|
-----------------------------------------------------|
-----------------------------------------------------|

------0--------------------------------------------------------------------|
----------12-VVVVVVV\------------------------------------------------------|
-/9-------12-VVVVVVV\--7---------------------------------------------------|
----------12-VVVVVVV\--7--7>(8)>7>5--7vvvv---------------------------------|
--------------------------------------------7--7----------------5----------|
--------------------------------------------------5>(6)>5--3--0----3---0---|

-----------------------------------------------------------------|
--------------------------------------------------------------7--|
--------------------------------------------------7--9--7--9-----|
--2--2--4--4/5--4--'5'--5/7--5--4--7/9vvvv---7--9----------------|
-----------------------------------------------------------------|
-----------------------------------------------------------------|

----------------------------------------------|
--8>7>5----5>3>0---3>0------------------------|
---------7-------2----------------------------|
------------------------2>0--5--2>0-----------|
--------------------------------------2-------|
-----------------------------------------3/5--|

Fills:
------

Fill A
------------------|
--7---------------|
----7-----7vvvvv--|
-------9----------|
------------------|
------------------|

Fill B
------------|
------------|
------------|
------------|
------------|
--10\3--0\--|

Fill C
--------------|
--------------|
--------------|
------2-------|
--------------|
-2/3------3---|


Fill D
-------------|
-------------|
-------------|
------0------|
-1/2---------|
---------0---|

----------------- Acordes -----------------
