Richard Marx - Everything Solo

e|--------------------------------------------------------|
B|--6-6-6-------------------------------------------------|
G|--8b----8--6-6-5-5-5-6-8--8-6-5--6-5-3--5-3----5--------|
D|--------------------------------------------6----6-4----|
A|--------------------------------------------------------|
E|--------------------------------------------------------|

e|---------------------------------------|
B|------6------------4-------------------|
G|------------------------8b-8-6--6--6---|
D|----------------------------------8----|
A|--7/8----------5/6---------------------|
E|---------------------------------------|

e|--------------------------------------------------------|
B|--6-6-6-------------------------------------------------|
G|--8b----8--6-6-5-5-5-6-8--8-6-5--6-5-3--5-3----5--------|
D|--------------------------------------------6----6-4----|
A|--------------------------------------------------------|
E|--------------------------------------------------------|


e|------------------------------------|
B|------6------------4-----2----------|
G|-------------------------4B-5-3-1---|
D|------------------------------------|
A|--7/8----------5/6------------------|
E|------------------------------------|



----------------- Acordes -----------------
