Richard Marx - Now And Foreverad Lib Solo

E------3---------------------------0------------------------|
B-0----------------0--2-2h4--4-----0--0---------------------|
G---0----5h7p5--4-------------------------------------------|
D-----------------------------------------------------------|
A------------------------------2----------------------------|
E-3-------------2-------0-----------------------------------|

E------------------------------------------0-----------------|
B----0---0--1------1h3p1-0---------------3-------------------|
G--2---2--------2------------0--0h2----2---------------------|
D-------------2-----------------0----0-----------------------|
A-----------0------------------------------------------------|
E------------------------3-----------------------------------|

E------------------------3----2---2h3p2--0---7-------|
B-----------------1---0----0-------------------------|
G------------0--2-------------2----------------------|
D--------0--2----------------------------------------|
A--0-0h2---------------------------------------------|
E---------------------3-------2----------0-----------|


E---7h9-7-7h9--5-5--7--3--------3------3s5----------|
B-------------------------3--3-----3----------------|
G---------------------------------------------------|
D--------------------------------------0------------|
A-7--------------0----------------------------------|
E----------------------------3----------------------|

E-------0-------3-3p2-0-----------------------------|
B-----3------------------3--1--0----0h1-------------|
G---2----------------------------2------------------|
D-0-------------------------------------------------|
A---------------------------------------------------|
E---------------------------------------------------|

for suggestions and comments mail me at *


----------------- Acordes -----------------
