Cazuza - Posando de Star




Pouco importa o que essa gente vá falar

Mal falem mal eu já to pra lá de rouco
       E6                  F6
Louco total eu sou o teu amor
     E6                   F6       E6
Me entenda você precisa descobrir
                F6            E6
O que está perdendo é é é o que está
      F6   C              Fm        A
Perdendo botando banca posando de star
C         Em      A                 C
Você precisa é dar vem viver comigo me
        D            A
Experimentar me experimenta
                    C
Solta as coisas lindas que te ardem

     E6                F6        E6
Me traz voce tem texto sem cinema
             F6             E6
Não faz do sexo um problema
                F6     E6           F6
Eu armo uma cena é é é Eu armo uma cena
   C    Fm       C                  A   C         A
Quebro garrafa morro de chorar mas inda te faço dar

                C                 D
Tudo o que eu quero é uma noite de luar
      C                         D         E6
São palavras doces as que eu quero escutar
    F6                E6              F6
Eu sou o seu amor me entenda você precisa
    E6                 F6      E6
Descobrir o que está perdendo é é é
                  F6    C        Fm
Q que está perdendo   botando banca
C              A       C           A
Posando de star ahh você precisa é dar
A                       C               D     A
Pouco importa o que essa gente vá falar mal

----------------- Acordes -----------------
A = X 0 2 2 2 0
C = X 3 2 0 1 0
D = X X 0 2 3 2
E6 = X X 2 4 2 4
Em = 0 2 2 0 0 0
F6 = 1 X 0 2 1 X
Fm = 1 3 3 1 1 1
