Saulo Fernandes - Agradecer

E
Banho de mar
B
Bateu na cabeça
           E
Diferente
E
Eu vi um maluco
              B
Enfeitado no beco
           E
Que figura
E
Queijinho na brasa
           B
Pegou uma cor
             E
Saiu contente
E                       B
O cabelo da menina tem nagô
                  E
Patapata pata pente               (2X)


B
Oiá pra cantar
C#m
Seguir procissão
B                     E
Vem ver meu povo de fé
B
Axé pra lavar
C#m
Benzer pra curar
B                   E
Tambor para agradecer          (2x)

E
Agradecer...
B           E
oba oba oba ê...
E
Agradecer...
B           E
oba oba oba ê...
E
Agradecer...
B           E
oba oba oba ê...
E
Agradecer...
B           E
oba oba oba ê...

----------------- Acordes -----------------
B = X 2 4 4 4 2
C#m = X 4 6 6 5 4
E = 0 2 2 1 0 0
