Goo Goo Dolls - Aint That Unusual

/ = slide down
\ = slide up
. = palm mute
x = muted note

Intro
Verse (Could you talk to me...)
Chorus (Someday you never made it...)
Verse (Now I feel unknown...)
Chorus See I'd love to be you
Verse (See I'd love to be you...)
Solo
Chorus (See I'd love to be you...)
Outro



Intro
E|--------------------------------------------------------|
B|--------------------------------------------------------|
G|------8\4-4--11-11-88\6/8------8\4--11-11-11-11-11-11-11|
D|------x\x-x--x--x--xx\x/x------x\x--x--x--x--x--x--x--x-|  X3
A|------6\2-2--9--9--66\4/6------6\2--9--9--9--9--9--9--9-|
E|--------------------------------------------------------|

Verse
E|----------------------------------------------------------------|    
B|----------------------------------------------------------------|  
G|----------------------------------------------------------------| X2
D|---6-6-2-2-11-11-6-6-2-2----6-6-2-2-11-11-11-11-11-11-11--------|
A|---6-6-2-2-11-11-6-6-2-2----6-6-2-2-9--9--9--9--9--9--9---------|
E|---4-4-0-0-9--9--4-4-0-0----4-4-0-0-9--9--9--9--9--9--9---------|
    . . . .       . . . .    . . . .

E|--------------------------|
B|--------------------------|
G|--------------------------|
D|--4-4--6-6--9-9--11-11----|
A|--4-4--6-6--9-9--x--x-----|
E|--2-2--4-4--7-7--9--9-----|

Chorus
E|--------------------------------------------------------|
B|--------------------------------------------------------|
G|------8\4-4--11-11-88\6/8------8\4--11-11-11-11-11-11-11|
D|------x\x-x--x--x--xx\x/x------x\x--x--x--x--x--x--x--x-|  X3
A|------6\2-2--9--9--66\4/6------6\2--9--9--9--9--9--9--9-|
E|--------------------------------------------------------|

Outro
E|---------------|
B|---------------|
G|--8-6-4-6-8-4--|
D|--x-x-x-x-x-x--|
A|--6-4-2-4-6-2--|
E|---------------|
