Goo Goo Dolls - Iris

Tuning:

E|-=-D
B|-=-D
G|-=-D
D|-=-D
A|-=-D
E|-=-B

Intro:

-0-----0--0---0----0--0--0-----0--0--0--0---0-0-0-----------------------------
-0-----0--0---0----0--0--0-----0--0--0--0---0-0-0-----------------------------
-0-----0--0---0----0--0--0-----0--0--0--0---0-0-0-----------------------------
-12----12-12--11---11-11-12----5--5--4--4---5-4-0-----------------------------
-0-----0--0---0----0--0--0-----0--0--0--0---0-0-0-----------------------------
-0-----0--0---0----0--0--0-----0--0--0--0---0-0-0--x2-------------------------

Verse:

----------------------------------------------------------------0-0-0-0-------
----0-0-----0-0----0-0-----------0-0------0-0----0-0------------0-0-0-0-------
---0-0-----0-0----0-0-----------0-0------0-0----0-0-------------0-0-0-0-------
----------------------------------------------------------------0-0-0-0-------
-x-------x------x-----x-----------------------------------------x-x-x-x-------
-3-------5------8-----8------12-------10------8-----8-----x4----8-8-8-8-------


Chorus:

-----0--0--------0--0-------0-0--0-0------------------------------------------
-----0--0--------0--0-------0-0--0-0------------------------------------------
-----0--0--------0--0-------0-0--0-0------------------------------------------
-----0--0--------0--0-------0-0--0-0------------------------------------------
-x---x--x----x---x--x----x--x-x--x-x------------------------------------------
-12--12-12---10--10-10---8--8-8--8-8--x4--------------------------------------

-0-----0--0---0----0--0--0-----0--0--0--0-------------------------------------
-0-----0--0---0----0--0--0-----0--0--0--0-------------------------------------
-0-----0--0---0----0--0--0-----0--0--0--0-------------------------------------
-12----12-12--11---11-11-12----5--5--4--4-------------------------------------
-0-----0--0---0----0--0--0-----0--0--0--0-------------------------------------
-0-----0--0---0----0--0--0-----0--0--0--0----------x2-------------------------

----------------------------------------------------------------0-0-0-0-------
----0-0-----0-0----0-0-----------0-0------0-0----0-0------------0-0-0-0-------
---0-0-----0-0----0-0-----------0-0------0-0----0-0-------------0-0-0-0-------
----------------------------------------------------------------0-0-0-0-------
-x-------x------x-----x------x--------x-------x-----x-----------x-x-x-x-------
-3-------5------8-----8------12-------10------8-----8-----x2----8-8-8-8-------

-----0--0--------0--0-------0-0--0-0------------------------------------------
-----0--0--------0--0-------0-0--0-0------------------------------------------
-----0--0--------0--0-------0-0--0-0------------------------------------------
-----0--0--------0--0-------0-0--0-0------------------------------------------
-x---x--x----x---x--x----x--x-x--x-x------------------------------------------
-12--12-12---10--10-10---8--8-8--8-8--x4--------------------------------------

Interlude:

-0-----0--0---0----0--0--0-----0--0--0--0---0-0-0-----------------------------
-0-----0--0---0----0--0--0-----0--0--0--0---0-0-0-----------------------------
-0-----0--0---0----0--0--0-----0--0--0--0---0-0-0-----------------------------
-12----12-12--11---11-11-12----5--5--4--4---5-4-0-----------------------------
-0-----0--0---0----0--0--0-----0--0--0--0---0-0-0-----------------------------
-0-----0--0---0----0--0--0-----0--0--0--0---0-0-0-----------------------------

-0-----0--0---0----0--0--0----------------------------------------------------
-0-----0--0---0----0--0--0----------------------------------------------------
-0-----0--0---0----0--0--0----------------------------------------------------
-12----12-12--11---11-11-12---------------------------------------------------
-0-----0--0---0----0--0--0----x---x---x---x---x---x---------------------------
-0-----0--0---0----0--0--0----12--14--15--17--15--14--------------------------

-9--7--9--7--7---9--7--9--7--7---9--7--9--7--7---0--0--0--0--0--0-------------
-0--0--0--0--0---0--0--0--0--0---0--0--0--0--0---0--0--0--0--0--0-------------
-0--0--0--0--0---0--0--0--0--0---0--0--0--0--0---0--0--0--0--0--0-------------
-0--0--0--0--0---0--0--0--0--0---0--0--0--0--0---0--0--0--0--0--0-------------
-x--x--x--x--x---x--x--x--x--x---x--x--x--x--x---x--x--x--x--x--x-------------
-8--8--8--8--8---7--7--7--7--7---8--8--8--8--8---12-12-12-12-12-12------------

-9--7--9--7--7---9--7--9--7--7---0--0--0--0--0--0----0---0---0--0--0--0-------
-0--0--0--0--0---0--0--0--0--0---0--0--0--0--0--0----0---0---0--0--0--0-------
-0--0--0--0--0---0--0--0--0--0---0--0--0--0--0--0----0---0---0--0--0--0-------
-0--0--0--0--0---0--0--0--0--0---0--0--0--0--0--0----0---0---0--0--0--0-------
-x--x--x--x--x---x--x--x--x--x---x--x--x--x--x--x----x---x---x--x--x--x-------
-8--8--8--8--8---7--7--7--7--7---12-12-12-12-12-12---12--10--8--7--5--3-------

------------------------------------------------------------------------------
----0-0-----0-0----0-0-----------0-0------0-0-----0-0-------------------------
---0-0-----0-0----0-0-----------0-0------0-0-----0-0--------------------------
------------------------------------------------------------------------------
-x-------x------x-----x-------x--------x-------x------------------------------
-12------14-----15----15------12-------10------8------------------------------

-----0--0--------0--0-------0-0--0-0------------------------------------------
-----0--0--------0--0-------0-0--0-0------------------------------------------
-----0--0--------0--0-------0-0--0-0------------------------------------------
-----0--0--------0--0-------0-0--0-0------------------------------------------
-x---x--x----x---x--x----x--x-x--x-x------------------------------------------
-12--12-12---10--10-10---8--8-8--8-8--x4--------------------------------------

Outro:

------------------------------------------------------------------------------
----0-0-----0-0----0-0-----------0-0------0-0-----0-0-------------------------
---0-0-----0-0----0-0-----------0-0------0-0-----0-0--------------------------
------------------------------------------------------------------------------
-x-------x------x-----x-------x--------x-------x------------------------------
-12------14-----15----15------12-------10------8------------------------------

-----------------------------------------------0------------------------------
----0-0-----0-0----0-0-----------0-0------0-0--0------------------------------
---0-0-----0-0----0-0-----------0-0------0-0---0------------------------------
-----------------------------------------------0------------------------------
-x-------x------x-----x-------x--------x-------x------------------------------
-12------14-----15----15------12-------10------8------------------------------

Lyrics:

   Verse 1:
   And I'd give up forever to touch you,
   cause i know that you feel me somehow
   your the closest to heaven that i'll ever be,
   and i don't wanna go home right now
   and all i can taste is this moment,
   and all i can breathe is your life
   when sooner or later it's over,
   i just don't want to miss you tonight.

   Chorus:
   And i don't want the world to see me,
   cause i don't think that they's understand
   when everythings made to be broken,
   i just want you to know who i am.

   Verse 2:
   And you can't fight the tears that ain't comin',
   or the moment of truth in you lies
   when everything feels like the movies,
   yeah you bleed just to know you're alive.

   (Chorus)

Structure:

Intro
Verse (Sing verse 1)
Chorus
Verse (Sing Verse 2)
Chorus
Interlude
Outro
Chorus
Outro

----------------- Acordes -----------------
A = X 0 2 2 2 0
B = X 2 4 4 4 2
D = X X 0 2 3 2
E = 0 2 2 1 0 0
