Trazendo a Arca - Na Corte do Egito

             2x
E|---------------------------------------|
B|---------------------------------------|
G|---------------------------------------|
D|--7-7-7-7--8-8-8--9-9-9-9--8-8-8-------|
A|--5-5-5-5--5-5-5--5-5-5-5--5-5-5-------|
E|---------------------------------------|

[Solo] Dm  Bb  Gm  Am

        3x                                                      3x
E|----------------------------|----------------------------------|--------------------------|
B|---10p8h10-10h11p10\8-10p8--|-6h5---6-10-10-8h10---------------|-10p8h10-10h11p10\8-10p8--|
G|----------------------------|-----7--------------10h12-9h10-7~-|--------------------------|
D|----------------------------|----------------------------------|--------------------------|
A|----------------------------|----------------------------------|--------------------------|
E|----------------------------|----------------------------------|--------------------------|

E|----------10-8-6-------------|
B|-6p5---6---------10-8--------|
G|-----7----------------5-7~~--|
D|-----------------------------|
A|-----------------------------|
E|-----------------------------|

(Riff 1)

E|--------------------------------------------|
B|--------------------------------------------|
G|--------------------------------------------|
D|--7-7-7-7----8-8-8-8----9-9-9-9----8--5-7---|
A|--5-5-5-5----5-5-5-5----5-5-5-5----5--3-5---|
E|--------------------------------------------|

(Riff 1)

Na côrte do Egito, ou na casa de César
Na Babilônia eu sei que não é meu lugar
Rejeito seus manjare, reprovo seus altares
Nem me iludo com a festa de Beltsazar

Gm                  Am
Porque eu não cedo, nem retrocedo
Bb                   Am
Estou decidido e nao volto atraz
Gm             Am
Sou separado, sou escolhido
Bb                 C
Eu sou um santo lutando contra o pecado

C     F              Am    G
Santo, eu quero ser santo
              Am           G              D   
Eu quero ser santo, porque Santo é meu Senhor

( D4  D  D4  D )

             C    F              Am   G
Eu quero ser santo, eu quero ser santo
             Am           G              D
Eu quero ser santo, porque Santo é meu Senhor

[Solo] Dm  Bb  Gm  Am

(Riff 1)

Na côrte do Egito, ou na casa de César
Na Babilônia eu sei que não é meu lugar
Rejeito seus manjare, reprovo seus altares
Nem me iludo com a festa de Beltsazar

Gm                  Am
Porque eu não cedo, nem retrocedo
Bb               Am
Estou decidido e nao volto atraz
Gm            Am
Sou separado, sou escolhido
Bb                 C
Eu sou um santo lutando contra o pecado

C     F            Am    G
Santo, eu quero ser santo
              Am           G              D   
Eu quero ser santo, porque Santo é meu Senhor

( D4  D  D4  D )

             C    F             Am    G
Eu quero ser santo, eu quero ser santo
             Am           G              D
Eu quero ser santo, porque Santo é meu Senhor

[Solo] Dm  Bb  Gm  Am  Dm  Bb  Gm  Bb  C  Bb  F  F  G  G  Am  Am  D  D

E|---------------------------8p6p5h6h8p6p8-------------------------------|
B|---8b----6-8-5~-----6-8-6~---------------8p6p5-------------------------|
G|-------7--------5-7-----------------------------7-5--------------------|
D|-----------------------------------------------------------------------|
A|----------------------------------------------------5-7-4~-------------|
E|-----------------------------------------------------------------------|

E|------------------------------------13-17-13-------15-12----13-15-17-18b-18-----|
B|---------------------------------15----------15----------13---------------------|
G|------------------------------14----------------14------------------------------|
D|--------------------------------------------------------------------------------|
A|--------------------------------------------------------------------------------|
E|--------------------------------------------------------------------------------|

E|-------------18--------------------------13-13-15-15-17-17-22-22b~/---------|
B|17-18-18^(20)---18~-17-15-17-13-13-15---------------------------------------|
G|----------------------------------------------------------------------------|
D|----------------------------------------------------------------------------|
A|----------------------------------------------------------------------------|
E|----------------------------------------------------------------------------|

D     G            Bm    A
Santo, eu quero ser santo
              Bm           A              E
Eu quero ser santo, porque Santo é meu Senhor
             D    G             Bm   A
Eu quero ser santo, eu quero ser santo,
             Bm           A              E
Eu quero ser santo, porque Santo é meu Senhor

E|-------------------------|
B|-------------------------|
G|---6-7-9~-9-7-6----------|
D|-9--------------9-7------|
A|--------------------5H.A-|
E|-------------------------|

D     G            Bm    A
Santo, eu quero ser santo
              Bm           A              E
Eu quero ser santo, porque Santo é meu Senhor
             D    G             Bm   A
Eu quero ser santo, eu quero ser santo
             Bm           A              E
Eu quero ser santo, porque Santo é meu Senhor

[Final] Em  C  Am  Bm 

     3x
E|---------------------------|----------------------------------|-------------------------|
B|---10p8h10-10h11p10\8-10p8-|-6h5---6-10-10-8h10---------------|-10p8h10-10h11p10\8-10p8-|
G|---------------------------|-----7--------------10h12-9h10-7~-|-------------------------|
D|---------------------------|----------------------------------|-------------------------|
A|---------------------------|----------------------------------|-------------------------|
E|---------------------------|----------------------------------|-------------------------|

E|---------------------------------|
B|-10-10-8-10----------------------|
G|------------9-9-7-9--7-5--7~~~~--|
D|---------------------------------|
A|---------------------------------|
E|---------------------------------|

----------------- Acordes -----------------
A = X 0 2 2 2 0
Am = X 0 2 2 1 0
Bb = X 1 3 3 3 1
Bm = X 2 4 4 3 2
C = X 3 2 0 1 0
D = X X 0 2 3 2
D4 = X X 0 2 3 3
Dm = X X 0 2 3 1
E = 0 2 2 1 0 0
Em = 0 2 2 0 0 0
F = 1 3 3 2 1 1
G = 3 2 0 0 0 3
Gm = 3 5 5 3 3 3
