Victor e Leo - Borboletas

[Intro] Bm  A
        A  Bm  G  A

E|-------------------------------5----------|
B|---------------------------------3h5-3-3--|
G|-------6h7p6------------6h7p6/4-----------|
D|-----9-------9--------9-------------------|
A|-7h9-----------9--7h9---------------------|
E|------------------------------------------|

E|------------------------------------------|
B|------------------------------------------|
G|------------------------------------------|
D|--7-9-9-7--9-7---9--9-7---9-9-7-----------|
A|-9-------9-----9--------9------9----------|
E|------------------------------------------|

E|------------------------------------------|
B|------------------------------------------|
G|------------------------------------------|
D|---7-7-4--7-4---7--7-4---7-7-4------------|
A|--------7-----7--------7------7-----------|
E|------------------------------------------|


E|------------------------------------------|
B|------------------------------------------|
G|---7-7-6--7-6---7--7-6---7-7-6------------|
D|--------7-----7--------7------7-----------|
A|------------------------------------------|
E|------------------------------------------|

E|------------------------------------------|
B|------------------------------------------|
G|------------------------------------------|
D|-9--9-7-9-7-------------------------------|
A|-9--9-7-9-7-------------------------------|
E|------------------------------------------|

   G        A       Bm
E|---3-3-3----0-0-0---2-2-2-----------------|
B|---3-3-3----2-2-2---2-3-2-----------------|
G|---0-0-0--2-2-2-2---4-4-4-----------------|
D|-0-0-0-0--2-2-2-2---4-4-4-----------------|
A|-2--------0-------2-----------------------|
E|-3----------------------------------------|

[Primeira Parte]

    Bm                      D
Percebo que o tempo já não passa
                       A     Bm
Você diz que não tem graça amar assim
                           D
Foi tudo tão bonito, mas voou pro infinito
     A             Bm
Parecido com borboletas de um jardim

[Pré-Refrão]

Em            G
  Agora você volta
     D                         A
E balança o que eu sentia por outro alguém
Em                     G
  Dividido entre dois mundos
                A                        Bm
Sei que estou amando mas ainda não sei quem

[Refrão]
           G           D
Não sei dizer o que mudou
     A           Bm
Mas nada está igual
      G                D           A            Bm
Numa noite estranha a gente se estranha e fica mal
   G           D       A              Bm
Você tenta provar que tudo em nós morreu
      G            D
Borboletas sempre voltam
     A             Bm
E o seu jardim sou eu

[Solo] Bm  D  A  F#  G  A  Bm

E|-14-14-14---15-15-15---14-14-14-14-14-14--|
B|-15-15-15---15-15-15---15-15-15-15-15-15--|
G|------------------------------------------|
D|------------------------------------------|
A|------------------------------------------|
E|------------------------------------------|

E|-15-15-14-14------------------------------|
B|-15-15-15-15------------------------------|
G|------------------------------------------|
D|------------------------------------------|
A|------------------------------------------|
E|------------------------------------------|
E|-14-14-14---15-15-15---14-14-14-14-14-14--|
B|-15-15-15---15-15-15---15-15-15-15-15-15--|
G|------------------------------------------|
D|------------------------------------------|
A|------------------------------------------|
E|------------------------------------------|

E|-15-15-14-14---14-14-14--15-15-15---------|
B|-15-15-15-15---15-15-15--15-15-15---------|
G|------------------------------------------|
D|------------------------------------------|
A|------------------------------------------|
E|------------------------------------------|

E|--14-14-14-14-14-14/12--12-12-12/9--9--9--|
B|--15-15-15-15-15-15/14--14-14-14/11-11-11-|
G|------------------------------------------|
D|------------------------------------------|
A|------------------------------------------|
E|------------------------------------------|

                 G        A       Bm
E|-----------------3-3-3----0-0-0---2-2-2---|
B|-----------------3-3-3----2-2-2---2-3-2---|
G|-----------------0-0-0--2-2-2-2---4-4-4---|
D|-9--9-7-9-7----0-0-0-0--2-2-2-2---4-4-4---|
A|-9--9-7-9-7----2--------0-------2---------|
E|---------------3--------------------------|

[Primeira Parte]

    Bm                      D
Percebo que o tempo já não passa
                       A     Bm
Você diz que não tem graça amar assim
                           D
Foi tudo tão bonito, mas voou pro infinito
     A             Bm
Parecido com borboletas de um jardim

[Pré-Refrão]

Em            G
  Agora você volta
     D                         A
E balança o que eu sentia por outro alguém
Em                     G
  Dividido entre dois mundos
                A                        Bm
Sei que estou amando mas ainda não sei quem

[Refrão]
           G           D
Não sei dizer o que mudou
     A           Bm
Mas nada está igual
      G                D           A            Bm
Numa noite estranha a gente se estranha e fica mal
   G           D       A              Bm
Você tenta provar que tudo em nós morreu
      G            D
Borboletas sempre voltam
     A             Bm
E o seu jardim sou eu

           G           D  A/C#  Bm
Não sei dizer o que mudou
     A           Bm
Mas nada está igual
      G                D           A            Bm
Numa noite estranha a gente se estranha e fica mal
   G           D       A              Bm
Você tenta provar que tudo em nós morreu
      G            D
Borboletas sempre voltam
     A             Bm
E o seu jardim sou eu

[Final]

E|-14-14-14---15-15-15---14-14-14-14-14-14--|
B|-15-15-15---15-15-15---15-15-15-15-15-15--|
G|------------------------------------------|
D|------------------------------------------|
A|------------------------------------------|
E|------------------------------------------|

E|-15-15-14-14------------------------------|
B|-15-15-15-15------------------------------|
G|------------------------------------------|
D|------------------------------------------|
A|------------------------------------------|
E|------------------------------------------|

----------------- Acordes -----------------
A = X 0 2 2 2 0
A/C# = X 4 X 2 5 5
Bm = X 2 4 4 3 2
D = X X 0 2 3 2
Em = 0 2 2 0 0 0
F# = 2 4 4 3 2 2
G = 3 2 0 0 0 3
