Victor e Leo - Tanta Solidão

Intro:
                  F           Dm       Am       C
E|----10-------------10----10-12-10-----------------
B|-12----13-12-10-12----12----------12-10-12--------
G|-------------------------------------------12-11--
D|--------------------------------------------------
A|--------------------------------------------------
E|--------------------------------------------------

                  F           Dm       Am      G
E|----10-------------10----10-12-14-----------------
B|-12----13-12-10-12----12----------12-10-12--------
G|-------------------------------------------7-9----
D|--------------------------------------------------
A|--------------------------------------------------
E|--------------------------------------------------

         C
Veja no céu
           Am
Hoje a lua não saiu

      C
Sem você
           F         Dm
Nem o meu olhar se abriu
        Bb             C
Pra não ver tanta solidão

              Dm     Bb    F    C
Queria aquele beijo que você negou
                Dm  Bb     F   C
Queria ao menos uma noite de amor
              Dm     Bb    F    C
Queria aquele beijo que você negou
                Dm  Bb     F   C        F
Queria ao menos uma noite de amor, pra mim
Intro:
                  F           Dm       Am       C
E|----10-------------10----10-12-10-----------------|
B|-12----13-12-10-12----12----------12-10-12--------|
G|-------------------------------------------12-11--|
D|--------------------------------------------------|
A|--------------------------------------------------|
E|--------------------------------------------------|

                  F           Dm       Am      G
E|----10-------------10----10-12-14-----------------|
B|-12----13-12-10-12----12----------12-10-12--------|
G|-------------------------------------------7-9----|
D|--------------------------------------------------|
A|--------------------------------------------------|
E|--------------------------------------------------|

        C
Nada a fazer
             Am
A não ser te esperar
        C
Porque sei
              F   Dm       Bb
Nada nesse mundo irá, me fazer
            C
Esquecer você

              Dm     Bb    F    C
Queria aquele beijo que você negou
                Dm  Bb     F   C
Queria ao menos uma noite de amor
              Dm     Bb    F    C
Queria aquele beijo que você negou
                Dm  Bb     F   C
Queria ao menos uma noite de amor

              Dm     Bb    F    C
Queria aquele beijo que você negou
                Dm  Bb     F   C
Queria ao menos uma noite de amor
              Dm     Bb    F    C
Queria aquele beijo que você negou
                Dm  Bb     F   C        F
Queria ao menos uma noite de amor, pra mim
Solo:
                  F           Dm       Am       C
E|----10-------------10----10-12-10-----------------|
B|-12----13-12-10-12----12----------12-10-12--------|
G|-------------------------------------------12-11--|
D|--------------------------------------------------|
A|--------------------------------------------------|
E|--------------------------------------------------|

                  F           Dm       Am       C
E|----10-------------10----10-12-14-----------------|
B|-12----13-12-10-12----12----------12-10-12--------|
G|-------------------------------------------12-11--|
D|--------------------------------------------------|
A|--------------------------------------------------|
E|--------------------------------------------------|

     Gm                   Bb                 F
E|-10/12-12-12-12-12-10-10/12-12-12-12-12-15-15-15-15-15-15-10-10--|
B|-12/13-13-13-13-13-12-12-13-13-13-13-13-15-15-15-15-15-15-10-10--|
G|-----------------------------------------------------------------|
D|-----------------------------------------------------------------|
A|-----------------------------------------------------------------|
E|-----------------------------------------------------------------|

   Gm       Bb                  Dm
E|-----------------3----------------|
B|---------3-5-3h5-------3----------|
G|-----2-4-----------2h4-------2----|
D|-4h5---------------------2h4---2--|
A|----------------------------------|
E|----------------------------------|


----------------- Acordes -----------------
Capotraste na 2ª casa
Am*  = X 0 2 2 1 0 - (*Bm na forma de Am)
Bb*  = X 1 3 3 3 1 - (*C na forma de Bb)
C*  = X 3 2 0 1 0 - (*D na forma de C)
Dm*  = X X 0 2 3 1 - (*Em na forma de Dm)
F*  = 1 3 3 2 1 1 - (*G na forma de F)
G*  = 3 2 0 0 0 3 - (*A na forma de G)
Gm*  = 3 5 5 3 3 3 - (*Am na forma de Gm)
