Victor e Leo - Time For Love (part. Eric Silver)

[Intro]

                              F         Am                   F
E|---------------------------------1h0---------------------------------------------------|
B|-------------------------------------1----3/5------------------------------------------|
G|------------------0--0h2---------------2-------2-2----------------0--0h2--0h2-0h2------|
D|-------------0h2---------------------------------------------0h2-----------------------|
A|------0h2/3-----------------------------------------------0h2--------------------------|
E|-0----------------------------------------------------0--------------------------------|

    Am                          G
E|---3-3----------------------3--|
B|--------1-1---1-3-3/5-5~----3--|
G|------------2---------------4--|
D|----------------------------5--|
A|----------------------------5--|
E|----------------------------3--|

             F
É tempo de amor
               Am
E o vento se acalma

            F
O céu fica azul
               Am    G
Por dentro da alma

             F
Te sinto na paz
             Am
Que tem nas campinas
             F
Nas águas puras, claras
                Am       G
Que brotam das minas

           F
É tempo de amor
            Am
De curar a dor
            F
Luz na escuridão
     Fm              C
Seu beijo cheio de paixão
           F
É tempo de amor
            Am
De curar a dor
            F
Luz na escuridão
     Fm              C
Seu beijo cheio de paixão

[Solo]

                F                   Am                             F                                           Am
E|-----------------------------3-0-----------------------------------------------------------------------------------------|
B|-1p0---3/5--5-5---------------------1---3/5------------------------1p0---------3-3/5-5-5/8-8/10-10-10/12-13--------------|
G|-------------------2-2----------------2------2-0h2-0h2--2/4-------------2-0-2--------------------------------------------|
D|-------------------------------------------------------------0h2---------------------------------------------------------|
A|-------------------------------------------------------------------------------------------------------------------------|
E|-------------------------------------------------------------------------------------------------------------------------|

                    G
E|-------------------------------------------------------------------------------------------------------------------------|
B|--13--12--10--8----------------------------------------------------------------------------------------------------------|
G|-------------------------------------------------------------------------------------------------------------------------|
D|--12--12--10--9----------------------------------------------------------------------------------------------------------|
A|-------------------------------------------------------------------------------------------------------------------------|
E|-------------------------------------------------------------------------------------------------------------------------|

              F
You feel the peace
             Am
Across the plains
             F
Flowing like pure water
                     Am       G
That comes from the rain

                   F
When it's time for love
                          Am
It's cures everything and then some
                     F
You warm me like the sun
     Fm                 C
With kisses full of passion
                   F
When it's time for love
                          Am
It's cures everything and then some
                     F
You warm me like the sun
     Fm                 C
With kisses full of passion

           F
É tempo de amor
                          Am
It's cures everything and then some
             F
Luz na escuridão
     Fm                 C
With kisses full of passion

           F
É tempo de amor (When it's time for love)
           Am
De curar a dor (It's cures everything)
            F
Luz na escuridão
     Fm              C
Seu beijo cheio de paixão

----------------- Acordes -----------------
Am = X 0 2 2 1 0
C = X 3 2 0 1 0
F = 1 3 3 2 1 1
Fm = 1 3 3 1 1 1
G = 3 2 0 0 0 3
