﻿Victor e Leo - Venha Ver o Mar

Capo Casa 4

Intro 2x: C  F  C  F
E|-------12-12-12-12----12----12-14-16-|-------12-12-12-12----12----12-------|
B|-12-14-------------14----14----------|-12-14-------------14----14----14-12-|
G|-------------------------------------|-------------------------------------| (2x)
D|-------------------------------------|-------------------------------------|
A|-------------------------------------|-------------------------------------|
E|-------------------------------------|-------------------------------------|

C            F
 Sua nobreza é coisa rara de se ver
C                F
 Tenho certeza, nunca vou te esquecer
Am                  F
 Não precisa de promessa quando a gente crê
Am                F                  G
 Fica tudo bom à beça só de ouvir você
     F                  G
Sei não, imagine ao te ver
     F  G
Sei não


Refrão 2x:
C                              F
 Vem, amor, amar, venha ver a lua
C                               F
 Venha ver o mar, que eu tô na sua

Solo 2x: C  F  C  F
E|-------12-12-12-12----12----12-14-16-|-------12-12-12-12----12----12-------|
B|-12-14-------------14----14----------|-12-14-------------14----14----14-12-|
G|-------------------------------------|-------------------------------------|  (2x)
D|-------------------------------------|-------------------------------------|
A|-------------------------------------|-------------------------------------|
E|-------------------------------------|-------------------------------------|

C            F
 Sua nobreza é coisa rara de se ver
C                F
 Tenho certeza, nunca vou te esquecer
Am                  F
 Não precisa de promessa quando a gente crê
Am                F                  G
 Fica tudo bom à beça só de ouvir você
     F                  G
Sei não, imagine ao te ver
     F  G
Sei não

Refrão 4x:
C                              F
 Vem, amor, amar, venha ver a lua
C                               F
 Venha ver o mar, que eu tô na sua

Solo Final: C  F  C  F
                                                                         F          C
E|-------12-12-12-12----12----12-14-16-|-------12-12-12-12----12----12--5-5-5-5-5--4-|
B|-12-14-------------14----14----------|-12-14-------------14----14-----7-7-7-7-7--7-|
G|-------------------------------------|--------------------------------7-7-7-7-7--6-|
D|-------------------------------------|--------------------------------6-6-6-6-6--4-|
A|-------------------------------------|--------------------------------5-5-5-5-5--5-|
E|-------------------------------------|--------------------------------5-5-5-5-5--4-|


----------------- Acordes -----------------
Capotraste na 4ª casa
Am*  = X 0 2 2 1 0 - (*C#m na forma de Am)
C*  = X 3 2 0 1 0 - (*E na forma de C)
F*  = 1 3 3 2 1 1 - (*A na forma de F)
G*  = 3 2 0 0 0 3 - (*B na forma de G)
