Perota Chingo - Rie Chinito

A
Rie chinito
                     Bm
Se rie y yo lloro porque

El chino rie sin mi

A
Rie en la noche y achina
           Bm
Los ojos morochos

Mas lindos que vi

D
Sopla las cañas sube
             A
La montaña mañana

Quizas bajara


Bm
Se hace de dia el sol
                 D
Lo encandila los vientos

Descanzan y el chino

Se amanza e se...

A
Rie chinito
                     Bm
Se rie y yo lloro porque

El chino rie sin mi

A
Rie en la noche y achina
           Bm
Los ojos morochos

Mas lindos que vi

D
Sopla las cañas sube
             A
La montaña mañana

Quizas bajara

Bm
Mira la luna mi niña
                  D
Y se acuna que es larga

La noche y es claro
             A              Bm
El camino mi despedacito de rio
      D
Hasta donde bajaras?

   A              Bm   D   A   Bm   A
Mi despedacito de rio

A
Rie chinito
                     Bm
Se rie y yo lloro porque

El chino rie sin mi

A
Rie en la noche y achina
           Bm
Los ojos morochos

Mas lindos que vi

D
Sopla las cañas sube
             A
La montaña mañana

Quizas bajara

Bm
Mira la luna mi niña
                  D
Y se acuna que es larga

La noche y es claro
             A              Bm
El camino mi despedacito de rio
      D
Hasta donde bajaras?

   A              Bm   D
Mi despedacito de rio
   A              Bm
Mi despedacito de rio
      D
Hasta donde bajaras?
   A              Bm   D   A
Mi despedacito de rio

----------------- Acordes -----------------
A = X 0 2 2 2 0
Bm = X 2 4 4 3 2
D = X X 0 2 3 2
