Kleber Lucas - Vou Deixar Na Cruz

[Intro] Dm  Bb9  F  C  Dm7  Bb9  F

E|--------------------------------------------------------|
B|-6-5----------6-5-------------6-5-----------------------|
G|-------5-5h7----------5-5h7-------7-5-----14-14-10-7~---|
D|-----7--------------7-----------------7-----------------|
A|--------------------------------------------------------|
E|--------------------------------------------------------|

E|--------------------------------------------------------|
B|-6-5----------6-5-----------------5-6---------11~-------|
G|-------5-5h7--------5-5h7-----5-7-----7---5~------------|
D|-----7------------7---------7---------------------------|
A|--------------------------------------------------------|
E|--------------------------------------------------------|

F9
Sua morte ali na cruz
F7
Carregando a minha dor
Bb9
Você se expôs por mim

F9
Se entregou em meu lugar
F7
E me deu uma nova chance
Bb9
Eu vou recomeçar

              Dm7                Bb9
Vou deixar na cruz tudo o que passou
            F          C9
Tudo o que ficou pra trás
           Dm7               Bb9
Olho pra você, corro pra Você
                F
O Seu amor me chama

F9
Sua morte ali na cruz
F7
Carregando a minha dor
Bb9
Você se expôs por mim
F9
Se entregou em meu lugar
F7
E me deu uma nova chance
Bb9
Eu vou recomeçar

              Dm7                Bb9
Vou deixar na cruz tudo o que passou
            F          C9
Tudo o que ficou pra trás
           Dm7               Bb9
Olho pra você, corro pra Você
                F
O Seu amor me chama

      C9                 Gm                   F
Eu dependo desse amor, do Seu amor mais que tudo
      C9                  Gm                   F
Eu confio que esse amor tem poder pra curar dores

[Solo] C9  Gm  F  C9  Gm  F


E|---18b20---------17-17b----------------------------------------------------------|
B|-----------------------15-15~---15/18\13~------8h10-8----8-10-10/11-10-----------|
G|---------17-17--------------------------------10------10---10-10----10---5-5ah---|
D|---------------------------------------------------------------------------------|
A|---------------------------------------------------------------------------------|
E|---------------------------------------------------------------------------------|

E|----------12-13------------------------------------------------------------------|
B|---15b17---------15b17---------13-15-15b17--15~-----8-10-10/11-10~---------------|
G|-----------------------12/14-----------------------------------------------------|
D|---------------------------------------------------------------------------------|
A|---------------------------------------------------------------------------------|
E|---------------------------------------------------------------------------------|

              Dm7                Bb9
Vou deixar na cruz tudo o que passou
            F          C9
Tudo o que ficou pra trás
           Dm7               Bb9
Olho pra você, corro pra Você
                F
O Seu amor me chama

----------------- Acordes -----------------
Bb9 = X 1 3 3 1 1
C = X 3 2 0 1 0
C9 = X 3 5 5 3 3
Dm = X X 0 2 3 1
Dm7 = X 5 7 5 6 5
F = 1 3 3 2 1 1
F9 = 1 3 5 2 1 1
Gm = 3 5 5 3 3 3
