Voz da Verdade - É o Senhor

Introdução: C D Em  G D/F# }3x      C D G }2x 
e|---------------------------------------------------------------------------3^5-5----
B|-5-3-5-7-5-7-8-----0-1-3--3-3-1-0---------5-3-5-7-5-7-8-------0-1-3--3-3------------
G|---------------7-------------------2---------------------7--------------------------
D|------------------------------------------------------------------------------------
A|------------------------------------------------------------------------------------
E|------------------------------------------------------------------------------------


e|-------------------5--7---7-7--8-7-5---------------------------------------------12*
B|-5-3-5-7-5-7-8------------------------------------------------5-3-1-0------------12*
G|---------------7----------------------------7-5-4-2-2-0-0--------------2--0-0----12*
D|------------------------------------------------------------------------------------
A|------------------------------------------------------------------------------------
E|------------------------------------------------------------------------------------ 


   C              G             Em    D/F#
Não existe nada igual, pois eu quero lhe falar
       C          G               Em              D/F#
Desse Deus maravilhoso, que fez o céu a terra e o mar

    C             G            Em         D/F#
A beleza do seu rosto enche o coração de luz
     C              G            Em        D/F#
E na chama de seus olhos vejo os olhos de Jesus. (progressão em ré)


    Em7/9  C              G      Em7/9  C                   G
Seu Espírito   habita em mim, glória essa      que não tem fim
      Em7/9  C        G        Em7/9 C          D/F#
Seu Espírito   me faz voar, em êxtase me faz cantar


      G    D     G           C     Em          D
É o Senhor é o Senhor Deus tremendo e libertador
      G    D     G      C          Em          D
È o senhor é o Senhor poderoso e sempre vencedor

* = Abafado

----------------- Acordes -----------------
C = X 3 2 0 1 0
D = X X 0 2 3 2
D/F# = 2 X 0 2 3 2
Em = 0 2 2 0 0 0
Em7/9 = X 7 5 7 7 X
G = 3 2 0 0 0 3
