Oficina G3 - A Ele

[Intro] F  Db  Eb  F

E|----------------------------------------------------|
B|----------------------------------------------------|
G|--------8/10~~8~~--------8/10~8~8b------------------|
D|-7-8-10----------8-8/10~~-----------10~-------------|
A|----------------------------------------------------|
E|----------------------------------------------------|

E|----------------------------------------------------|
B|----------------------------------------------------|
G|-------8/10~~8~~------------------------------------|
D|-7-8-10--------8-8/10~~10-8-------8/10-8-10-10-8-7~-|
A|----------------------------10-11-------------------|
E|----------------------------------------------------|

Fm              Db9          Ab9
  Se eu pudesse explicar ao mundo
      Bb9  Db9    F
O que é andar contigo, oh Deus!
 Db9             Bb9     A   Db9    Cm
Minhas palavras não poderiam expressar


         Gb
O Teu poder
Bbm       Eb9    Cm
O Teu imutável amor
               Gb           Bbm         Eb9  F
Falar de quem foi, que é e sempre será Deus!

           Db9   Eb9   F
Cantem os povos ao Senhor
  Db9    Eb9   F
A Ele o louvor
        Db9     Eb9     F
A majestade ao Rei dos reis
        Db9   Eb9        F
O verdadeiro Deus, o eu sou!

( Db9  Eb9  F )

E|----------------------------------------------|
B|----------------------------------------------|
G|----------------------------------------------|
D|-10-8-------8/10-8-10-10-8-7~-----------------|
A|------11-11-----------------------------------|
E|----------------------------------------------|

 Fm       Db9      Ab9
Como poderia me calar
   Bb9       Db9  F
Depois de o conhecer meu Deus
   Db9           Bb9         A  Db9  Cm
Será que alguém poderá entende_______er

          Gb
O Teu querer
   Bbm      Eb9      Cm
A Tua graça e Teu favor
            Gb           Bbm         Eb9   F
Aquele que foi, que é e sempre será Deus!

           Db9  Eb9    F
Cantem os povos ao Senhor
  Db9    Eb9   F
A Ele o louvor
        Db9     Eb9     F
A majestade ao rei dos reis
      Db9     Eb9        F
O verdadeiro Deus, o eu sou!

[Solo] Bbm  Db9  Fm  Eb9
       Bbm  Db9  Fm  Gb

E|------------------------------------------------|---------------------------------------|
B|------------------------------------------------|---------------------------------------|
G|-3/6-6-8-8/10-10-12-12/13-12-10-8-10/12-10-8-6-5|-5/6-6-8-8/10~-10-12b-12-12b-13b-13-13b|
D|------------------------------------------------|---------------------------------------|
A|------------------------------------------------|---------------------------------------|
E|------------------------------------------------|---------------------------------------|

E|--------------------------------------------------------------------------|
B|------------------------------------------13-15-16--------13-15-16b-16-16b|
G|------------------12-13-15--------12-13-15--------12-13-15----------------|
D|----------12-13-15--------12-13-15----------------------------------------|
A|----13-15-----------------------------------------------------------------|
E|-15-----------------------------------------------------------------------|

Fm        Cm         Eb9           Bb9  F
 O Teu entendimento não pode se medir
          Cm           Eb9             Bb9
Desde o princípio anuncia o que há de vir
        Cm           Eb9        Bb9     F
Vira o dia em que a verdade se revelará
        Cm         Eb9            Db9
E Tua gloria este mundo contemplará

( Fm  Ab  Cm  Bb9 )

           Db9  Eb9    F
Cantem os povos ao Senhor
  Db9  Eb9   F
A Ele  o louvor
        Db9     Eb9     F
A majestade ao rei dos reis
        Db9   Eb9        F
O verdadeiro Deus, o eu sou!

[Final] Db9  Eb9  F
        Db9  Eb9  F

----------------- Acordes -----------------
A = X 0 2 2 2 0
Bb9 = X 1 3 3 1 1
Bbm = X 1 3 3 2 1
C# = X 4 6 6 6 4
C#9 = X 4 6 6 4 4
Cm = X 3 5 5 4 3
D# = X 6 5 3 4 3
D#9 = X 6 8 8 6 6
F = 1 3 3 2 1 1
F# = 2 4 4 3 2 2
Fm = 1 3 3 1 1 1
G# = 4 3 1 1 1 4
G#9 = 4 6 8 5 4 4
