Oficina G3 - Até Quando?

Intro: E5 Bb5 A5 A5 A5 G5 F#5 G5 F#5
       E5 Bb5 A5 A5 A5 G5 F#5 G5 E5)

   HUMANOS QUE SE AMAM -  HUMANOS QUE SE MATAM
   HUMANOS QUE AJUNTAM -  HUMANOS QUE ESPALHAM
   HUMANOS QUE VENDEM  -  HUMANOS QUE COMPRAM
   HUMANOS QUE PEDEM   - HUMANOS QUE ROUBAM

(Intro)

   HUMANOS QUE EM AMOR GOSTAM MUITO DE FALAR
   MAS NUNCA FAZEM NADA PARA DEMOSTRAR
   HUMANOS QUE PEDEM A PAZ EM TODA A TERRA
   E A BUSCA COM ARMAS E TANQUES DE GUERRA

Refrão:
  C5               C9        D5    G5  G5 F5
   QUANDO VAMOS VIVER A VONTADE DO DEUS PAI
C5  E5   D5  C5 D5 E5 G5   G5 F5   G5 F5
   DE VIVER SEU AMOR, DE VIVERMOS EM PAZ


   HUMANOS QUE SÓ FALAM E FAZEM MUITO POUCO
   HUMANOS QUE SÓ JULGAM E SE ENXERGAM POUCO
   HUMANOS QUEM EM DEUS GOSTAM MUITO DE FALAR
   MAS NÃO O CONHECEM NEM O QUEREM ACEITAR

(Intro)

   HUMANOS QUE DA VIDA PENSAM SABER TUDO
   MAS ESQUECEM DE QUE SÃO PÓ, COMO TODO MUNDO
   HUMANOS QUE DEUS SABE, SEMPRE VÃO ERRAR
   MAS SEMPRE VAI ESTENDER A MÃO ÀQUELE QUE O CHAMAR

Refrão:
  C5               C9        D5    G5  G5 F5
   QUANDO VAMOS VIVER A VONTADE DO DEUS PAI
C5  E5   D5  C5 D5 E5 G5   G5 F5   G5 F5
   DE VIVER SEU AMOR, DE VIVERMOS EM PAZ

Intro:
E|-------------------------------------------------------------
B|-------------------------------------------------------------
G|-------------------------------------------------------------
D|-----3------2-------------------------3------2---------------
A|--2--1-0----0-----5------4-5--4-5--2--1--0---0--------5-----4
E|--0-------3---3-0-3---0--2-3--2-3--0-------3----3--0--3--0--2

E|-------------------------------------------------------------
B|-------------------------------------------------------------
G|-------------------------------------------------------------
D|------------3------2-----------------------------3------2----
A|--5--2--2---1-0----0--------5-----4--5--4--5--2--1--0---0----
D|--3--0--0--------3----3--0--3--0--2--3--2--3--0-------3---3-0

E|-------------------------------------------------------------
B|-------------------------------------------------------------
G|-------------------------------------------------------------
D|-------------------------------------------------------------
A|--5--------3----3----2---------------------------------------
D|--3---0----1----1----0---------------------------------------

Verso 1:
E|-------------------------------------------------------------
B|-------------------------------------------------------------
G|-------------------------------------------------------------
D|-----3-----2--------------------3-----2----------------------
A|--2--1-0---0-----5---4-5--4-5-2-1-0---0-------5----4--5--2-2-
D|--0------3---3-0-3-0-2-3--2-3-0-----3----3-0--3--0-2--3--0-0-

E|-------------------------------------------------------------
B|-------------------------------------------------------------
G|-------------------------------------------------------------
D|--3------2--------------------------3------2-----------------
A|--1--0---0--------5-----4--5-4-5--2-1--0---0-----5-----4-5-2-
D|-------3----3--0--3--0--2--3-2-3--0------3---3-0-3--0--2-3-0-

Refrão 1:
E|----3-3------------------------------------------------------
B|----3-3------------------------------------------------------
G|-5--5-5--5/7------------------------------5/9\7\5-xx5/7/9--7-
D|-5-------5/7--5--5-3-3--5-3--5-3---2--3-3------------------7-
A|-3-------3/5--5--5-3-3--5-3--5-3---2--3-3-3/7\5\3-xx3/5/7--5-
D|--------------3--3-1-1--3-1--3-1-xx0--1-1--------------------

E|-------------------------------------------------------------
B|-------------------------------------------------------------
G|-------------------------------------------------------------
D|--5--5--3--3--2--3--3----------------------------------------
A|--5--5--3--3--2--3--3----------------------------------------
D|--3--3--1--1--0--1--1----------------------------------------

Refrão 2:
E|---3-3-------------------------------------------------------
B|---3-3-------------------------------------------------------
G5--5-5--5/7-------------------------------5/9\7\5-xx5/7/9--7-
D5-------5/7--5--5-3-3--5-3--5-3---2--3-3-------------------7-
A3-------3/5--5--5-3-3--5-3--5-3---2--3-3--3/7\5\3-xx3/5/7--5-
D|-------------3--3-1-1--3-1--3-1---0--1-1---------------------

E|-------------------------------------------------------------
B|-------------------------------------------------------------
G|-------------------------------------5------------5----------
D|--5---5---3--3--5--3--5--3-----------3------------3----------
A|--5---5---3--3--5--3--5--3----3-3-3--------3-3-3-------------
D|--3---3---1--1--3--1--3--1-----------------------------------

E|---3-3-------------------------------------------------------
B|---3-3-------------------------------------------------------
G|-5-5-5--5/7-------------------------------5/9\7\5-xx5/7/9--7-
D|-5------5/7--5--5-3-3--5-3--5-3---2--3-3-------------------7-
A|-3------3/5--5--5-3-3--5-3--5-3---2--3-3--3/7\5\3-xx3/5/7--5-
D|-------------3--3-1-1--3-1--3-1---0--1-1---------------------

E|-------------------------------------------------------------
B|-------------------------------------------------------------
G|-------------------------------------------------------------
D|--5---5---3--3--5--3------3-3---5b6--3----3--3---------------
A|--5---5---3--3--5--3--3-5-----5---------5--------5--3--------
D|--3---3---1--1--3--1----------------------------------3--3h5-

Interlúdio  1:
E|-----------------------------------5-------------------------
B|-----------------------------------8b10r8b10-----------------
G|-------------------------------------------------------------
D|--5-7--5---------------------5-xx6-----------5-7-5-----------
A|---------7-6-5-------5--5-3--5-xx6------------------7--6--5--
D|---------------8-5-3-----------------------------------------

E|-------------------------------------------------------------
B|-------------------------------------------------------------
G|-------------------------------------------------------------
D|---------------------------5-7--5---------------------5xx6---
A|---------2----3xx4xx5xx6-7--------7--6--5-------5-5-3-5xx6---
D|-8-5--3--0--0-1xx2xx3xx4-5----------------8-5-3--------------

Interlúdio 2:
E|-------------------------------------------------------------
B|-------------------------------------------------------------
G|-------------------------------------------------------------
D|-------------------------------------------------------------
A|--3-3-2--3-3-2--3-3-2--3-3-2--3-3-2--3-3-2--3-3-2--3-3-2-----
D|--1-1-0--1-1-0--1-1-0--1-1-0--1-1-0--1-1-0--1-1-0--1-1-0-----

E|-------------------------------------------------------------
B|-------------------------------------------------------------
G|-------------------------------------------------------------
D|---------2---------------------------------------------------
A|---2-2-2-0-2-5--5-5-3--5-5-3--5-5-3---5-5-3---5-5-3---5-5-3--
D|---0-0-0---0-3--3-3-1--3-3-1--3-3-1---3-3-1---3-3-1---3-3-1--

E|-------------------------------------------------------------
B|-------------------------------------------------------------
G|-------------------------------------------------------------
D|----------------------4-4----4-4-----------------------------
A|-5-5-3--5-5-3--5-5-3--2-2-5--2-2-5---------------------------
D|-3-3-1--3-3-1--3-3-1------3------3---------------------------

Refrao 3
E|---3-3-------------------------------------------------------
B|---3-3-------------------------------------------------------
G|-5-5-5--5/7-------------------------------5/9\7\5-xx5/7/9--7-
D|-5------5/7--5--5-3-3--5-3--5-3---2--3-3-------------------7-
A|-3------3/5--5--5-3-3--5-3--5-3---2--3-3--3/7\5\3-xx3/5/7--5-
E|-------------3--3-1-1--3-1--3-1---0--1-1---------------------

E|-----------------------------------3--3----------------------
B|-----------------------------------3--3----------------------
G|--------------------------------5--5--5--5--7----------------
D|--5-5-3-3--5--3-----------------5--------5--7--5-5--3-3--5-3-
A|--5-5-3-3--5--3--5-3-3-5-3-3-5--3--------3--5--5-5--3-3--5-3-
D|--3-3-1-1--3--1--3-1-1-3-1-1-3-----------------3-3--1-1--3-1-

E|-------------------------------------------------------------
B|-------------------------------------------------------------
G|------------------------------------5/9\7\5xx5/7/9--7--------
D|-------3-3---3h5--3---3-3---------------------------7--5--5--
A|--3--5-----5--------5-----5-3-------3/7\5\3xx3/5\7--5--5--5--
D|------------------------------5-3-5--------------------3--3--

E|-------------------------------------------------------------
B|-------------------------------------------------------------
G|-------------------------------------------------------------
D|--3--3--5-3--5--3--3-3-3-------------------------------------
A|--3--3--5-3--5--3--3-3-3-2-----------------------------------
D|--1--1--3-1--3--1--1-1-1-0-----------------------------------

Final:
E|-------------------------------------------------------------
B|-------------------------------------------------------------
G|-------------------------------------------------------------
D|-----3-2----2-------------------------3--2---2---------------
A|--2--1-0----0-----5------4-5--4-5--2--1--0---0--------5-----4
D|--0-------3---3-0-3---0--2-3--2-3--0-------3----3--0--3--0--2

E|-------------------------------------------------------------
B|-------------------------------------------------------------
G|-------------------------------------------------------------
D|----------3-2----2----------------------3-----2--------------
A|--5--2-2--1-0----0------5----4-5--2--2--1-0---0-----5---4-5--
D|--3--0-0------3-----3-3--0-2-3--0--0------3---3-0-3-0-2-3--

E|-------------------------------------------------------------
B|-------------------------------------------------------------
G|-------------------------------------------------------------
D|-------------------------------------------------------------
A|---4--5--5/4--5/4---3--3--3--2-------------------------------
D|-D|--2--3--3/2--3/2---1--1--1--0-----------------------------

----------------- Acordes -----------------
A5 = X 0 2 2 X X
Bb5 = X 1 3 3 X X
C5 = X 3 5 5 X X
C9 = X 3 5 5 3 3
D = X X 0 2 3 2
D5 = X 5 7 7 X X
E = 0 2 2 1 0 0
E5 = 0 2 2 X X X
F#5 = 2 4 4 X X X
F5 = 1 3 3 X X X
G5 = 3 5 5 X X X
