Oficina G3 - Descanso

adaptado para tocar na afinação padrão EADGBE

Intro:

E|-----------------------|
A|-----------------------|
D|-----------------------|10x
G|---0---0---0---0---0---|
B|-----5---5---5---5-----|
E|-----------------------|

(ESTOU...)
E|--------------------------------|
A|--------------------------------|
D|--------------------------------|
G|----0---0---0---0---4---4---4---|
B|--5---5---5---5---5---5---5-----|
E|--------------------------------|


E|--------------------------------|
A|--------------------------------|
D|--------------------------------|
G|----4---5---4-------0---0---0---|
B|--------------7---5---5---5-----|
E|--------------------------------|


E|--------------------------------|
A|--------------------------------|
D|--------------------------------|
G|-----0---0---0---0---4---4---4--|
B|---5---5---5---5---5---5---5----|
E|--------------------------------|


E|--------------------------------|
A|--------------------------------|
D|--------------------------------|
G|--4---5---4-------0---0---0-----|
B|------------7---5---5---5---5---|
E|--------------------------------|

(MAS POSSO...)
E|--------------------------------------------------------------------|
A|--------------------------------------------------------------------|
D|--------------------------------------------------------------------|
G|---------2---2---2---2---2---4---4---4---4--------------------------|
B|---0---2---2---2---2---2---2---2---2---2----------------------------|
E|--------------------------------------------------------------------|

(ESTÁ IMERSO...)
E|----------------------------------|
A|----------------------------------|
D|----------------------------------|  2x  (OBS tocar só essas 2 cordas soando as notas abafando as outras cordas
G|--5--5--5--5--5--5--5--5--5--5----|       para não desafinar) 
B|--7--7--7--7--7--7--7--7--7--7----|
E|-----------------7--7--7--7--7----|


REPITA TUDO QUE DEPOIS ENTRARÁ NO REFRÃO

(Pode tocar todas essas notas normais)

 G                D
Posso descansar em Ti
      Bm      A9     G      Em
Você me ensinou meu Mestre
G                         D
Que se o fardo estiver pesado
           Bm   A9     G
Posso colocar sobre Ti
    Em     D
E leve estarei

preparando para 2 estrofe
    (uoooo ooo, uoooo ooo oou)
E|---------------------------|
A|---------------------------|
D|---7-7-7-7-----------------| 2X (fique atento para executar nas notas
G|---7-7-7-7--7-7-7-7--------|   um som abafado )
B|---5-5-5-5--7-7-7-7--------|
E|------------5-5-5-5--------|


(REPETE TUDO DE NOVO)

(2 ESTROFE)
(REFRÃO)

 2 INTERLÚDIO

E|-----------------------------------|----------------------|
A|--8p7------------------------------|----------------------|
D|------9p7---------------7~~--------|-55555555-99999999-7--|
G|----------7p5----------------------|-55555555-99999999-7--|
B|----------------5h7/9--------------|-33333333-77777777-5--|
E|-----------------------------------|----------------------|


(toque normalmente)

Bm                 A9
E mesmo que o futuro seja
    Em
Incerto ao meu entender
Bm                A9
O que mais eu posso querer?
F                  G
Se Tu és meu guia, não há o que temer


G                  D
Posso descansar em Ti
     Bm      A9     G      Em
Você me ensinou meu Mestre
G                         D
Que se o fardo estiver pesado
           Bm   A9     Bm   G
Posso colocar sobre Ti
     Bm   A9     G
Colocar sobre ti
               Em   D   A   G  Em
E leve estarei

----------------- Acordes -----------------
A = X 0 2 2 2 0
A9 = X 0 2 2 0 0
Bm = X 2 4 4 3 2
D = X X 0 2 3 2
Em = 0 2 2 0 0 0
F = 1 3 3 2 1 1
G = 3 2 0 0 0 3
