Dire Straits - Going Home

No notations tricks : a ">" means the note following should have no
attack (i.e. slide it, hammer it, pull it, whatever!).

------------------------|-----------|---------------------|--------- 
----7--------7--5--7----|------5>7--|--10--10-------8--7--|--------- 
----7-----7-------------|----7------|------7---7-7--7-----|--------- 
--7----7--------------7-|--7--------|---------------------|--------- 
------------------------|-----------|---------------------|--------- 
------------------------|-----------|---------------------|--------- 
1'30"

---5--------4-5--------5--------5----|-------4-5-|-------4-5-7>5-4-2-| 
---7-----7----------7--------7-------|----7------|----7--------------| 
------6----------6--------6--------6-|-6---------|-6-----------------| 
-------------------------------------|-----------|-------------------| 
-------------------------------------|-----------|-------------------| 
-------------------------------------|-----------|-------------------| 

---------------------|----------|----------------------|- 
---8-----7-----8-----|-----7-8--|--------7-8--10>8-7>5-|- 
------7-----7--------|--9-------|-----9----------------|- 
------------------9--|--9-------|--9-------------------|- 
---------------------|----------|----------------------|- 
---------------------|----------|----------------------|- 


----------------------------|--------------------------------|------ 
--7--------7-----------7----|-----7--7--------7>8--10>8-7>5--|------ 
--7-----7-----9-----9-------|---7----7---7>9-----------------|-(audience 
-----7-----------7--------7-|-7------------------------------|--laughs) 
----------------------------|--------------------------------|------ 
----------------------------|--------------------------------|------ 

--------------------|-----------------------------------|- 
---8-----7-----8----|----8---7--------7-----------7-----|- 
------7-----7-------|-9------7-----7-----9-----9--------|- 
------------------9-|-7------7--7-----------7--------7--|- 
--------------------|-----------------------------------|- 
--------------------|-----------------------------------|- 
2'30"

-----------------------------------------------|-------------------| 
-------7--7-----------7--------7-8---10>8-7>5--|--5-----3-----3----| 
----7-----7-----9-----------9------------------|-----4-----4-------| 
-7--7--------7-----7-----7---------------------|-----------------4-| 
-----------------------------------------------|-------------------| 
-----------------------------------------------|-------------------| 

------------------------|-------|------------------------------------| 
-------3--3----3-2-3----|-------|------------------------------------| 
----4-----4--4----------|--6--7-|----6-7--6--6>7>6>4---2>11-11-11>14-| 
-4--------------------5-|-------|-9----------------------------------| 
------------------------|-------|------------------------------------| 
------------------------|-------|------------------------------------| 

-----------------------|---------|-----------------|- 
---------12--12>14>12--|--10--7--|--------7--------|- 
-11--14----------------|---------|-----7-----9--7--|- 
-----------------------|---------|--7--------------|- 
-----------------------|---------|-----------------|- 
-----------------------|---------|-----------------|- 

-----------------------------|--------------------------------- 
--------7>12--7--------------|--10--12--10>12>10-10--8>10>8-8-- 
-9>7>9-----------10--9--7--9-|--11----------------------------- 
-----------------------------|--------------------------------- 
-----------------------------|--------------------------------- 
-----------------------------|--------------------------------- 

------------------|--10-----------------|-------------------|- 
--7>8>7-7--5>7>5--|------12-10-12-10-7--|--7-7--------------|- 
------------------|---------------------|--7-7--7-9-7>11--7-|- 
------------------|---------------------|-----------------7-|- 
------------------|---------------------|-------------------|- 
------------------|---------------------|-------------------|- 

-------------------------------|-------------------7-----------|- 
--10--12--14>12----------------|----------------7-----10--7----|- 
--9---11--11------12>11--11>9--|-------------7---------------7-|- 
-------------------------------|----------7--------------------|- 
-------------------------------|--10>9>7-----------------------|- 
-------------------------------|-------------------------------|- 

-------------------------------|-----------------------|- 
----------------7--------------|-----------------------|- 
-------------7-----7>6>7-------|-----------------------|- 
-------7--9---------------7>11-|--2>11--11--11--14--14-|- 
-9-10--------------------------|-----------------------|- 
-------------------------------|-----------------------|- 

--------------------------|---------------------------|- 
---------12--14>12--------|--7-----7--10--------------|- 
-11--14-------------14-11-|-----9---------9--9--9>7>9-|- 
--------------------------|---------------------------|- 
--------------------------|---------------------------|- 
--------------------------|---------------------------|- 

---------------------------|--------------------|- 
----------7----------------|--------7-7-7-10-10-|- 
----7--9-----7-------------|-6-7-9--------------|- 
-7--------------7-9--9>7>9-|--------------------|- 
---------------------------|--------------------|- 
---------------------------|--------------------|- 

-----------10-9-7-7>9>7-------|----------------------|- 
-----7-10----------------10-7-|----7--10-------------|- 
-7>9--------------------------|-9---------9-9--9>7>9-|- 
------------------------------|----------------------|- 
------------------------------|----------------------|- 
------------------------------|----------------------|- 

----------------------------------| 
---------7------------7-----------| 
----7-9-----7------7-----9--7>9>7-| 
-7------------7-9-----------------| 
----------------------------------| 
----------------------------------| 

------------10-10-10-10-9------7------------------------------------| 
------7-10----------------10-7---10-8-10--8>7>8--10-8-7---------7---| 
-7>9----------------------------------------------------7-----7---9-| 
----------------------------------------------------------7-9-------| 
--------------------------------------------------------------------| 
--------------------------------------------------------------------| 

-14-12-10-9--------7---------------------------------------| 
-------------10-7-----10-8-10---8-7-8--10-8-7-----------7--| 
----------------------------------------------7-----7---7--| 
------------------------------------------------7-9-----9--| 
-----------------------------------------------------------| 
-----------------------------------------------------------| 
                                                        Bm

---------------------------------|----------------------|- 
----------------10---------------|-10--8>7--8>7--5>7----|- 
------11>9>11-------12>11--9--11-|----------------------|- 
---------------------------------|--------------------7-|- 
--12-----------------------------|----------------------|- 
---------------------------------|----------------------|- 

-----------------------------------|-------------------------3--|- 
-----------------------------------|--7--------------7--10---0--|- 
--7--9--7--6>7>9-7-6-7-9-7--7>6>7--|-----7--------7----------0--|- 
-----------------------------------|--------7--9-------------0--|- 
-----------------------------------|-------------------------2--|- 
-----------------------------------|-------------------------3--|- 

                                                             G 
---------------2--| 
---------------3--| 
--7--6--4--2---2--| 
---------------0--| 
------------------| 
------------------| 
               D

Intro:

Tempo livre
D
F#m
G/B  Em
D  A13
G/B  D  A13
G#m7/5-  Em7/G
Bm/F#  Bm

Quartas
D/F#  G#m7/5-
Em7/G  Bm/F#
D  G#m7/5-
Em7/G  Bm/F#
D  G#m7/5-
Em7/G  Bm/F#

Quartas
D  Bm  D/F#  G  D
D  A  G  D/F#
G  Em  G  A  D  Bm D/F#
G  D   D  A
G  D/F#  G  A  D
Bm  F#m/A  G F#m7  Em  F#m7  G  G#°  A  A#°
Bm  F#m  G F#m7  Em  F#m7
G  Asus4   A

Final:

D  BmD/F#  G  D
D  A  A/G  D/F#  G
A  G  Em  D  D

----------------- Acordes -----------------
A = X 0 2 2 2 0
A#° = X 1 2 0 2 0
A/G = 3 X 2 2 2 X
A13 = 5 X 4 6 5 X
Asus4 = X 0 2 2 3 0
Bm = X 2 4 4 3 2
Bm/F# = X X 4 4 3 2
D = X X 0 2 3 2
D/F# = 2 X 0 2 3 2
Em = 0 2 2 0 0 0
Em7/G = 3 X 2 4 3 X
F#m = 2 4 4 2 2 2
F#m/A = X 0 4 2 2 2
F#m7 = 2 X 2 2 2 X
G = 3 2 0 0 0 3
G#m7/5- = 4 X 4 4 3 X
G#° = 4 X 3 4 3 X
G/B = X 2 0 0 3 3
