Seu Jorge - América do Norte

(use acordes em pestana)

(intro) D7

D7
Se segura que é balanço que chegou pra balançar
Se segura que é balanço que chegou pra balançar
            G7
América do Norte
             D7
Vai sambar também
             G7
América do Norte
             A7
Vai sambar again

G7                           D7
Americanalina com esses olho azul
G7                              A7
Vem balançar comigo América do Sul


G7                         D7
Pode remexer e balançar a trança
                                           G7
Não esquente a cabeça pois a noite é uma criança
                                 A7
Vem dançar o samba rock lá do Grajaú
G7                            D7
Americana vamos nessa samba blue
G7
Comigo é eu te amo
             A7
E eu I love you

G7                           D7
É um vento quente, uma onda boa
                                          G7
Sinto falta da garoa, das crianças, da patroa
                                A7
Hot dog is very nice balalai kangoo

D7
Se segura que é balanço que chegou pra balançar
Se segura que é balanço que chegou pra balançar

            G7
América do Norte
              D7
Vai sambar também
            G7
América do Norte
             A7
Vai sambar again
G7                           D7
Americanalina com esses olho azul
G7                              A7
Vem balançar comigo América do Sul
G7                         D7
Pode remexer e balançar a trança
                                           G7
Não esquente a cabeça pois a noite é uma criança
                                 A7
Vem dançar o samba rock lá do Grajaú
G7                            D7
Americana vamos nessa samba blue
G7
Diga eu te amo
             A7
E eu I love you

G7                           D7
É um jeito quente, uma onda boa
                                          G7
Sinto falta da garoa, das crianças, da patroa
                                A7
Hot dog is very nice, but I like angu

( D7 )

----------------- Acordes -----------------
A7 = X 0 2 0 2 0
D7 = X X 0 2 1 2
G7 = 3 5 3 4 3 3
