Seu Jorge - Tive Razão

    Em7        Dm7         Dm7      (para o C7M,              B7
                                 alternar estes dois)
E|----12---------10--------15----------19---17---------------19------------
B|----12---------10--------15----------17---17---------------19------------
G|----12---------10--------16----------17---17---------------20------------
D|----12---------10--------15--------------------------------19------------
A|-------------------------------------------------------------------------
E|-------------------------------------------------------------------------

ou
      Em7        Dm7       Dm7       C7M B7
E|----12---------10--------10---------8--7---------------------------------
B|----12---------10--------12---------8--7---------------------------------
G|----12---------10--------12---------9--8---------------------------------
D|----12---------10--------12---------10-11--------------------------------
A|-------------------------------------------------------------------------
E|-------------------------------------------------------------------------

Em     Dm
Tive razão
G7
Posso falar

C             B7
Não foi legal, não pegou bem
Em        Dm        G7
Que vontade de chorar dói
C                    B7
Em pensar que ela não vem, só dói
Em                 Dm          G7
Mas pra mim tá tranquilo, eu vou zoar
C                     B7
O clima é de partida, vou dar sequência na vida
Em
E de bobeira é que eu não estou,
Dm    G7                 C
E você sabe como é que é, eu vou
         B7
Mas poderei voltar quando você quiser.
(Em Dm G7 C B7)
uh uh uh uh uh , ah ah ah ah...

(Em Dm G7 C B7 )
Demorô vai ser melhor...

(volta ao início)

----------------- Acordes -----------------
B7 = X 2 1 2 0 2
C = X 3 2 0 1 0
C7M = X 3 2 0 0 X
Dm = X X 0 2 3 1
Dm7 = X 5 7 5 6 5
Em = 0 2 2 0 0 0
Em7 = 0 2 2 0 3 0
G7 = 3 5 3 4 3 3
