Los Hermanos - Casa Pré-Fabricada

[Intro]  A7+  Bm

       A7+    Bm    A7+   Bm    A7+   Bm    A7+   Bm
E|--------------------------------------------------|
B|----------10-9--------10-9--------10-9------------|
G|----6-----------6-----------6-----------6---------|
D|--------------------------------------------------|
A|--------------------------------------------------|
E|--------------------------------------------------|

E|--------------------------------------------------|
B|----------10-9--------10-9--------10-9--5---------|
G|----6-----------6-----------6---------------------|
D|--------------------------------------------------|
A|--------------------------------------------------|
E|--------------------------------------------------|

[Riff 1]

E|-------------------------------------|
B|-------------13-11-9-8---------------|
G|----6--8-10--------------------------|
D|-------------------------------------|
A|-------------------------------------|
E|-------------------------------------|


[Riff 2]

E|-------------------------------------|
B|-------------13-11-9-8-9-------------|
G|----6--8-10--------------------------|
D|-------------------------------------|
A|-------------------------------------|
E|-------------------------------------|

[Riff 3]

E|--------------------------------------------------------------|
B|-------------10-9-----------10-9-----------10-9--5------------|
G|----6--9-6-7-------6--9-6-7-------6--9-6-7--------------------|
D|--------------------------------------------------------------|
A|--------------------------------------------------------------|
E|--------------------------------------------------------------|

E|------------------------9-------------------------------------|
B|-----------10-9-----------12-10-----------10-9-----------10-9-|
G|--6--9-6-7-------6--9-6----------6--9-6-7-------6--9-6-7------|
D|--------------------------------------------------------------|
A|--------------------------------------------------------------|
E|--------------------------------------------------------------|

A7+      Bm     A7+    Bm   Dm    E      A7+   E/G#
Abre os teus armários eu estou a te esperar
      Bm     E     F#m      F°            Bm      E
Para ver deitar o sol   sobre os teus braços, castos
 A7+     Bm    A7+  Bm       Dm       E     A7+   E/G#
Cobre a culpa vã,      até amanhã eu vou ficar
     Bm     E      F#m   F°    Bm   E
E fazer do teu sorriso   um abrigo

 F#m            C#m          Bm     E
Canta que é no canto que eu vou chegar
 F#m           C#m             Bm      E
Canta o teu encanto que é pra me encantar
 F#m        C#m      Bm              E           A7+  E/G#
Canta para mim,    qualquer coisa assim sobre você
        Bm      E     A7+  E/G#    Dm      E
Que explique a minha paz,        tristeza nunca

 A7+         Bm      A7+   Bm    Dm          E   A7+  E/G#
Mais vale o meu pranto que    este canto em solidão
 Bm     E     F#m       F°     Bm         E
Nesta espera o mundo    gira em linhas tortas
A7+     Bm   A7+  Bm       Dm    E      A7+  E/G#
Abre essa janela  a  primavera quer entrar
       Bm     E     F#m  F°   Bm   E
Pra fazer da nossa voz uma só no___ta

 F#m            C#m          Bm     E
Canto que é de canto que eu vou chegar
 F#m             C#m          Bm         E
Canto e toco um tanto que é pra te encantar
 F#m        C#m     Bm         E              A7+
Canto para mim,   qualquer coisa assim sobre você
        Bm      E     A7+  E/G#   Dm      E
Que explique a minha paz,       tristeza nunca mais

[Final] A7+  Bm

----------------- Acordes -----------------
A7+ = X 0 2 1 2 0
Bm = X 2 4 4 3 2
C#m = X 4 6 6 5 4
Dm = X X 0 2 3 1
E = 0 2 2 1 0 0
E/G# = 4 X 2 4 5 X
F#m = 2 4 4 2 2 2
F° = X X 3 4 3 4
