Daniela Mercury - Batuque

Intro: Dm


Dm         C         Dm
tá no batuque que balança nego
         C          Dm
tá no batuque que balança, ah
         C           Dm
tá no batuque que balança nego
        C           Dm
tá no batuque que balança, ah
ah, ah
c             Dm
pode me telefonar
ah, ah
c              Dm
liga pra esse meu cantar
é o retrato fiel
                  C
é uma historinha de amor
meu reggae te balançou

                   Dm
fazendo seu corpo vir dançar
é um retrato fiel
                     C
é uma historinha de amor
meu reggae te balançou
                      Dm
fazendo seu corpo vir dançar
foi na metade do show
                      C
quando eu parei, meu amor
você pediu
você pediu
                      Dm
o reggae que te conquistou
       c
você pediu
você pediu
                     Dm
o reggae que te conquistou
        C           Dm
tá no batuque que balança nego
         C          Dm
tá no batuque que balança, ah
         C            Dm
tá no batuque que balança nego
         C          Dm
tá no batuque que balança, ah
ah, ah
 C               Dm
pode me telefonar, ah, ah
c                   Dm
liga pra esse meu cantar
        C            Dm
dançando reggae te admirei
         C          Dm
por seu sorriso me apaixonei
          C        Dm
dançando reggae te admirei
          C           Dm
por seu sorriso me apaixonei
         C               Dm
neném, marque que eu te encontrarei
     C                    Dm
meu bem, diga se você não vem
          C                Dm
tá no batuque que balança nego
        C           Dm
tá no batuque que balança, ah
        C              Dm
tá no batuque que balança, nego
        C            Dm
tá no batuque que balança, ah
é o retrato fiel
                     C
é uma historinha de amor
meu reggae te balançou
                       Dm
fazendo seu corpo vir dançar
        C              Dm
tá no batuque que balança nego
        C            Dm
tá no batuque que balança,ah
       C              Dm
tá no batuque que balança nego
       C            Dm
tá no batuque que balança, ah
ah,ah
 C            Dm
pode me telefonar
ah, ah
 C              Dm
liga pra esse meu cantar
      C            Dm
dançando reggae te admirei
        C            Dm
por seu sorriso me apaixonei
          C         Dm
dançando reggae te admirei
         C           Dm
por seu sorriso me apaixonei
         C
neném, marque que eu te
      Dm
encontrarei
       C               Dm
meu bem, diga se você não vem

----------------- Acordes -----------------
C = X 3 2 0 1 0
Dm = X X 0 2 3 1
