B.B. King - The Thrill Is Gone feat. Tracy Chapman

[Intro] Bm7  Em7  Bm7  G7(9)  F#7(9)  Bm7

E|----7--------10b--------10--12b14r12p10--12p10--10b---|
B|-7-----12~----------12--------------------------------|
G|------------------------------------------------------|
D|------------------------------------------------------|
A|------------------------------------------------------|
E|------------------------------------------------------|

E|-12---------------------------------------------------|
B|-----12~---12-----------------------------------------|
G|--------------11-9-11-7------7------------------------|
D|------------------------9~-----9-7--------7-9---------|
A|-----------------------------------9~---9-------------|
E|------------------------------------------------------|

[Primeira Parte]

Bm7
    Thrill is gone

Thrill is gone away
Em7
    Thrill is gone, baby
Bm7
    Thrill is gone away from me
G7(9)                        F#7(9)
      You know you done me wrong, baby
               Bm7          (Riff 1)
And you'll be sorry someday

[Riff 1]

E|----------10--12--10b---------------------------7-----|
B|-10b--12---------------12--------------------7--------|
G|----------------------------11p9\7-----7--9-----------|
D|------------------------------------9-----------------|
A|------------------------------------------------------|
E|------------------------------------------------------|

[Segunda Parte]

Bm7
    Thrill is gone
                                Em7
The thrill is gone away from me

Thrill is gone, baby
               Bm7
The thrill is gone away from me
          G7(9)              F#7(9)
Although, I'll still live on
       Bm7
But so     lonely I'll be

[Solo] Bm7  Em7  Bm7  G7(9)  F#7(9)  Bm7

E|-----10--12b14-12b14~-------10--12p10--12b14r12p10----|
B|-12---------------------12-------------------------12-|
G|------------------------------------------------------|
D|------------------------------------------------------|
A|------------------------------------------------------|
E|------------------------------------------------------|

E|-10----------10h12~~--10---------------10b--10--12p10-|
B|----12p10----------------12-11--12--12----------------|
G|------------------------------------------------------|
D|------------------------------------------------------|
A|------------------------------------------------------|
E|------------------------------------------------------|

E|-12b14r12p10--12p10--10--12------10b----19--19\-------|
B|-----------------------------12-----------------------|
G|------------------------------------------------------|
D|------------------------------------------------------|
A|------------------------------------------------------|
E|------------------------------------------------------|

E|-10b--------------------------------------------------|
B|------12~--12p10\7------------------------------------|
G|-------------------9b11r9p7---9p7-----7b--------------|
D|----------------------------9-----9-7-----9~----------|
A|------------------------------------------------------|
E|------------------------------------------------------|

E|------------------10b12--10---------------------------|
B|-------------7---------------12~~--12\----------------|
G|---------7-9------------------------------------------|
D|-----7-9----------------------------------------------|
A|-7-9--------------------------------------------------|
E|------------------------------------------------------|

E|---------------------7h9b~~r7-------------------------|
B|-7b~--7b~--7b~--10b--------------7--------------------|
G|-----------------------------------9p7----------------|
D|---------------------------------------9--------------|
A|------------------------------------------------------|
E|------------------------------------------------------|

E|------------------7-----------------------------------|
B|---------------7--------------------------------------|
G|-9p7-----7--9-----------------------------------------|
D|-----9-7----------------------------------------------|
A|------------------------------------------------------|
E|------------------------------------------------------|

[Terceira Parte]

Bm7
    Thrill is gone
                             (Riff 2)
Thrill is gone away for good
Em7
    Oh, the thrill is gone, baby
Bm7
    It's gone away for good
G7(9)                        F#7(9)
      Someday I know I'll be open armed, baby
      Bm7                         
Just like I know 
                (Riff 3)
I know a should

[Quarta Parte]

Bm7
    I'm free now, baby
                         (Riff 4)
I'm free from your spell
Em7
    Free, free, free now, baby
Bm7
    Baby I'm free from your spell
G7(9)                            F#7(9)
      And now that it's all over
    Bm7
All I can do is wish you well

[Riff 2]

E|-12b14r12p10--12------10b--------------10b------------|
B|------------------12-------12-11-12-------------------|
G|------------------------------------------------------|
D|------------------------------------------------------|
A|------------------------------------------------------|
E|------------------------------------------------------|

E|-12p10------10h12--12--10----12-----------------------|
B|--------12--------------------------------------------|
G|------------------------------------------------------|
D|------------------------------------------------------|
A|------------------------------------------------------|
E|------------------------------------------------------|

E|-12b14r12p10------------------------------------------|
B|------------------------------------------------------|
G|------------------------------------------------------|
D|------------------------------------------------------|
A|------------------------------------------------------|
E|------------------------------------------------------|

[Riff 3]

E|-----------------7------------------------------------|
B|----------7--10---------------------------------------|
G|----7--9b---------------------------------------------|
D|-9----------------------------------------------------|
A|------------------------------------------------------|
E|------------------------------------------------------|

[Riff 4]

E|-12b14r12p10------------------------------------------|
B|------------------------------------------------------|
G|------------------------------------------------------|
D|------------------------------------------------------|
A|------------------------------------------------------|
E|------------------------------------------------------|

E|-10b11--b11-------------------------------------------|
B|------------12p10-------------------------------------|
G|------------------------------------------------------|
D|------------------------------------------------------|
A|------------------------------------------------------|
E|------------------------------------------------------|

E|-12b14r12p10------------------------------------------|
B|------------------------------------------------------|
G|------------------------------------------------------|
D|------------------------------------------------------|
A|------------------------------------------------------|
E|------------------------------------------------------|

----------------- Acordes -----------------
Bm7 = 7 9 7 7 7 7
Em7 = X 7 9 7 8 7
F#7(9) = X 9 8 9 9 X
G7(9) = X 10 9 10 10 X
