Capital Inicial - Não Olhe Pra Trás

[Intro] G  Am7  C
        G  Am7  C  Am7

Parte 1 de 2
E|---------------------------------------------------|
B|---------------------------------------------------|
G|---------------------------------------------------|
D|-9-5h7-5---5-5---9-5h7-7---5-5---9-5h7-5---5-------|
A|---------7---------------7---------------7---------|
E|---------------------------------------------------|

Parte 2 de 2
E|---------------------------------------------------|
B|---------------------------------------------------|
G|---------------------------------------------------|
D|-7/9-9-7-7h9-7-5-5---------------------------------|
A|---------------------------------------------------|
E|---------------------------------------------------|

[Primeira Parte]

G             Am7
  Nem tudo é como você quer
Bm7                       Am7
    Nem tudo pode ser perfeito
G           Am7
  Pode ser fácil se você
Bm7                       Am7
    Ver o mundo de outro jeito

       C               G4/B
E|---------------------------------------------------|
B|---------1-------1-------0-------0-----------------|
G|-----------0-------0-------0-------0---------------|
D|-------2-----2---------0-----0---------------------|
A|-0-2-3---------3-----2---------2-------------------|
E|---------------------------------------------------|

   Am7
E|-0-------3-3-3-3-3---------------------------------|
B|-1-1-----1-1-1-1-1---------------------------------|
G|-0---0---0-0-0-0-0---------------------------------|
D|-2-----2-2-2-2-2-2---------------------------------|
A|-0-------0-0-0-0-0---------------------------------|
E|---------------------------------------------------|

C                          G4/B
  Se o que é errado ficou certo
                         Am7
As coisas são como elas são
C                        G4/B
  Se inteligência ficou cega
                 Am7
De tanta informação

[Refrão]

   G
E|-3-3-3---------------------------------------------|
B|-3-3-3---------------------------------------------|
G|-0-0-0---------------0-----------------------------|
D|-0-0-0-------0--0h2--------------------------------|
A|-2-2-2--0h2----------------------------------------|
E|-3-3-3---------------------------------------------|

G                Am7
  Se não faz sentido
            C
Discorde comigo
              G
Não é nada demais
              Am7
São águas passadas
                C
Escolha uma estrada
                           G  Am7  C
E não olhe, não olhe pra trás

( G  Am7  C  Am7 )

[Segunda Parte]

G                            Am7
  Você quer encontrar a solução
Bm7                     Am7
    Sem ter nenhum problema
G                  Am7
  Insistir em se preocupar demais
Bm7                      Am7
    Cada escolha é um dilema

C                  G4/B                       Am7
  Como sempre estou   mais do seu lado que você
C                          G4/B
  Siga em frente em linha reta
                        Am7
E não procure o que perder

[Refrão]

G                Am7
  Se não faz sentido
            C
Discorde comigo
              G
Não é nada demais
              Am7
São águas passadas
                C
Escolha uma estrada
                           G
E não olhe, não olhe pra trás

[Solo] Am7  C  G
       Am7  C  G 
       Am7  C  G 
       Am7  C  G 

[Tab - Solo]

Parte 1 de 4
E|---------------------------------------------------|
B|-----8~-----8~-10b12-10b12-10b12-8~-----8----------|
G|-9-9----9-9-------------------------7h9------------|
D|---------------------------------------------------|
A|---------------------------------------------------|
E|---------------------------------------------------|

Parte 2 de 4
E|---------------------------------------------------|
B|-------8~-------8~-10b12-10b12r10-8~-----8---------|
G|-7h9-9----7h9-9----------------------7h9-----------|
D|---------------------------------------------------|
A|---------------------------------------------------|
E|---------------------------------------------------|

Parte 3 de 4
E|-------------------10----10----10------------------|
B|-------8~-------8~-10b12-10b12-10b12-8~-----8------|
G|-7h9-9----7h9-9-------------------------7h9--------|
D|---------------------------------------------------|
A|---------------------------------------------------|
E|---------------------------------------------------|

Parte 4 de 4
E|---------------------------------------------------|
B|-------8~-------8~-10b12-10b12r10-8~---------------|
G|-7h9-9----7h9-9------------------------------------|
D|---------------------------------------------------|
A|---------------------------------------------------|
E|---------------------------------------------------|

[Segunda Parte]

C                  G4/B                       Am7
  Como sempre estou   mais do seu lado que você
C                          G4/B
  Siga em frente em linha reta
                        Am7
E não procure o que perder

[Refrão]

G                Am7
  Se não faz sentido
            C
Discorde comigo
               G
Não é nada demais
              Am7
São águas passadas
                C
Escolha uma estrada
                           G
E não olhe, não olhe pra trás

----------------- Acordes -----------------
Am7 = X 0 2 0 1 0
Bm7 = X 2 4 2 3 2
C = X 3 2 0 1 0
G = 3 2 0 0 0 3
G4/B = X 2 0 0 1 X
