Creedence Clearwater Revival - Who'll Stop The Rain

Introdução: 

G  ( G  D/F# )  Em  ( Em  D/F# ) G


(Riff da Introdução)

E|-----3--------3--------3--------3--------3--------3-|
B|-0--------0--------0--------0--------0--------0-----|
G|---0--------0--------0--------0--------0--------0---|
D|----------------------------------------------------|
A|----------------------------------------------------|
E|----------------------------------------------------|


Primeira Parte:

 G
Long as I remember
 C                G
Rain been comin' down

Clouds of mystery pourin'
    C              G
Confusion on the ground

 C                   G
Good men through the ages
  C                 G
Tryin' to find the sun
C               D
And I wonder, still I wonder
  Em             G    (Riff 1)
Who'll stop the rain?


Segunda Parte:


I went down Virginia
          C                G
Seekin' shelter from the storm
                  Bm
Caught up in the fable
   C                  G  (Riff 2)
I watched the tower grow

 C                   G
Five year plans and new deals
  C                 G    (Riff 2)
Wrapped in golden chains
C               D
And I wonder, still I wonder
  Em             G    (Riff 3)
Who'll stop the rain?


Ponte: G  ( Am  G  D )  ( Am  C  Em )
       G


Terceira Parte:

 G
Heard the singers playin'
 C                  G
How we cheered for more
                        Bm
The crowd had rushed together
  C             G
Tryin' to keep warm

  C                  G      (Riff 4)
Still the rain kept pourin'
 C            G    (Riff 5)
Fallin' on my ears
C               D
And I wonder, still I wonder
  Em
Who'll stop the rain?


Final: G  ( G  D/F# )
       Em  ( Em  D/F# )
       G  ( G  D/F# )
       Em  ( Em  D/F# )

(Riff do Final)

E|-----3--------3--------3--------3--------3--------3-|
B|-0--------0--------0--------0--------0--------0-----|
G|---0--------0--------0--------0--------0--------0---|
D|----------------------------------------------------|
A|----------------------------------------------------|
E|----------------------------------------------------|



Riff 1:

E|----------------------------------------------------|
B|-----3----------------------------------------------|
G|-2h4---2h4p2p0-0------------------------------------|
D|------------------------0---------------------------|
A|--------------------0h2---0h2p0---------------------|
E|--------------------------------3-------------------|

Riff 2:

E|----7----5--3---------------------------------------|
B|----------------------------------------------------|
G|-/7---7--5--4---------------------------------------|
D|----------------------------------------------------|
A|----------------------------------------------------|
E|----------------------------------------------------|

Riff 3:

E|----------------------------------------------------|
B|-----3----------------------------------------------|
G|-2h4---2h4p2p0-0------------------------------------|
D|----------------------------------------------------|
A|----------------------------------------------------|
E|----------------------------------------------------|

Riff 4:

E|----7---3-------------------------------------------|
B|----------------------------------------------------|
G|-/7---5-4-------------------------------------------|
D|----------------------------------------------------|
A|----------------------------------------------------|
E|----------------------------------------------------|

Riff 5:

E|----7------3----------------------------------------|
B|----------------------------------------------------|
G|-/7-----/4------------------------------------------|
D|----------------------------------------------------|
A|----------------------------------------------------|
E|----------------------------------------------------|

----------------- Acordes -----------------
Am = X 0 2 2 1 0
Bm = X 2 4 4 3 2
C = X 3 2 0 1 0
D = X X 0 2 3 2
D/F# = 2 X 0 2 3 2
Em = 0 2 2 0 0 0
G = 3 2 0 0 0 3
