Creedence Clearwater Revival - Proud Mary

Introdução: ( C  A  C  A )
            ( C  A  G  F )
            ( D )

Primeira Parte:
 D
Left a good job in the city

Working for The Man every night and day

And I never lost one minute of sleeping

Worrying 'bout the way things might have been

Pré-Refrão:
 A
Big wheel keep on turning
  Bm                       (riff 1)
Proud Mary keep on burning

Riff 1:
E|----------------------------------------------------|
B|----------------------------------------------------|
G|----------------------------------------------------|
D|-----5--7--7/9\7/9----------------------------------|
A|-----5--7--7/9\7/9----------------------------------|
E|-5h7------------------------------------------------|

Refrão:
 D                                     (riff 2)
Rolling, rolling, rolling on the river

Riff 2:
E|----------------------------------------------------|
B|-5/7--7--5-3-3h5~--3--------------------------------|
G|----------------------------------------------------|
D|-5/7-----5-4-4h5~--4--------------------------------|
A|----------------------------------------------------|
E|----------------------------------------------------|

Segunda Parte:
  D
Cleaned a lot of plates in Memphis

Pumped a lot of pain down in New Orleans

But I never saw the good side of the city

Until I hitched a ride on a river boat queen

Pré-Refrão:
 A
Big wheel keep on turning
  Bm                       (riff 3)
Proud Mary keep on burning

Riff 3:
E|----------------------------------------------------|
B|-----3-5-5/7\5/7------------------------------------|
G|-2h4------------------------------------------------|
D|---------5/7\5/7------------------------------------|
A|----------------------------------------------------|
E|----------------------------------------------------|

Refrão:
 D                                     (riff 3)
Rolling, rolling, rolling on the river

Introdução: ( C  A  C  A )
            ( C  A  G  F )
            ( D )


Primeiro Solo:
E|----------------------------------------------------|
B|-------------------7--7--7h8-7-7h8-7-7h8-7-7h8-7-7h8|
G|-------------------7--7--7---7-7---7-7---7-7---7-7--|
D|---7-7h9-7~--7-7h9-7--7--7h9-7-7h9-7-7h9-7-7h9-7-7h9|
A|-9--------------------------------------------------|
E|----------------------------------------------------|

E|----------------------------------------------------|
B|-7~---------8/10-10-10\8p7--------------------------|
G|-7~--7---7--9/11-11-11\9p7--------------------------|
D|-7~--7---7-----------------9-7----------------------|
A|-------9--------------------------------------------|
E|----------------------------------------------------|

E|----------------------------------------------------|
B|-----7h8-7--7-7h8-7--7-7h8-7--7-7h8-7--7------------|
G|-----7---7--7-7---7--7-7---7--7-7---7--7------------|
D|---7-7h9-7--7-7h9-7--7-7h9-7--7-7h9-7--7------------|
A|-9--------------------------------------------------|
E|----------------------------------------------------|

E|----------------------------------------------------|
B|----------------------------------------------------|
G|----------------------------------------------------|
D|-7--7--7--7--7~~------------------------------------|
A|-9--9--9--9--9~~------------------------------------|
E|----------------------------------------------------|

E|----------------------------------------------------|
B|----------------------------------------------------|
G|---------6--6-7--6--6----6~-------------------------|
D|-7--7-9---------------9-----------------------------|
A|----------------------------------------------------|
E|----------------------------------------------------|

E|----------------------------------------------------|
B|----------------------------------------------------|
G|------6--7--7-9--7--7-6--7~-------------------------|
D|-9--9-----------------------------------------------|
A|----------------------------------------------------|
E|----------------------------------------------------|

Refrão:
 D                                     (riff 2)
Rolling, rolling, rolling on the river

Introdução: ( C  A  C  A )
            ( C  A  G  F )
            ( D )

Terceira Parte:
D
If you come down to the river

Bet you gonna find some people who live

You don't have to worry 'cause you have no money

People on the river are happy to give

Pré-Refrão:
 A
Big wheel keep on turning
  Bm                       (riff 3)
Proud Mary keep on burning

Refrão:
 D                                     (riff 2)
Rolling, rolling, rolling on the river
 D                                     (riff 2)
Rolling, rolling, rolling on the river
 D                                     (riff 2)
Rolling, rolling, rolling on the river
 D                                     (riff 2)
Rolling, rolling, rolling on the river

----------------- Acordes -----------------
A = X 0 2 2 2 0
Bm = X 2 4 4 3 2
C = X 3 2 0 1 0
D = X X 0 2 3 2
F = 1 3 3 2 1 1
G = 3 2 0 0 0 3
