Engenheiros do Hawaii - Ando Só

[Intro] E5  B5  A5  B5 
        E5  B5  A5  B5 
        E5  B5  A5  B5 
        A5 

(Riff 1)
                                                          A
E|-----------------------------------------------------------------------------|
B|-----------------------------------------------------------------------------|
G|-----------------------------------------------------------------------------|
D|-------6------------6------------6------------6-------2----------------------|
A|-4-4-4---4-4-3--3-3---3-3-2--2-2---2-2----------------0----------------------|
E|---------------------------------------6--6-6---6-6--------------------------|

(Riff 2)
                                                          A
E|-----------------------------------------------------------------------------|
B|-----------------------------------------------------------------------------|
G|-----------------------------------------------------------------------------|
D|-------6------------6------------6------------6-------2----------------------|
A|-7-7-7---7-7-6--6-6---6-6-5--5-5---5-5-4--4-4---4-4---0----------------------|
E|-----------------------------------------------------------------------------|

[Primeira Parte]

E       G#m
Ando só, pois só eu sei
  C#m        C#m7
Pra onde ir por onde andei
A      B             E  G#m  C#m  B
Ando só nem sei porque
 A              B              E
Não me pergunte o que eu não sei
              G#m
Pergunte ao pó, desça ao porão
 C#m                        C#m7
Siga aquele carro, ou as pegadas 

Que eu deixei
 A            B             E  G#m  C#m  B
Pergunte ao pó por onde andei
 A                   B
Há um mapa dos meus passos
                       E
Nos pedaços que eu deixei

[Segunda Parte]

E         G#m
Desate o nó que te prendeu
C#m               C#m7
A uma pessoa que nunca te mereceu
 A         B           E  G#m  C#m  B
Desate o nó que nos uniu
 A            B        E
Num desatino, um desafio

[Refrão]

      A  B
Ando só
                  E  G#m  C#m  B
Como um pássaro voando
      A  B
Ando só
                    E  G#m  C#m  B
Como se voasse em bando
      A
Ando só
      B
Pois só eu sei andar
 C#m   B        A
Sem saber até quando
      A  B  (E)
Ando só

[Solo]
 
E|----------------------------------------------------------------17b16--------|
B|--------------------9b9---9b9-------------------------12b12--12--------------|
G|---------4-6-8----------------9-----6-7-9---8-9-11--9------------------------|
D|-6-7-9---6-6-6----9-----9-------9---7-7-7---9-9--9---------------------------|
A|-7-7-7-----------------------------------------------------------------------|
E|-----------------------------------------------------------------------------|

E|---------------------------------------------16-16-16-16-(4x)----------------|
B|-10-12-14---9-10-9----9----------------------17-17-17-17-(4x)----------------|
G|-------------------11---11-9-8-8-9-11-8--------------------------------------|
D|----------------------------------------9------------------------------------|
A|-----------------------------------------------------------------------------|
E|-----------------------------------------------------------------------------|

----------------- Acordes -----------------
A = X 0 2 2 2 0
A5 = X 0 2 2 X X
B = X 2 4 4 4 2
B5 = X 2 4 4 X X
C#m = X 4 6 6 5 4
C#m7 = X 4 6 4 5 4
E = 0 2 2 1 0 0
E5 = 0 2 2 X X X
G#m = 4 6 6 4 4 4
