Faith No More - Easy

Intro 2x: G  Bm  Am  D7

Dedilhado Intro:

Capotraste na 1ª casa

Parte 1

   G        Bm       Am       D7
E|---3---3----2---2----0---0----------------|
B|---3---3----3---3----1---1------3---3-----|
G|---4---4----4---4----2---2------5---5-----|
D|--------------------------------4---4-----|
A|----------2---2----0---0----5-5---5-------|
E|-3---3------------------------------------|
     
Parte 2

   G        Bm       Am
E|---3---3----2---2-----0-------------------|
B|---3---3----3---3-----1-------------------|
G|---4---4----4---4-----2-------------------|
D|----------------------2-------------------|
A|----------2---2----0--0-------------------|
E|-3---3------------------------------------|
                        ↓
Primeira Parte:

G                 Bm
  Know it sounds funny
                   Am           D7
But I just can't stand the pain
G           Bm               Am  D7
  Girl I'm leaving you tomorrow
G           Bm
  Seems to me girl you know
          Am        D7
I've done all I can
G            Bm               Am
  You see I beg, stole and I borrowed
      C/D
Yeah,     uh..

Dedilhado Primera Parte:

Parte 1

   G        Bm       Am       D7
E|---3---3----2---2----0---0----------------|
B|---3---3----3---3----1---1------3---3-----|
G|---4---4----4---4----2---2------5---5-----|
D|---5--------4--------2----------4---4-----|
A|----------2---2----0---0----5-5---5-------|
E|-3---3------------------------------------|
     ↓        ↓        ↓          ↓

Parte 2

   G        Bm       Am       D7
E|---3---3----2---2----0---0----------------|
B|---3---3----3---3----1---1--3-3-3-3-3-----|
G|---4---4----4---4----2---2--5-5-5-5-5-----|
D|---5--------4--------2------4-4-4-4-4-----|
A|----------2---2----0---0----5-5-5-5-5-----|
E|-3---3------------------------------------|
     ↓        ↓        ↓      ↓ ↓ ↓ ↓ ↓
Parte 3

   G        Bm       Am       D7
E|---3---3----2---2----0---0----------------|
B|---3---3----3---3----1---1------3---3-----|
G|---4---4----4---4----2---2------5---5-----|
D|---5--------4--------2----------4---4-----|
A|----------2---2----0---0----5-5---5-------|
E|-3---3------------------------------------|
     ↓        ↓        ↓          ↓

Parte 4

   G        Bm       Am      C/D
E|---3---3----2---2----0---0----0---0-------|
B|---3---3----3---3----1---1----1---1-------|
G|---4---4----4---4----2---2----0---0-------|
D|---5--------4--------2---2--0-0---0-------|
A|----------2---2----0----------------------|
E|-3---3------------------------------------|
     ↓        ↓        ↓   ↓    ↓   ↓

Refrão:

               G    Bm  Am
That's why I'm easy
     D7               G      Bm  Am  D7
I'm easy like sunday morning
             G  Bm  Am
It's why I'm easy
 D7               F7M  C/E  C/D  G
Easy like sunday mor____________ning

Dedilhado Refrão:
Parte 1 (2x)

   G        Bm       Am       D7
E|---3---3----2---2----0---0----------------|
B|---3---3----3---3----1---1------3---3-----|
G|---4---4----4---4----2---2------5---5-----|
D|---5--------4--------2----------4---4-----|
A|----------2---2----0---0----5-5---5-------|
E|-3---3------------------------------------|
     ↓        ↓        ↓          ↓

Parte 2

   G        Bm       Am       D7
E|---3---3----2---2----0---0----------------|
B|---3---3----3---3----1---1------3---------|
G|---4---4----4---4----2---2------5---------|
D|---5--------4--------2----------4---------|
A|----------2---2----0---0----5-5-----------|
E|-3---3------------------------------------|
     ↓        ↓        ↓          ↓

Parte 3

  F7M  C/E  C/D    G
E|-0----0----0-0---3-------------------------|
B|-1----1----1-1---3-------------------------|
G|-2----0----0-0---4-------------------------|
D|-3----2----0-0---5-------------------------|
A|-----------------5-------------------------|
E|-----------------3-------------------------|
                   ↓
Segunda Parte:

            F     C/E  Dm
I wanna be high, so   high
      C/E    F
I wanna be free
                        C/E  Dm
To know the things I do are right
      C/E    F
I wanna be free
 C/E  Dm        Bb9  F  Bb/D  C
Just me, oh, babe

Base Solo – Dedilhado Primeira Parte:

(G  Bm  Am  D7) 3x

(G  Bm  Am  C/D)

Solo:

Parte 1

E|------------------------------------------------------|
B|---------9~-9/16--------------------------------------|
G|------------------------------------------------------|
D|-8b9r8-6----------8b9r8-6-6~--------------------------|
A|-----------------------------8\0----------------------|
E|------------------------------------------------------|

Parte 2

E|---------11b13----------------------------------------|
B|---------------11b13-9--------------------------------|
G|-----------------------11-10-8----10p8----------------|
D|-8b9r8-6-----------------------10------10-------------|
A|------------------------------------------------------|
E|------------------------------------------------------|

Parte 3

E|------------------------------------------------------|
B|------------------------------------------------------|
G|------------------------------------------------------|
D|-8b10r8b10r8b10r8b10r8b10-----------------------------|
A|------------------------------------------------------|
E|------------------------------------------------------|

Parte 4

E|------------------------------------------------------|
B|---------9~-9/16--------------------------------------|
G|------------------------------------------------------|
D|-8b9r8-6----------8b9r8-6-6~--------------------------|
A|-----------------------------8\0----------------------|
E|------------------------------------------------------|

Parte 5

E|---------11b13-11-11b13-------11----------------------|
B|------------------------11b13----b13-13r11p9----------|
G|---------------------------------------------10-------|
D|-8b9r8-6----------------------------------------------|
A|------------------------------------------------------|
E|------------------------------------------------------|

Parte 6

E|-------------------11b13-11~--------------------------|
B|------------------------------------------------------|
G|-8h10-8h10-8h10-8~------------------------------------|
D|------------------------------------------------------|
A|------------------------------------------------------|
E|------------------------------------------------------|

Refrão:

               G    Bm  Am
That's why I'm easy
     D7               G      Bm  Am  D7
I'm easy like sunday morning
             G  Bm  Am
It's why I'm easy
 D7               F7M  C/E  C/D  G
Easy like sunday mor____________ning

----------------- Acordes -----------------

A#m*  = X 0 2 2 1 0 - (*Bm na forma de A#m)
B/D#*  = X X 0 3 3 1 - (*C/E na forma de B/D#)
B9*  = X 1 3 3 1 1 - (*C9 na forma de B9)
Cm*  = X 2 4 4 3 2 - (*C#m na forma de Cm)
C#*  = X 3 2 0 1 0 - (*D na forma de C#)
C#/D#*  = X X 0 0 1 0 - (*D/E na forma de C#/D#)
C#/F*  = 0 3 2 0 1 0 - (*D/F# na forma de C#/F)
D#7*  = X 5 4 5 3 X - (*E7 na forma de D#7)
D#m*  = X X 0 2 3 1 - (*Em na forma de D#m)
F#*  = 1 3 3 2 1 1 - (*G na forma de F#)
F#7M*  = X X 3 2 1 0 - (*G7M na forma de F#7M)
G#*  = 3 5 5 4 3 3 - (*A na forma de G#)
