Raimundos - I Saw You Saying (That You Say That You Saw)

[Introdução] B5  D5  A5  ( A  A9  A )
             A5  F#5  A5  F#5
             A5  F#5  A5  F#5

E|-----------------------------------------------------|
B|-2/5\2-----------------------------------------------|
G|-------2/6~---------------2-4/6-6-6-6-6-4-2-4-2------|
D|------------------------4----------------------------|
A|-----------------------------------------------------|
E|-----------------------------------------------------|

E|-----------------------------------------------------|
B|-2/5\2-----------------------------------------------|
G|-------2/6~---------------2-4/6-6-6-6-6-4-2-4-2------|
D|------------------------4----------------------------|
A|-----------------------------------------------------|
E|-----------------------------------------------------|


[Primeira Parte]

        A5  F#5
Reconheci
     A5                     F#5
A Madonna ali parada no jardim
          A5  F#5
Não resisti
           A5                   F#5
Fui perguntar o que ela achava de mim


[Segunda Parte]

    C#m      D
E|-4-------2-----------0h2--2-2-2-0h2--2----|
B|-5-------3-------3---------------------0--|
G|-6-------2-----2---2----------------------|
D|-6-------0---0----------------------------|
A|-4----------------------------------------|
E|------------------------------------------|

   Bm              E
                           P.M. . . . . . .
E|-2------2--------0------------------------|
B|-3---------3-----0------------------------|
G|-4-----------4-0-1------------------------|
D|-4----4----------2------------------------|
A|-2----2----------2--------2-2-2-2-2-2-2-2-|
E|-----------------0--------0-0-0-0-0-0-0-0-|

C#5                      D5  B5
    Eu não sei falar inglês
                E5
Ela não entende

Uma palavra em português


[Primeiro Refrão]

A5
   I saw you saying
          F#5             A5
That you say that you saw

I saw you saying
          F#5             B5
That you say that you saw
            D5
I feel good
                              B5
Because you put your butt on me
            D5
I feel good
                          A5
Because you put your butt on me


[Interlúdio] A5  F#5  A5  F#5
             A5  F#5  A5  F#5

E|-----------------------------------------------------|
B|-2/5\2-----------------------------------------------|
G|-------2-6~---------------2-4/6-6-6-6-6-4-2-4-2------|
D|------------------------4----------------------------|
A|-----------------------------------------------------|
E|-----------------------------------------------------|

E|-----------------------------------------------------|
B|-2/5\2--------/7-5-----------------------------------|
G|-------2-6~--------6------2-4/6-6-6-6-6-4-2-4-2------|
D|------------------------4----------------------------|
A|-----------------------------------------------------|
E|-----------------------------------------------------|


[Terceira Parte]

C#5                       D5  B5
    Perguntei para o meu pai
                   E5
O que ela me disse

Ela disse meu rapaz


[Segundo Refrão]

A5
   I saw you saying
          F#5             A5
That you say that you saw

I saw you saying
          F#5             B5
That you say that you saw
            D5
I feel good
                              B5
Because you put your butt on me
            D5
I feel good
                              B5
Because you put your butt on me
            D5
I feel good

Because you put your butt on


[Solo] F#5  A5  F#5  A5
       F#5  B5  D5  E5

E|------5----------------------------------------------|
B|---------5--7~------7\5--5---------------------------|
G|---6-------------------------------------------------|
D|-7---------------------------------------------------|
A|-----------------------------------------------------|
E|-----------------------------------------------------|

                P.M
E|-----------------------------------------------------|
B|-----------------------------------------------------|
G|-/6-6----7-6-----------------------------------------|
D|-----------------7/9\7\4--4-4/7-7~\------------------|
A|---------------9-------------------------------------|
E|-----------------------------------------------------|

E|----5--4---------------------------------------------|
B|----------7-5-7-7-7\2-2-7-7\3-3----------------------|
G|-/6--------------------------------------------------|
D|-----------------------------------------------------|
A|-----------------------------------------------------|
E|-----------------------------------------------------|

E|-----------------------------------------------------|
B|---------------------------10-10-9-9-10-10-9-10------|
G|-4-4-4-4-4-4/-7----7/9~~----9--9-9-9--9--9-9--9------|
D|-----------------------------------------------------|
A|-----------------------------------------------------|
E|-----------------------------------------------------|


[Refrão Final]

A5                F#5
   The hula-hula song
                   A5
Make me feel so strong
               F#5
The hula-hula hey
                    A5
Goodbye I'm going away
               F#5
The hula-hula song
                   A5
Make me feel so strong
               F#5
The hula-hula hey
                    B5  D5
Goodbye I'm going away
                          B5    D5
Because you put your butt on me
                           B5    D5
You know you put your butt on me

You know you put your butt on me


[Final] A5  F#5  D5  E5  A5
        A6

----------------- Acordes -----------------
A = X 0 2 2 2 0
A5 = X 0 P2 2 X X
A6 = X 0 P2 2 2 2
A9 = X 0 2 2 0 0
B5 = X 2 4 4 X X
Bm = X 2 4 4 3 2
C#5 = X 4 6 6 X X
C#m = X 4 6 6 5 4
D = X X 0 2 3 2
D5 = X 5 7 7 X X
E = 0 2 2 1 0 0
E5 = 0 P2 2 X X X
F#5 = 2 4 4 X X X
