Uns e Outros - Carta Aos Missionários

Carta Aos Missionários

Intro: (D) 

E|----------------
B|----------------
G|----------------
D|----5/7-7-7-7--- 4x
A|----3/5-5-5-5---
E|----------------

E|----2------------
B|----3------------
G|----2------------  4x   ( O acorte de RÉ palheta-se de baixo pra cima )
D|----0------------ 
A|------0-2-3-2-0--
E|-----------------

(D   A   Em     G) 2x 

E|-----14--14-14--14-14--14-15-15--14--14-14--17-17--15--14-14---
B|-----15--15-15--15-15--15-15-15--15--15-15--15-15--15--15-15---
G|---------------------------------------------------------------
D|---------------------------------------------------------------  2x
A|---------------------------------------------------------------
E|---------------------------------------------------------------



 D                 A         Em
Missionários de um mundo pagão,
            G               Bm
proliferando ódio e destruição
              G       A
Em nos quatro cantos da terra
Bm        G         A       Bm  G A   Bm G A 
A morte,a discórdia,a ganância e a guerra...   e a guerra.


D           A      Em  G
Missionários e missões suicidas
D          A      Em    G
Crianças matando crianças inimigas
Bm        G    A       Bm                G     A       
Generais de todas as nações,fardas bonitas,condecorações
Bm            G        A
Documentam na nossa história
Bm        G     A                 (D  A Em G) 2x 
O seu rastro sujo de sangue e glória.

solo

E|--------------------------------------
B|--------------------------------------
G|----7----------------7-7--------------
D|------7--4-5-5--5-4------7--4-5-5--5-4  2x
A|--------------------------------------
E|--------------------------------------

(Bm G A) 4x

E|--------------------------------------------------------------------
B|--3--3-3--2-2-2/3-2/3--3--3-3--5-5--3--2-2/3--3--3-3--2-2-2/3-2/3---
G|--4--4-4--2-2-3/4-3/4--4--4-4--4-4--4--2-3/4--4--4-4--2-2-3/4-3/4---
D|--------------------------------------------------------------------
A|--------------------------------------------------------------------
E|--------------------------------------------------------------------

E|-------------------------------------
B|-------------------------------------
G|-----4-------------------------------
D|--4h5-4-7-4--------------------------
A|-----------7-5-7/9-5-----------------
E|--------------7-----7----------------

 D                 A         Em
Missionários de um mundo pagão,
            G               Bm
proliferando ódio e destruição
              G       A
Em nos quatro cantos da terra
Bm        G         A       Bm  G A   Bm G A 
A morte,a discórdia,a ganância e a guerra...   e a guerra.

D           A      Em  G
Missionários e missões suicidas
D          A      Em    G
Crianças matando crianças inimigas
Bm        G    A       Bm                G     A       
Generais de todas as nações,fardas bonitas,condecorações
Bm            G        A
Documentam na nossa história
Bm        G     A               (D  A Em G) 2x 
O seu rastro sujo de sangue e glória.

solo

E|--------------------------------------
B|--------------------------------------
G|----7----------------7-7--------------
D|------7--4-5-5--5-4------7--4-5-5--5-4  2x
A|--------------------------------------
E|--------------------------------------

D            A      Em            G
Vindo de todas as partes,indo pra lugar algum
D              A         Em         G
Assim caminha a raça humana,se devorando um a um
Bm            G  A   Bm          G  A
Gritei para o horizonte,e ele não me respondeu
    Bm        A        G
E então fechei os olhos,sua voz
           D  A  Em  G
Assim me bateu... 

E|-----14--14-14--14-14--14-15-15--14--14-14--17-17--15--14-14---
B|-----15--15-15--15-15--15-15-15--15--15-15--15-15--15--15-15---
G|---------------------------------------------------------------
D|---------------------------------------------------------------  2x
A|---------------------------------------------------------------
E|---------------------------------------------------------------

E|---------------------------------------------------------------
B|---------------------------------------------------------------
G|---------------------------------------------------------------
D|---------------------------------------------------------------  4x
A|---5--2--5--3--2---0--3--2--0-------2---3--2--0-------2--------
E|-----------------3------------1b--3---3---------1b--3----------

(D    Em    F   G) 2x 
"NÁ NÁ NÁ NAÁ"  " OH OH OH OH OH OH "

(D   A   Em     G) 2x  
solo

E|--------------------------------------
B|--------------------------------------
G|----7----------------7-7--------------
D|------7--4-5-5--5-4------7--4-5-5--5-4  2x
A|--------------------------------------
E|--------------------------------------

----------------- Acordes -----------------
A = X 0 2 2 2 0
Bm = X 2 4 4 3 2
D = X X 0 2 3 2
Em = 0 2 2 0 0 0
F = 1 3 3 2 1 1
G = 3 2 0 0 0 3
