Rionegro e Solimões - Agito do Meu Povo

Intro: A D  3x  (A E)

A                      A7   A                      A7
cade a turma do bate o pe?  cade a turma palma da mao? 
D                      A        E        E7        A   
o agito da galera como é que é, cade o grito do povao? 
 
 A                      
cade a turma do bate o pe?  cade a turma palma da mao? 
D                      A        E        E7        A   
o agito da galera como é que é, cade o grito do povao? 

 A                  E              D                         A     
hoje a tristeza ja era,vem comigo galera nesse embalo que eu vou 
A               E                 D                    A     
so quero ver alegria,adrenalina e folia explodir nesse show 
A                  E                        D                   A     
quanta mulher no pedaço, eu to com sede de amaço, to facim, to facim 
A                     E                        D                         
eu ja preparei o meu laço, eu vou laçar o meu braço, uma potranca
     A
pra mim ( bis )                 E                 
                  (tche, tche, tche) 

A                      A7   A                      A7
cade a turma do bate o pe?  cade a turma palma da mao? 
D                      A        E        E7        A   
o agito da galera como é que é, cade o grito do povao? 

Solo: A E D A  4x

A                  E              D                         A     
hoje a tristeza ja era,vem comigo galera nesse embalo que eu vou 
A               E                 D                    A     
so quero ver alegria,adrenalina e folia explodir nesse show 
A                  E                        D                   A     
quanta mulher no pedaço, eu to com sede de amaço, to facim, to facim 
A                     E                        D                         
eu ja preparei o meu laço, eu vou laçar o meu braço, uma potranca
     A
pra mim ( bis )  
                               E                 
                  (tche, tche, tche) 
A                      A7   A                      A7
cade a turma do bate o pe?  cade a turma palma da mao? 
D                      A        E        E7        A   
o agito da galera como é que é, cade o grito do povao? 
 
 A                      
cade a turma do bate o pe?  cade a turma palma da mao? 
D                      A        E        E7        A   
o agito da galera como é que é, cade o grito do povao? 

        E       E7        A   
 Final: cade o grito do povao?     3 x

----------------- Acordes -----------------
A = X 0 2 2 2 0
A7 = X 0 2 0 2 0
D = X X 0 2 3 2
E = 0 2 2 1 0 0
E7 = 0 2 2 1 3 0
