Rionegro e Solimões - Como Esquecer Um Amor

                 
 
    A         E     D              A
Quando digo que te esqueci não falo com a voz do coração                                         
               E    D            A
ele sabe que continua aqui presente em minha solidão                                     
               E         D         A
As vez digo que te esqueci tentando engana o meu pesamento                                       
   D             A                 E
mais so alimenta o meu sofrer eu não consigo te esquecer                                         
      A          E            A
em so momento.Como esquecer um amor que deixou em mim raiz.                                      
             E         D         A
foste tudo em minha vida mais tua partida me feis infeliz como                                   
           E             A
dizer que esqueciii se não e essa a verdade sinto o coração                      
 E           D            A
duente ao ver de presente em minha saudade

----------------- Acordes -----------------
A = X 0 2 2 2 0
D = X X 0 2 3 2
E = 0 2 2 1 0 0
