Rionegro e Solimões - Na sola da bota

A E 

A             E
É na sola da bota
               A
é na palma da mão
A             E
É na sola da bota 
               A
é na palma da mão
                    E
Bote um sorriso na cara
                    A
e mande embora a solidão 

E A

A                  E            A
Solte o grito da garganta   iiiirruuu
              E     A
É na palma da mão
                     E
e no compasso dessa dança
E                   A
batendo a bota no chão


obs.:repetir tudo

----------------- Acordes -----------------
A = X 0 2 2 2 0
E = 0 2 2 1 0 0
