Rionegro e Solimões - Tô Mal

Intro 4x: E  A  B

E|-4-4/2-0-----9-9-7--5-5-4-4--------4-4/2-0--------------------| 
B|----------2---------------------------------2---9-9-7--11-11--| 
G|-4-4/2-0-----9-9-8--6-6-4-4--------4-4/2-0--------------------| 
D|----------2---------------------------------2---9-9-7--11-10--| 
A|--------------------------------------------------------------| 
E|--------------------------------------------------------------| 
 
E            A         B   A     E
 Se quer saber como estou,tô mal 
         A       B
Eu não vou nada bem 
E|---------------|
B|------10--9----|
G|---------------|
D|-10/11---9-----|
A|---------------|
E|---------------|

E            A       B    A     E
 Se quer saber a verdade,tô mal 
       A          B
Sem você sou ninguém 

E|---------------------------|
B|-4-5-5/7-7-5-4---4h5-------|
G|---------------4-4h6-------|
D|---------------------------|
A|---------------------------|
E|---------------------------|
 
A                  B
 Ando fingindo pro mundo 
E|----2-------|
B|-4-5--2-----|
G|------------|
D|------------|
A|------------|
E|------------|

A                E
 Ando fugindo de tudo 
E|-2/4-4------|
B|-------2----|
G|-2/4-4------|
D|-------2----|
A                         B
 Mas não te esquece um segundo 
A        E   A B
Meu coração 
E|-4-4/2-0----9-9-7--5-5-7-9-|
B|---------2-----------------|
G|-4-4/2-0----9-9-8--6-6-8-9-|
D|---------2-----------------|
A|---------------------------|
E|---------------------------| 
  C#m        A   E   B
 Meu mundo acabou      E|----------------|
                       B|-7-5-4-7-7/9----|

C#m        A       B
 Quando você me deixou 
E|--------------|
B|-5-4--4h5-----|
G|----4-4h6-----|
D|--------------|

A          B            E
 Por isso não me ligue mais pra saber 
            A               B        E  A (vai pra B) B
Se eutou bem,   já sabe que não estou  E|-4-4/2-0---2---|
                                       B|---------2-2---|
                                       G|-4-4/2-0---4---|
                                       D|---------2-4---|
                                       A|-----------2---|
                                       E|-----------2---|  
         A       E
É só se por no meu lugar 
E|----2------------------------------|
B|-2/4-2h4p2-------5-----------------|
G|-----------4-4/6---4h6p4/2-2-2/4---|
D|-----------------------------------|
A|-----------------------------------|
E|-----------------------------------| 

B         A     E
 Que você vai me entender 
B              A          E
 Quando alguem perde um amor 
                       A
Que jurou ser pra sempre 
 B                  E
  Perde a razão de viver 
 
E|-4-4/2-0-----9-9-7--5-5-4-4--------4-4/2-0-------------5-5-7-9----| 
B|----------2---------------------------------2---9-9-7-------------| 
G|-4-4/2-0-----9-9-8--6-6-4-4--------4-4/2-0-------------7-7-8-9----| 
D|----------2---------------------------------2---9-9-7-------------| 
A|------------------------------------------------------------------| 
E|------------------------------------------------------------------|
  C#m        A    E  B
 Meu mundo acabou      E|----------------|
                       B|-7-5-4-7-7/9----|

C#m        A       B
 Quando você me deixou 
E|----------------|
B|-5-4----4h5-----|
G|----4---4h6-----|
D|----------------|

A          B            E
 Por isso não me ligue mais pra saber 
            A               B        E  A (vai pra B) B
Se eutou bem,   já sabe que não estou  E|-4-4/2-0---2---|
                                       B|---------2-2---|
                                       G|-4-4/2-0---4---|
                                       D|---------2-4---|
                                       A|-----------2---|
                                       E|-----------2---|  
         A       E
É só se por no meu lugar 
E|----2------------------------------|
B|-2/4-2h4p2-------5-----------------|
G|-----------4-4/6---4h6p4/2-2-2/4---|
D|-----------------------------------|
A|-----------------------------------|
E|-----------------------------------| 

B         A     E
 Que você vai me entender 
E|----7------------------|
B|-7/9--7h9p7-5-5/7------|
B              A          E
 Quando alguem perde um amor 
                       A
Que jurou ser pra sempre 
 B                  E
  Perde a razão de viver 

(Repete final algumas vezes)
 
E|-4-4/2-0-----9-9-7-----4-4/2-0-------------5-5--4-4-| 
B|----------2--------------------2---9-9-7------------| 
G|-4-4/2-0-----9-9-8-----4-4/2-0-------------6-6--4-4-| 
D|----------2--------------------2---9-9-7------------| 
A|----------------------------------------------------| 
E|----------------------------------------------------|

----------------- Acordes -----------------
A = X 0 2 2 2 0
B = X 2 4 4 4 2
C#m = X 4 6 6 5 4
E = 0 2 2 1 0 0
