Rionegro e Solimões - Traz Mais Uma Ae

              D
Traz mais uma aê
                 G
Que aquela já acabo! (2x)


G
Eu tenho um peito cheio de paixão e de saudade
                                            D
Eu tô perdido na cidade, eu tô largado da mulher

Eu tô enchendo a cara, de boteco em boteco
                                                 G
Coração não fica quieto e homem assim mulher não quer

Meu carro até parece entender meu coração
                   G7                      C
O meu som só tem modão so toca os mais doloridos
                                   G
Parece que o mundo caiu na minha cabeça
                     D
Essa paixão não me deixa
                 G
Oh meu Deus que trem duído!


 G             D
Traz mais uma aê
                 G
Que aquela já acabo! (2x)
           D              C      D         G
Eu sou sabiá, deixa eu cantar, sofrer por amor...



G
Eu tenho um peito cheio de paixão e de saudade
                                            D
Eu tô perdido na cidade, eu tô largado da mulher

Eu tô enchendo a cara, de boteco em boteco
                                                 G
Coração não fica quieto e homem assim mulher não quer

Meu carro até parece entender meu coração
                   G7                      C
O meu som só tem modão so toca os mais doloridos
                                   G
Parece que o mundo caiu na minha cabeça
                     D
Essa paixão não me deixa
                       G
Oh meu Deus que trem duído!

G              D
Traz mais uma aê
                 G
Que aquela já acabo! (2x)
           D              C      D         G
Eu sou sabiá, deixa eu cantar, sofrer por amor...

G              D
Traz mais uma aê
                 G
Que aquela já acabo! (4x)
           D              C      D         G
Eu sou sabiá, deixa eu cantar, sofrer por amor...(2x)

----------------- Acordes -----------------
C = X 3 2 0 1 0
D = X X 0 2 3 2
G = 3 2 0 0 0 3
G7 = 3 5 3 4 3 3
