Rita Lee - Papai me Empresta o Carro

(intro) C Bb F C Bb F C

 C
 Papai me empreste o carro
 Papai me empreste o carro
 To precisando dele pra levar
                 F
 Minha garota ao cinema
                 C
 Papai nao crio problema
           G
 Nao tenho grana pra pagar
 um motel, (nao tenho grana)
            F
 Nao sou do tipo que frequenta
 bordel, (não sou do tipo)
          G
 Você precisa me quebrar esse galho,
 (você precisa)
   F
 Entao me empreste o carro

 papai me empreste o carro
 D7                       G
 Pra poder tirar um sarro com
 meu bem!

C
 Papai eu nao fumo
 papai eu  nao bebo
 Meu unico defeito é nao ter medo
                F
 De fazer o que gosto
          C
 Papai eu aposto

         G
 Na minha idade ce pintava
 o sete, (na minha idade)
           F
 Mamae tem odio de uma tal
 Elizete, (pintava o sete)
         G
 Aqui em casa eh impossivel
 namorar, qual eh a sua?
   F
 Entao qual eh a sua?
 Eu so' quero um sarro
 D7
 Meia hora no seu carro
 G
 com meu bem! Uuu..

 (solo)
 C F C G F G F D7 G

(início)

(solo)
 C Bb F C Bb F

----------------- Acordes -----------------
Bb = X 1 3 3 3 1
C = X 3 2 0 1 0
D7 = X X 0 2 1 2
F = 1 3 3 2 1 1
G = 3 2 0 0 0 3
