David Quinlan - Tua Presença É Real

 E                 A  B             E    E4
Tua presença é real   aqui neste lugar
 E                 A  B             E    E4
Tua presença é real   aqui neste lugar
 E                 A  B             E    E4
Tua presença é real   aqui neste lugar
 E                 A  B             E    E4
Tua presença é real   aqui neste lugar
            A  B                E   C#m7
Então adorarei   então eu louvarei
            F#m7  B               E  E4
Então me renderei   totalmente a ti
            A  B                E  C#m7
Então adorarei   então eu louvarei
            F#m7  B               A   F#m7  C#m7  D  B
Então me renderei   totalmente a ti

                        A        B
Junto com querubins cantamos santo
                        E       C#m7
Junto com querubins cantamos santo

                        F#m7        B
Junto com querubins cantamos santo
              A  E4
Santo é o Senhor

----------------- Acordes -----------------
A = X 0 2 2 2 0
B = X 2 4 4 4 2
E = 0 2 2 1 0 0
E4 = 0 2 2 2 0 0
