Mastruz com Leite - Sem Você Nada É Bonito

A                         E7
Eu já cansei de brigar contigo
                              A
Mas eu pensei,não vou mais brigar
                       E7
Sofro demais,parece castigo
                       A
Porque nasci só pra te amar
         A7           D
Eu sem você nada é bonito
   E                     A
Vivo tão só não tenho ninguém
  A7                    D
Meu coração fica mais aflito
E7                     A
Olha,amor só te quero bem

----------------- Acordes -----------------
A = X 0 2 2 2 0
A7 = X 0 2 0 2 0
D = X X 0 2 3 2
E = 0 2 2 1 0 0
E7 = 0 2 2 1 3 0
