Caetano Veloso - Você É Linda

(intro) A7M

E|------------------------------------------|
B|-2-2-2-2-2-2-2-2--------------------------|
G|-1-1-1-1-1-1-1-1--------------------------|
D|-2-2-2-2-2-2-2-2--------------------------| (4x)
A|-0----------------------------------------|
E|-------0-----0----------------------------|

 F#m7            C#m7
Fonte de mel nos olhos de gueixa
D7M       G#m7 G#º C#7(9-)
 Kabuki, máscara
  D7M(9)                 D#m7(5-)  G#7
Choque entre o azul e o cacho de acácias
 C#m7     F#7    Bm7    E7
Luz das acácias você é mãe do sol
F#m7           C#m7
A sua coisa é toda tão certa
D7M        G#m7 G#º C#7(9-)
 Beleza esperta

 D7M(9)          D#m7(5-) G#7
Você me deixa a rua    deserta
  C#m7      F#7  Bm7      E7
Quando atravessa e não olha pra trás

    F#m7               C#m7
E|------------------------------------------
B|-2-2-2-2-2-2-2-2----5-5-5-5-5-5-5-5-------
G|-2-2-2-2-2-2-2-2----4-4-4-4-4-4-4-4-------
D|-2-2-2-2-2-2-2-2----6-6-6-6-6-6-6-6-------
A|--------------------4-----4-----4---------
E|-2-----2-----2----------------------------

    D7M               G#m7  G#º   C#7(9-)
E|------------------------------------------
B|-7-7-7-7-7-7-7-7---4-4-4-3-3-3-3-3--------
G|-6-6-6-6-6-6-6-6---4-4-4-4-4-4-4-4--------
D|-7-7-7-7-7-7-7-7---4-4-4-3-3-3-3-3--------
A|-5-----5-----5-----------------4----------
E|-------------------4-----4----------------

    D7M(9)          D#m7(5-) G#7
E|------------------------------------------
B|-5-5-5-5-5-5-5-5--7-7-7-4-4-4-4-4---------
G|-6-6-6-6-6-6-6-6--6-6-6-5-5-5-5-5---------
D|-4-4-4-4-4-4-4-4--7-7-7-4-4-4-4-4---------
A|-5-----5-----5----6-----------------------
E|------------------------4-----4-----------

    C#m7  F#7         Bm7   E7
E|------------------------------------------
B|-5-5-5-2-2-2-2-2---3-3-3-0-0-0-0-0--------
G|-4-4-4-3-3-3-3-3---2-2-2-1-1-1-1-1--------
D|-6-6-6-2-2-2-2-2---4-4-4-0-0-0-0-0--------
A|-4-----------------2----------------------
E|-------2-----2-----------0-----0----------

(refrão)
A7M       C#m7
 Linda e sabe viver
D7M             Bm7
 Você me faz feliz
Dm7            G7
Esta canção é só pra dizer
   A7M
E diz
A7M           C#m7
Você é linda mais que demais
D7M            Bm7
 Você é linda sim
Dm7              G7
Onda do mar do amor
              A7M
Que bateu em mim

    A7M
E|-------4-4-4-------------4-4-4------------
B|-5-5-5-5-5-5-5-5---5-5-5-5-5-5-5-5--------
G|-6-6-6-6-6-6-6-6---6-6-6-6-6-6-6-6--------
D|-6-6-6-6-----6-6---6-6-6-6-----6-6--------
A|------------------------------------------
E|-5-----------0-----5-----------0----------

    D7M              Bm7
E|------------------------------------------
B|-7-7-7-7-7-7-7-7--3-3-3-3-3-3-3-3---------
G|-6-6-6-6-6-6-6-6--2-2-2-2-2-2-2-2---------
D|-7-7-7-7-7-7-7-7--4-4-4-4-4-4-4-4---------
A|-5-----5-----5----2-----2-----2-----------
E|------------------------------------------

    Dm7              G7
E|------------------------------------------
B|-6-6-6-6-6-6-6-6--3-3-3-3-3-3-3-3---------
G|-5-5-5-5-5-5-5-5--4-4-4-4-4-4-4-4---------
D|-7-7-7-7-7-7-7-7--3-3-3-3-3-3-3-3---------
A|-5-----5-----5----------------------------
E|------------------3-----3-----3-----------

    A7M
E|-------4-4-4-------------4-4-4------------
B|-5-5-5-5-5-5-5-5---5-5-5-5-5-5-5-5--------
G|-6-6-6-6-6-6-6-6---6-6-6-6-6-6-6-6--------
D|-6-6-6-6-----6-6---6-6-6-6-----6-6--------
A|------------------------------------------
E|-5-----------0-----5-----------0----------

(repete intro)

 F#m7         C#m7
Você é forte dentes e músculos
D7M        G#m7 G#º C#7(9-)
 Peitos e lábios
D7M(9)        D#m7(5-) G#7
Você é forte letras e músicas
 C#m7     F#7
Todas as músicas
  Bm7      E7
Que ainda hei de ouvir
 F#m7       C#m7
No Abaeté areias e estrelas
D7M            G#m7 G#º C#7(9-)
 Não são mais belas
 D7M(9)         D#m7(5-)   G#7
Do que você mulher das estrelas
 C#m7       F#7
Mina de estrelas
 Bm7        E7
Diga o que você quer

(refrão)
A7M              C#m7
 Você é linda e sabe viver
D7M             Bm7
 Você me faz feliz
Dm7            G7
Esta canção é só pra dizer
   A7M
E diz
A7M           C#m7
Você é linda mais que demais
D7M            Bm7
 Você é linda sim
Dm7              G7
Onda do mar do amor
              A7M
Que bateu em mim

 F#m7           C#m7
Gosto de ver você no seu ritmo
D7M       G#m7 G#º C#7(9-)
 Dona do carnaval
 D7M(9)          D#m7(5-)  G#7
Gosto de ter sentir seu estilo
C#m7      F#7
Ir no seu íntimo
 Bm7      E7
Nunca me faça mal

(refrão)
 A7M          C#m7
Você é linda mais que demais
 D7M          Bm7
Você é linda sim
Dm7              G7
Onda do mar do amor que bateu
    A7M
Em mim
A7M             C#m7
Você é linda e sabe viver
D7M             Bm7
 Você me faz feliz
Dm7            G7             A7M
Esta canção é só pra dizer e diz

(variação de ritmo)
    F#m7               C#m7
E|--------------------------4---------------
B|-2-2-2-2-2-2-2-2----5-5-5-5-5-5-5-5-------
G|-2-2-2-2-2-2-2-2----4-4-4-4-4-4-4-4-------
D|-2-2-2-2-2-2-2-2----6-6-6---6-6-6-6-------
A|--------------------4-----4-----4---------
E|-2-----2-----2----------------------------

    D7M               G#m7  G#º   C#7(9-)
E|-------5----------------------------------
B|-7-7-7-7-7-7-7-7---4-4-4-3-3-3-3-3--------
G|-6-6-6-6-6-6-6-6---4-4-4-4-4-4-4-4--------
D|-7-7-7---7-7-7-7---4-4-4-3-3-3-3-3--------
A|-5-----5-----5-----------------4----------
E|-------------------4-----4----------------

    D7M(9)          D#m7(5-) G#7
E|------------------------------------------
B|-5-5-5-5-5-5-5-5--7-7-7-4-4-4-4-4---------
G|-6-6-6-6-6-6-6-6--6-6-6-5-5-5-5-5---------
D|-4-4-4-4-4-4-4-4--7-7-7-4-4-4-4-4---------
A|-5-----------5----6-----------6-----------
E|-------5----------------4-----------------

    C#m7  F#7         Bm7   E7
E|------------------------------------------
B|-5-5-5-2-2-2-2-2---3-3-3-0-0-0-0-0--------
G|-4-4-4-3-3-3-3-3---2-2-2-1-1-1-1-1--------
D|-6-6-6-2-2-2-2-2---4-4-4-0-0-0-0-0--------
A|-4-----------4-----2-----------2----------
E|-------2-----------------0----------------

(parte 2)

    C#m7
E|-------4----------------------------------
B|-5-5-5-5-5-5-5-5--------------------------
G|-4-4-4-4-4-4-4-4--------------------------
D|-6-6-6---6-6-6-6--------------------------
A|-4-----4-----4----------------------------
E|------------------------------------------

    D7M
E|---------5--------------------------------
B|-7-7-7-7-7-7-7-7--------------------------
G|-6-6-6-6-6-6-6-6--------------------------
D|-7-7-7---7-7-7-7--------------------------
A|-5-----5-----5----------------------------
E|------------------------------------------

    D7M(9)          D#m7(5-) G#7
E|------------------------------------------
B|-7-7-7-4-4-4-4-4--------------------------
G|-6-6-6-5-5-5-5-5--------------------------
D|-7-7-7-4-4-4-4-4--------------------------
A|-6-----------6----------------------------
E|-------4----------------------------------

    C#m7  F#7         Bm7   E7
E|------------------------------------------
B|-5-5-5-2-2-2-2-2---3-3-3-0-0-0-0-0--------
G|-4-4-4-3-3-3-3-3---2-2-2-1-1-1-1-1--------
D|-6-6-6-2-2-2-2-2---4-4-4-0-0-0-0-0--------
A|-4-----------4-----2-----------2----------
E|-------2-----------------0----------------

----------------- Acordes -----------------
A7M = X 0 2 1 2 0
Bm7 = X 2 4 2 3 2
C#7(9-) = X 4 3 4 3 X
C#m7 = X 4 6 4 5 4
D#m7(5-) = X X 1 2 2 2
D7M = X X 0 2 2 2
D7M(9) = X 5 4 6 5 X
Dm7 = X 5 7 5 6 5
E7 = 0 2 2 1 3 0
F#7 = 2 4 2 3 2 2
F#m7 = 2 X 2 2 2 X
G#7 = 4 6 4 5 4 4
G#m7 = 4 X 4 4 4 X
G#º = 4 X 3 4 3 X
G7 = 3 5 3 4 3 3
