Catedral - Amor Verdadeiro

Intro: G D/F# Em D/F# (2x)

 G        D/F#    Em        D/F#
Amor verdadeiro, amor sem palavras
 G            D/F#  Em          D/F#
Que chega sem medo, que não se acaba
 C9    D/F#   G   D/F#  Em
Deus abençoe todo esse amor
C9        D/F# G      D/F# Em
Que seja lindo em teu coração
           Am  Bm C9           G
Porque em mim, eu sei... Amo você.

(Introdução)

 G        D/F#    Em       D/F#
Amor verdadeiro, amor que acalma
 G           D/F#   Em        D/F#
Que bate no peito, preenche a falta
 C9    D/F#   G   D/F#  Em
Deus abençoe todo esse amor

C9        D/F# G      D/F# Em
Que seja lindo em teu coração
           Am  Bm C9           G
Porque em mim, eu sei... Amo você.

(Repete Introdução 2x)


(Música Dedilhada)
     G           D/F# Em              D/F#
E|-2------------0---0----------------0------------------------------------
B|-2-0-0-1-3-3--3---0----------------3------------------------------------
G|-0------------2---0-0-0-2-4-4-2----2------------------------------------
D|-0------------0---2----------------0------------------------------------
A|-2------------0---2----------------0------------------------------------
E|-3------------2-1-0----------------2--0-2-3-----------------------------

     G           D/F# Em              D/F#
E|-2------------0---0----------------0------------------------------------
B|-2-0-0-1-3-3--3---0----------------3------------------------------------
G|-0------------2---0-0-0-2-4-4-2----2------------------------------------
D|-0------------0---2----------------0------------------------------------
A|-2------------0---2----------------0------------------------------------
E|-3------------2-1-0----------------2------------------------------------

            C9            D/F#    G   G   F#5- Em         C9           D/F#    G   G   F#5- Em
E|--------2--------------0------2------------------------2-------------0------2----------------
B|--------2--------------3------2--3-3--1-1--------------2-------------3------2--3-3--1-1------
G|--------0--------------2------0-------------0----------0-------------2------0-------------0--
D|--------2--0/2-0-2-0---0------0------------------------2--0/2-0-2-0--0------0----------------
A|-0-2-3--3--------------0------2-----------------0-2-3--3-------------0------2----------------
E|-----------------------2--0-2-3--3-3--2-2---0------------------------2--0-2-3--3-3--2-2---0--

     Em   F#3- G#3- A3+ B3-   C    D             G
E|----------------------------------------------2--
B|----------------------------------------------2--
G|--0----2----4----5----7----9----11----0/2-0-2-0--
D|----------------------------------------------0--
A|----------------------------------------------2--
E|--0----2----4----5----7----8----10------------3--

----------------- Acordes -----------------
Am = X 0 2 2 1 0
Bm = X 2 4 4 3 2
C = X 3 2 0 1 0
C9 = X 3 5 5 3 3
D = X X 0 2 3 2
D/F# = 2 X 0 2 3 2
Em = 0 2 2 0 0 0
F#5- = 2 4 4 5 2 2
G = 3 2 0 0 0 3
