The Police - Be My Girl Sally

D                               D5(9)
Won't you be my girl, won't you be my girl
          D               D5(9)
Won't you be my girl, my be, my girl
          D                     D5(9)
Won't you be my girl, won't you be my girl
          D               D5(9)
Won't you be my girl, my be, my girl

----------------- Acordes -----------------
D = X X 0 2 3 2
D5(9) = X 5 7 9 X X
