The Police - Invisible Sun

Intro/Verse;

00:12-01:11

|----------------------|
|--/5-7-5--2-4---4-4---|
|----------------------| X15
|----------------------|
|----------------------|
|----------------------|

~~~~~~~~~~~~~~~~~~~~~~~~~~~~~~~~~~~~~~~~~~~~~~~~~~~~~~~~~~~~~~~~~~~~~~~~~~~~

Chorus;

01:12-01:31

|---------x-x-x-x-x-x-x-x-x-x-x-x-x-x-x-x-x-x-x-x-x-x-x-x-x-x-x-x-x-x-x-x-|
|--/3-5-3-----------------------------------------------------------------|
|-------------------------------------------------------------------------|
|-------------------------------------------------------------------------|
|-------------------------------------------------------------------------|
|-------------------------------------------------------------------------|


~~~~~~~~~~~~~~~~~~~~~~~~~~~~~~~~~~~~~~~~~~~~~~~~~~~~~~~~~~~~~~~~~~~~~~~~~~~~

Intro/Verse;

01:32-01:43

|----------------------|
|--/5-7-5--2-4---4-4---|
|----------------------| X3
|----------------------|
|----------------------|
|----------------------|

~~~~~~~~~~~~~~~~~~~~~~~~~~~~~~~~~~~~~~~~~~~~~~~~~~~~~~~~~~~~~~~~~~~~~~~~~~~~

Chorus;

01:44-02:03

|---------x-x-x-x-x-x-x-x-x-x-x-x-x-x-x-x-x-x-x-x-x-x-x-x-x-x-x-x-x-x-x-x-|
|--/3-5-3-----------------------------------------------------------------|
|-------------------------------------------------------------------------|
|-------------------------------------------------------------------------|
|-------------------------------------------------------------------------|
|-------------------------------------------------------------------------|

~~~~~~~~~~~~~~~~~~~~~~~~~~~~~~~~~~~~~~~~~~~~~~~~~~~~~~~~~~~~~~~~~~~~~~~~~~~~

Solo;


02:04-02:19

|--16fb-16fb-16fb~~~16hb15-16hb15-16hb15-16hb15-16hb15-16hb--16fb\--|
|-------------------------------------------------------------------|
|-------------------------------------------------------------------|
|-------------------------------------------------------------------|
|-------------------------------------------------------------------|
|-------------------------------------------------------------------|

|-20fb~~20fb~~20fb~~16hb-16~~16hb15-16hb15-16hb15-16hb15-16hb15-16hb-16fb--|
|--------------------------------------------------------------------------|
|--------------------------------------------------------------------------|
|--------------------------------------------------------------------------|
|--------------------------------------------------------------------------|
|--------------------------------------------------------------------------|

|--16-(16)-15-14-12~~~~~~|
|------------------------|
|------------------------|
|------------------------|
|------------------------|
|------------------------|

~~~~~~~~~~~~~~~~~~~~~~~~~~~~~~~~~~~~~~~~~~~~~~~~~~~~~~~~~~~~~~~~~~~~~~~~~~~~

Intro/Verse;

02:20-02:31

|----------------------|
|--/5-7-5--2-4---4-4---|
|----------------------| X3
|----------------------|
|----------------------|
|----------------------|

~~~~~~~~~~~~~~~~~~~~~~~~~~~~~~~~~~~~~~~~~~~~~~~~~~~~~~~~~~~~~~~~~~~~~~~~~~~~

Chorus;

02:32-02:51

|---------x-x-x-x-x-x-x-x-x-x-x-x-x-x-x-x-x-x-x-x-x-x-x-x-x-x-x-x-x-x-x-x-|
|--/3-5-3-----------------------------------------------------------------|
|-------------------------------------------------------------------------|
|-------------------------------------------------------------------------|
|-------------------------------------------------------------------------|
|-------------------------------------------------------------------------|

~~~~~~~~~~~~~~~~~~~~~~~~~~~~~~~~~~~~~~~~~~~~~~~~~~~~~~~~~~~~~~~~~~~~~~~~~~~~

Solo 2;
02:52-03:10

~~~~~~~~~~~~~~~~~~~~~~~~~~~~~~~~~~~~~~~~~~~~~~~~~~~~~~~~~~~~~~~~~~~~~~~~~~~~

Intro/Verse;

03:11-03:46

|----------------------|
|--/5-7-5--2-4---4-4---|
|----------------------| X10 
|----------------------|
|----------------------|
|----------------------|

~~~~~~~~~~~~~~~~~~~~~~~~~~~~~~~~~~~~~~~~~~~~~~~~~~~~~~~~~~~~~~~~~~~~~~~~~~~~

Chorus;

01:12-01:31, 01:44-02:03, 02:32-02;51

|---------x-x-x-x-x-x-x-x-x-x-x-x-x-x-x-x-x-x-x-x-x-x-x-x-x-x-x-x-x-x-x-x---|
|--/3-5-3-------------------------------------------------------------------|
|---------------------------------------------------------------------------|
|---------------------------------------------------------------------------|
|---------------------------------------------------------------------------|
|---------------------------------------------------------------------------|