The Police - Synchronicity 1

(riff)
E |-----------|-----------------|
B |-----------|-----------------|
G |-----------|-----------------|
D |-----------|-------5---------|
A |---6-8-----|---6-8---6-8-----|
E |-8-----8-8-|-8-----------8-8-|

Fm
A connecting principle
Eb
Linked to the invisible
Fm
Almost imperceptible
Fm
Something inexpressible
Fm
Science insusceptible
Eb
Logic so inflexible
Fm
Causally connectible

Fm
Yet nothing is invincible.

E |-----------|-----------------|
B |-----------|-----------------|
G |-----------|-----------------|
D |-----------|-------2---------|
A |---3-5-----|---3-5---3-5-----|
E |-5-----5-5-|-5-----------5-5-|

(solo)
E |---------------------------------|
B |-10-8----------10-8--------------|
G |------9-7-----------9-7-7----7---|
D |----------10-7------------10---7-|
A |---------------------------------|
E |---------------------------------|

(outro)
E |-5----5-|
B |-5-h7-5-|
G |-5-h7-5-|
D |-5-h7-5-|
A |--------|
E |--------|

----------------- Acordes -----------------
Eb = X 6 5 3 4 3
Fm = 1 3 3 1 1 1
