Renascer Praise - Desejamos

Intro: A F#m G E

A       F#m         Bm       E   C#m    F#m            G  E
Desejamos a tua presença Senhor, só queremos ouvir tua voz
D    E/D            A/C#    C#m   F#m      Bm         E            A  (A7 1ª Vez)
Tóca-nos Senhor estende seu braço forte, viemos aqui só pra te adorar
     A              F#m          Bm         E
Convidamos sua plenitude pra encher esse lugar
      A        F#m     Bm           E
Cantaremos aleluia, hosanas sem cessar
   D              E/D          A/C# C#m      F#m   Bm             E
Fazendo um contra canto com os anjos celestiais... Todo meu ser, canta a Tí
   A  C#m F#m   Bm           E      A  C#m F#m      Bm           E
Aleluia,      aquele que venceu. Aleluia     ao que é e sempre será

----------------- Acordes -----------------
A = X 0 2 2 2 0
A/C# = X 4 X 2 5 5
A7 = X 0 2 0 2 0
Bm = X 2 4 4 3 2
C#m = X 4 6 6 5 4
D = X X 0 2 3 2
E = 0 2 2 1 0 0
E/D = X 5 X 4 5 4
F#m = 2 4 4 2 2 2
G = 3 2 0 0 0 3
