Renascer Praise - Deus É Fiel

Intro:  Eb  F/Eb  Dm7  Gm7  Cm  Fsus  F/Eb  Dm  Gm7
        Cm  Fsus  F/Eb  Dm7  Gm7  Cm7  F7  Bb  Fsus

Bb
Deus é Fiel! (4X)
                 Bb
Não vou me preocupar, Não vou me apavorar
              Bb7    Cm
Com as lutas desta vida
                     F                       F7
Com Cristo eu sei que sou, Eu sei que sempre sou
             Bb   F7
Mais que vencedor
               Bb                   Bb7                D#
Mesmo se for difícil, Parecer impossível, Eu vou continuar
D#           D#m            Dm              Gm                Cm
Não existe doença, miséria, Angústia, vício ou droga ou feitiçaria
          F7   Bb      ( Gm  Am  Bb7 )
Que possa me parar (2x)

( F  Gm  G#m  A#m6 )


( B  B5+  B6  B  B5+  B )
Deus nunca me abandonou, Não é homem que minta
                                C#m    G#7
Nem filho do homem pra que se arrependa
( C#m  C#m5+  C#m6  C#m5+  C#m )
Deus lá do céu me amou, nem se filho poupou
                                  B
Pra que eu viva na terra uma vida de rei...
    E         Em       D#m      G#m       C#m
Com Cristo eu venço um exército, ando em vitória,
            F#     B    ( G#m  A#m  B7 )
Sou mais que vencedor

----------------- Acordes -----------------
A#m = X 1 3 3 2 1
A#m6 = 6 X 5 6 6 X
Am = X 0 2 2 1 0
B = X 2 4 4 4 2
B5+ = X 2 1 0 0 X
B6 = X 2 4 1 4 X
B7 = X 2 1 2 0 2
Bb = X 1 3 3 3 1
Bb7 = X 1 3 1 3 1
C#m = X 4 6 6 5 4
C#m5+ = X 4 2 2 2 5
C#m6 = X 4 X 3 5 4
Cm = X 3 5 5 4 3
Cm7 = X 3 5 3 4 3
D# = X 6 5 3 4 3
D#m = X X 1 3 4 2
Dm = X X 0 2 3 1
Dm7 = X 5 7 5 6 5
E = 0 2 2 1 0 0
Eb = X 6 5 3 4 3
Em = 0 2 2 0 0 0
F = 1 3 3 2 1 1
F# = 2 4 4 3 2 2
F/Eb = X X 1 2 1 1
F7 = 1 3 1 2 1 1
Fsus = 1 3 3 2 1 1
G#7 = 4 6 4 5 4 4
G#m = 4 6 6 4 4 4
Gm = 3 5 5 3 3 3
Gm7 = 3 X 3 3 3 X
