Renascer Praise - Me Derramar

Intro: D/A     Em/A   D/A  Em/D   D/A     G     D/F#    Asus

D              D/F#    G
Me derramar, quebrar o vaso
D/F#   Bm7        G
Para    fluir o louvor
Em              D/F#
Aroma que sobe
   F#/A#    Bm7
Oferta suave
 Esus      E/G#     Asus  A7
Fruto de amor por Ti

D             D/F#    G
Me esquecer, quebrar   minhas regras
D/F#   Bm7            G
E abraçar os Teus pés
      Em              D/F#
Tornar-me Tua presa
     F#7                 Bm7
Refém de Tua glória

 E             Asus        D
Isto é o melhor pra mim

Asus         D  Em D/F#
Quero Te  exal  -   tar
              G    G13  11         D/F#
Quero amar-te                    mais
             Bm7       D/A       D/F#
Cada instante da vida que tenho
      Bm7         E7      Asus
Ofereço      a Ti
F# 9  5            Bm7  A/C#  D
Tu   és    o           excelente
  D/F#                  G      Gm6/Bb
Pra quem minha alma canta
            F#m/A   Em/A       F#m/A  G/A         F#m/A     Em/A
E se derrama,                 se derrama,       se derrama

Quero Te exaltar....


                        ( Bm7       E2/G#   Em7   Asus  F#  9  5   )
Em louvores.              (Aleluia, Aleluia, Aleluia)
  Final:     G/B   A/C#   Asus  D

----------------- Acordes -----------------
A/C# = X 4 X 2 5 5
A7 = X 0 2 0 2 0
Asus = X 0 2 2 2 0
Bm7 = X 2 4 2 3 2
D = X X 0 2 3 2
D/A = X 0 X 2 3 2
D/F# = 2 X 0 2 3 2
E = 0 2 2 1 0 0
E/G# = 4 X 2 4 5 X
E7 = 0 2 2 1 3 0
Em = 0 2 2 0 0 0
Em/A = X 0 2 0 0 X
Em/D = X X 0 4 5 3
Em7 = 0 2 2 0 3 0
Esus = 0 2 2 1 0 0
F# = 2 4 4 3 2 2
F#/A# = 6 X 4 6 7 X
F#7 = 2 4 2 3 2 2
F#m/A = X 0 4 2 2 2
G = 3 2 0 0 0 3
G/A = 5 X 5 4 3 X
G/B = X 2 0 0 3 3
G13 = 3 X 2 4 3 X
Gm6/Bb = X 1 2 0 3 0
