Renascer Praise - Na Força do Louvor

  Em7                C9
Já posso ouvir trombetas e trovões
       G/B        Am7
É a voz de Deus quebrando o jugo
      Bm       Em7
Nos dando vestes de louvor
  Em7                 C9
Já posso ouvir os ossos que se juntam
  G/B         Am7
Se levantam como um povo
    Bm       Em7
É o exército de Deus

  Am7          G/B    C9
Já posso ver diante do seu trono
             D
Sete tochas de fogo ardente
            B
Sete espíritos de Deus
  Am7          G/B    C9
Já posso ver diante do seu trono

             D
Sete tochas de fogo ardente
            B   Bsus4 B
Sete espíritos de Deus

     C9
Estão aqui
       D
Para revestir a cada um de nós
         Em7
Com vestes de louvor
     C9
Estão aqui
       D
Para revestir a cada um de nós
         Em7    Bsus4 B
Com vestes de louvor

  Em7                C9
Já posso ouvir trombetas e trovões
       G/B        Am7
É a voz de Deus quebrando o jugo
      Bm       Em7
Nos dando vestes de louvor
  Em7                 C9
Já posso ouvir os ossos que se juntam
  G/B         Am7
Se levantam como um povo
    Bm       Em7
É o exército de Deus

  Am7          G/B    C9
Já posso ver diante do seu trono
             D
Sete tochas de fogo ardente
            B
Sete espíritos de Deus
  Am7          G/B    C9
Já posso ver diante do seu trono
             D
Sete tochas de fogo ardente
            B   Bsus4 B
Sete espíritos de Deus

     C9
Estão aqui
       D
Para revestir a cada um de nós
         Em7
Com vestes de louvor
     C9
Estão aqui
       D
Para revestir a cada um de nós
         Em7    Bsus4 B
Com vestes de louvor

  Em7
Na força do louvor eu vou conquistar
  C
Na força do louvor eu vou avançar
  D9                     C7+    D
Na força do louvor eu vou edificar a Ti Senhor
  Em7
Na força do louvor eu vou conquistar
  C
Na força do louvor eu vou avançar
  D9                     C7+    D
Na força do louvor eu vou edificar a Ti Senhor

     C
Pra Ti agora
    D          Em7
Nos erguemos na força deste louvor
       C9         G/B    Am7
E que as vitórias sejam marcas da tua
  Bsus4   B
Presença em nós
     C
Pra Ti agora
    D C/E D/F# Em7   D/F#  G   G/B
Nos erguemos na força  deste louvor
       C9         G/B    Am7
E que as vitórias sejam marcas da Tua
  Bsus4   B
Presença em nós

  Em7
Na força do louvor eu vou conquistar
  C
Na força do louvor eu vou avançar
  D9                     C7+    D
Na força do louvor eu vou edificar a Ti Senhor
  Em7
Na força do louvor eu vou conquistar
  C
Na força do louvor eu vou avançar
  D9                     C7+    D
Na força do louvor eu vou edificar a Ti Senhor

     C
Pra Ti agora
    D          Em7
Nos erguemos na força deste louvor
       C9         G/B    Am7
E que as vitórias sejam marcas da tua
  Bsus4   B
Presença em nós
     C
Pra Ti agora
    D C/E D/F# Em7   D/F#  G   G/B
Nos erguemos na força  deste louvor
       C9         G/B    Am7
E que as vitórias sejam marcas da Tua
  Bsus4   B
Presença em nós

 Em7      C7+       Am7      Bm7   Em7
Aleluia, Aleluia, Aleluia,  Ao  rei
 Em7      C7+       Am7      Bm7   Em7
Aleluia, Aleluia, Aleluia,  Ao  rei
 Em7      C7+       Am7      Bm7   Em7
Aleluia, Aleluia, Aleluia,  Ao  rei
 Em7      C7+       Am7      Bm7   Em7
Aleluia, Aleluia, Aleluia,  Ao  rei

 Em7              C7+/E
Aleluia (Deus poderoso) Aleluia (Deus tremendo)
 Am7/E             Am7     Bm7    Em7    Am7  Bm7   D
Aleluia (Deus poderoso) Aleluia (Maravilhoso   ao   rei)

[Final] Am7  Bm7  C  D  Am7  Bm7  C  D  Em7  Am7  Bm7  C  D  Am7  Bm7  C  D  Em7(9)

----------------- Acordes -----------------
Am7 = X 0 2 0 1 0
Am7/E = X X 2 2 1 3
B = X 2 4 4 4 2
Bm = X 2 4 4 3 2
Bm7 = X 2 4 2 3 2
Bsus4 = X 2 4 4 5 2
C = X 3 2 0 1 0
C/E = 0 3 2 0 1 0
C7+ = X 3 2 0 0 X
C7+/E = 0 3 2 0 0 0
C9 = X 3 5 5 3 3
D = X X 0 2 3 2
D/F# = 2 X 0 2 3 2
D9 = X X 0 2 3 0
Em7 = 0 2 2 0 3 0
Em7(9) = X 7 5 7 7 X
G = 3 2 0 0 0 3
G/B = X 2 0 0 3 3
