Renascer Praise - Oração de Neemias

 F       C/E          Dm   C    Bb                   C             F
Profetizo e tomo posse que viverei um inesquecível mover de realizações
Csus C     Gm C               F   ( Bb/D  C/E  F )
Na minha vida,    na minha  família

F      C/E           Dm         C    Bb        Csus           C
Profetizo e tomo posse que o Senhor está me livrando dos inimigos que se
      F
Levantam
 C                             Gm7    C7                  Gm7      C   F
 Contra a minha constituição contra a minha casa, contra a minha família

F/A    Bb      C       F                   Bb         C          F   Gm7
Eu ordeno em nome de Jesus que caia o espírito de Sambalate e Tobias
   F/A     Bb          C/E            F           F/A         Bb
E tomo posse que uma grande alegria estará presente todos os dias
       F/A     Gm7    C7                F
Na minha vida,    na minha família
     F/A   Bb        C                Dm7         Bb       C          F   Gm
Esse é o Deus que me faz viver os sonhos e faz assim para cada filho seu
   F/A    Bb       C/E             F            F/A       Bb
É o Senhor que me faz viver além do que posso ver ou imaginar

Gm   C            F   F/A   Bb     C            F       F/A   Bb
Daí glória a Deus,           Daí glória a Deus
         C      F   F/A   Bb    C      F
Glórias a Deus,       Glórias a Deus

----------------- Acordes -----------------
Bb = X 1 3 3 3 1
Bb/D = X 5 X 3 6 6
C = X 3 2 0 1 0
C/E = 0 3 2 0 1 0
C7 = X 3 2 3 1 X
Csus = X 3 2 0 1 0
Dm = X X 0 2 3 1
Dm7 = X 5 7 5 6 5
F = 1 3 3 2 1 1
F/A = 5 X 3 5 6 X
Gm = 3 5 5 3 3 3
Gm7 = 3 X 3 3 3 X
