Renascer Praise - Santo É o Senhor

Intro: E5  D5  C9

Em            C/E            A/E        B/A
Nós, Teu povo nos curvamos diante do Senhor
Em               C/E         A/E        Em
Toda a glória e adoração pertencem só a Ti
Gm        Eb/G             F/A               Bb   D7
Sua face brilha mais que o sol em seu resplendor
Gm          Eb/G        F/A     D7sus4 D7
Para sempre reinará Cordeiro de Deus

Em               C/E
  Santo é  o Senhor
         D/E          Em
A Ele a honra e o louvor
Em           C/E
Santo é o Senhor
         D/E           Am7  Bm7  C7+  D
A Ele a glória e adoração

Em                   C/E
 Santo é  o Senhor

             D/E                 Em
A Ele a honra e o louvor
Em                   C/E
Santo é o Senhor
              D/E                  Em
A Ele a glória e adoração


C9      E9/G#    C9          E9/G#
Santo , Santo,  Santo é o Senhor

C9      E9/G#   C9           E9/G#
Santo , Santo,  Santo é o Senhor

Am9      E9/B     Am9          E9/B
Digno,   Digno,  Digno  é o Senhor

  C9           D                  G/B       C9
Cordeiro  de Deus que venceu e que há de vir
             D                Em7              D
E Que há de vir, E Que há de vir, E Que há de vir


C9                     Bsus4 B
Santo é o cordeiro de Deus

----------------- Acordes -----------------
A/E = 0 X 2 2 2 0
Am7 = X 0 2 0 1 0
Am9 = X 0 2 4 1 0
B = X 2 4 4 4 2
B/A = X 0 4 4 4 X
Bb = X 1 3 3 3 1
Bm7 = X 2 4 2 3 2
Bsus4 = X 2 4 4 5 2
C/E = 0 3 2 0 1 0
C7+ = X 3 2 0 0 X
C9 = X 3 5 5 3 3
D = X X 0 2 3 2
D/E = X X 2 2 3 2
D5 = X 5 7 7 X X
D7 = X X 0 2 1 2
D7sus4 = X X 0 2 1 3
E5 = 0 2 2 X X X
E9/B = X 2 X 4 5 2
E9/G# = 4 X 4 4 5 X
Eb/G = 3 X 1 3 4 X
Em = 0 2 2 0 0 0
Em7 = 0 2 2 0 3 0
F/A = 5 X 3 5 6 X
G/B = X 2 0 0 3 3
Gm = 3 5 5 3 3 3
