Asa de Águia - Batata

(Durval Lelys)

Intro: A#  D#  F


( A#  D#  F )
NÃO POSSO VIVER

SEM UM AMOR ASSIM

NÃO POSSO EVITAR

VOCÊ NASCEU PRA MIM

MAS VOU TE DIZER

BATATA QUENTE É O FIM


BRIGAR COM VOCÊ


É DESPARTIDO AMOR

NINGUÉM VAI GANHAR

SÓ VAI TER MUITA DOR

POR ISSO VOU SER

SEU BATATINHA XAOLIM

                D#
O MEDO PASSOU
    A#
O AVIÃO É BOM

        D#
ELE É MEU
      A#
VOANDO POR AÍ
                  D#
AGORA SOU
A#                       F
UMA AVE NO CÉU

( A#  D#  F )
BATATA TÁ

BATATA TÁ

TÁ MASSA.

----------------- Acordes -----------------
A# = X 1 3 3 3 1
D# = X 6 5 3 4 3
F = 1 3 3 2 1 1
