Asa de Águia - Me Dê

Intro: Bm G

                      Bm
Me dê seu amor
Me dê seu amor
Me dê seu amor me dê
Me dê seu amor
                                                      Em
Me dê seu amor vamos dançar
Eu só quero o caminho da paz
E viver nessa vida sorrindo
Eu só quero você
Se você vem comigo
                                  Bm
E não olha  pra trás
E amando me dê
E amando me dê
E amando me dê o seu amor
E amando me dê
                                                           Em
E amando me dê vamos dançar

Se segura no axé
Já vou indo pra cama
Me espere um pouquinho
Tô carente de dengo
Mais sei que você
                              Bm
Já vai logo gostar
                                       G
Se eu sou o seu amor
                              Bm
Não me diga adeus
                                         G
Venha logo me beijar
                        Bm
Venha de amar
              F#m
Igara iê
              Bm
Igara iê obá
              F#m
Igara iê

----------------- Acordes -----------------
Bm = X 2 4 4 3 2
Em = 0 2 2 0 0 0
F#m = 2 4 4 2 2 2
G = 3 2 0 0 0 3
