Tim Maia - Brother, Father, Sister And Mother

A    G#m  F#m
Brother every time
           D        C#m Bm
I call you home You are dancing

Sister please don¥t put
Your children on iniciation

E                   Bm
Cause there is no heaven
G       F#m  Bm
There is no God
E                   Bm    G       F#m  Bm
cause there is no devil There is no hell

Mother every time
I call you home
You are in church

Father every time I call you home
You are ceilling


Truely options
yes the way

wake up Africa
now today

Sister every time I call you home
You are shopping

Father every time I call you home
You are drinking

Too many brothers get the pot
Yes its my dance Rock and roll  ( A G#m F#m   D  C#m Bm )

A G#m F#m   D  C#m Bm
everybody is the singing
everybody is the singing
everybody is the singing
everybody, everybody, everybody
everybody is the singing

chinese, japonese, africans, russian, italian people...
...singing...

----------------- Acordes -----------------
A = X 0 2 2 2 0
Bm = X 2 4 4 3 2
C#m = X 4 6 6 5 4
D = X X 0 2 3 2
E = 0 2 2 1 0 0
F#m = 2 4 4 2 2 2
G = 3 2 0 0 0 3
G#m = 4 6 6 4 4 4
