Tim Maia - Leia o Livro Universo Em Desencanto

A7+     D7+
Leia o livro
A7+            D7+
Universo em desencanto
 A7+     D7+
Leia o livro
A7+            D7+
Universo em desencanto
C#m                D7+
Leia e vai saber o que é encanto
C#m                D7+
Leia e vai salvar o desencanto

A7+     D7+
Leia o livro
A7+            D7+
Universo em desencanto
 A7+     D7+
Leia o livro
A7+            D7+
Universo em desencanto

C#m                D7+
Leia e vai saber o que é encanto
C#m                D7+
Leia e vai salvar o desencanto

A7+     D7+
Leia o livro
A7+            D7+
Universo em desencanto
 A7+     D7+
Leia o livro
A7+            D7+
Universo em desencanto
C#m                D7+
Leia e vai saber o que é encanto
C#m                D7+
Leia e vai salvar o desencanto

----------------- Acordes -----------------
A7+ = X 0 2 1 2 0
C#m = X 4 6 6 5 4
D7+ = X X 0 2 2 2
