Tim Maia - O Super Mundo Racional

B             G#m
Todos...vão voltar
            E          F#7
Pro seu estado... Natural
B             G#m
Vamos... regressar
            E          F#7     ( F#  F  E )
Pro super mundo... racional

E          F#                 B   ( B7 )
Como era antes disso aqui descer (2x)

B            G#m
Todos... vão voltar
           E            F#7
Pro seu estado... natural
B             G#m
Vamos regressar
            E          F#7
pro super mundo racional


E          F#                 B   (B7)
Como era antes disso aqui descer (2x)

----------------- Acordes -----------------
B = X 2 4 4 4 2
B7 = X 2 1 2 0 2
E = 0 2 2 1 0 0
F# = 2 4 4 3 2 2
F#7 = 2 4 2 3 2 2
G#m = 4 6 6 4 4 4
