Tim Maia - Você

[Intro] Em

     Em
De repente a dor
        Em/D
De esperar terminou
  Am        Am7
E o amor veio enfim
        Am
Eu que sempre sonhei
        B7
Mas não acreditei
 Em       F#m7(b5)  B7
Muito em mim

      Em
Vi o tempo passar
     Em/D
O inverno chegar
    Am            Am7
Outra vez mas desta vez

      Am
Todo pranto sumiu
      F7M
Um encanto surgiu
      B7
Meu amor

   E7+
Você
               F#m7
É mais do que sei
               G#m7
É mais que pensei
                F#m7    B7(4)
É mais que esperava, baby
   E
Você
          F#m7
É algo assim
            G#m7
É tudo pra mim
              F#m7    B7(4)
É como eu sonhava, baby

E7+       A
 Sou feliz agora
E7+        A        G#m7
 Não não vá embora não
F#m7                 G#m7    F#m7  B7
    Não não não não não

( E7+  A )
( E7+  A )

   E7+
Você
               F#m7
É mais do que sei
               G#m7
É mais que pensei
                F#m7    B7(4)
É mais que esperava, baby
   E
Você
          F#m7
É algo assim
            G#m7
É tudo pra mim
              F#m7    B7(4)
É como eu sonhava, baby

E7+       A
 Sou feliz agora
E7+        A        G#m7
 Não não vá embora não
F#m7                 G#m7    F#m7  B7
    Não não não não não

( E7+  A )

              E7+
Não não vá embora
              A
Não não vá embora
              E7+
Não não vá embora
              A
Não não vá embora
                  E7+
Vou morrer de saudade
                  A
Vou morrer de saudade
                  E7+
Vou morrer de saudade
                  A
Vou morrer de saudade
          E7+
Não vá embora
          A
Não vá embora
          E
Não vá embora
                  A
Vou morrer de saudade
                  E
Vou morrer de saudade
          A
Não vá embora
            E
Não vá não vá
                  A
Vou morrer de saudade
                  E
Vou morrer de saudade

Vou morrer

----------------- Acordes -----------------
A = X 0 2 2 2 0
Am = X 0 2 2 1 0
Am7 = X 0 2 0 1 0
B7 = X 2 1 2 0 2
B7(4) = X 2 4 2 5 2
E = 0 2 2 1 0 0
E7+ = X X 2 4 4 4
Em = 0 2 2 0 0 0
Em/D = X X 0 4 5 3
F#m7 = 2 X 2 2 2 X
F#m7(b5) = 2 X 2 2 1 X
F7M = 1 X 2 2 1 X
G#m7 = 4 X 4 4 4 X
