Legião Urbana - Eu Era Um Lobisomem Juvenil

Pré Intro:

E|--5---5-----7---7--8--7--5--5---5-----3----------------|
B|--3-----3---8---------------3-----3---1----------------|
G|--2-------------------------2------------6---5---3--3--|
D|-----------------------------------------5----------2--|
A|-------------------------------------------------------|
E|-------------------------------------------------------|

E|--5---------0--1--3--1------5--7--7---8--10--8-------12-------13--13--15--13------|
B|-----3---5--------------3------8----------------10-------10---15--------------15--|
G|---------5--------------2------------------------9--------------------------------|
D|----------------------------------------------------------------------------------|
A|----------------------------------------------------------------------------------|
E|----------------------------------------------------------------------------------|

[Intro] E  D  E  D  E  B  E  D  A  B  E

    E                 D                 E
E|------------------------------------------------------|
B|-5-----5--5-----5--3-----3--3-----3--5-----5--5-----5-|
G|-----4--------4--------2--------2--------4--------4---|
D|---2--------2--------0--------0--------2--------2-----|
A|------------------------------------------------------|
E|------------------------------------------------------|



     D                 E                  B
E|--------------------------------------------------------|
B|--3-----3--3-----3--5-----5--5-----5------7-----7-----7-|
G|------2--------2--------4--------4----------8-----8-----|
D|----0--------0--------2--------2-------9------9-----9---|
A|--------------------------------------------------------|
E|--------------------------------------------------------|

    E                 D                A       B        E
E|----------------------------------------------------------------------|
B|-5-----5--5-----5--3-----3--3-----3---5-------7------5-----5--5-----5-|
G|-----4--------4--------2--------2-------6-------8--------4--------4---|
D|---2--------2--------0--------0-----7-----7-9-----9----2--------2-----|
A|----------------------------------------------------------------------|
E|----------------------------------------------------------------------|

[Primeira Parte]

    E                 D                 E                 B
E|-----------------------------------------------------------------------|
B|-5-----5--5-----5--3-----3--3-----3--5-----5--5-----5----7-----7-----7-|
G|-----4--------4--------2--------2--------4--------4--------8-----8-----|
D|---2--------2--------0--------0--------2--------2------9-----9-----9---|
A|-----------------------------------------------------------------------|
E|-----------------------------------------------------------------------|

    E                 D                A       B        E
E|----------------------------------------------------------------------|
B|-5-----5--5-----5--3-----3--3-----3---5-------7------5-----5--5-----5-|
G|-----4--------4--------2--------2-------6-------8--------4--------4---|
D|---2--------2--------0--------0-----7-----7-9-----9----2--------2-----|
A|----------------------------------------------------------------------|
E|----------------------------------------------------------------------|

 E        D        E        B
Luz e sentido e palavra, palavra
E            D          A  B  E
É que o coração não pensa

A
Ontem faltou água, anteontem faltou luz
        G
Teve torcida gritando quando a luz voltou
         B                                         E4    E
Não falo como você fala mas vejo bem o que você me diz
             A
Se o mundo é mesmo parecido com que vejo
              G
Prefiro acreditar no mundo do meu jeito
    B
E você estava esperando voar
            E4                        E          G    A
Mas como chegar até às nuvens com os pés no chão

[Segunda Parte]

    E                 D                 E                 B
E|-----------------------------------------------------------------------|
B|-5-----5--5-----5--3-----3--3-----3--5-----5--5-----5----7-----7-----7-|
G|-----4--------4--------2--------2--------4--------4--------8-----8-----|
D|---2--------2--------0--------0--------2--------2------9-----9-----9---|
A|-----------------------------------------------------------------------|
E|-----------------------------------------------------------------------|

    E                 D                A       B        E
E|----------------------------------------------------------------------|
B|-5-----5--5-----5--3-----3--3-----3---5-------7------5-----5--5-----5-|
G|-----4--------4--------2--------2-------6-------8--------4--------4---|
D|---2--------2--------0--------0-----7-----7-9-----9----2--------2-----|
A|----------------------------------------------------------------------|
E|----------------------------------------------------------------------|

       E
O que sinto muitas vezes
        D
Faz sentido e outras vezes
        E
Não descubro um motivo
           B
Que me explique porque é
            E
Que não consigo ver sentido
        D
No que sinto, que procuro
         A                B
O que desejo e o que faz parte
        E
Do meu mundo

A              G                B             E4  E
O arco-íris  tem sete cores,  e fui juiz supremo
A                 G            B                              E4 E   G    A
Vai, vem embora e volta, todos têm, todos têm suas próprias razões

[Terceira Parte]
    E                 D                 E                 B
E|-----------------------------------------------------------------------|
B|-5-----5--5-----5--3-----3--3-----3--5-----5--5-----5----7-----7-----7-|
G|-----4--------4--------2--------2--------4--------4--------8-----8-----|
D|---2--------2--------0--------0--------2--------2------9-----9-----9---|
A|-----------------------------------------------------------------------|
E|-----------------------------------------------------------------------|

    E                 D                A       B        E
E|----------------------------------------------------------------------|
B|-5-----5--5-----5--3-----3--3-----3---5-------7------5-----5--5-----5-|
G|-----4--------4--------2--------2-------6-------8--------4--------4---|
D|---2--------2--------0--------0-----7-----7-9-----9----2--------2-----|
A|----------------------------------------------------------------------|
E|----------------------------------------------------------------------|

  E                       D
Qual foi a semente que você plantou?
          E
Tudo acontece ao mesmo tempo
        B
Nem eu mesmo sei direito
         E
O que está acontecendo
    D
E daí, de hoje em diante
      A       B         E
Todo dia vai ser o dia mais importante

[Solo] C  A  E  G  A  E
       C  A  E  G  A  E

           C     A   E            G     A    E
E|---------------------------9-10-12---9-10---|
B|-7-8-10--8-7-8-7--------------------------12|
G|-----------------9--9----9------------------|
D|--------------------------------------------|
A|--------------------------------------------|
E|--------------------------------------------|

C          A      E
Se você quiser alguém prá ser só seu
  G              A        E
É só não se esquecer, estarei aqui

[Quarta Parte]

    E                 D                 E                 B
E|-----------------------------------------------------------------------|
B|-5-----5--5-----5--3-----3--3-----3--5-----5--5-----5----7-----7-----7-|
G|-----4--------4--------2--------2--------4--------4--------8-----8-----|
D|---2--------2--------0--------0--------2--------2------9-----9-----9---|
A|-----------------------------------------------------------------------|
E|-----------------------------------------------------------------------|

    E                 D                A       B        E
E|----------------------------------------------------------------------|
B|-5-----5--5-----5--3-----3--3-----3---5-------7------5-----5--5-----5-|
G|-----4--------4--------2--------2-------6-------8--------4--------4---|
D|---2--------2--------0--------0-----7-----7-9-----9----2--------2-----|
A|----------------------------------------------------------------------|
E|----------------------------------------------------------------------|

          E
Não digo nada
               D
Espero o vendaval passar
        E
Por enquanto eu não sei
         B
O que você me falou
        E
Me fez rir e pensar
              D
Porque estou tão preocupado
       A
Por estar
       B          E
Tão preocupado assim

[Quinta Parte]

    E                 D                 E                 B
E|-----------------------------------------------------------------------|
B|-5-----5--5-----5--3-----3--3-----3--5-----5--5-----5----7-----7-----7-|
G|-----4--------4--------2--------2--------4--------4--------8-----8-----|
D|---2--------2--------0--------0--------2--------2------9-----9-----9---|
A|-----------------------------------------------------------------------|
E|-----------------------------------------------------------------------|

    E                 D                A       B        E
E|----------------------------------------------------------------------|
B|-5-----5--5-----5--3-----3--3-----3---5-------7------5-----5--5-----5-|
G|-----4--------4--------2--------2-------6-------8--------4--------4---|
D|---2--------2--------0--------0-----7-----7-9-----9----2--------2-----|
A|----------------------------------------------------------------------|
E|----------------------------------------------------------------------|

 E
Mesmo se eu cantasse
 D
Todas as canções
 E
Todas as canções
 B
Todas as canções
 E                   D
Todas as canções do mundo
     A        B      E
Sou bicho do mato mas

C          A      E
Se você quiser alguém prá ser só seu
  G              A        E
É só não se esquecer, estarei aqui
C          A      E
Se você quiser alguém prá ser só seu
  G              A        E
É só não se esquecer, estarei aqui

[Solo] C  A  E  G  A  E
       C  A  E  G  A  E

G  A   E   C A   E     G A E     C  A  E        G   A E
Ou  então não terás jama..is a chave  do  meu  co..ração

[Solo] C  A  E  G  A  E

           C     A   E            G     A    E
E|---------------------------9-10-12---9-10---|
B|-7-8-10--8-7-8-7--------------------------12|
G|-----------------9--9----9------------------|
D|--------------------------------------------|
A|--------------------------------------------|
E|--------------------------------------------|

[Solo Final] C  A  E  G  A  E

E|-3--1--0----------5------7--7--8--7--3--5-------10---8--7--5--7--5-|
B|-1--------3--3-------3---8-----------5-----3-----8---------------3-|
G|-------------2-----------------------------------------------------|
D|-------------------------------------------------------------------|
A|-------------------------------------------------------------------|
E|-------------------------------------------------------------------|

E|-5-----7--7--8--12--5---5-----0--0--1--3--1----|
B|----3--8------------3------3--1--------------3-|
G|---------------------------------------------2-|
D|-----------------------------------------------|
A|-----------------------------------------------|
E|-----------------------------------------------|

----------------- Acordes -----------------
A = X 0 2 2 2 0
B = X 2 4 4 4 2
C = X 3 2 0 1 0
D = X X 0 2 3 2
E = 0 2 2 1 0 0
E4 = 0 2 2 2 0 0
G = 3 2 0 0 0 3
