Legião Urbana - Love In The Afternoon

INTRO:

violão:(essa riff é feito por um bamdolim mas pode ser feito pelo violão)
e|-----1--1-1-------|
B|-3----------1--3--|
G|-2-------------2--|
D|------------------|
A|------------------|
E|------------------|

violão:
     RIFF 1 e Intro
e|-3-----2-----2----------------|
B|---3-----3------3-----2-----2-|
G|-----2-----2------2-----2-----|
D|--------------------2-----2---|
A|------------------------------|
E|------------------------------|

guitarra:
   RIFF 1 e Intro

e|-----0-------0-...------|
B|---3---3---3---3-...----|
G|-2-------2-------2-...--|
D|------------------------|
A|------------------------|
E|------------------------|

RIFF 1
 D          A         D         A
 É tão estranho, os bons morrem jovens
    D          A  D                A
 Assim parece ser quando me lembro de você

RIFF 2
   Em             D/F#             G                A
e|---------0----------2-------2--------3-------3--------5-------5---|
B|-----3-----3------3---3---3---3----3---3---3---3----5---5---5---5-|
G|---0---0-----0--2-------2--------4-------4--------6-------6-------| 2x
D|-2----------------------------------------------------------------|
A|------------------------------------------------------------------|
E|------------------------------------------------------------------|


RIFF 2
 Em              D/F#   G A Em     D/F# G A
 Que acabou indo embora     cedo demais

RIFF 1
 D                A                       D
 Quando eu lhe dizia: - me apaixono todo dia
                        A
 E é sempre a pessoa errada
 D                A           D              A
 Você sorriu e disse: - eu gosto de você também

RIFF 2
 Em                D/F# G A Em     D/F# G A
 Só que você foi embora     cedo demais

RIFF 3
   G                A
e|-----0-------0--------5-------5---|
B|---3---3---3---3----5---5---5---5-|
G|-2-------2--------6-------6-------|
D|----------------------------------|
A|----------------------------------|
E|----------------------------------|

RIFF 3
 G            A   G                   A
 Eu continuo aqui com meu trabalho e meus amigos
                                  RIFF2
 G                A            Em
 E me lembro de você em dias assim

RIFF 2
   Em             D/F#             G                A
e|---------0----------2-------2--------3-------3--------5-------5---|
B|-----3-----3------3---3---3---3----3---3---3---3----5---5---5---5-|
G|---0---0-----0--2-------2--------4-------4--------6-------6-------| 2x
D|-2----------------------------------------------------------------|
A|------------------------------------------------------------------|
E|------------------------------------------------------------------|

                          RIFF 4
        D/F#     G      A Em A
 Um dia de chuva, um dia de sol

RIFF 4
   Em                            A
e|---------0--------------0--------------0--------------0-----|
B|-----3-----3--------3-----3--------2-----2--------2-----2---|
G|---0---0-----0----0---0-----0----0---0-----0----0---0-----0-|
D|-2--------------2-------------------------------------------|
A|-------------------------------0--------------0-------------|
E|------------------------------------------------------------|

RIFF 5
   D           D/C#        D/C         G/B
e|-------2-----------2-----------2-----------2-----|
B|---3-----3-----3-----3-----3-----3-----3-----3---|
G|-----2-----2-----2-----2-----2-----2-----0-----0-|
D|-0-----------------------------------------------|
A|-------------4-----------3-----------2-----------|
E|-------------------------------------------------|

          RIFF 5
                D      D/C#  D/C G/B
 E o que sinto eu não sei dizer

RIFF 3
 G            A      G       A
 - Vai com os anjos, vai em paz
 Em                           G                      A   RIFF 6
 Era assim todo dia de tarde, a descoberta da amizade

RIFF 6
e|--------5--------------3------------2------------0---|
B|----7-----7--------5-----5------3-----3------2-----2-|
G|-----------------------------------------------------|
D|-7----7-----7s5-5----5-----5-4----4-----4-2----2-----|
A|-----------------------------------------------------|
E|-----------------------------------------------------|

 RIFF 1
                D              A
 Até a próxima vez, é tão estranho
 D               A
 Os bons morrem antes
       D        A       D
 Me lembro de você e de tanta gente

          RIFF 2
        A   Em   D/F#   G A
 Que se foi cedo demais
              RIFF 3
Em   D/F#  G A G                 A                G
 E cedo demais eu aprendi a ter tudo que sempre quis
              A
 Só não aprendi a perder             RIFF 4
 G                   A Em D/F#  G A Em
 E eu, que tive um começo feliz
               RIFF 5
A               D     D/C# D/C G/B
 Do resto eu não sei dizer
 RIFF 3
G                        A
 Lembro das tardes que passamos juntos
 G                    A
 Não é sempre, mas eu sei
 Em
 Que você está bem agora
                           RIFF 6
 G                            A          G    D9
 É só que este ano o verão acabou cedo demais

----------------- Acordes -----------------
A = X 0 2 2 2 0
D = X X 0 2 3 2
D/C = X 3 X 2 3 2
D/C# = X 4 0 2 3 2
D/F# = 2 X 0 2 3 2
D9 = X X 0 2 3 0
Em = 0 2 2 0 0 0
G = 3 2 0 0 0 3
G/B = X 2 0 0 3 3
