Rosa de Saron - Meu Abandono

Intro 4x: Em7  D4  C9  G
                      C9     G
E|------x--------x---------x---------------
B|---8--x--7-----x----3-5--x-3--------0----
G|---0--x-----0--x-0---------0----0h2------
D|------------------------------0----------
A|-7-------5----------3--------------------
E|---------------------------3-------------

                      C9        G
E|------x--------x------------x------------
B|---8--x--7-----x----3h5-3h5-x-3----------
G|---0--x-----0--x-0------------0----0-----
D|---------------------------------0---0---
A|-7-------5----------3---3----------------
E|------------------------------3----------

                      C9        G
E|------x--------x------------x------------
B|---8--x--7-----x----3h5-3h5-x-3----------
G|---0--x-----0--x-0------------0----------
D|------------------------------0----------
A|-7-------5----------3---3----------------
E|------------------------------3----------


Primeira parte:
          G            C9
Um dois três testando, hei alô som,
   Em7           C9
Você é tudo pra mim
    G            C9
Às vezes fico assim um pouco bobo
         Em7             C9
Mas não ligo, é tudo pra mim
   G                C9
E|-----------------------------------------
B|----3-x-3---3-x-3---3-x-3---3-x-3--------
G|----0-x-0---0-x-0---0-x-0---0-x-0--------
D|-----------------------------------------
A|------------------3-------3--------------
E|-3--------3------------------------------

   Em7             C9
E|-----------------------------------------
B|----3-x-3---3-x-3---3-x-3---3-x-3--------
G|----0-x-0---0-x-0---0-x-0---0-x-0--------
D|-2--------2------------------------------
A|------------------3-----3----------------
E|-----------------------------------------

Refrão:
 C9  D4
Tu__do...
 G/B Em7
Tu__do...
 C9  D4         G  G/B C9
Tu__do... para mim
Refrão:
   C9               D4(5)
E|----0-x-0---0---0---2-x-2---3---3--------
B|----3-x-3---3-x-3---3-x-3---3-x-3--------
G|--------------x---------------x----------
D|------------------0-----0----------------
A|-3------3--------------------------------
E|-----------------------------------------

   G/B              Em7
E|----2-x-2---2-x-2-----x-------x----------
B|----3-x-3---3-x-3---3-x-3---3-x-3--------
G|------x-------x-----0-x-0---0-x-0--------
D|-----------------------------------------
A|-2------2--------------------------------
E|------------------0-----0----------------

   C9               D4(5)
E|----0-x-0---0---0---0-x-2---3-x-3--------
B|----3-x-3---3-x-3---3-x-3---3-x-3--------
G|------x-------x-------x-------x----------
D|------------------0-----0----------------
A|-3------3--------------------------------
E|-----------------------------------------

   G      G/B     C9
E|------------0----------------------------
B|----3-x-3-----x-3------------------------
G|----0-x-0-----x-0------------------------
D|------x-------x--------------------------
A|--------2-------3------------------------
E|-3---------------------------------------

G               C9
Algo simples, quero algo simples
         Em7               C9
Como os versos que um dia fiz
       G                 C9
Que o vento espalhou e trouxe o seu sorriso
        Em7              C9
Num jardim tão perto de mim

(Repete refrão com variação)
 C9  D4
Tu__do...
 G/B Em7
Tu__do...
        C9  D4             Em7
Você é Tu__do.. tudo para mim, e isso basta!

        C9  D4
Você é Tu__do...
 G/B Em7
Tu__do..
 C9  D4
Tu__do.. para mim

Segunda parte:
G       D4    G/B      C9     Em7
  Eu desabo quando me calo você,
               C9
É meu abandono    é tudo o que eu tenho
G       D4    G/B      C9     Em7
  Eu desabo quando me calo você,
               C9    D4
É meu abandono    é tudo o que eu tenho
Segunda parte:
   G       D4(5)     G/B      C9
E|---3-----2--3--x---2-----3--2-----3---2--
B|---3--x--3--3--x---3--x--3--3--x--3-X-3--
G|------x--------x------x--------x----X----
D|---------0-------------------------------
A|-------------------2--------3------------
E|-3---------------------------------------

   Em7              C9
E|----------------------------------------
B|----3-x-3---3-x-3---3-x-3---3-x-3-------
G|----0-x-0---0-x-0---0-x-0---0-x-0-------
D|----------------------------------------
A|------------------3-----3---------------
E|-0------0-------------------------------

   Em7              C9
E|----------------------------------------
B|----3-x-3---3-x-3-3---------------------
G|----0-x-0---0-x-0-0---------------------
D|----------------------------------------
A|------------------3---------------------
E|-0------0-------------------------------

( Em7  D4  C9  G ) (4x)

G            C9
Cores novas, sobrepondo sombras,
       Em7         C9
Foram tatuadas em mim.
      G                      C9
Uma flor, um castelo, uma escada que me leve até
             Em7                C9
Onde você está, lá me ame e eu sinta..

Refrão:
 C9  D4
Tu__do...
 G/B Em7
Tu__do...

 C9  D4
Tu__do.. tudo para mim

(Segunda parte)

( C9  G  D4  A4(7) ) (2x)
( C9  G  D4 )

 C9  D4
Tu__do...
 G/B Em7
Tu__do...

 C9  D4                Em7  D4  C9  G
Tu__do... tudo para mim

 Em7 C9 D4
Tu_____do...
 G/B Em7
Tu__do...

 C9  D4
Tu__do.. tudo para mim

( Em7  D4  C9  G ) (4x)
Terceira parte:
   C9     G       D4(5)   A4(7)
E|----3---3---3---3---2---0----------------
B|----3-x-3---3-x-3---3-x-3--3-x-3---------
G|------x-------x-------x----0-x-0---------
D|----------------0------------------------
A|-3----------------------0----------------
E|--------3--------------------------------

   C9         G   D5
E|----------------5---5---5/7--------------
B|----3-x-3---3-x-3---3-x-3/5---5----------
G|----0-x-0---0-x-0---2-x-2/4-x------------
D|----------------0-----x------------------
A|-3---------------------------------------
E|----------3------------------------------


----------------- Acordes -----------------
A4(7) = X 0 2 0 3 0
C9 = X 3 5 5 3 3
D4 = X X 0 2 3 3
D5 = X 5 7 7 X X
Em7 = 0 2 2 0 3 0
G = 3 2 0 0 0 3
G/B = X 2 0 0 3 3
