Jorge Ben Jor - Mais Que Dia

 D                 E                    Am
Ontem eu acordei , e disse , o que está fazendo aqui ?
Em                          G
Se até ontem a noite , você me disse pra sair .
               A                       C                     Em                           D
E eu quis logo uma explicação , do que aconteceu , desse dia bem maluco , que você me consedeu
A                                Em
Então me explique agora , porque está aqui ?
C                                        D
Se quando você bateu a porta e meu pediu pra sair ,
G         E
Eu perguntei (2x)
F#m              G
mais que dia foi esse ? (5x)
  D                 E                    Am
Ontem eu acordei , e disse , o que está fazendo aqui ?
Em                          G
Se até ontem a noite , você me disse pra sair .
               A                       C                     Em                           D
E eu quis logo uma explicação , do que aconteceu , desse dia bem maluco , que você me consedeu
A                                Em
Então me explique agora , porque está aqui ?

C                                        D
Se quando você bateu a porta e meu pediu pra sair ,
G         E
Eu perguntei (2x)
F#m              G
Mais que dia foi esse ? (5x)
 D                 E                    Am
Ontem eu acordei , e disse , o que está fazendo aqui ?
Em                          G
Se até ontem a noite , você me disse pra sair .
               A                       C                     Em                           D
E eu quis logo uma explicação , do que aconteceu , desse dia bem maluco , que você me consedeu
A                                Em
Então me explique agora , porque está aqui ?
C                                        D
Se quando você bateu a porta e meu pediu pra sair ,
G         E
Eu perguntei (2x)
F#m              G
Mais que dia foi esse ? (5x)

----------------- Acordes -----------------
A = X 0 2 2 2 0
Am = X 0 2 2 1 0
C = X 3 2 0 1 0
D = X X 0 2 3 2
E = 0 2 2 1 0 0
Em = 0 2 2 0 0 0
F#m = 2 4 4 2 2 2
G = 3 2 0 0 0 3
