Sublime - Paddle Out

tab by JeffMitchell89

####################################################################

This song is made up of one riff of power-chords,
and a short interlude, here they are:

   D5       B5       C5       A
|----------------------------------|
|----------------------------------|
|--7-7-7-7--4-4-4-4--5-5-5-5--2----|   --this is played with distortion
|--7-7-7-7--4-4-4-4--5-5-5-5--2----|
|--5-5-5-5--2-2-2-2--3-3-3-3--0----|
|----------------------------------|


  (D)
|-----------------------------------|
|-----------------------------------|
|--2--5-4--0-2--5-4--0-2--5-4--0-2--|     --this isn't
|-----------------------------------|
|-----------------------------------|
|-----------------------------------|



|-----------------------------------|
|--3--6-5--1-3--6-5--1-3--6-5--1-3--|
|-----------------------------------|     --and neither is this
|-----------------------------------|
|-----------------------------------|
|-----------------------------------|



Hope you liked the tab, and if you have anything to say
to me, my e-mail is N*

----------------- Acordes -----------------
