U2 - 60 Seconds In Kingdom Come

Afinação Meio Tom Abaixo

1st one, only for the very start and 2 or 3 times somewhere else (with the e strings time to time)
e|(14-14-14)----------------------------------------------------------------|
B|-12-12-12-----------------------------------------------------------------|
G|-11-11-11-----------------------------------------------------------------|
D|-13-13-13-----------------------------------------------------------------|
A|--------------------------------------------------------------------------|
E|--------------------------------------------------------------------------|

2nd one with variations 
e|----------------------------(14)------------------------------------------|
B|-11-11-11-11-11-11-11-12-14-(14)------------------------------------------|
G|-11-11-11-11-11-11-11-11-11-----------------------------------------------|
D|-11-11-11-11-11-11-11-11-11-----------------------------------------------|
A|--------------------------------------------------------------------------|
E|--------------------------------------------------------------------------|


That's all !!!
And I believe that's enough !!!

Sorry for my bad English…

The best page to get Edge's sound :
http://*  Good luck with it !!!

| /  slide up
| \  slide down
| h  hammer-on
| p  pull-off
| ~  vibrato
| +  harmonic
| x  Mute note
