U2 - Another Time Another Place

Afinação Meio Tom Abaixo

Intro

    +  +  +  + + + + + + + + + +    +  +  +  + + + + + + + + + +    +  +  +
e|----12-------------------7----------12-------------------7----------12----|
B|-12----12------7---7---7---7---0-12----12------7---7---7---7---0-12----12-|
G|----------12-----7---7-------7------------12-----7---7-------7------------|
D|-------------7-------------------------------7----------------------------|
A|--------------------------------------------------------------------------|
E|--------------------------------------------------------------------------|
    + +  +
e|------12------------------------------------------------------------------|
B|------12------------------------------------------------------------------|
G|-12---12------------------------------------------------------------------|
D|----7---------------------------------------------------------------------|
A|--------------------------------------------------------------------------|
E|--------------------------------------------------------------------------|


Verse

e|---0-------------0--------------------------------------------------------|
B|---0-4p0-----0h3---3p0----------------------------------------------------|
G|--------------------------------------------------------------------------|
D|-4-------0h2---------------0-2-2h4p2-4-4b5r4b5r4-2-0h2p0- 2 times --------|
A|-2---------------------2-4-------------------------------- then ----------|
E|--------------------------------------------------------------------------|
    + + ++++++++++  + + ++++++++++            +  + + +
e|-----12--7--5--7------------------------------12--------------------------|
B|---12---7--5--7------12--7--5--7 2 times  -12---12------------------------|
G|-12----7--5--7-----12---7--5--7---too------12-----12----------------------|
D|-----------------12----7--5--7-----then----12-----------------------------|
A|--------------------------------------------------------------------------|
E|--------------------------------------------------------------------------|

Chorus

e|-5-3-5-3-5-3-1-0-5-0-1-0-1------------------------------------------------|
B|-5-3-5-3-5-3-1-0-5-0-1-0-1------------------------------------------------|
G|-6-4-6-4-6-4-2-2-6-6-2-2-2------------------------------------------------|
D|-7-5-7-5-7-5-3-3-7-7-3-3-3------------------------------------------------|
A|-7-5-7-5-7-5-3-3-7-7-3-3-3------------------------------------------------|
E|-5-3-5-3-5-3-1-1-5-5-1-1-1------------------------------------------------|

Pre-solo

e|-7---12-------------7-----------------------------------------------------|
B|-7-12--12---11-9-11-8-----------------------------------------------------|
G|-7-12----12-11-9-11-9-----------------------------------------------------|
D|-9-12-------11-9-11-9-----------------------------------------------------|
A|-9------------------7-----------------------------------------------------|
E|-7------------------------------------------------------------------------|

Solo

e|-2-0-2-0-----------------0-------0----2-0-2-0----------------0-------0----|
B|---------3-2-3p2p0-3p2p0-----0-3---3-0-------3-2-3p2p0-3p2p0-----0-3---3-0|
G|---------------------------3-----------------------------------3----------|
D|--------------------------------------------------------------------------|
A|--------------------------------------------------------------------------|
E|--------------------------------------------------------------------------|

e|------------0-----------0----------------------------------10-12-10-10----|
B|-3-2-0-3-2-0-3-2-3p2p0-0-3-2-0------------------------10-12-----------12--|
G|------------------------------0-------------------9-11--------------------|
D|-------------------------------4-0------------9-12------------------------|
A|----------------------------------2-4-5-7-9-12----------------------------|
E|--------------------------------------------------------------------------|

e|------17-----------19--19--19--21--21--21--21-21b22r21-19-17-19\----------|
B|-12/15--15-15-15/17--17--17--19--19--19--19-------------------------------|
G|--------------------------------------------------------------------------|
D|--------------------------------------------------------------------------|
A|--------------------------------------------------------------------------|
E|--------------------------------------------------------------------------|

e|-2----2---/7--7---/14--19-17-14--------------17---------------------------|
B|---3---3--/-8--8--/--15----------15-17-17b19h-19--------------------------|
G|-----4--4-/--9--9-/-------------------------------------------------------|
D|--------------------------------------------------------------------------|
A|--------------------------------------------------------------------------|
E|--------------------------------------------------------------------------|

| b  bend
| h  hold bend
| r  release bend
| /  slide up
| \  slide down
| h  hammer-on
| p  pull-off
| ~  vibrato
| +  harmonic
| x  Mute note

