U2 - Breathe

(intro)

E|------|------------------------------------|
B|-3----|------------------------------------|
G|-2--2-|-2-2-2-2-2--4-4-4-4-4-4-4-4-4-4-4-4-|
D|-0--2-|-2-2-2-2-2--4-4-4-4-4-4-4-4-4-4-4-4-|
A|----0-|-0-0-0-0-0--2-2-0-2-2-0-2-2-0-2-2-0-|
E|------|------------------------------------|

(intro) (D A Bm)
16th of June, nine 0 five, door bell rings
Man at the door says if I want to stay alive a bit longer
There's a few things I need you to know. Three
Coming from a long line of travelling sales people on my mother's side
I wasn't gonna buy just anyone's cockatoo
So why would I invite a complete stranger into my home
Would you?

E|--------------|
B|--------------|
G|---11--9---9--| 8x
D|-9---9---9----|
A|--------------|
E|--------------|


These days are better than that
These days are better than that

E|-----------------------------------------|
B|----10----10----10----9----9----10----9--|
G|-12----12----11----11---11---12----11----| 2x
D|-----------------------------------------|
A|-----------------------------------------|
E|-----------------------------------------|

G      D      E
Every ... day I die again, and again I'm reborn
G      D      E
Every ... day I have to find the courage

E|-------10-------10-------10-------10-------10-------10-------10-------10---|
B|----10-------10-------10-------10-------10-------10-------12-------12------|
D|-11-------11-------12-------12-------11-------11-------11-------11---------| 3x
G|---------------------------------------------------------------------------|
A|---------------------------------------------------------------------------|
E|---------------------------------------------------------------------------|

   Bm   G   D           A
To walk out into the street
     Bm   G          D                A
With arms out got a love you can't defeat
        Bm      G            D           E           D A A A A
Neither down or out/There's nothing you have that I neeeeeeed...

E|----------------------10-10-10-9-9-9-5-5-5--------------------------------------
B|-5-5-5-7-7-7-10-10-10----------------------7-7-7-5-5-5-7-7-7-10-10-10-12-12-12--
G|--------------------------------------------------------------------------------
D|--------------------------------------------------------------------------------
A|--------------------------------------------------------------------------------
E|--------------------------------------------------------------------------------

|-10-10-10-9-9-9------------------------|
|----------------10-10-10-7-7-7-5-5-5---|
|---------------------------------------|
|---------------------------------------|
|---------------------------------------|
|---------------------------------------|

        Bm Bm Bm Bm
I can breathe
  D A A A A Bm Bm Bm Bm
Breathe now

E|------|-----------|---------------------------|
B|-3----|-----------|---------------------------|
G|-2--2-|-2-2-2-2-2-|---11--9---9----11---9---9-| 4x
D|-0--2-|-2-2-2-2-2-|-9---9---9----9----9---9---|
A|----0-|-0-0-0-0-0-|---------------------------|
E|------|-----------|---------------------------|

(D A A A A Bm Bm Bm Bm)
16th of June, Chinese stocks are going up
And I'm coming down with some new Asian virus
Ju Ju man, Ju Ju man
Doc says you're fine, or dying Please
Nine 0 nine, St John Divine, on the line, my pulse is fine
But I'm running down the road like loose electricity
While the band in my head plays a striptease

E|-----------------------------------------|
B|----10----10----10----9----9----10----9--|
G|-12----12----11----11---11---12----11----| 2x
D|-----------------------------------------|
A|-----------------------------------------|
E|-----------------------------------------|

G    D         E
The roar that lies on the other side of silence
G    D      E
The forest fire that is fear so deny it

E|-------10-------10-------10-------10-------10-------10-------10-------10---|
B|----10-------10-------10-------10-------10-------10-------12-------12------|
D|-11-------11-------12-------12-------11-------11-------11-------11---------| 3x
G|---------------------------------------------------------------------------|
A|---------------------------------------------------------------------------|
E|---------------------------------------------------------------------------|

Bm   G   D           A
Walk out into the street
          Bm    G        D         A
Sing your heart out/The people we meet
         Bm   G                  D           E           D A A A A
Will not be drowned out/There's nothing you have that I neeeeeeed...

(entra o solo abaixo)

I can breathe
Breathe now
Yeah, yeah

E|----------------------10-10-10-9-9-9-5-5-5----------------------------------------
B|-5-5-5-7-7-7-10-10-10----------------------7-7-7-5-5-5-7-7-7-10-10-10-12-12-12----
G|----------------------------------------------------------------------------------
D|----------------------------------------------------------------------------------
A|----------------------------------------------------------------------------------
E|----------------------------------------------------------------------------------

|-10-10-10-9-9-9------------------------|-------------------------------------------
|----------------10-10-10-7-7-7-5-5-5---|-8-8-8-7-7-7-5-5-5-5-5-5-6-6-6-8-8-8-6-6-6-
|---------------------------------------|-------------------------------------------
|---------------------------------------|-------------------------------------------
|---------------------------------------|-------------------------------------------
|---------------------------------------|-------------------------------------------

|-----------------------------------------------------------|
|-5-5-5-8-8-8-7-7-7-5-5-5-5-5-5-6-6-6-5-5-5-3-3-3-5-5-5-3---|
|-----------------------------------------------------------|
|-----------------------------------------------------------|
|-----------------------------------------------------------|
|-----------------------------------------------------------|

|------------------------|
|------------------------|
|------------------------| 2x
|-12-7-7-9-7-9-7-9-7-9-7-|
|-12-7-7-9-7-9-7-9-7-9-7-|
|-10-5-5-7-5-7-5-7-5-7-5-|

|-----------------------------------------------------|--------------------------|
|-5-7--10-12-15-15-14-17-15-14-17--15-14-17-15-14-15--|-14-15-17-14-15-17--------|
|-----------------------------------------------------|--------------------------|
|-----------------------------------------------------|--------------------------|
|-----------------------------------------------------|--------------------------|
|-----------------------------------------------------|--------------------------|
                                                         6x um pouco mais rápido

|----------19---17---17---17---17---17---19---17---17---17---17---17----17-17-17--
|-17/19-19---19---19---19---19---19---19---19---19---19---19---19---19--17-17-17--
|---------------------------------------------------------------------------------
|---------------------------------------------------------------------------------
|---------------------------------------------------------------------------------
|---------------------------------------------------------------------------------

|----------------------------------------------|
|-15-15-15-14-14-14-15-15-15-14-14-14-15-15-15-|
|----------------------------------------------|
|----------------------------------------------|
|----------------------------------------------|
|----------------------------------------------|

G       D               E
We are people borne of sound/The songs are in our eyes
G      D                 E
Gonna wear them like a crown

Bm   G   D         A
Walk out into the sunburst street
Bm         G        D       A
Sing your heart out, sing my heart out
Bm                  G           D                   E

D A A A A
I've found grace inside a sound/I found grace, it's all that I found
            Bm Bm Bm Bm
And I can breathe
  D A A A A Bm Bm Bm Bm
Breathe now

( D A E E C G A C )
( D A E E C D A C )
(2x)



----------------- Acordes -----------------
A = X 0 2 2 2 0
Bm = X 2 4 4 3 2
C = X 3 2 0 1 0
D = X X 0 2 3 2
E = 0 2 2 1 0 0
G = 3 2 0 0 0 3
