U2 - Unknown Caller

Intro: G

E|-------10-------10-------
B|-----8----8---8----10----
G|---7---------------------
D|-------------------------
A|-------------------------
E|-------------------------

Sunshine, sunshine
Sunshine, sunshine
Intro 2 - 2x:
           G                     G/F                            F                            Am

E|-------10-------10---|---------10------10-----|-----------13--------13----|--------12-------12---------------
B|-----8----8---8----8-|-------8-------8--------|--------13--------13-------|-----13-------13------------------
G|---7--------7--------|--5/10------10-------10-|--10/14--------14-------14-|--14-------14-------14------------
D|---------------------|------------------------|---------------------------|----------------------------------
A|---------------------|------------------------|---------------------------|----------------------------------
E|---------------------|------------------------|---------------------------|----------------------------------
                                                         Oh, oh                         Oh, oh
                 C               C4        C
E|---------8-----8---------------------------------------------------------------------------------------------
B|-------8-----8-----------------------------------------------------------------------------------------------
G|---5/9-----9-----9---9/10--9--9-9h10p9-9/7-------------------------------------------------------------------
D|-------------------------------------------------------------------------------------------------------------
A|-------------------------------------------------------------------------------------------------------------
E|-------------------------------------------------------------------------------------------------------------


Entrada da Voz

E|-------------------------------------------------------------------------------------------------------------
B|---10--8h10--10~--8h10p8-----------------10-10-8h10----------------------------------------------------------
G|-------------------------9-9/10--10h12-9~--------------------------------------------------------------------
D|-------------------------------------------------------------------------------------------------------------
A|-------------------------------------------------------------------------------------------------------------
E|-------------------------------------------------------------------------------------------------------------
  I was lost between the midnight and the dawning
E|-------------------------------------------------------------------------------------------------------------
B|---10--8h10--10~--8-8h10p8-----------------------------------------------------------------------------------
G|---------------------------9-9/10--12p10-10~-----------------------------------------------------------------
D|-------------------------------------------------------------------------------------------------------------
A|-------------------------------------------------------------------------------------------------------------
E|-------------------------------------------------------------------------------------------------------------
In a place of no consequence or company
E|-------------------------------------------------------------------------------------------------------------
B|---8h10--8h10-8h10~--8h10p8----------------------------------------------------------------------------------
G|----------------------------9-9/10--12p10-9~--7h9------------------------------------------------------------
D|-------------------------------------------------------------------------------------------------------------
A|-------------------------------------------------------------------------------------------------------------
E|-------------------------------------------------------------------------------------------------------------
(3:33) when the numbers fell off the clock face
E|-------------------------------------------------------------------------------------------------------------
B|---10--10p8-10~--8h10p8--------------------------------------------------------------------------------------
G|------------------------9-9/10--9/10-10---10b9/5-----5/7-----------------------------------------------------
D|--------------------------------------------------5----------------------------------------------------------
A|-------------------------------------------------------------------------------------------------------------
E|-------------------------------------------------------------------------------------------------------------
Speed dialling with no signal at all

(Intro 2 - 2x)

Go, shout it out, rise up
Oh, oh
Escape yourself, and gravity
Hear me, cease to speak that I may speak
Shush now
Oh, oh
Force quit and move to trash

E|-------------------------------------------------------------------------------------------------------------
B|-------------------------------------------------------------------------------------------------------------
G|-------------------------------------------------------------------------------------------------------------
D|--7-------------5-------------3-------------2----------------------------------------------------------------
A|--7-------------5-------------3-------------2----------------------------------------------------------------
E|--5-------------3-------------1-------------0----------------------------------------------------------------
  I was right there at the top of the bottom
E|-------------------------------------------------------------------------------------------------------------
B|-------------------------------------------------------------------------------------------------------------
G|-------------------------------------------------------------------------------------------------------------
D|--7-------------5-------------3-------------3-3-3------------------------------------------------------------
A|--7-------------5-------------3-------------3-3-3------------------------------------------------------------
E|--5-------------3-------------1-------------1-1-1------------------------------------------------------------
  On the edge of the known universe where I wanted to be
E|-------------------------------------------------------------------------------------------------------------
B|-------------------------------------------------------------------------------------------------------------
G|-------------4--4/5----7-----9-----9/10----9----7----9-------------------------------------------------------
D|--5------7---4--4/5----7-----9-----9/10----9----7----9-------------------------------------------------------
A|--5------7---2--2/3----5-----7-----7/8-----7----5----7-------------------------------------------------------
E|--3------5---------------------------------------------------------------------------------------------------
  I had driven to the scene of the accident
E|-------------------------------------------------------------------------------------------------------------
B|-------------------------------------------------------------------------------------------------------------
G|-------------4--4/5----7-----9-----9/10----9----10--9---10-9-10----------------------------------------------
D|-----12/7----4--4/5----7-----9-----9/10----9----10--9---10-9-10----------------------------------------------
A|-----12/7----2--2/3----5-----7-----7/8-----7----8---7---8--7-8-----------------------------------------------
E|-----10/5----------------------------------------------------------------------------------------------------
      And I sat there waiting for me

(Intro 2 - 3x)

Restart and re-boot yourself
You're free to go
Oh, oh
Shout for joy if you get the chance
Password, you, enter here, right now
Oh, oh
You know your name so punch it in
Hear me, cease to speak that I may speak
Shush now
Oh, oh
Then don't move or say a thing

Intervalo: G  F/G  F  Am  C  C4  C

Solo:

   G                                           F/G                   F
E|-------------------------------------------|-----------------------13--12--13--12b13-13-13-------------------
B|---15-15-15-15--15-15--15-15--13-12~--12/3-|---15--15-15-15-15--15-------------------------------------------
G|-------------------------------------------|-----------------------------------------------------------------
D|-------------------------------------------|-----------------------------------------------------------------
A|-------------------------------------------|-----------------------------------------------------------------
E|-------------------------------------------|-----------------------------------------------------------------
   Am                   C                                     C4                G
E|---13b12------------|----------------------|--------------|---------------------15----------15----15----15---
B|----------15---13~--|-15-15b17--17b15--13~-|-17br18p15-13-|-12-13-15--12-12/15----15-15/13----13----12-----12
G|--------------------|----------------------|--------------|--------------------------------------------------
D|--------------------|----------------------|--------------|--------------------------------------------------
A|--------------------|----------------------|--------------|--------------------------------------------------
E|--------------------|----------------------|--------------|--------------------------------------------------
   F                                 Am               C                              G
E|---------------15-------15----17-|----17----17---------------------------------------------------------------
B|--13--15-15b17----15b17----17----|-17----17----17b15~-15-15-15--13-13--12------------------------------------
G|---------------------------------|----------------------------------------14-12-------14-12b13---------------
D|---------------------------------|------------------------------------------------12~---------12~------------
A|---------------------------------|---------------------------------------------------------------------------
E|---------------------------------|---------------------------------------------------------------------------
   G                                   F               Am                      C
E|-----------------------------------|---------------------------------------|---------------------------------
B|----------------------------10-8b9-|---------------------------------------|---------------------------------
G|-----------------------------------|--------------------7h9--9br10p7h9p7---|-7h9--9br10p7-9br10p7------------
D|---12/10p9h10p9---------12---------|--7/9-7~--9-9-9/10------------------10-|----------------------9b10-------
A|----------------12-10--------------|---------------------------------------|---------------------------------
E|-----------------------------------|---------------------------------------|---------------------------------
  G...
E|----------------------------|----------------------------|---------------------------------------------------
B|-----------8----------8-----|-----------8----------8-----|-----------8----------8----------------------------
G|--------7-----7----7----7---|--------7-----7----7----7---|--------7-----7----7----7--------------------------
D|---9/5----------9-----------|---9/5----------9-----------|---9/5----------9----------------------------------
A|----------------------------|----------------------------|---------------------------------------------------
E|----------------------------|----------------------------|---------------------------------------------------


----------------- Acordes -----------------
Am = X 0 2 2 1 0
C = X 3 2 0 1 0
C4 = X 3 3 0 1 X
F = 1 3 3 2 1 1
F/G = 3 X 3 2 1 X
G = 3 2 0 0 0 3
G/F = 1 X X 0 0 3
