Jonas Esticado - Só Papai

     Dm
Compra Catuaba, vodka, whisky, Chandon e cerveja

Coloca na frente do palco umas quatro mesas
 C
Que eu já tirei o pino da granada

Já tô pronto pra estourar na balada

  Dm
Avisa ao cantor que hoje é surra de alô

E se não decorar meu nome, chama de Doutor
C
Que eu tô cuidando das novinhas
                                         F
Enquanto uma sobe a outra desce empinadinha

Dm
Ai ai ai
            F
Elas gostam do papai

              C
Pergunta quem é que faz
           G
Gostosinho pra carai
        Dm
Só papai

Dm
Ai ai ai
            F
Elas gostam do papai
              C
Pergunta quem é que faz
           G
Gostosinho pra carai
        Dm
Só papai

( Dm  F  C  G )

           Dm
Compra Catuaba, vodka, whisky, Chandon e cerveja
F
Coloca na frente do palco umas quatro mesas
 C
Que eu já tirei o pino da granada
 G
Já tô pronto pra estourar na balada

  Dm
Avisa ao cantor que hoje é surra de alô
  F
E se não decorar meu nome, chama de Doutor
C
Que eu tô cuidando das novinhas
  G                                         F
Enquanto uma sobe a outra desce empinadinha

Dm
Ai ai ai
            F
Elas gostam do papai
              C
Pergunta quem é que faz
           G
Gostosinho pra carai
        Dm
Só papai


Dm
Ai ai ai
            F
Elas gostam do papai
              C
Pergunta quem é que faz
           G
Gostosinho pra carai
        Dm
Só papai

( Dm  F  C  G )
( Dm  F  C  G )

----------------- Acordes -----------------
C = X 3 2 0 1 0
Dm = X X 0 2 3 1
F = 1 3 3 2 1 1
G = 3 2 0 0 0 3
