Luan Santana - Escreve Ai

Intro: F7M  Em7  F7M  Em7

Primeira parte:
C
  Te falo tanta coisa

Enquanto tento segurar a lágrima
                Am7
Que insiste em cair

Entro no meu carro, abro o vidro

E antes de ir embora
                  F
Eu te digo olha aqui
       F7M       Em7  F7M
Ainda vou te esque___cer
        C
Escreve aí



Chego em casa dou de cara com sua foto
                              Am7
Uma ducha e um vinho pra acalmar

E eu penso vou partir pra outra logo

Mas quem é que eu tô
              F  F7M  Em7  F7M
Tentando enganar

Mas quem é que eu tô
              C
Tentando enganar

Pré-refrão:
        G4            G
É só você fazer assim
        F
Que eu volto
       G4             G
É só você fazer assim
        F/A
Que eu volto
         G/B  C/E
Que eu volto

Refrão:
            F
É que eu te amo e falo na sua cara
            G
Se tirar você de mim não sobra nada
          Em7
O teu sorriso me desmonta inteiro
        Am7
Até um simples estalar de dedos

          F
Talvez você tenha deixado eu ir
           G
Pra ter o gosto de me ver aqui
         Em7
Fraco demais para continuar
          Am7
Juntando forças pra poder falar
        F             G
Que eu volto, é só você sorrir
        F             G
Que eu volto, é só fazer assim
        C         F
Que eu volto, eu volto
    C    F7M  Em7  F7M
Eu volto

Primeira Parte:
C
  Chego em casa dou de cara com sua foto
                              Am7
Uma ducha e um vinho pra acalmar

E eu penso vou partir pra outra logo

Mas quem é que eu tô
              F  F7M  Em7  F7M
Tentando enganar

Mas quem é que eu tô
              C
Tentando enganar

Pré-refrão:
        G4
É só você fazer assim
        F
Que eu volto
       G4
É só você fazer assim
        F/A
Que eu volto
        G/B
Que eu volto

Refrão:
C/E         F
É que eu te amo e falo na sua cara
            G
Se tirar você de mim não sobra nada
          Em7
O teu sorriso me desmonta inteiro
        Am7
Até um simples estalar de dedos

          F
Talvez você tenha deixado eu ir
           G
Pra ter o gosto de me ver aqui
         Em7
Fraco demais para continuar
          Am7
Juntando forças pra poder falar
        F             G
Que eu volto, é só você sorrir
        F             G
Que eu volto, é só fazer assim

Final:
        F             G
Que eu volto, é só fazer assim
        C         F
Que eu volto, eu volto
        C    F7M  Em7  F7M
Que eu volto

Intro:
  F7M   Em7  F7M        Em7  F7M
E|-0--0-------0----0--0-------0--------------|
B|-1--1--3----1----1--1--3----1--------------|
G|-2--2--4----2----2--2--4----2--------------|
D|-3--3--5----3----3--3--5----3--------------|
A|-------------------------------------------|
E|-------0---------------0-------------------|

Primeira Parte:
Parte 1:
   C
E|------------------------------------------|
B|-1---1---1---1---1---1---1---1------------|
G|-0---0---0---0---0---0---0---0------------|
D|---2---2---2---2---2---2---2---2----------|
A|-3---------------3------------------------|
E|------------------------------------------|

Parte 2:
   Am7
E|------------------------------------------|
B|-1---1---1---1---1---1---1---1------------|
G|-0---0---0---0---0---0---0---0------------|
D|---2---2---2---2---2---2---2---2----------|
A|-0---------------0------------------------|
E|------------------------------------------|

Parte 3:
   F        F7M   Em7  F7M
E|-----------0--0-------0-------------------|
B|-1---1-----1--1--3----1-------------------|
G|-2---2-----2--2--4----2-------------------|
D|---3---3---3--3--5----3-------------------|
A|------------------------------------------|
E|-1---------------0------------------------|

Parte 4:
   C
E|------------------------------------------|
B|-1---1---1---1----------------------------|
G|-0---0---0---0----------------------------|
D|---2---2---2---2--------------------------|
A|-3----------------------------------------|
E|------------------------------------------|

Pré-refrão:
Parte 1:
   G4    G  F
E|-3-3-3-3----------------------------------|
B|-1-1-1-0--1---1---1---1-------------------|
G|-0-0-0-0--2---2---2---2-------------------|
D|------------3---3---3---3-----------------|
A|------------------------------------------|
E|-3-3-3-3--1-------------------------------|

Parte 2:
   G4    G  F/A            G/B        C/E
E|-3-3-3-3------------------3---3---3--0----|
B|-1-1-1-0--1---1---1---1---3---3---3--1----|
G|-0-0-0-0--2---2---2---2-----0---0----0----|
D|------------3---3---3---3------------2----|
A|----------0---------------2----------x----|
E|-3-3-3-3-----------------------------0----|

Final:
Parte 1:
   F                 G
E|-------------------3----------------------|
B|-1---1---1---1-----3----------------------|
G|-2---2---2---2-----0----------------------|
D|---3---3---3---3---0----------------------|
A|-------------------2----------------------|
E|-1-----------------3----------------------|

Parte 2:
   C                F
E|------------------------------------------|
B|-1---1---1---1----1---1---1---1-----------|
G|-0---0---0---0----2---2---2---2-----------|
D|---2---2---2---2----3---3---3---3---------|
A|-3----------------------------------------|
E|------------------1-----------------------|

Parte 3:
   C                F7M   Em7  F7M
E|-------------------0--0-------0-----------|
B|-1---1---1---1-----1--1--3----1-----------|
G|-0---0---0---0-----2--2--4----2-----------|
D|---2---2---2---2---3--3--5----3-----------|
A|-3----------------------------------------|
E|-------------------------0----------------|

----------------- Acordes -----------------
Am7 = X 0 2 0 1 3
C = X 3 2 0 1 0
C/E = 0 3 2 0 1 0
Em7 = 0 X 5 4 3 0
F = 1 3 3 2 1 1
F/A = X X 3 2 P1 1
F7M = X X 3 2 1 0
G = 3 2 0 0 3 3
G/B = X 2 0 0 3 3
G4 = 3 X 0 0 1 3
