Luan Santana - Falando Sério

Intro: C D E E7

C
Você nâo tem limite
              D
Você nâo tem hora
              Em
Liga pra brinca com os meus sentimentos
              C               D
Faz propostas que sempre me apavora
              Em
Sabe o que é amar e ta perdendo tempo
            C
Você me provoca
                 D
Eu entro no seu jogo
             Em
Sabe dar as cartas

Sabe me ganhar me coloca
C                   D
Sempre em prova de fogo

                  Em
É tudo que eu preciso pra me entregar
             C                  D
Pare de uma vez com essa brincadeira
            Em
Chega de bobeira

Eu to falando sério
               C
Preciso desse amor
                  D
Te amar a noite inteira
             Em
Se você me quer saiba também te quero

C   D             Em
Oh uoh eu to falando serio
    C     D            Em
Oh uoh saiba também te quero

----------------- Acordes -----------------
C = X 3 2 0 1 0
D = X X 0 2 3 2
E = 0 2 2 1 0 0
E7 = 0 2 2 1 3 0
Em = 0 2 2 0 0 0
