Luan Santana - Hoje Não

  C#m
hoje nao sou mais seu

hoje nao me perdeu
B                         G#
hoje nao vai rolar não não não
C#m
lembra daquele bolo que me deu
A
daquela noite que voce nao apareceu
E
foi cara de pau de me ligar de madrugada
B                                    G#
querendo se explicar vindo aqui na minha casa
C#m                                         B                  G#
pode gritar fazer barraco pode até chamar o papa, pode querer, fica querendo

C#m
hoje nao sou mais teu

hoje nao me perdeu


B                         G#
hoje nao vai rolar

hoje não vai me pegar

C#m
hoje nao sou mais seu

hoje nao me perdeu
B                         G#
hoje nao vai rolar não não não

C#m
quer minha boca na sua boca te mordendo
B
vai ficar querendo vai ficar querendo
C#m
quer o meu corpo no seu corpo se mexendo
B                        G#
vai ficar querendo vai ficar querendo
C#m
quer a minha mao no seu cabelo te trazendo
B
vai ficar querendo vai ficar querendo

----------------- Acordes -----------------
A = X 0 2 2 2 0
B = X 2 4 4 4 2
C#m = X 4 6 6 5 4
E = 0 2 2 1 0 0
G# = 4 3 1 1 1 4
