﻿Luan Santana - Vou Voar

Capo Casa 2

Intro: G  D  C  G  D  C
E|-7------5------7-----7-----7--7---7------5------7-----7-----7--|
B|-8-8----8-8----8-8---8-8---8--8---8-8----8-8----8-8---8-8---8--|
G|-0---7--7---7--0---0-----0--------0---7--7---7------0-----0----|
D|---------------------------------------------------------------|
A|---------------------------------------------------------------|
E|---------------------------------------------------------------|

      G         D
Vou voar  quem quer amar
  C                    G
Sonhar alto voa sem parar
        D           C
Eu não vou ficar parado vendo
             G
Você se afastar
        D
A Melhor é você
       C
Meu destino é você


Fui feito pra você

Solo 2x:( G D C G D C )
E|--5/7--5--5/7--4--4/5--4------------|
B|--5/7--5--5/7--5--5----5--7-5-5-3-3-|
G|------------------------------------|
D|------------------------------------|
A|------------------------------------|
E|------------------------------------|

E|--5/7--5--5/7--4--4/5--4----------5-|
B|--5/7--5--5/7--5--5----5--7-5-5-3---|
G|------------------------------------|
D|------------------------------------|
A|------------------------------------|
E|------------------------------------|

E|-------------------------------------|
B|-------------------------------------|
G|-----------------------------------2-|
D|--2h4-4-4-2h4-4-4-2h4-4-4-2h4-4-4--2-|
A|-------------------------------------|
E|-------------------------------------|

G      D           Em
Eu sonhei subir bem alto
      C           G
E um dia te alcançar
          D         Em
Minha estrela preferida
      C            G
Seu brilho está no ar
     D        Em
Magnífica presença
      C          G
Engrandece o meu ser
      D              Em
O seu corpo tem a essência
       C
Que explica o prazer

Em        D         C
Um cometa acertou em cheio
         Em
O meu coração
     D             C
E estremeceu meu mundo
                 ( G )
Toda a constelação

Refrão:
     G     D
Vou voar  quem quer amar
   C                   G
Sonhar alto voa sem parar
          D            C
Eu não vou ficar parado vendo
              G
Você se afastar
    D
A Melhor é você
      C
Meu destino é você
                 G
Fui feito pra você

( G  D  C  G  D  C )(2x)
E|--5/7--5--5/7--4--4/5--4------------|
B|--5/7--5--5/7--5--5----5--7-5-5-3-3-|
G|------------------------------------|
D|------------------------------------|
A|------------------------------------|
E|------------------------------------|

E|--5/7--5--5/7--4--4/5--4----------5-|
B|--5/7--5--5/7--5--5----5--7-5-5-3---|
G|------------------------------------|
D|------------------------------------|
A|------------------------------------|
E|------------------------------------|

E|--------------|
B|--------------|
G|------2-------|
D|--2h4--2/4--2-|
A|--------------|
E|--------------|

Em          D         C
Um cometa acertou em cheio
O meu coração
Em   D             C
E estremeceu meu mundo
                 ( G )
Toda a constelação

Refrão:
     G         D
Vou voar  quem quer amar
  C                    G
Sonhar alto voa sem parar
        D           C
Eu não vou ficar parado vendo
             G
Você se afastar
        D
A Melhor é você
       C
Meu destino é você

Fui feito pra você

( G  D  C  G  D  C )(2x)
E|--5/7--5--5/7--4--4/5--4-----------------5---5---5------------|
B|--5/7--5--5/7--5--5----5--7-5-5-3-3--------3---3---3--2-3-3/5-|
G|--------------------------------------------------------------|
D|--------------------------------------------------------------|
A|--------------------------------------------------------------|
E|--------------------------------------------------------------|

Em  C              G               D
Alimenta a alma ao tentar buscar você
Em C               G
Tua voz me acalma
D
Me ensina ter você
C
Me ensina ter você

Refrão 2x:
( G  D  C  G  D  C )(2x)
E|--5/7--5--5/7--4--4/5--4------------|
B|--5/7--5--5/7--5--5----5--7-5-5-3-3-|
G|------------------------------------|
D|------------------------------------|
A|------------------------------------|
E|------------------------------------|

E|--5/7--5--5/7--4--4/5--4----------5-|
B|--5/7--5--5/7--5--5----5--7-5-5-3---|
G|------------------------------------|
D|------------------------------------|
A|------------------------------------|
E|------------------------------------|


----------------- Acordes -----------------
Capotraste na 2ª casa
C*  = X 3 2 0 1 0 - (*D na forma de C)
D*  = X X 0 2 3 2 - (*E na forma de D)
Em*  = 0 2 2 0 0 0 - (*F#m na forma de Em)
G*  = 3 2 0 0 0 3 - (*A na forma de G)
