Chicabana - Burguesinha

(intro)  A7+   D7+

                 A7+
Vai no cabelereiro
          D7+
No esteticista
               A7+
Malha o dia inteiro
            D7+
Pinta de artista

         C#m7
Saca dinheiro

Vai de motorista
                 Bm7
Com seu carro esporte
                  E7/9
Vai zoar na pista

            A7+
Final de semana

             D7+
Na casa de praia
              A7+
Só gastando grana
              D7+
Na maior gandaia

           C#m7
Vai pra balada

Com sua bate estaca
             Bm7
Com a sua tribo
             E7/9
Até de madrugada

(refrão)
       A7+                                                 D7+
Burguesinha, burguesinha, burguesinha, burguesinha, burguesinha
Só no filé
     A7+                                                 D7+
Burguesinha, burguesinha, burguesinha, burguesinha, burguesinha
Tem o que quer
     A7+                                                 D7+
Burguesinha, burguesinha, burguesinha, burguesinha, burguesinha
Um croassaint
         A7+                                                 D7+
Burguesinha, burguesinha, burguesinha, burguesinha, burguesinha
Suquinho de maçã

  ( A7+      D7+ )

----------------- Acordes -----------------
A7+ = X 0 2 1 2 0
Bm7 = X 2 4 2 3 2
C#m7 = X 4 6 4 5 4
D7+ = X X 0 2 2 2
E7/9 = X X 2 1 3 2
