Chicabana - Faraó Divindade do Egito

Intro:) Am G

Am             G
Eu falei Faraó
                 Am
Êeeeeh Faraó! É!
G                          Am
Eu clamo Olodum Pelourinho

Êeeeeh Faraó! É Ê Ê !
                      G
Pirâmide da paz e do Egito
           G
Êeeeeh Faraó!É!
Am                          G
Eu clamo Olodum Pelourinho
          Am
Êeeeeh Faraó!

 Am
Que Mara Mara

          G
Maravilha Êh!
             Am
Egito, Egito Êh! É!

Que Mara Mara
           G
Maravilha Êh!
             Am
Egito, Egito Êh!
    G       Am
Faraó ó ó ó Ó!
    G       Am
Faraó ó ó ó Ó!

Deuses!
                          G
Divindade infinita do universo
Predominante
             Am
Esquema Mitológico
                          G
A ênfase do espírito original
Exu!
Formará
                 Am
No Eden um novo cósmico...

       G
A Emersão!
Nem Osíris sabe
           Am
Como aconteceu
       G
A Emersão!
Nem Osíris sabe
           Am
Como aconteceu...

----------------- Acordes -----------------
Am = X 0 2 2 1 0
G = 3 2 0 0 0 3
