Raça Negra - Assim

A         F#m
Cheia de manha
A           F#m
Chega e me ganha
Bm             E
Sem frescura, sem promessas
Bm                   E
Sendo assim, pra que conversa?

A             F#m
Vem que eu te quero
A         F#m
Pra que mistério?
Bm            E
Você sabe do meu jeito
Bm                E
Você sabe que eu te aceito
A            C#m
Assim, como você é
Bm
Faz o que bem quer

E
De mim
A           C#m
Assim, tão especial
Bm
E é tão legal
A             C#m
Assim, como você é
Bm
Faz o que bem quer
E
De mim
A            C#m
Assim, tão especial
Bm
E é tão legal
E
Assim

----------------- Acordes -----------------
A = X 0 2 2 2 0
Bm = X 2 4 4 3 2
C#m = X 4 6 6 5 4
E = 0 2 2 1 0 0
F#m = 2 4 4 2 2 2
