Ministério Zoe - Aquieta Minh'alma

[Intro]

A  E  F#m  D

[Refrão]

A                 E
  Aquieta minh'alma
                           F#m  D
Faz meu coração ouvir Tua voz
A                  E
  Me chama pra perto
                          F#m  D
Só assim eu não me sinto só

A                 E
  Aquieta minh'alma
                           F#m  D
Faz meu coração ouvir Tua voz
A                  E
  Me chama pra perto

                          F#m  D
Só assim eu não me sinto só

               A
Porque, na verdade, eu descobri que
                         E
Tudo o que eu preciso está em Ti
             F#m
Mas meu coração
                          D
É teimoso demais pra admitir
              A
Sei que depender
                      E
É como viver perigosamente

Mas eu preciso acreditar
   F#m              D
E confiar no que Você me diz

A                 E
  Aquieta minh'alma
                           F#m  D
Faz meu coração ouvir Tua voz
A                  E
  Me chama pra perto
                          F#m  D
Só assim eu não me sinto só

[Primeira parte]

             A
Eu sei que, mesmo sem entender
                  E
Você está no controle então
                       F#m
Me esconda no Teu coração
                                D
Me amarre a Ti pra eu não desistir

           A
Eu não quero mais fugir

                    E
Da Tua vontade pra mim
                      F#m
Eu sei que vai ser difícil
                          D
Mas Você estará sempre comigo

[Segunda parte]

   A
E mesmo que minh'alma grite
   E
E tente me fazer voltar atrás
        F#m
Eu vou confiar, eu vou descansar
       D           A   E
Me lançar no Teu amo___or
         F#m        D
No Teu amor, Senhor

   A
O tempo não pode apagar
                           E
As muitas águas nunca levarão o amor
                    F#m
Que Você sente por mim
                            D
Eu sei que tudo vai se cumprir
   A
O tempo não pode apagar
                           E
As muitas águas nunca levarão o amor
                    F#m
Que Você sente por mim
                            D
Eu sei que tudo vai se cumprir

[Terceira parte]

 A
Vai ser difícil, eu sei
 E
Largar tudo por Você
 F#m
Mas eu sei que quando eu pensar em
 D
Desistir
          A
Você estará ao meu lado
        E
Me segurando, me assegurando de que
            F#m                 D
Tudo vai ficar bem, tudo vai ficar bem

 A
Vai ser difícil, eu sei
 E
Largar tudo por Você
 F#m
Mas eu sei que quando eu pensar em
 D
Desistir
          A
Você estará ao meu lado
        E
Me segurando, me assegurando de que

            F#m                 D
Tudo vai ficar bem, tudo vai ficar bem

[Pré-refrão]

          E
E se eu cair, a Tua mão me levantará
            F#m                 D
E se eu chorar, toda lágrima Você

Enxugará
          E
E se eu cair, a Tua mão me levantará
            F#m                 D
E se eu chorar, toda lágrima Você

Enxugará, então vem!

[Refrão]

A                 E
  Aquieta minh'alma
                           F#m  D
Faz meu coração ouvir Tua voz
A                  E
  Me chama pra perto
                          F#m  D
Só assim eu não me sinto só

A                 E
  Aquieta minh'alma
                           F#m  D
Faz meu coração ouvir Tua voz
A                  E
  Me chama pra perto
                          F#m  D
Só assim eu não me sinto só

               A
Porque, na verdade, eu descobri que
                         E
Tudo o que eu preciso está em Ti
             F#m
Mas meu coração
                          D
É teimoso demais pra admitir
              A
Sei que depender
                      E
É como viver perigosamente

Mas eu preciso acreditar
   F#m              D
E confiar no que Você me diz

----------------- Acordes -----------------
A = X 0 2 2 2 0
D = X X 0 2 3 2
E = 0 2 2 1 0 0
F#m = 2 4 4 2 2 2
