The Beatles - Come Together

Riff inicial e do meio dos versos.

e|----------------------|
B|----------6-----------|
G|----------5-----7-----|
D|------5/7-------------|
A|-5-5------------------|
E|----------------------|

(Também pode tocar os acordes Dm7 e A como Blues)

Dm7
Here come old flat top, He come grooving up slowly,

He got Joo Joo eyeball, He one holy roller
        A
He got  Hair down to his knee;
G7
Got to be a joker, he just do what he please.

         (Riff 4x)


Dm7
He wear no shoe shine, he got toe jam football

He got monkey finger, he shoot co-ca cola
        A
He say, "I know you, you know me."
G7
One thing I can tell you is you got to be free
     Bm        A    G    A
Come Together, Right now, over me

         (Riff 4x)

Dm7
He bag production, He got wal-rus gumboot

He got O-no sideboard, He one spinal cracker
       A
He got feet down below his knee
G7
Hold you in his armchair, you can feel his disease
     Bm       A     G      A
Come together, right now,  over me

        (Riff 2x)

SOLO:
e|-------------------------|
B|-6-6-6-6-6-6-6-6---------|
G|-5-5-5-5-5-5-5-5--7-5-7--|    (4x)
D|------------------7-5-7--|
A|-------------------------|
E|-------------------------|

e|-10^------10-10^--8--10^------10^----10-10^--8---------------------|
B|------------------------------------------------10^------10-10^--8-|
G|-------------------------------------------------------------------|
D|-------------------------------------------------------------------|
A|-------------------------------------------------------------------|
E|-------------------------------------------------------------------|

         (Riff 4x)

Dm7
He roller coaster, he got early warning

He got muddy water, He one Mo-jo filter
        A
He say, " One and one and one is three."
G7
Got to be good looking 'cause he so hard to see
     Bm       A      G     A
Come together, Right now,  over me.

         (Riff 4x)

SOLO FINAL:  cada |- ... -| equivale a 4 tempos

e|-10---|-----13/15--15/13--10-|-10---|-----------------|-10---|
B|------|----------------------|------|-----------------|------|
G|------|----------------------|------|-----10--12^--10-|------|
D|------|----------------------|------|-----------------|------|
A|------|----------------------|------|-----------------|------|
E|------|----------------------|------|-----------------|------| 

e|-----10--13/15/13--10-|-10^--|-----------------|-/19--|-----19--19/--13-|
B|----------------------|------|-----10--13^--10-|------|-----------------|
G|----------------------|------|-----------------|------|-----------------|
D|----------------------|------|-----------------|------|-----------------|
A|----------------------|------|-----------------|------|-----------------|
E|----------------------|------|-----------------|------|-----------------|

e|-19^--|-----19--22^--19-|-22^^--|-----19--22^--19-|-22^^--|-----13--19--13-|
B|------|-----------------|-------|-----------------|-------|----------------|
G|------|-----------------|-------|-----------------|-------|----------------|
D|------|-----------------|-------|-----------------|-------|----------------|
A|------|-----------------|-------|-----------------|-------|----------------|
E|------|-----------------|-------|-----------------|-------|----------------|

e|-19^--|-----------------|-10^--|-----10--13/15/13--10-|-10^--|
B|------|-----13----------|------|----------------------|------|
G|------|---------12^--10-|------|----------------------|------|
D|------|-----------------|------|----------------------|------|
A|------|-----------------|------|----------------------|------|
E|------|-----------------|------|----------------------|------|

Come together...




----------------- Acordes -----------------
A = X 0 2 2 2 0
Bm = X 2 4 4 3 2
Dm7 = X 5 7 5 6 5
G = 3 2 0 0 0 3
G7 = 3 5 3 4 3 3
