The Beatles - Don't Let Me Down

(intro)

|---------------------------------------|
|---------------------------------------|
|-------------9---9----9----------------|
|-------------9---9h11-9----------------|
|--------9h11----------------9--12--11--|
|-0-------------------------------------|

( E chord might be done in Emaj7 )

              F#m                E
 don't let me down, don't let me down
|-------------------------------------------------------------------|
|-------------------------------------------------------------------|
|-----------------------------------------9---9----9----------------|
|-----------------------------------------9---9h11-9----------------|
|------------------------------------9h11----------------9--12--11--|
|-------------------------------------------------------------------|

              F#m                E
 don't let me down, don't let me down

|-------------------------------------------------------------------|
|-------------------------------------------------------------------|
|-----------------------------------------9---9----9----------------|
|-----------------------------------------9---9h11-9----------------|
|------------------------------------9h11----------------9--12--11--|
|-------------------------------------------------------------------|

nobody ever loves me like she does
(guitar I)
|------------------------------14\12--12---12\9--9----------------------------------------------------|
|------------------------------14\12--12---12\9--9---10-----------------------------------------------|
|--------------------------------------------------------11\9--9---9\6--6--6/8--8---------------------|
|-----------------------------------------------------------------------------------------------------|
|-----------------------------------------------------------------------------------------------------|
|-----------------------------------------------------------------------------------------------------|

(guitar II)
|-----------------------------------------------------------------------------------------------------|
|---------------------------------------------------------------------------------------5------5------|
|-----------------------------------------------------------------------------------------------------|
|-------------------------------------------------------------------------------6---6h7----6h7---7--6-|
|-----------------------------------------------------------------------------------------------------|
|-----------------------------------------------------------------------------------------------------|

and if somebody ever   ... do me
(guitar I)
|---------------------------14\12--12---12\9--9--------------------------------------------4--4-------|
|---------------------------14\12--12---12\9--9--10--10\-7--7---7\5--4\2--2/5--4---5-------5--5-------|
|-----------------------------------------------------9\-6--6---6\4--4\2--2/4--4---4---4h6-4--4--6----|
|---------------------------------------------------------------------------------------------------6-|
|-----------------------------------------------------------------------------------------------------|
|-----------------------------------------------------------------------------------------------------|

(guitar II)
|-----------------------------------------------------------------------------------------------------|
|---------------------------------------------------------------------------------------5------5------|
|-----------------------------------------------------------------------------------------------------|
|-------------------------------------------------------------------------------6---6h7----6h7---7--6-|
|-----------------------------------------------------------------------------------------------------|
|-----------------------------------------------------------------------------------------------------|

              F#m                E
 don't let me down, don't let me down
|-------------------------------------------------------------------|
|-------------------------------------------------------------------|
|-----------------------------------------9---9----9----------------|
|-----------------------------------------9---9h11-9----------------|
|------------------------------------9h11----------------9--12--11--|
|-------------------------------------------------------------------|

              F#m                E
 don't let me down, don't let me down
|-------------------------------------------------------------------|
|-------------------------------------------------------------------|
|-----------------------------------------9---9----9----------------|
|-----------------------------------------9---9h11-9----------------|
|------------------------------------9h11----------------9--12--11--|
|-------------------------------------------------------------------|

(from "i'm in love for the first time")
|----------------------------------------------------------------------------------------------|
|----------------------------------------------------------------------------------------------|
|---------------------------------------------------------1h2----------------------------------|
|-2--1-----2--------2--------2-----2-----2--------4--1--------4-----6\-2-----4--1--2-----1-----|
|-------------4--------2--------------------2-----------------------------------------4-----2--|
|-------------------------------4-----2--------------------------------------------------------|

(guitar I)
|------------------------------------------------------------------------------|
|------------------------------------------------------------------------------|
|----------2-------------------------------------------------------------------|
|-4--1--------4-----6\-2-----4--1--2-----1-------------------------------------|
|-------------------------------------4----------------------------------------|
|-------------------------------------------0----------------------------------|

|------------------------------------------------------------------------------|
|------------------------------------------------------------------------------|
|----------------------------------------------------9---9----9----------------|
|----------------------------------------------------9---9h11-9----------------|
|-----------------------------------------------9h11----------------9--12--11--|
|------------------------------------------------------------------------------|

              F#m                E
 don't let me down, don't let me down
|-------------------------------------------------------------------|
|-------------------------------------------------------------------|
|-----------------------------------------9---9----9----------------|
|-----------------------------------------9---9h11-9----------------|
|------------------------------------9h11----------------9--12--11--|
|-------------------------------------------------------------------|

              F#m                E
 don't let me down, don't let me down
|-------------------------------------------------------------------|
|-------------------------------------------------------------------|
|-----------------------------------------9---9----9----------------|
|-----------------------------------------9---9h11-9----------------|
|------------------------------------9h11----------------9--12--11--|
|-------------------------------------------------------------------|

 and from the first    ... done me
(guitar I)
|---------------------------14\12--12---12\9--9-------------------------------------------------------|
|---------------------------14\12--12---12\9--9--10--10\-7--7---7\5--4\2--2/5--4----------------------|
|-----------------------------------------------------9\-6--6---7\4--4\2--2/4--4----------------------|
|-----------------------------------------------------------------------------------------------------|
|-----------------------------------------------------------------------------------------------------|
|-----------------------------------------------------------------------------------------------------|

(guitar II)
|-----------------------------------------------------------------------------------------------------|
|---------------------------------------------------------------------------------------5------5------|
|-----------------------------------------------------------------------------------------------------|
|-------------------------------------------------------------------------------6---6h7----6h7---7--6-|
|-----------------------------------------------------------------------------------------------------|
|-----------------------------------------------------------------------------------------------------|

I guess nobody ever     ... done me
(guitar I)
|---------------------------14\12--12---12\9--9-------------------------------------------------------|
|---------------------------14\12--12---12\9--9--10--10\-7--7---7\5--4\2--2/5-----5---5-----5---------|
|-----------------------------------------------------9\-6--6---7\4--4\2--2/4---------4h6---4h6--4----|
|------------------------------------------------------------------------------6-------------------6--|
|-----------------------------------------------------------------------------------------------------|
|-----------------------------------------------------------------------------------------------------|

(guitar II)
|-----------------------------------------------------------------------------------------------------|
|---------------------------------------------------------------------------------------5------5------|
|-----------------------------------------------------------------------------------------------------|
|-------------------------------------------------------------------------------6---6h7----6h7---7--6-|
|-----------------------------------------------------------------------------------------------------|
|-----------------------------------------------------------------------------------------------------|

              F#m                E
 don't let me down, don't let me down
|-------------------------------------------------------------------|
|-------------------------------------------------------------------|
|-----------------------------------------9---9----9----------------|
|-----------------------------------------9---9h11-9----------------|
|------------------------------------9h11----------------9--12--11--|
|-------------------------------------------------------------------|

              F#m                E
 don't let me down, don't let me down
|-------------------------------------------------------------------|
|-------------------------------------------------------------------|
|-----------------------------------------9---9----9----------------|
|-----------------------------------------9---9h11-9----------------|
|------------------------------------9h11----------------9--12--11--|
|-------------------------------------------------------------------|

(piano solo) ( F#m    E    F#m    E )

(outro)
|---------------------------------|
|---------------------------------|
|-------9---9----9----------------|
|-------9---9h11-9----------------|
|--9h11----------------9--12--11--|
|---------------------------------|

----------------- Acordes -----------------
E = 0 2 2 1 0 0
Emaj7 = X X 2 4 4 4
F#m = 2 4 4 2 2 2
