The Beatles - Flying

 Csus4                   C               Csus4           C
E|-------------------------------|-------------------------------|
B|-------------------------------|-------------------------------|
G|-------------------------------|-------------------------------|
D|3-------3-------3-------2------|--------3-------3-------2------|
A|3-------3-------3-------3------|--------3-------3-------3------|
E|-------------------------------|-------------------------------|

 Csus4                   C               Csus4           C
E|-------------------------------|-------------------------------|
B|-------------------------------|-------------------------------|
G|-------------------------------|-------------------------------|
D|3-------3-------3-------2------|--------3-------3-------2------|
A|3-------3-------3-------3------|--------3-------3-------3------|
E|-------------------------------|-------------------------------|

  F7
E|-------------------------------|-------------------------------|
B|-------------------------------|-------------------------------|
G|--------2-------2--------------|--------2-------2-------2------|
D|--------1-------1--------------|--------1-------1-------1------|
A|----3-------------------3------|----3-------3-------3----------|
E|1------------------------------|1------------------------------|


E|-------------------------------|-------------------------------|
B|-------------------------------|------------------4/6-------4--|
G|-------------------------------|----5-------5-----5/7-------5--|
D|-------------------------------|3-------3----------------------|
A|-------------------------------|-------------------------------|
E|-------------------------------|-------------------------------|

           Csus4                   C       Csus4           C
E|-------------------------------|-------------------------------|
B|-------------------------------|-------------------------------|
G|-------------------------------|-------------------------------|
D|--------3-------3-------3------|2-------3-------3-------2------|
A|--------3-------3-------3------|3-------3-------3-------3------|
E|-------------------------------|-------------------------------|

E|-------------------------------|-------------------------------|
B|3-\-1--------------------------|-------------------------------|
G|3-\-2-------3-------5-------3--|-------------------------------|
D|------------5------------------|-------------------------------|
A|-------------------------------|-------------------------------|
E|-------------------------------|-------------------------------|

   G7                              F
E|-------------------------------|-------------------------------|
B|-------------------------------|-------------------------------|
G|-------------------------------|-------------------------------|
D|--------3-------3--------------|--------2-------2-------2------|
A|--------5-------5--------------|--------2-------2-------2------|
E|3------------------------------|1------------------------------|

E|12-\-12 8---7-\ 5---3-- 1-P-0--|1-/-3-- 3---1-/ 3---3-- 1-P-0--|
B|-------------------------------|-------------------------------|
G|12-\-12-9---7-\-5---4---2-P-0--|2-/-4---4---2-/-4---4---2-P-0--|
D|-------------------------------|-------------------------------|
A|-------------------------------|-------------------------------|
E|-------------------------------|-------------------------------|

           C                       G
E|-------------------------------|-------------------------------|
B|-------------------------------|-------------------------------|
G|-------------------------------|-------------------------------|
D|--------2-------2-------2------|-------------------------------|
A|--------3-------3-------3------|-------------------------------|
E|-------------------------------|-------------------------------|

E|----0--------------------------|-------------------------------|
B|1-----------1-------1----------|-------------------------------|
G|----0-----------0--------------|-------------------------------|
D|2-----------2-------2----------|-------------------------------|
A|----------------3---------3\2P0|-------------------------------|
E|-------------------------------|3------------------------------|

   C               Csus4   C                       Csus4   C
E|-------------------------------|-------------------------------|
B|5-----------5---6-------5------|5-------5-------6-------5------|
G|5-----------5---5-------5------|5-------5-------5-------5------|
D|-------------------------------|-------------------------------|
A|-------------------------------|-------------------------------|
E|-------------------------------|-------------------------------|

E|-------------------------------|3------------------------------|
B|-------------------------------|5------------------------------|
G|-------------------------------|5------------------------------|
D|-------------------------------|-------------------------------|
A|-------------------------------|-------------------------------|
E|-------------------------------|-------------------------------|

E|----------------------- 0------|-------------------------------|
B|--------0---1-------3----------|-------------------------------|
G|0------------------------------|-------------------------------|
D|-------------------------------|-------------------------------|
A|-------------------------------|-------------------------------|
E|-------------------------------|-------------------------------|

                   Csus4   C
E|-------------------------------|-------------------------------|
B|5-------5-------6-------5------|--------5-------5-------5------|
G|5-------5-------5-------5------|--------5-------5-------5------|
D|-------------------------------|-------------------------------|
A|-------------------------------|-------------------------------|
E|-------------------------------|-------------------------------|

E|3------------------------------|6------------------------------|
B|5------------------------------|5------------------------------|
G|5------------------------------|5------------------------------|
D|-------------------------------|-------------------------------|
A|-------------------------------|-------------------------------|
E|-------------------------------|-------------------------------|

E|----------------------- 0H1P0--|-------------------------------|
B|--------0---1-------3----------|-------------------------------|
G|0------------------------------|-------------------------------|
D|-------------------------------|-------------------------------|
A|-------------------------------|-------------------------------|
E|-------------------------------|-------------------------------|

   F5
E|-------------------------------|-------------------------------|
B|6-------6-------8-------6------|6-------6-------5-------6------|
G|5-------5-------5-------5------|5-------5-------5-------5------|
D|-------------------------------|-------------------------------|
A|-------------------------------|-------------------------------|
E|-------------------------------|-------------------------------|

E|5------------------------------|5------------------------------|
B|6------------------------------|6------------------------------|
G|5------------------------------|5------------------------------|
D|-------------------------------|-------------------------------|
A|-------------------------------|-------------------------------|
E|-------------------------------|-------------------------------|

E|-------------------------------|-------------------------------|
B|--------0---1-------0----------|-------------------------------|
G|------------------------2------|-------------------------------|
D|3------------------------------|-------------------------------|
A|-------------------------------|-------------------------------|
E|-------------------------------|-------------------------------|

   C               Csus4   C                       Csus4   C
E|-------------------------------|-------------------------------|
B|5-------5-------6-------5------|5-------5-------6-------5------|
G|5-------5-------5-------5------|5-------5-------5-------5------|
D|-------------------------------|-------------------------------|
A|-------------------------------|-------------------------------|
E|-------------------------------|-------------------------------|

E|3------------------------------|3------------------------------|
B|5------------------------------|5------------------------------|
G|5------------------------------|5------------------------------|
D|-------------------------------|-------------------------------|
A|-------------------------------|-------------------------------|
E|-------------------------------|-------------------------------|

E|----------------------- 0------|-------------------------------|
B|--------0---1-------3----------|-------------------------------|
G|0------------------------------|-------------------------------|
D|-------------------------------|-------------------------------|
A|-------------------------------|-------------------------------|
E|-------------------------------|-------------------------------|

   G5                              F5
E|-------------------------------|-------------------------------|
B|8-------8-------5-------6------|6-------5-H-6---5-H-6---8-P-6--|
G|7-------7-------5-------5------|5-------5-------5-------5------|
D|-------------------------------|-------------------------------|
A|-------------------------------|-------------------------------|
E|-------------------------------|-------------------------------|

E|7------------------------------|5------------------------------|
B|8------------------------------|6------------------------------|
G|7------------------------------|5------------------------------|
D|9------------------------------|7------------------------------|
A|-------------------------------|-------------------------------|
E|-------------------------------|-------------------------------|

E|12-\-12 8---7-\ 5---3-- 1-P-0--|1-/-3-- 3---1-/ 3---3-- 1-P-0--|
B|-------------------------------|-------------------------------|
G|12-\-12-9---7-\-5---4---2-P-0--|2-/-4---4---2-/-4---4---2-P-0--|
D|-------------------------------|-------------------------------|
A|-------------------------------|-------------------------------|
E|-------------------------------|-------------------------------|

   C                               G
E|-------------------------------|-------------------------------|
B|5-------5-------6-------5------|6------------------------------|
G|5-------5-------5-------5------|7------------------------------|
D|-------------------------------|-------------------------------|
A|-------------------------------|-------------------------------|
E|-------------------------------|-------------------------------|

E|3------------------------------|3------------------------------|
B|5------------------------------|3------------------------------|
G|5------------------------------|4------------------------------|
D|5------------------------------|5------------------------------|
A|-------------------------------|-------------------------------|
E|-------------------------------|-------------------------------|

E|----0--------------------------|-------------------------------|
B|1-----------1-------1----------|-------------------------------|
G|----0-----------0--------------|-------------------------------|
D|2-----------2-------2----------|-------------------------------|
A|----------------3---------3\2P0|-------------------------------|
E|-------------------------------|3------------------------------|

   C               Csus4           C               Csus4   C
E|-------------------------------|-------------------------------|
B|5---------------6--------------|5-------5-------5H6-----5------|
G|5---------------5--------------|5-------5-------5-------5------|
D|-------------------------------|-------------------------------|
A|-------------------------------|-------------------------------|
E|-------------------------------|-------------------------------|

E|-------------------------------|-------------------------------|
B|-------------------------------|-------------------------------|
G|------------------4/5----------|--------------4/5--------------|
D|------------------6/7----------|--------------6/7--------------|
A|3------------------------------|3------------------------------|
E|-------------------------------|-------------------------------|

E|3------------------------------|3------------------------------|
B|5------------------------------|5------------------------------|
G|5------------------------------|5------------------------------|
D|-------------------------------|-------------------------------|
A|-------------------------------|-------------------------------|
E|-------------------------------|-------------------------------|

                  Csus4           C               Csus4   C
E|-------------------------------|-------------------------------|
B|5---------------6--------------|5-------5-------5H6-----5------|
G|5---------------5--------------|5-------5-------5-------5------|
D|-------------------------------|-------------------------------|
A|-------------------------------|-------------------------------|
E|-------------------------------|-------------------------------|

E|-------------------------------|-------------------------------|
B|-------------------------------|-------------------------------|
G|------------------4/5----------|--------------4/5--------------|
D|------------------6/7----------|--------------6/7--------------|
A|3------------------------------|3------------------------------|
E|-------------------------------|-------------------------------|

E|3------------------------------|6------------------------------|
B|5------------------------------|5------------------------------|
G|5------------------------------|5------------------------------|
D|-------------------------------|-------------------------------|
A|-------------------------------|-------------------------------|
E|-------------------------------|-------------------------------|

  F5
E|-------------------------------|-------------------------------|
B|6-------5---8-------6---6------|6-------6-------8-------6------|
G|5-------5---5-------5---5------|5-------5-------5-------5------|
D|-------------------------------|-------------------------------|
A|-------------------------------|-------------------------------|
E|-------------------------------|-------------------------------|

E|-------------------------------|-------------------------------|
B|-------------------------------|-------------------------------|
G|-------------------------------|-------------------------------|
D|1-------1-------1-------1------|1-------1-------1--------------|
A|3-------3-------3-------3------|3-------3-------3-------3------|
E|-------------------------------|-------------------------------|

E|-------------------------------|-------------------------------|
B|-------------------------------|--5/6---5---3-------1----------|
G|-------------------------------|--5/7---5---3-------2----------|
D|3------------------------------|-------------------------------|
A|-------------------------------|-------------------------------|
E|-------------------------------|-------------------------------|

E|5------------------------------|5------------------------------|
B|6------------------------------|6------------------------------|
G|5------------------------------|5------------------------------|
D|-------------------------------|-------------------------------|
A|-------------------------------|-------------------------------|
E|-------------------------------|-------------------------------|

  C               Csus4           C               Csus4   C
E|-------------------------------|-------------------------------|
B|5---------------6--------------|5-------5-------5H6-----5------|
G|5---------------5--------------|5-------5-------5-------5------|
D|-------------------------------|-------------------------------|
A|-------------------------------|-------------------------------|
E|-------------------------------|-------------------------------|

E|-------------------------------|-------------------------------|
B|-------------------------------|-------------------------------|
G|-------------------------------|---------------/5--------------|
D|-------------------------------|------------5-5/7--------------|
A|-------------------------------|3------------------------------|
E|-------------------------------|-------------------------------|

E|3------------------------------|3------------------------------|
B|5------------------------------|5------------------------------|
G|5------------------------------|5------------------------------|
D|-------------------------------|-------------------------------|
A|-------------------------------|-------------------------------|
E|-------------------------------|-------------------------------|

   G5                              F5
E|-------------------------------|-------------------------------|
B|8-------8-------5-------6------|6---------------6-------8------|
G|7-------7-------5-------5------|5---------------5-------5------|
D|-------------------------------|-------------------------------|
A|-------------------------------|-------------------------------|
E|-------------------------------|-------------------------------|

E|7------------------------------|5------------------------------|
B|8------------------------------|6------------------------------|
G|7------------------------------|5------------------------------|
D|-------------------------------|-------------------------------|
A|-------------------------------|-------------------------------|
E|-------------------------------|-------------------------------|

E|12-\-12 8---7-\ 5---3-- 1-P-0--|1-/-3-- 3---1-/ 3---3-- 1-P-0--|
B|-------------------------------|-------------------------------|
G|12-\-12-9---7-\-5---4---2-P-0--|2-/-4---4---2-/-4---4---2-P-0--|
D|-------------------------------|-------------------------------|
A|-------------------------------|-------------------------------|
E|-------------------------------|-------------------------------|

   C
E|-------------------------------|-------------------------------|
B|5-------5-------6-------5------|5------------------------------|
G|5-------5-------5-------5------|5------------------------------|
D|-------------------------------|-------------------------------|
A|-------------------------------|-------------------------------|
E|-------------------------------|-------------------------------|

E|3------------------------------|3------------------------------|
B|5------------------------------|5------------------------------|
G|5------------------------------|5------------------------------|
D|5------------------------------|5------------------------------|
A|-------------------------------|-------------------------------|
E|-------------------------------|-------------------------------|

E|------- 0----------------------|0------------------------------|
B|1---------------1--------------|1------------------------------|
G|--------0---------------0------|0------------------------------|
D|2---------------2--------------|2------------------------------|
A|------------------------3------|3------------------------------|
E|-------------------------------|0------------------------------|


E|-------------------------------|------- 12H13H12H13H12H13H12H13|
B|-------------------------------|-------------------------------|
G|-------------------------------|-------------------------------|
D|-------------------------------|-------------------------------|
A|-------------------------------|-------------------------------|
E|-------------------------------|-------------------------------|

E|-------------------------------|--------------- 7H8-7H8 7------|
B|-------------------------------|----------------------------8--|
G|-------------------------------|-----------------------------10|
D|-------------------------------|-------------------------------|
A|-------------------------------|-------------------------------|
E|-------------------------------|-------------------------------|

e|12H13H12H13H12H13H12H13H12H13H12H13H12h13H12H13H12H13H12H13H12H|
B|---------------------------------------------------------------|
G|---------------------------------------------------------------|
D|---------------------------------------------------------------|
A|---------------------------------------------------------------|
E|---------------------------------------------------------------|

E|---8---------------------12------13--------10----------10------|
B|------10--8-----12--13--13-13-15-----13-15-----12-10------12---|
G|------------10---------12----------------------------12--------|
D|---------------------------------------------------------------|
A|---------------------------------------------------------------|
E|---------------------------------------------------------------|

E|---------------------------------------------------------------|
B|---------------------------------------------------------------|
G|--------------------------------------2------------------------|
D|--------------------------------------2------------------------|
A|--------------------------------------3------------------------|
E|--------------------------------------5------------------------|

e|12H13H12H13H12H13H12H13H12H13H12h13h12131213 12H13 12H13 12H13
B|---------------------------------------------------------------|
G|---------------------------------------------------------------|
D|---------------------------------------------------------------|
A|---------------------------------------------------------------|
E|---------------------------------------------------------------|

E|------------------7---5----------------------------------------|
B|13-12--10-----8--6------8-5---8--------------------------------|
G|------------9--------------------------------------------------|
D|---------------------------------------------------------------|
A|---------------------------------------------------------------|
E|---------------------------------------------------------------|

E|---------------------------------------------------------------|
B|---------------------------------------------------------------|
G|---------------------------------------1----2----2-------------|
D|----------------------------------------------------------4----|
A|------------------------------------------0----0------0--------|
E|---------------------------------------------------------------|

E|13--13---13----------------------------------------------------|
B|-------------13--10-12-----------------------------------------|
G|----------------------14P12--14--------------------------------|
D|---------------------------14------14-12---12------------------|
A|----------------------------------------14------12-1415-14-12--|
E|-------------------------------------------------------------13|

E|---------------------------------------------------------------|
B|---------------------------------------------------------------|
G|---------------------------------------------------------------|
D|-----4---4---4---------------------4---------4-------4-----4---|
A|0-------------------------------0---------0--------------------|
E|--------------------------------------------------4------2-----|

E|----------------------------17---------------------------------|
B|---------------------------17---------------------------------8|
G|-------------------------------------------------------------9-|
D|-------------------------------------------------------12--10--|
A|-14---------------------------12-14151413-14-12-1412--15-12----|
E|-----12-13--12-15--12-12-13-----------------15-13--------------|

E|---------------------------------------------------------------|
B|---------------------------------------------------------------|
G|---------------------------------------------------------------|
D|---4---------4----------------4-----------4------4------4-----4|
A|------------------------------------0--------------------------|
E|2--------2--------2---2---2------------4------4------4-----4---|

----------------- Acordes -----------------
C = X 3 2 0 1 0
Csus4 = X 3 3 0 1 X
F = 1 3 3 2 1 1
F5 = 1 3 3 X X X
F7 = 1 3 1 2 1 1
G = 3 2 0 0 0 3
G5 = 3 5 5 X X X
G7 = 3 5 3 4 3 3
