The Beatles - Long Tall Sally

I'm gonna tell Aunt Mary 'bout Uncle John
He says he has the blues but he has a lotta fun.
Oh baby, yeeeeh now baby, woooooh baby
Some fun tonight.

I saw Uncle John with long tall Sally
He saw Aunt Mary commin'
And he ducked back in the alley.
Oh baby, yeeeeh now baby, woooooh baby
Some fun tonight.

Solo

Well long tall Sally built pretty sweet
She got everything that Uncle John needs
Oh baby
Yeeeeh now baby
Woooooh baby
Some fun tonight

Solo


Well We're gonna have some fun tonight
Have some fun tonight.
Everything's allright.
Have some fun tonight
Have some fun
Yeh yeh yeh

We're gonna have some fun tonight.
Have some fun tonight
Everything's allright.
Have some fun tonight
Yeah we'll have some fun
Some fun tonight
                                               I'm
                                                   gonna

  G
e|------ ------ ------ ------|------ ------ ------ ------|
B|-----------------3---------|-----------------3---------|
G|-----------------5B7-------|-----------------5B7--R--5-|
D|---------------------------|---------------------------|
A|---------------------------|---------------------------|
E|---------------------------|---------------------------|
  tell   Aunt   Mary         'bout   Uncle  John      He

e|------ ------ ------ ------|------ ------ ------ ------|
B|---------------------------|--3------------------------|
G|---------------------------|--5B7R5--------------------|
D|---------------------------|---------------------------|
A|---------------------------|---------------------------|
E|---------------------------|---------------------------|

     he     the           he     a      of     oh

  00:06
  C7
e|------ ------ ------ ------|------ ------ ------ ------|
B|---------------------------|---------------------------|
G|-9------9------9------9---9|-----9--9------9------9----|
D|-8------8------8------8---8|-----8--8------8------8----|
A|10-----12-----10-----12--10|----10-12-----10-----12----|
E|-8------8------8------8---8|-----8--8------8------8----|
                                 Yeah          now    baby

  G7
e|------ ------ ------ ------|------ ------ ------ ------|
B|---------------------------|---------------------------|
G|-4------4------4------4---4|-----4--4------4------4----|
D|-3------3------3------3---3|-----3--3------3------3----|
A|-5------7------5------7---5|-----5--7------5------7----|
E|-3------3------3------3---3|-----3--3------3------3----|
                              Woooooooooooooooooooh   baby

  D7                          C7
e|------ ------ ------ ------|------ ------ ------ ------|
B|---------------------------|---------------------------|
G|11--11-11-----11-----11----|-9--9---9------9------9----|
D|10--10-10-----10-----10----|-8--8---8------8------8----|
A|12--12-14-----12-----14----|10-10--12-----10-----12----|
E|10--10-10-----10-----10----|-8--8---8------8------8----|
                                        some   fun
                                                   tonight
  G7
e|------ ------ ------ ------|------ ------ ------ ------|
B|---------------------------|-----------3------3---3----|
G|-4------4------4------4----|4----------5------5---5----|
D|-3------3------3------3----|3----------4------4---4----|
A|-5------7------5------7----|5----------5------5---5----|
E|-3------3------3------3----|3--------------------------|
                                                      I
e|------ ------ ------ ------|------ ------ ------ ------|
B|---------------------------|----------3----------------|
G|---------------------------|----------5B7--------------|
D|---------------------------|---------------------------|
A|---------------------------|---------------------------|
E|---------------------------|---------------------------|

  00:17
  G5                   F5 F#5 G5                    F5 F#5
e|------ ------ ------ ------|------ ------ ------ ------|
B|---------------------------|---------------------------|
G|---------------------------|---------------------------|
D|5------------------5--3-/-4|-5-----------------5--3-/-4|
A|5------------------5--3-/-4|-5-----------------5--3-/-4|
E|3------------------3--1-/-2|-3-----------------3--1-/-2|
  saw       John          with       tall   Sally      He
     Uncle                    long
e|------ ------ ------ ------|------ ------ ------ ------|
B|-----------------3---------|-----------------3---------|
G|-----------------5B7-------|-----------------5B7-------|
D|---------------------------|---------------------------|
A|---------------------------|---------------------------|
E|---------------------------|---------------------------|

  G5
e|------ ------ ------ ------|------ ------ ------ ------|
B|---------------------------|---------------------------|
G|---------------------------|---------------------------|
D|5--------------------------|---------------------------|
A|5--------------------------|---------------------------|
E|3--------------------------|---------------------------|
  saw    Mary   commin'   he  ducked in      alley oh baby
     Aunt              and       back   the
e|------ ------ ------ ------|------ ----3- ------ ------|
B|------------------------3--|-------3-------------------|
G|------------------------5B7|-------5B7-----------------|
D|---------------------------|---------------------------|
A|---------------------------|---------------------------|
E|---------------------------|---------------------------|

  C7
e|------ ------ ------ ------|------ ------ ------ ------|
B|---------------------------|---------------------------|
G|-9--9---9------9------9---9|-----9--9------9------9----|
D|-8--8---8------8------8---8|-----8--8------8------8----|
A|10-10--12-----10-----12--10|----10-12-----10-----12----|
E|-8--8---8------8------8---8|-----8--8------8------8----|
                                 Yeah          now    baby

  G7
e|------ ------ ------ ------|------ ------ ------ ------|
B|---------------------------|---------------------------|
G|-4------4------4------4---4|-----4--4------4------4----|
D|-3------3------3------3---3|-----3--3------3------3----|
A|-5------7------5------7---5|-----5--7------5------7----|
E|-3------3------3------3---3|-----3--3------3------3----|
                              Wooooooooooooooooooh    baby

  D7                          C7
e|------ ------ ------ ------|------ ------ ------ ------|
B|---------------------------|---------------------------|
G|11--11-11-----11-----11----|-9------9------9------9----|
D|10--10-10-----10-----10----|-8------8------8------8----|
A|12--12-14-----12-----14----|10-----12-----10-----12----|
E|10--10-10-----10-----10----|-8------8------8------8----|
                                        some   fun
                                                   tonight
                                            SOLO
  G7
e|------ ------ ------ ------|------ ------ ------ ------|
B|---------------------------|---------------------------|
G|-4------4------4------4---4|-----4--4------4------4----|
D|-3------3------3------3---3|-----3--3------3------3----|
A|-5------7------5------7---5|-----5--7------5------7----|
E|-3------3------3------3---3|-----3--3------3------3----|

e|------ ------ ------ ------|7-7-7- 7-7-7- 7-7-7- 7-7-7-|
B|---------------------------|6-6-6--6-6-6--6-6-6--6-6-6-|
G|---------------------------|7-7-7--7-7-7--7-7-7--7-7-7-|
D|---------------------------|---------------------------|
A|---------------------------|---------------------------|
E|---------------------------|---------------------------|

  00:34
  ^                           ^
e/7--7-- 7--7-- 7--7-- 7--7-/|7--7-- 7--7-- 7--7-- 7--7--|
B/6--6---6--6---6--6---6--6-/|6--6---6--6---6--6---6--6--|
G/7--7---7--7---7--7---7--7-/|7--7---7--7---7--7---7--7--|
D|---------------------------|---------------------------|
A|---------------------------|---------------------------|
E|---------------------------|---------------------------|

  ^         ^          ^         ^
e/7--7-- 7-/7-- 7--7-/ 7--7--|7-/7-- 7--7-- 7--7-- 7--7--|
B/6--6---6-/6---6--6-/-6--6--|6-/6---6--6---6--6---6--6--|
G/7--7---7-/7---7--7-/-7--7--|7-/7---7--7---7--7---7--7-\|
D|---------------------------|---------------------------|
A|---------------------------|---------------------------|
E|---------------------------|---------------------------|

  C7
e|------ ------ ------ ------|------ 3--6-- 3----- ----3-|
B|---------------------------|3--6---3------3---3--------|
G|5--3------3----------3--5--|---------------------------|
D|-------5---------5---------|---------------------------|
A|---------------------------|---------------------------|
E|---------------------------|---------------------------|

  G7
e|5--3-- ------ 3----- ------|------ 3----- ------ ------|
B|-------6--5---3------3-----|3------3-------------------|
G|---------------------------|5-B-7-----7---5------------|
D|---------------------------|-----------------7---------|
A|---------------------------|---------------------------|
E|---------------------------|---------------------------|

  D7                          C7
e|------ ------ ------ ------|------ ------ ------ ------|
B|5------5------5--5------7B8|-------8--7---5---------3--|
G|5------5------5--5------7B8|----------7---5---------5B7|
D|----------7----------------|---------------------------|
A|---------------------------|---------------------------|
E|---------------------------|---------------------------|

  G7                          D7
e|------ 3----- ------ ------|------ ------ ------ ------|
B|-------3--5---3----------3-|----------3-------3--------|
G|----------5---3----------3-|----------5-------5--------|
D|-----------------5---------|----------4-------4--------|
A|---------------------------|----------5-------5--------|
E|---------------------------|---------------------------|
                                               Well
  00:51
  G5                   F5 F#5 G5                    F5 F#5
e|------ ------ ------ ------|------ ------ ------ ------|
B|---------------------------|---------------------------|
G|---------------------------|---------------------------|
D|5------------------5--3-/-4|-5-----------------5--3-/-4|
A|5------------------5--3-/-4|-5-----------------5--3-/-4|
E|3------------------3--1-/-2|-3-----------------3--1-/-2|
  Long   tall   Sally  built         pretty    she's
                                            sweet  got
e|------ ------ ------ ------|------ ------ ------ ------|
B|-----------------3---------|-----------------3---------|
G|-----------------5B7-------|-----------------5B7-------|
D|---------------------------|---------------------------|
A|---------------------------|---------------------------|
E|---------------------------|---------------------------|

  G5
e|------ ------ ------ ------|------ ------ ------ ------|
B|---------------------------|---------------------------|
G|---------------------------|---------------------------|
D|5--------------------------|---------------------------|
A|5--------------------------|---------------------------|
E|3--------------------------|---------------------------|
         everything    that          John   needs     baby
                          Uncle                oh
e|------ ------ ------ ------|----3- ------ ------ ------|
B|-------------------------3-|----3----------------------|
G|--------------------------5B7--------------------------|
D|---------------------------|---------------------------|
A|---------------------------|---------------------------|
E|---------------------------|---------------------------|

  C7
e|------ ------ ------ ------|------ ------ ------ ------|
B|---------------------------|---------------------------|
G|-9------9------9------9----|-----9--9------9------9----|
D|-8------8------8------8----|-----8--8------8------8----|
A|10-----12-----10-----12----|----10-12-----10-----12----|
E|-8------8------8------8----|-----8--8------8------8----|
                                 Yeah          now    baby

  G7
e|------ ------ ------ ------|------ ------ ------ ------|
B|---------------------------|---------------------------|
G|-4------4------4------4---4|-----4--4------4------4----|
D|-3------3------3------3---3|-----3--3------3------3----|
A|-5------7------5------7---5|-----5--7------5------7----|
E|-3------3------3------3---3|-----3--3------3------3----|
                              Wooooooooooooooooooooh  baby

  D7                          C7
e|------ ------ ------ ------|------ ------ ------ ------|
B|---------------------------|---------------------------|
G|11-11--11-----11---------9-|-9---9--9------9-----------|
D|10-10--10-----10---------8-|-8---8--8------8-----------|
A|12-12--14-----12--------10-|10--12-12-----10-----------|
E|10-10--10-----10---------8-|-8---8--8------8-----------|
                                        some   fun
                                                   tonight

e|------ ------ ------ ------|------ ------ ------ ----15|
B|11-----13B15--13B15-13B15--|-------13-B-15-------------|
G|---------------------------|---------------------------|
D|---------------------------|---------------------------|
A|---------------------------|---------------------------|
E|---------------------------|---------------------------|

  SOLO
  01:07
  G7
e|15---- ------ ----15 ----15|15---- ------ ----15 ----15|
B|---------------------------|---------------------------|
G|----12----12--12-----------|----12----12--12-----------|
D|---------------------------|---------------------------|
A|---------------------------|---------------------------|
E|---------------------------|---------------------------|

e|15---- ----16 ------ 17----|----18 ------ 19---- ----20|
B|---------------------------|---------------------------|
G|----12--------13---------14|-------15---------16-------|
D|---------------------------|---------------------------|
A|---------------------------|---------------------------|
E|---------------------------|---------------------------|

  C7
e|------ ------ ------ ------|------ ------ ------ ------|
B|---------------------------|5-B-6-----6---5------------|
G|17------------5B6----------|5-B-6-----6-R-5--3---------|
D|---------------------------|---------------------5-----|
A|---------------------------|---------------------------|
E|---------------------------|---------------------------|

  G7
e|------ ------ ------ ------|3--6B7 ----3- ------ ------|
B|---------------------3---5-|---------------------------|
G|--------------3---5--------|-------------------------6-\
D|5------5-------------------|---------------------------|
A|---------------------------|---------------------------|
E|---------------------------|---------------------------|

  D7                          C7
e|------ ------ ------ ------|------ ------ ------ ------|
B|---------------------------|---------------------------|
G|5---3---------3------3-----|5-B-7--5-B-7-R-5--3--------|
D|-------5----------5------5-|---------------------5----/|
A|---------------------------|---------------------------|
E|---------------------------|---------------------------|

  G7
e|------ ------ ------ ------|------ ------ ------ ------|
B|---------------------------|---------------------------|
G|---------------------------|---------------------------|
D|---------------------------|---------------------------|
A|5--5---3-/-5-----3-/-5-----|3-/-5-----3-/-5------3-----|
E|---------------------------|---------------------------|
                          Yeah                 we're
  G                                                gonna

  01:24
e|------ ------ ------ ------|------ ------ ------ ------|
B|-------12---------12-------|12---------12-----12-------|
G|-------12---------12-------|12---------12-----12-------|
D|-------12---------12-------|12---------12-----12-------|
A|-------10---------10-------|10---------10-----10-------|
E|---------------------------|---------------------------|


e|------ ------ ------ ------|------ ------ ------ ------|
B|-------12---------12-------|12-----12---------12-------|
G|-------12---------12-------|12-----12---------12-------|
D|-------12---------12-------|12-----12---------12-------|
A|-------10---------10-------|10-----10---------10-------|
E|---------------------------|---------------------------|


  C
e|------ ------ ------ ------|------ ------ ------ ------|
B|---------------------------|---------------------------|
G|--------9------7-/-9-------|-9------9------7-/-9-------|
D|-------10------8-/10-------|10-----10------8-/-9-------|
A|-------10------8-/10-------|10-----10------8-/10-------|
E|--------8------6-/-8-------|-8------8------6-/10-------|
     everything's  allright                           have

  G
e|------ ------ ------ ------|------ ------ ------ ------|
B|-------12---------12-------|12-----12---------12-------|
G|-------12---------12-------|12-----12---------12-------|
D|-------12---------12-------|12-----12---------12-------|
A|-------10---------10-------|10-----10---------10-------|
E|---------------------------|---------------------------|


  D7                          C7
e|------ 8----- ----8- ------|------ 6----- ----6- ------|
B|-------7----------7--------|-------5----------5--------|
G|-------5----------5--------|-------3----------3--------|
D|-------7----------7--------|-------5----------5--------|
A|-------5----------5--------|-------3----------3--------|
E|---------------------------|---------------------------|
     some   fun                         Yeah          yeah

  G
e|------ ------ ------ ------|------ ------ ------ ------|
B|-------12-----10--12-------|12-----12-----10--12-------|
G|-------12-----10--12-------|12-----12-----10--12-------|
D|-------12-----10--12-------|12-----12-----10--12-------|
A|-------10------8--10-------|10-----10------8--10-------|
E|---------------------------|---------------------------|

                                                   gonna
  01:41
e|------ ------ ------ ------|------ ------ ------ ------|
B|-------12-----10--12-------|12-----12-----10--12-------|
G|-------12-----10--12-------|12-----12-----10--12-------|
D|-------12-----10--12-------|12-----12-----10--12-------|
A|-------10------8--10-------|10-----10------8--10-------|
E|---------------------------|---------------------------|


e|------ ------ ------ ------|------ ------ ------ ------|
B|-------12-----10--12-------|12-----12-----10--12-------|
G|-------12-----10--12-------|12-----12-----10--12-------|
D|-------12-----10--12-------|12-----12-----10--12-------|
A|-------10------8--10-------|10-----10------8--10-------|
E|---------------------------|---------------------------|


  C
e|------ ------ ------ ------|------ ------ ------ ------|
B|---------------------------|---------------------------|
G|--------9------7-/-9-------|-9------9------7-/-9-------|
D|-------10------8-/10-------|10-----10------8-/-9-------|
A|-------10------8-/10-------|10-----10------8-/10-------|
E|--------8------6-/-8-------|-8------8------6-/10-------|
   rything's        allright                           have

  G
e|------ ------ ------ ------|------ ------ ------ ------|
B|-------12-----10--12-------|12-----12-----10--12-------|
G|-------12-----10--12-------|12-----12-----10--12-------|
D|-------12-----10--12-------|12-----12-----10--12-------|
A|-------10------8--10-------|10-----10------8--10-------|
E|---------------------------|---------------------------|

                                                   we'll

  D                           C
e|------ ------ ------ ------|------ ------ ------ ------|
B|---------------------------|---------------------------|
G|-------11------9--11-------|-9------9------7---9-------|
D|-------12-----10--12-------|10-----10------8--10-------|
A|-------12-----10--12-------|10-----10------8--10-------|
E|-------10------8--10-------|-8------8------6---8-------|
     some         fun                   some       tonight
                                               fun
  01:55
  G                                               G6/9
e|------ 3----- ------ ------|------ ------ ------ 5-----|
B|3------3----7-5--5---5-----|5--5---5-------------5-----|
G|5-B-7-------7-5--5---5-----|5--5---5-------------4-----|
D|------------------------7--|----------7----------3-----|
A|---------------------------|---------------------5-----|
E|---------------------------|------------------3--------|
  G                                                (.
e|------ ------ ------ ------|------ ------ ------ 10----|
B|---------------------------|---------------------10----|
G|---------------------------|---------------------10----|
D|---------------------------|---------------------12----|
A|-----2--------3------4-----|5--3-\-1-------------10----|
E|3--------------------------|----------3----------------|

----------------- Acordes -----------------
C = X 3 2 0 1 0
C7 = X 3 2 3 1 X
D = X X 0 2 3 2
D7 = X X 0 2 1 2
F#5 = 2 4 4 X X X
F5 = 1 3 3 X X X
G = 3 2 0 0 0 3
G5 = 3 5 5 X X X
G6/9 = X X 5 4 5 5
G7 = 3 5 3 4 3 3
