The Beatles - Norwegian  Wood

Tocar com “Capo” na segunda casa do instrumento.

    D + Solo da Cítara (veja o fim da tablatura)
e|------2-2-2-------------------2-2-2----------------|
B|--3---3-3-3---3---3---3-------3-3-3-------3--------|
G|--2---2-2-2---4---2---0---2---2-2-2---0---0---2----|
D|--0-----------------------4-----------2-------4----|
A|---------------------------------------------------|
E|---------------------------------------------------|


    D           C       G   D
e|------2-2-2-------------------2-2-2-2-----2--------|
B|--3---3-3-3-------3-------3---3-3-3-3-----3--------|
G|--2---2-2-2-------0-------2---2-2-2-2-2---2--------|
D|--0-------------------0---0-----------0------------|
A|--------------3-------2---0------------------------|
E|---------------------------------------------------|


She showed me her room isn't it good, Norwegian wood.


-----------------------------------------------------

    Dm
e|--1---1-1-1---1---0-0-0---0------------------------|
B|--3---3-3-3---3---3-3-3---3---3-3-3----------------|
G|--2---2-2-2---2---0-0-0---0---2-2-2---2---0---2----|
D|--0-----------0-----------0-----------3---0---3----|
A|--0-----------0-----------0------------------------|
E|---------------------------------------------------|


    G
e|--3---3-3-3-3-----3-3-3-3-----3-3-3-3-----3--------|
B|--3---3-3-3-3-----3-3-3-3-----3-3-3-3-----3--------|
G|--0---0-0-0-0-----0-0-0-0-----0-0-0-0-----0--------|
D|--0---0-0-0-0-0---0-0-0-0-----0-0-0-0-0---0--------|
A|--2-------------------------------------------0----|
E|--3-----------------------3------------------------|


    Dm
e|--1---1-1-1---1---0-0-0---0------------------------|
B|--3---3-3-3---3---3-3-3---3---3-3-3----------------|
G|--2---2-2-2---2---0-0-0---0---2-2-2---2---0---2----|
D|--0-----------0-----------0-----------3---0---3----|
A|--0-----------0-----------0-----------0------------|
E|---------------------------------------------------|


      Em7                     A7
e|--0---0-0-0-0-----0-----0-0---0-0-0-0-0------------|
B|--3---3-3-3-3-----3-----3-2---2-2-2-2-2------------|
G|--0---0-0-0-0-----0-----0-0---0-0-0-0-0------------|
D|--2---2-2-2-2-2-----------2---2-2-2-2-2------------|
A|--2-----------2-----------0-----------0------------|
E|---------------------------------------------------|


------------------------------------------------------ 

   I sat on a rug biding my time, drinking her wine
   We talked until two, and then she said “It's time for bed”

   She told me she worked in the morning and started to laugh
   I told her a I didn't crawled off to sleep in the bath

   And, when I awoke, I Was alone, this bird has flown
   So, I lit a fire, isn't it good, Norwegian wood

Encerramento:

      D
e|---------------------------------------------------|
B|--3---3-3-3---3---3---3-------3-3-3-------3--------|
G|--2---2-2-2---4---2---0---2---2-2-2---0---0---2----|
D|--0-----------------------4-----------2-------4----|
A|---------------------------------------------------|
E|---------------------------------------------------|

      D           C       G   D
e|---------------------------------------------------|
B|--3---3-3-3-------3-------3------------------------|
G|--2---2-2-2-------0-------2------------------------|
D|--0-------------------0---0------------------------|
A|--------------3-------2---0------------------------|
E|---------------------------------------------------|

Solo da Cítara (Capo na segunda casa)

e|---------------------------------------------------|
B|---------------------------------------------------|
G|-2---2/4/2---------------------0-------------------|
D|------------5-4---2-5-4-0--------------------------|
A|---------------------------2/3---2-0---------------|
E|---------------------------------------------------|

----------------- Acordes -----------------
Capotraste na 2ª casa
A7*  = X 0 2 0 2 0 - (*B7 na forma de A7)
C*  = X 3 2 0 1 0 - (*D na forma de C)
D*  = X X 0 2 3 2 - (*E na forma de D)
Dm*  = X X 0 2 3 1 - (*Em na forma de Dm)
Em7*  = 0 2 2 0 3 0 - (*F#m7 na forma de Em7)
G*  = 3 2 0 0 0 3 - (*A na forma de G)
