Saia Rodada - Eu Vou Te Dar

Intro 4x: C#m  A  E  B

E                         B
Sem querer eu comecei me apaixonar
F#m                     A               B
Por você e agora ta sem jeito não posso mais controlar
E                         B
Esse amor que invadiu meu coração
F#m                     A             B
Por favor eu to daquele jeito,eu só escuto avião

         C#m        A               E
Mas isso passa passageiro se fosse amor tenho certeza
    B
Saberia o que fazer,
         C#m            A
Não me entrego tão facilmente
           E                      B
Qualquer garota sabe muito bem o que eu quero dizer
F#m                      A                          B
Calma solange eu prometo que voce não vai se arrepender


          C#m
Eu vou te dar o que quiser
             A
Porque eu senti que esse
              E
Nosso amor combina vai ser
   B                        C#m
Gostoso te amar eu quero um beijo
                            A
Eu quero um cheiro eu quero tudo namorar
         E              B
Com as meninas você vai ter que me dar

----------------- Acordes -----------------
A = X 0 2 2 2 0
B = X 2 4 4 4 2
C#m = X 4 6 6 5 4
E = 0 2 2 1 0 0
F#m = 2 4 4 2 2 2
