Léo Santana - Ela Desce

[Intro]  F#m  C#  F#m  E  F#m

F#m
Hoje é dia de baile só pra inocentes
Que hoje está carente
                C#  Bm  A
Tá querendo dançar
                     F#m
Quando escuta o paredão

Ela desce, ela desce, ela dedededesce
Ela desce, ela desce
Na frente do paredão

----------------- Acordes -----------------
A = X 0 2 2 2 0
Bm = X 2 4 4 3 2
C# = X 4 6 6 6 4
E = 0 2 2 1 0 0
F#m = 2 4 4 2 2 2
