Léo Santana - Me Domina

( Gm7  Gm7  Cm7  Dm7 )  2x

Gm7                        Cm7          Dm7
Me domina vai, me domina vai com seu jeito de me olhar
Gm7                        Cm7          Dm7
Me domina vai, me domina vai  querendo me provocar

Gm7
Quando eu te vi , em meio a multidão
Cm7      Dm7
coração parou no momento
Gm7
Chuva de paixão , até soltei rojão
Cm7     Dm7
Eu fiz festa pra você
Gm7                      Cm7    Dm7
quero ter você na minha ,quero estar em seu domínio
Gm7                      Cm7    Dm7
Em você fazer denguinho ,Vem pra cá , bailar comigo
Gm7                      Cm7    Dm7
quero ter você na minha ,quero estar em seu domínio

Gm7                      Cm    Dm7
Em você fazer denguinho ,Vem pra cá , bailar comigo

Gm7                  Cm7       Dm7
Olhe o movimento(2x) mexendo , mexendo
Gm7                  Cm7       Dm7
Olhe o movimento(2x) caliente descendo(2x)

Gm7                        Cm7          Dm7
Me domina vai, me domina vai com seu jeito de me olhar
Gm7                        Cm7          Dm7
Me domina vai, me domina vai  querendo me provocar.

----------------- Acordes -----------------
Cm = X 3 5 5 4 3
Cm7 = X 3 5 3 4 3
Dm7 = X 5 7 5 6 5
Gm7 = 3 X 3 3 3 X
