Netinho - Essa Garota

Introdução :C#m7 F#7 (Bm7 E7 A7+ F#7 Bm7 E7 A7+ F#7
                                         Bm7 E7 A7+ F#7 Bm7 E7 A7+  C#m7 F#7)


      Bm7           E7
Essa garota tá me olhando
        A7+             F#7
Essa garota tá me dando bola
       Bm7
Essa garota tá me paquerando
E7      A7+   C#m7 F#7
Tá me olhando
      Bm7           E7
Essa garota tá me olhando
        A7+             F#7
Essa garota tá me dando bola
       Bm7
Essa garota tá me paquerando
E7      A7+   F#7
Tá me olhando
Bm7                E7        C#m7  F#7
Essa garota tem um brilho especial

Bm7                   E7      C#m7  F#7
Essa garota veio do espaço sideral
           Bm7    E7       A7+
Estou alucinado, estou apaixonado
F#7  Bm7      E7      A7+ F#7
Ela balançou meu carnaval
        Bm7         E7            C#m7 F#7
Vou convidar essa menina pra um luau
Bm7                 E7         C#m7 F#7
Hawaii ou Maresias, vai ser demais
                Bm7
Será que vai chover
E7                A7+
Será que vai dar sol
F#7               Bm7
Será que vai dar praia
E7            A7+ F#7
Vamos pra gandaia.

                Bm7
Será que vai chover
E7                A7+
Será que vai dar sol
F#7               Bm7
Será que vai dar praia
E7            A7+
Vamos pra gandaia.

----------------- Acordes -----------------
A7+ = X 0 2 1 2 0
Bb = X 1 3 3 3 1
Bm7 = X 2 4 2 3 2
C#m7 = X 4 6 4 5 4
E7 = 0 2 2 1 3 0
F#7 = 2 4 2 3 2 2
