﻿Netinho - Milla

Intr:-
E|---4---5---4-----------X---9-------------------------------------------X---9-------|
B|---5-----------5-------9-------9---7---5---6---5---6-------------------9-------9---|
G|---4---------------4---6---6-------4-------------------4-------4---6---6---6-------|
D|-----------------------5-------6---4-----------------------6-----------5-------6---|
A|-----------------------7-----------------------------------------------7-----------|
E|-----------------------5-----------4-----------------------------------5-----------|


E|-------------------4-------7------11------16---------------9-----------------------|
B|---7---5---4---5-------5------11------16-----------9---------------9---------------|
G|---4---------------------------------------------------6-------------------7-------|
D|---4-------------------------------------------6---------------6-------4-----------|
A|-----------------------------------------------------------------------------------|
E|---4-------------------------------------------------------------------------------|

E|---------------------------7------11-----------9-----------------------------------|
B|---5---4---5---4-----------------------9---------------9-----------5---4---5---4---|
G|-------------------4-------4---6-----------6-------------------7-------------------|
D|-----------------------6-----------6---------------6-------4-----------------------|
A|-----------------------------------------------------------------------------------|
E|-----------------------------------------------------------------------------------|


E|-------------------------------|
B|-------------------------------|
G|---4---------------------------|
D|-------6-----------------------|
A|-------------------------------|
E|-------------------------------|

   A     B              G#m                  C#m
Oh Mi....la , mil e uma noites de amor com você,
              A                 B
Na praia, no barco, no farol apagado,
                  G#m                       C#m
Num moinho abandonado, em mar grande alto astral,
             A                 B
Lá em Hollywood pra de tudo rolar,
                 G#m                  C#m
Vendo estrela caindo, vendo a noite passar,
        A       B              A  B
Eu e você..ee..ee, na ilha do sol
             E    B
Na ilha do sol
E            A    B           E
Tudo começou    há um tempo atrás
            A    B
Na ilha do sol
E                       A    B           E      A  B   repete 2x e dps da segunda entra o C#m
O destino te mandou de volta para o meu cais
        G#m          A              E    (passagem dist.) E , D# , C#m (power note)
No coração ficou lembranças de nós dois,
        B           E              (passagem baixo,bat.e guitar) E , F#M , G#M , G#M , A
Como ferida aberta, como tatuagem

   A     B              G#m                  C#m
Oh Mi....la , mil e uma noites de amor com você,
              A                 B
Na praia, no barco, no farol apagado,
                  G#m                       C#m
Num moinho abandonado, em mar grande alto astral,
             A                 B
Lá em Hollywood pra de tudo rolar,
                 G#m                  C#m
Vendo estrela caindo, vendo a noite passar,
        A       B              A  B
Eu e você..ee..ee, na ilha do sol
             E    B
Na ilha do sol

((SOLO))

E|---------------------------------------------------------------------------|
B|---------------------------------------------------------------------------|
D|---------------9---8-----------4--(6)---4-------6---(8)-----------6--------|
G|-------6---9-----------9---6----------------4-------------9---6-------4----|
A|---7-----------------------------------------------------------------------|
E|---------------------------------------------------------------------------|

E|---------------------------------------------------------------------------|
B|-------------------------------7---9---10---9---7-------7---10---7---------|
D|-------------------6---8---9------------------------9----------------------|
G|---4---6-------9-----------------------------------------------------------|
A|-----------7---------------------------------------------------------------|
E|---------------------------------------------------------------------------|

E|---------------------------------------------------------------------------------|
B|---12---10---9---7-----------10---9---7------------------------------------------|
D|---------------------9---8----------------9---8---6-------9---8---6--------------|
G|------------------------------------------------------9---------------9---7---6--|
A|---------------------------------------------------------------------------------|
E|---------------------------------------------------------------------------------|

E|-----------|
B|-----------|
D|-----------|
G|-----------|
A|---9---7---|
E|-----------|

----------------- Acordes -----------------
A = X 0 2 2 2 0
B = X 2 4 4 4 2
C#m = X 4 6 6 5 4
D# = X 6 5 3 4 3
E = 0 2 2 1 0 0
G#m = 4 6 6 4 4 4
