Grupo Pixote - Adeus solidão

Gm              F             Eb                D                  Gm
Lalaia, laia, laia... laia... laia, laia... laia, laia, laia, laia, laia...
                    F             Eb                 D
Lalaia, laia, laia... laia... laia, laia... laia, laia, laia, laia...
Gm                                        F
Olha... o nosso amor chegou ao fim...
                       Eb                         D
Agora já me decidi... to indo de uma vez... não chora...
Gm                                         F
Olha... o nosso amor chegou ao fim...
                              Eb                                     D
Essa canção vai resumir... porque termina aqui a nossa história...
Eb                                                         D
Tirando a minha paz você provoca e desconforta o coração...
Am7(b5)          D7                          Gm
Eu sempre fiz de tudo pra viver na mais fiel paixão...
Eb                                                          D
Agora eu quero mais viver e mergulhar na emoção...
Am7(b5)           D7                         Gm
E de uma vez por todas dar um fim na solidão...
                              F                                       Eb
        Ai,ai,ai,ai,ai,ai,ai... meu bem... eu to sozinho sem ninguém...

                             D                                         Gm
        Melhor viver assim, que assim eu vou viver em paz...
                              F                                       Eb
        Ai,ai,ai,ai,ai,ai,ai... meu bem... eu to sozinho sem ninguém...
                      D                                    Gm
        Adeus, solidão na minha vida nunca mais...
Gm              F             Eb                D                  Gm
Lalaia, laia, laia... laia... laia, laia... laia, laia, laia, laia, laia...
                    F             Eb                 D
Lalaia, laia, laia... laia... laia, laia... laia, laia, laia, laia...

----------------- Acordes -----------------
Am7(b5) = 5 X 5 5 4 X
D = X X 0 2 3 2
D7 = X X 0 2 1 2
Eb = X 6 5 3 4 3
F = 1 3 3 2 1 1
Gm = 3 5 5 3 3 3
