Desejo de Menina - Pra Sempre Em Meu Viver

Intro: D  Bm  G  A

                  D
Como eu fui te perder
                Bm
não consigo entender
                     D
ficou triste o meu olhar
                    Bm
ja nem tento mais mim encontrar
                 D
numa noite especial
              Bm
foi que eu te encontrei
              F#m
mim encantei com você
               G           A
mim chamando para te amar

Refrão:
  D                      A
e eu te amei  eu te ame.....i

                           Bm
e agora eu consigo mais ficar
                G
sem pensar em você
  A           D
o seu amor ficou
                     A
pra sempre em meu viver
                 Bm
e não sai numca mais
       A
uhuhuhu
           D
e agora ilusão
         Bm
tomou conta de mim
                D
por onde anda você
                      Bm
que não veio mais mim ver aqui
G                  D
vem ao menos mim falar
                    Bm
que voltou pra relembrar
                  F#m
o amor que agente fez
                   G         A
e não deixo mais você fugir

Refrão:
  D                      A
e eu te amei  eu te ame.....i
                           Bm
e agora não consigo mais ficar
                G
sem pensar em você
   A          D
o seu amor ficou
                     A
pra sempre em meu viver
                Bm
não sai numca mais
                    A
não sei viver sem você
                Bm
eu quero te ama...r
  A
uhuh

D
nanananá

vem mim ama..r
Bm
nanananá

vem ama.....r
D
nanananá

vem mim ama....r
Bm       G
nanananá
D
nanananá

vem mimama...r
Bm
nanananá

vem mim ama...r
D
nanananá
             Bm
vem mim ama.....r
             D
vem mim ama......r
A              Am
   vem mim ama.....r

----------------- Acordes -----------------
A = X 0 2 2 2 0
Am = X 0 2 2 1 0
Bm = X 2 4 4 3 2
D = X X 0 2 3 2
F#m = 2 4 4 2 2 2
G = 3 2 0 0 0 3
