Pink Floyd - Atom Heart Mother

                                   Em                    
e|--------------------------------|-12-----------------------------|
B|-----------------------0////////|--------------12----------------|
G|--------------------------------|----------------------11/12!\\\\|
D|--------------------------------|--------------------------------|
A|--------------------------------|--------------------------------|
E|--------------------------------|--------------------------------|

  Am                               G
e|-5------------------------------|--------------------------------|
B|-----5--------------------------|--------------12----------12----|
G|---------5----------------5!////|-12---------------12------------|
D|--------------------------------|----------------------12--------|
A|--------------------------------|--------------------------------|
E|--------------------------------|--------------------------------|

  Bm                               G#m
e|-------7---------------------7\\|-4------------------------------|
B|----------7---------------------|--------------4\3!-------4\\\\\\|
G|*5/7---------7------------------|----------------3////4----------|
D|--------------------------------|--------------------------------|
A|--------------------------------|--------------------------------|
E|--------------------------------|--------------------------------|


  A#                               D#
e|--------------------------------|--------------------------------|
B|-3------------------------------|-8-------------------------8\\\\|
G|--------------------------------|-----------8--------------------|
D|-------------------------3//////|---------------8----------------|
A|--------------------------------|--------------------------------|
E|--------------------------------|--------------------------------|

  Am                                 Em                    
e|-------------------2-----------[|]-12----------14---*14/15-------|
B|-1------(1)///////(2)--4---4!//[|]-------------------------------|
G|-------------------------------[|]-------------------------------|
D|-------------------------------[|]-------------------------------|
A|-------------------------------[|]-------------------------------|
E|-------------------------------[|]-------------------------------|

  Am                               G
e|*15/17--------------19----20----|-19-------19-19-19----19--19\17-|
B|--------------------------------|--------------------------------|
G|--------------------------------|--------------------------------|
D|--------------------------------|--------------------------------|
A|--------------------------------|--------------------------------|
E|--------------------------------|--------------------------------|

  Bm                               G#m
e|-19-------------19--19\\\\\\\\\\|-16---------------------16\\\\\\|
B|--------------------------------|-----------------16-------------|
G|--------------------------------|--------------------------------|
D|--------------------------------|--------------------------------|
A|--------------------------------|--------------------------------|
E|--------------------------------|--------------------------------|

  A#                               D#
e|-10-----------10-----11-----13--|*13/15----------15-15---15-15///|
B|--------------------------------|--------------------------------|
G|--------------------------------|--------------------------------|
D|--------------------------------|--------------------------------|
A|--------------------------------|--------------------------------|
E|--------------------------------|--------------------------------|

  Am                                 Em                    
e|-17------------19--------19\17-[|]-19--(19)\--12--12-12-12/14/15-|
B|-------------------------------[|]-------------------------------|
G|-------------------------------[|]-------------------------------|
D|-------------------------------[|]-------------------------------|
A|-------------------------------[|]-------------------------------|
E|-------------------------------[|]-------------------------------|

  Am                               G
e|*15/17--------------------17\\\\|-15-------------------15////////|
B|--------------------------------|--------------15----------------|
G|--------------------------------|--------------------------------|
D|--------------------------------|--------------------------------|
A|--------------------------------|--------------------------------|
E|--------------------------------|--------------------------------|

  Bm                               G#m
e|-19----------19\17/19------19\\\|-16-----------------------------|
B|--------------------------------|------------16---------16-------|
G|--------------------------------|----------------16--------------|
D|--------------------------------|--------------------------------|
A|--------------------------------|--------------------------------|
E|--------------------------------|--------------------------------|

  A#                               D#
e|--------------------------------|-------11--------13/15-15-15----|
B|---15-15-15\6/11~---------------|--------------------------------|
G|--------------------------------|*8/12---------------------------|
D|--------------------------------|--------------------------------|
A|--------------------------------|--------------------------------|
E|--------------------------------|--------------------------------|

  Am                                                   
e|*15/17-----17-----19-----19----[|]
B|-------------------------------[|]
G|-------------------------------[|]
D|-------------------------------[|]
A|-------------------------------[|]
E|-------------------------------[|]

+++++MOTHER FORE+++++

(5:23)

  Em
e|-12---------------|
B|------------------|
G|------------------|
D|------------------|
A|------------------|
E|------------------|


(10:47)

 Hit 1
e|--------------------------------------------------------|
B|-18b20~----20r18----------------------------------------|
G|-----------------15b----17b19-17-15-17-17b-17b19r17b19~-|
D|--------------------------------------------------------|
A|--------------------------------------------------------|
E|--------------------------------------------------------|

 Hit 2
e|-----------------------------------------------------------------------|
B|----------------------------------------------------18------18------18-|
G|-19r17-15--------------15-------x-19r17-15-17-17b19---17b19---17b19----|
D|----------17-15--15h17----17~------------------------------------------|
A|-----------------------------------------------------------------------|
E|-----------------------------------------------------------------------|

e|--------------|
B|--------------|
G|-17b19r17b19~-|
D|--------------|
A|--------------|
E|--------------|

 Hit 3
e|----------15-----------------------------------------------------------|
B|-------18----18--------------------------------------------------------|
G|-17b19==========19r17-15-17-17b19-17b19~------------15--17b19-17-15-17-|
D|-------------------------------------------15===b17--------------------|
A|-----------------------------------------------------------------------|
E|-----------------------------------------------------------------------|

e|-----------------|
B|-----------------|
G|-17b19r17-17b19~-|
D|-----------------|
A|-----------------|
E|-----------------|

 Hit 4
e|-------18----15~-------------------------------------------------------|
B|-18b20----18-------18b20-20r18----18-----------------------------------|
G|-------------------------------19----17h19-------15h17-17b19--17-------|
D|-------------------------------------------15h17-----------------15h17-|
A|-----------------------------------------------------------------------|
E|-----------------------------------------------------------------------|

 Hit 5

e|-20b22-22-22-22-22-22-22-22-22-22-22-22r21-21-21r20-20-20-20r18-|
B|----------------------------------------------------------------|
G|----------------------------------------------------------------|
D|----------------------------------------------------------------|
A|----------------------------------------------------------------|
E|----------------------------------------------------------------|

e|-18-----18-------|
B|----20-----20~---|
G|-----------------|
D|-----------------|
A|-----------------|
E|-----------------|

 Hit 6
   prebend     quick                    prebend
e|-------------------------------------------------------------|
B|-------------------------------------------------------------|
G|-19r17-15-17-17b18-17b19--------15-17-19r17--15h17-15====b16-|
D|--------------------------15h17------------------------------|
A|-------------------------------------------------------------|
E|-------------------------------------------------------------|

 Hit 7                                  Pinch these a bit
e|-----------------------------------------------------------------------|
B|-18===-----------------------------------------------------------------|
G|-19r17p15-----------15--------7p5p3-5b-5b-5b-5b-5b-5b-5b-5b-5b7-3----3-|
D|----------15--15h17----17~----------------------------------------5----|
A|-----------------------------------------------------------------------|
E|-----------------------------------------------------------------------|

e|----------|
B|----------|
G|----------|
D|-5~=====\-|
A|----------|
E|----------|

 Hit 8
e|-------------------------15---------------------------------------------|
B|----------------------18----18------------------------------------------|
G|-17b19-17-15-17-17b19============15-17b19-17-15-17b19--15-------15------|
D|----------------------------------------------------------15h17----17~==|
A|------------------------------------------------------------------------|
E|------------------------------------------------------------------------|

e|----------|
B|----------|
G|----------|
D|=====\----|
A|----------|
E|----------|

 Hit 9                                   quick
e|--------------------------------------------------------------|
B|--------------------------18----------------------------------|
G|---17b19r17-15-17--17b19=====19r17--15-17b19r17p15-----15-----|
D|-x-------------------------------------------------17-----17~-|
A|--------------------------------------------------------------|
E|--------------------------------------------------------------|

 Hit 10
   prebend
e|------------------------------------------------------|
B|------------------------13-13-----11==b--------11-----|
G|------------------10----12-12--12-10==b--10h12----12~-|
D|-12r10-8/10-10/12----12-------------------------------|
A|------------------------------------------------------|
E|------------------------------------------------------|

 Hit 11
e|-----------------------------------------|
B|------13-----13----13----13----12-12-----|
G|-------------12----12----12----11-11-----|
D|--h14===--14====14====14====12-------12~-|
A|-----------------------------------------|
E|-----------------------------------------|

 Hit 12      prebend
e|---13==b-----------------------------------------------------|
B|---13==b---18-18-18r15------------------------------(4===b6)-|
G|---------------------------------------15------------5===b7--|
D|-----------------------17==b19---15h17----17~----------------|
A|-------------------------------------------------------------|
E|-------------------------------------------------------------|

e|--------------------------|
B|--------------------------|
G|--------------------------|
D|-12-10-8----10b12--8------|
A|---------10----------8h10-|
E|--------------------------|

e|-------------------------------------------------------|
B|-(4===b6)----------------------------------------------|
G|--5===b7-----------------------------------------------|
D|--------------10b12-10-10b12-10-10b12-10-10b12--8------|
A|--------------------------------------------------8h10-|
E|-------------------------------------------------------|


(20:46)
                                   Em                    
e|--------------------------------|--------------------------------|
B|--------------------------------|-----------------12\11!---------|
G|------------------------------11/12---------11------*11/12\\\\\\\|Slide
D|--------------------------------|--------------------------------|Guitar
A|--------------------------------|--------------------------------|
E|--------------------------------|--------------------------------|
 |                                |                                |
e|--------------------------------|12------------------------------|
B|------------------------------12|---12-12------------------------|
G|--------------------------------|--------------------------------|Not Slide
D|--------------------------------|--------------------------------|Guitar
A|--------------------------------|--------------------------------|
E|--------------------------------|--------------------------------|

  Am                               G
e|-----5--------------------------|--------------------------------|
B|--------------------------------|-12-----------------------------|
G|*4/5---------5------------------|-----------------12\\\\\\\\\\\\\|
D|---------------------5//////////|--------------------------------|
A|--------------------------------|--------------------------------|
E|--------------------------------|--------------------------------|
 |                                |                                |
e|--------------------------------|--------------------------------|
B|--------------------------------|--------------------------------|
G|------------------------4//5----|-4-----------4\2\0--------------|
D|---------------------5----------|-------------------------5/7/9--|
A|--------------------------------|--------------------------------|
E|--------------------------------|--------------------------------|

  Bm                               G#m
e|----------------------------7\\\|-4------------------------------|
B|------7----(7)\3-5-*5/7---------|-----4-------------------4\\\\\\|
G|*6/7----------------------------|-------4------------------------|
D|--------------------------------|--------------------------------|
A|--------------------------------|--------------------------------|
E|--------------------------------|--------------------------------|
 |                                |                                |
e|--------------------------------|--------------------------------|
B|--------------------------------|--------------------------------|
G|--------------------------------|-6b8---------8r6-4--------------|
D|/12~~~--------------------------|-------------------6-4-6-6------|
A|--------------------------------|--------------------------------|
E|--------------------------------|--------------------------------|

  A#                               D#
e|--------------------------------|--------------------------------|
B|-3------------------------------|-8------------------------------|
G|-----------------3//////////////|-----------------8\\\\\\\\\\\\\\|
D|--------------------------------|--------------------------------|
A|--------------------------------|--------------------------------|
E|--------------------------------|--------------------------------|
 |                                |                                |
e|--------------------------------|--------------------------------|
B|--------------------------------|--------------------------------|
G|--------------------------------|-------------3---3-5-8---5-3----|
D|-3------*5h8--------------------|-1///////3/5-----------------5--|
A|-------------xh3p1------1/3/5---|--------------------------------|
E|--------------------------------|--------------------------------|

  Am                                 Em                    
e|-------5-----------------------[|]12~--------------14--14/15-----|
B|-------------------7\\\4///////[|]-------------------------------|
G|*4/5---------------------------[|]-------------------------------|
D|-------------------------------[|]-------------------------------|
A|-------------------------------[|]-------------------------------|
E|-------------------------------[|]-------------------------------|
 |                                |    +=======hold bend=====+
e|-------------------------------[|]-------------------------------|
B|-------------------------------[|]-10b12~----------12-12-12r10p8-|
G|-2------2-------4-------4//////[|]-------------------------------|
D|-------------------------------[|]-------------------------------|
A|-------------------------------[|]-------------------------------|
E|-------------------------------[|]-------------------------------|

  Am                                 G                    
e|-17------------------17-17-17\\\|-15--------------------15/17/19-|
B|--------------------------------|--------------------------------|
G|--------------------------------|--------------------------------|
D|--------------------------------|--------------------------------|
A|--------------------------------|--------------------------------|
E|--------------------------------|--------------------------------|
 |                                |
e|--------------------------------|--------------------------------|
B|-13~-----------------15----15b17|-15~-------------------12----12-|
G|--------------------------------|--------------------------------|
D|--------------------------------|--------------------------------|
A|--------------------------------|--------------------------------|
E|--------------------------------|--------------------------------|

  Bm                                 G#m                    
e|-19----------------19\\\\\\\\\\\|-16----------------16\\\\\\\\\\\|
B|--------------------------------|--------------------------------|
G|--------------------------------|--------------------------------|
D|--------------------------------|--------------------------------|
A|--------------------------------|--------------------------------|
E|--------------------------------|--------------------------------|
 |                                |
e|--------------------------------|--------------------------------|
B|-13b15~-------------------------|--------------------------------|
G|--------------------------------|-14b16~-------------------------|
D|--------------------------------|--------------------------------|
A|--------------------------------|--------------------------------|
E|--------------------------------|--------------------------------|

  A#                                 D#                    
e|-10--------------10//11//13-----|-13/15--------------------------|
B|--------------------------------|--------------------------------|
G|--------------------------------|--------------------------------|
D|--------------------------------|--------------------------------|
A|--------------------------------|--------------------------------|
E|--------------------------------|--------------------------------|
 |                                |
e|--------------------------------|--------------------------------|
B|-13b15~----------------13b15----|-14b16~-------------------------|
G|--------------------------------|--------------------------------|
D|--------------------------------|--------------------------------|
A|--------------------------------|--------------------------------|
E|--------------------------------|--------------------------------|

                                    CLIMAX
  Am                                 Em                  
e|-17--------------19-----(19)\\\[|]-12----14/15/17----19\\\\\\\\\\|
B|-------------------------------[|]-------------------------------|
G|-------------------------------[|]-------------------------------|
D|-------------------------------[|]-------------------------------|
A|-------------------------------[|]-------------------------------|
E|-------------------------------[|]-------------------------------|
 |                                |
e|-------------------------------[|]-------------------------------|
B|-------------------------------[|]-------------------------------|
G|-12b14~----------14b16-------14[|]-14b16--------16r14-12-14-14b16|
D|-------------------------------[|]-------------------------------|
A|-------------------------------[|]-------------------------------|
E|-------------------------------[|]-------------------------------|

  Am                                 G                    
e|-17--------20\\\17/////19//20---|-19------------*14/15--15/17/19-|
B|--------------------------------|--------------------------------|
G|--------------------------------|--------------------------------|
D|--------------------------------|--------------------------------|
A|--------------------------------|--------------------------------|
E|--------------------------------|--------------------------------|
 |                                |
e|--------------------------------|--------------------------------|
B|--------------15---17-----------|-15--------------------15-------|
G|-14-----------------------------|--------------------------------|
D|--------------------------------|--------------------------------|
A|--------------------------------|--------------------------------|
E|--------------------------------|--------------------------------|

  Bm                                 G#m                    
e|-17/19--------------19-19-19\\\\|-16-----------------------------|
B|--------------------------------|-------------------16\\\\\\\\\\\|
G|--------------------------------|--------------------------------|
D|--------------------------------|--------------------------------|
A|--------------------------------|--------------------------------|
E|--------------------------------|--------------------------------|
 |                                |                    dont have to play this   
e|--------------------------------|--------------------------------|
B|-15-----------------------------|--------------------------------|
G|--------------------------------|-14b16--------------------------|
D|--------------------------------|-------------------(0-0-0-0----)|
A|--------------------------------|-------------------(5b5b5b5b--r)|
E|--------------------------------|--------------------------------|

  A#                                 D#                    
e|--------------------------------|--------------------------------|
B|-15----------------15--15/16/18-|-18/20--------------------------|
G|--------------------------------|--------------------------------|
D|--------------------------------|--------------------------------|
A|--------------------------------|--------------------------------|
E|--------------------------------|--------------------------------|
 |                                |   +======hold bend===========+
e|--------------------------------|--------------------------------|
B|--------------------------------|-14b16----------16-16-16-16-16r-|
G|-13b15--------------------------|--------------------------------|
D|--------------------------------|--------------------------------|
A|--------------------------------|--------------------------------|
E|--------------------------------|--------------------------------|

  Am                                                  
e|-------------------------------[|]
B|-22-----22---------------------[|]
G|-------------------------------[|]
D|-------------------------------[|]
A|-------------------------------[|]
E|-------------------------------[|]
 |                                |
e|-------------------------------[|]
B|-------------------------------[|]
G|-12b14--12b14---14b16---14b16--[|]
D|-------------------------------[|]
A|-------------------------------[|]
E|-------------------------------[|]

----------------- Acordes -----------------
A# = X 1 3 3 3 1
Am = X 0 2 2 1 0
Bm = X 2 4 4 3 2
D# = X 6 5 3 4 3
Em = 0 2 2 0 0 0
G = 3 2 0 0 0 3
G#m = 4 6 6 4 4 4
