Pink Floyd - Brain Damage

[Intro]

     D       D      D       D          D
E|---2------------2-----2------------2-----2------------2-----2------------3-----2--|
B|----------3--------3---------3--------3---------3--------3---------3--------3-----|
G|-------2-----2------------2------------------2------------------2-----2-----------|
D|---0---------------------------0-------------------0------------------------------|
A|----------------------------------------------------------------------------------|
E|----------------------------------------------------------------------------------|

  D                     G7/D
The lunatic is on the grass
  D                     G7/D
The lunatic is on the grass
 D                     E/D
Remembering games and daisy chains and laughs
 A7                             D
Got to keep the loonies on the path


  D                    G7/D
The lunatic is in the hall

  D                     G7/D
The lunatics are in my hall
  D                    E/D
The paper holds their folded faces to the floor
    A7                              D    D7
And every day the paper boy brings more


[Versos]

       D                                     G7/D
E|---2-----------2-----2-----------2-----|--1-----------1-----1-----------1-----|
B|---------3--------3--------3--------3--|--------0--------0--------0--------0--|
G|------2-----------------2--------------|-----0-----------------0--------------|
D|------------0-----------------0--------|-----------0-----------------0--------|
A|---------------------------------------|--------------------------------------|
E|---------------------------------------|--------------------------------------|

      D                                     E/D
E|---2-----------2-----2-----------2-----|--4-----------4-----4-----------4-----|
B|---------3--------3--------3--------3--|--------5--------5--------5--------5--|
G|------2-----------------2--------------|-----4-----------------4--------------|
D|------------0-----------------0--------|-----------0-----------------0--------|
A|---------------------------------------|--------------------------------------|
E|---------------------------------------|--------------------------------------|

       A7                                     D
E|---3-----------3-----3-----------3-----|--2-----------2-----2-----------2-----|
B|---------2--------2--------2--------2--|--------3--------3--------3--------3--|
G|------2-----------------2--------------|-----2-----------------2--------------|
D|---------------------------------------|-----------0-----------------0--------|
A|------------0-----------------0--------|--------------------------------------|
E|---------------------------------------|--------------------------------------|

       D                                            D7
E|---2-----------2-----0-----------0-----------2--2-----0-----------0-----------|
B|---------3--------3--------3-----------3-----1-----1--------3-----------3-----|
G|------2-----------------2-----2-----2-----2--2-----------2-----2-----2-----2--|
D|------------0--------------------------------0--------------------------------|
A|------------------------------------------------------------------------------|
E|------------------------------------------------------------------------------|


G                           A
And if the dam breaks open many years too soon
    C                             G
And if there is no room upon the hill
G                               A
And if your head explodes with dark forebodings too
      C                               G     Bm7  E7  A7
I’ll see you on the dark side of the moon

[Refrão]

E|---3-----0-----0-----3---|------2------------0---------------------------|
B|---3-----2-----1-----3---|---------3------------0---------------2h3--2---|
G|---0-----2-----0-----0---|------------2------------1---------0-----------|
D|---0-----2-----2-----0---|--------------------------------2--------------|
A|---2-----0-----3-----2---|---2-------------------------0-----------------|
E|---3-----0-----0-----3---|----------------0------------------------------|

  D                   G7/D
The lunatic is in my head
  D                    G7/D
The lunatic is in my head
 D                        E/D
You raise the blade, you make the change,
 A7                         D
You re-arrange me till I’m sane

 D
You lock the door,
E/D
And throw away the key,
  A7                                     D   D7
There’s someone in my head but it’s not me


G                          A
And if the cloud bursts, thunder in your ear
 C                             G
You shout and no one seems to hear
G                                 A
And if the band you’re in starts playing different tunes
C                                     G    Bm7  E7  A7
I’ll see you on the dark side of the moon


[Final]

       D                                    G7/D
E|---2-----------2-----2-----------2-----|--1-----------1-----1-----------1-----|
B|---------3--------3--------3--------3--|--------0--------0--------0--------0--|
G|------2-----2-----------2--------------|-----0-----------------0--------------|
D|---0--------------------------0--------|-----------0-----------------0--------|
A|---------------------------------------|--------------------------------------|
E|---------------------------------------|--------------------------------------|

       D                                    E/D
E|---2-----------2-----5-----------5-----|--4-----------4-----7-----------7-----|
B|---------3--------3--------3--------3--|--------5--------5--------5--------0--|
G|------2-----------------2--------------|-----4-----------------4--------------|
D|------------0-----------------0--------|-----------0-----------------0--------|
A|---------------------------------------|--------------------------------------|
E|---------------------------------------|--------------------------------------|

     A7                                                 D
E|--5-----------5-----------------------2----------|-2------2-----------2-----2-|
B|--------5-----------8-----------8-----------3----|----3---------3--------3----|
G|-----6-----------6--------6--------------2-------|-----------2----------------|
D|-----------------------5-----------5-----------0-|-----------------0----------|
A|-------------------------------------------------|----------------------------|
E|-----------5-----------------5-------------------|----------------------------|

E|-----------2-----2-----------2-----|
B|-----3--------3--------3--------3--|
G|--2-----------------2--------------|
D|--------0-----------------0--------|
A|-----------------------------------|
E|-----------------------------------|

       D                              D7
E|---2-----0-----------0------------2---2-----0-----------0------------|
B|------3--------3-----------3------1------1--------3-----------3------|
G|------------2-----2-----2-----2---2------------2-----2-----2-----2---|
D|----------------------------------0----------------------------------|
A|---------------------------------------------------------------------|
E|---------------------------------------------------------------------|

----------------- Acordes -----------------
A = X 0 2 2 2 0
A7 = X 0 2 0 2 0
Bm7 = X 2 4 2 3 2
C = X 3 2 0 1 0
D = X X 0 2 3 2
D7 = X X 0 2 1 2
E/D = X 5 X 4 5 4
E7 = 0 2 2 1 3 0
G = 3 2 0 0 0 3
G7/D = X X 0 0 0 1
