Pink Floyd - Crumbling Land

+==================================+
|                                  |
|                                  |
+==================================+

Tabbed by: Rhys Gerwin
Email: J*

Tuning:Standard

(Finger pick during verse)
e|-----------------------------------------------|
B|-------5-----------5-----------3-----------3---|
G|-----6---6-------6---6-------4---4-------4---4-|
D|-7-----------7-----------5-----------5---------|
A|---7-----------7-----------5-----------5-------|
E|-----------------------------------------------|

(Finger pick 2)
e|---------5-------------------3---------|
B|-------5-------5-----------3-------3---|
G|-----6-----6-------------4-------4---4-|
D|-7-----------7---7---5---------5-------|
A|---7-------------------5---------------|
E|---------------------------------------|


(play while "And the eagle flies..." and other chorus)

chrd:  D  F  C  Am A# C  F

strum: ^  ^  ^  ^  ^  ^  ^
    e|-2--1--0--0--1--0--3-|
    B|-3--1--1--1--3--1--3-|
    G|-2--2--0--2--3--0--4-|
    D|-0--3--2--2--3--2--5-|
    A|----3--3--0--1--3--5-|
    E|----1--------------3-|

| /  slide up
| \  slide down
| h  hammer-on
| p  pull-off
| ~  vibrato
| +  harmonic
| x  Mute note

I'm pretty sure this is right. If you feel the need
to contradict please e-mail me.

-Rhys Gerwin (pronounced: reese gurwin)


----------------- Acordes -----------------
