Pink Floyd - In The Flesh?

E|------------------------------|  
B|------------------------------|  
G|------------------------------|  
D|------------------------------|  
A|---4-2-------5-4-2------------|  
E|-5-----5-4-2-------5----------|

E|------------------------------|  
B|------------------------------|  
G|------------------------------|  
D|------------------------------|  
A|-4-2-------5-4-2--------------|  
E|-----5-4-2-------5------------|

E|------------------------------|  
B|------------------------------|  
G|------------------------------|  
D|------------------------------|  
A|-4-2---1-2-5-4-2-3-4--7-5-4---|  
E|-----5----------------------5-|


E|------------------------------|  
B|------------------------------|  
G|------------------------------|  
D|------------------------------|  
A|-------------------------0----|  
E|-0-0-0-0-0-0-0-0-0-0-0-0------|

A                                        D
So ya thought ya might like to go to the show
A
To feel the warm thrill of confusion
                  D
That space cadet glow
A
Tell me is something eluding you sunshine?
Bm
Is this not what you expected to see?
C#m
If you wanna find out what's behind these cold eyes?
E
You'll just have to claw your way through this disguise

E|------------------------------|  
B|------------------------------|  
G|------------------------------|  
D|------------------------------|  
A|---4-2-------5-4-2------------|  
E|-5-----5-4-2-------5----------|

E|------------------------------|  
B|------------------------------|  
G|------------------------------|  
D|------------------------------|  
A|-4-2-------5-4-2--------------|  
E|-----5-4-2-------5------------|

E|------------------------------|  
B|------------------------------|  
G|------------------------------|  
D|------------------------------|  
A|-4-2---1-2-5-4-2-3-4--7-5-4---|  
E|-----5----------------------5-|

E|------------------------------|  
B|------------------------------|  
G|------------------------------|  
D|------------------------------|  
A|-------------------------0----|  
E|-0-0-0-0-0-0-0-0-0-0-0-0------|



----------------- Acordes -----------------
A = X 0 2 2 2 0
Bm = X 2 4 4 3 2
C#m = X 4 6 6 5 4
D = X X 0 2 3 2
E = 0 2 2 1 0 0
