Pink Floyd - Louder Than Words

E|----------------0-----------|----------------0-----------|----------------0-----------|---------------0---------|
B|-------------0-----0-----0--|-------------0-----0-----0--|-------------0-----0-----0--|------------0----0-----0-|
G|----------8-----------8-----|----------8-----------8-----|----------8-----------8-----|---------8----------8----|
D|------11--------------------|------11--------------------|------11--------------------|-----11------------------|
A|--11------------------------|--11------------------------|--11------------------------|-11----------------------|
E|----------------------------|----------------------------|----------------------------|-------------------------|

--------------0-----------|----------------0-----------|----------------0-----------|--------------0-----------|
-----------0-----0-----0--|-------------0-----0-----0--|-------------0-----0-----0--|-----------0-----0-----0--|
--------8-----------8-----|----------8-----------8-----|----------8-----------8-----|--------8-----------8-----|
-----9--------------------|------9---------------------|------7---------------------|-----7--------------------|
--9-----------------------|--9-------------------------|--7-------------------------|--7-----------------------|
--------------------------|----------------------------|----------------------------|--------------------------|

----------------0-----------|----------------------------|----------------0-----------|----------------0-----------|
-------------0-----0-----0--|-------------0-----------0--|-------------0-----0-----0--|-------------0-----0-----0--|
----------8-----------8-----|----------8-----------8-----|----------8-----------8-----|----------8-----------8-----|
------11--------------------|------11-----------9--------|------11--------------------|------11--------------------|
--11------------------------|--11------------9-----------|--11------------------------|--11------------------------|
----------------------------|----------------------------|----------------------------|----------------------------|


--------------0-----------|--------------0-----------|--------------0-----------|--------------0-----------|
-----------0-----0-----0--|-----------0-----0-----0--|-----------0-----0-----0--|-----------0-----0-----0--|
--------8-----------8-----|--------8-----------8-----|--------8-----------8-----|--------8-----------8-----|
-----9--------------------|-----9--------------------|-----7--------------------|-----7--------------------|
--9-----------------------|--9-----------------------|--7-----------------------|--7-----------------------|

----------------0-----------|----------------------------|----------------0-----------|----------------0-----------|
-------------0-----0-----0--|-------------0-----------0--|-------------0-----0-----0--|-------------0-----0-----0--|
-------------0-----0-----0--|-------------0-----------0--|-------------0-----0-----0--|-------------0-----0-----0--|
----------8-----------8-----|----------8-----------8-----|----------8-----------8-----|----------8-----------8-----|
------11--------------------|------11-----------9--------|------11--------------------|------11--------------------|
--11------------------------|--11------------9-----------|--11------------------------|--11------------------------|
----------------------------|----------------------------|----------------------------|----------------------------|

--------------0-----------|--------------0-----------|--------------0-----------|--------------0-----------|
-----------0-----0-----0--|-----------0-----0-----0--|-----------0-----0-----0--|-----------0-----0-----0--|
--------8-----------8-----|--------8-----------8-----|--------8-----------8-----|--------8-----------8-----|
-----9--------------------|-----9--------------------|-----7--------------------|-----7--------------------|
--9-----------------------|--9-----------------------|--7-----------------------|--7-----------------------|

E|--------------0------------|--------------0------------|--------------0------------|--------------0-------------
B|---------------------------|---------------------------|---------------------------|----------------------------
G|--------0------------0-----|--------0------------0-----|--------0------------0-----|--------0------------0------
D|--7------------------------|--7------------------------|--7------------------------|--7-------------------------
A|-----9-----9------------9--|-----9-----9------------9--|-----9-----9------------9--|-----9-----9------------9---
E|-----------------10--------|-----------------10--------|-----------------10--------|-----------------10---------

--------------0-----------|--------------0-----------|--------------0-----------|--------------0-----------|
--------------------------|--------------------------|--------------------------|--------------------------|
--------0-----------0-----|--------0-----------0-----|--------0-----------0-----|--------0-----------0-----|
--7-----------------------|--7-----------------------|--7-----------------------|--7-----------------------|
-----7-----7-----------7--|-----7-----7-----------7--|-----7-----7-----------7--|-----7-----7-----------7--|
-----------------5--------|-----------------5--------|-----------------5--------|-----------------5--------|

E|--------------0-----------|--------------0-----------|--------------0-----------|--------------0------------||
B|-----------0-----0-----0--|-----------0-----0-----0--|-----------0-----0-----0--|-----------0-----0-----0---||
G|--------8-----------8-----|--------8-----------8-----|--------8-----------8-----|--------8-----------8-----*||
D|-----7--------------------|-----7--------------------|-----9--------------------|-----9--------------------*||
D|-----7--------------------|-----7--------------------|-----9--------------------|-----9--------------------*||
A|--7-----------------------|--7-----------------------|--9-----------------------|--9------------------------||
E|--------------------------|--------------------------|--------------------------|---------------------------||

----------------0-----------|----------------------------|----------------0-----------|----------------0-----------|
-------------0-----0-----0--|-------------0-----------0--|-------------0-----0-----0--|-------------0-----0-----0--|
----------8-----------8-----|----------8-----------8-----|----------8-----------8-----|----------8-----------8-----|
------11--------------------|------11-----------9--------|------11--------------------|------11--------------------|
--11------------------------|--11------------9-----------|--11------------------------|--11------------------------|
----------------------------|----------------------------|----------------------------|----------------------------|

--------------0-----------|--------------0-----------|--------------0-----------|--------------0-----------|
-----------0-----0-----0--|-----------0-----0-----0--|-----------0-----0-----0--|-----------0-----0-----0--|
--------8-----------8-----|--------8-----------8-----|--------8-----------8-----|--------8-----------8-----|
-----7--------------------|-----7--------------------|-----9--------------------|-----9--------------------|
--7-----------------------|--7-----------------------|--9-----------------------|--9-----------------------|
--------------------------|--------------------------|--------------------------|--------------------------|

----------------0-----------|----------------0-----------|--------------0-----------|--------------0-----------|
-------------0-----0-----0--|-------------0-----0-----0--|--------0-----------0-----|--------0-----------0-----|
----------8-----------8-----|----------8-----------8-----|--------------------------|--------------------------|
------11--------------------|------11--------------------|-----8-----8-----8-----8--|-----8-----8-----8-----8--|
--11------------------------|--11------------------------|--9-----------------------|--9-----------------------|
----------------------------|----------------------------|--------------------------|--------------------------|


Solo:

E|----------------------------|--------------------|-----------------------|-------------------|
B|----------------------------|--------------------|-----------------------|-------------------|
G|------------------7----9----|--9b----------------|--L------------L--7-9b-|--L----------------|
G|------------------7----9----|--9b----------------|--L------------L--7-9b-|--L----------------|
D|-----------5g7--------------|--------------------|-----------------------|-------------------|
A|----------------------------|--------------------|-----------------------|-------------------|
E|----------------------------|--------------------|-----------------------|-------------------|

-----------------------|------------------------|---------------------------|-------------------|-------|
------------------5p-3-|------------------------|---------------------------|-------------------|-------|
--L--------------------|--5--------L---------5--|--7br---5-7--------L-------|-------------------|-------|
-----------------------|--------------5g7-------|----------------------7p-5-|--7----------------|-------|
-----------------------|------------------------|---------------------------|-------------------|-------|
-----------------------|------------------------|---------------------------|-------------------|-------|


----------------------------|-----------------------|--------------------|----------------------------|
----------------------------|-----------------------|--------------------|-------10--L--10------------|
----------------5g7----7----|--9br------------L---7-|--9b----------------|--L--x------------9b--------|
----------------5g7----7----|-----------------------|--------------------|----------------------------|
----------------------------|-----------------------|--------------------|----------------------------|
----------------------------|-----------------------|--------------------|----------------------------|

----------------10----12----|--12b-------L-10-12--------|---L---------L--------17--L--19----|--19br---------------|
----------7g10--------------|---------------------------|-------------------15--------------|--------------20b----|
--L-------------------------|---------------------------|-----------------------------------|---------------------|
----------------------------|---------------------------|-----------------------------------|---------------------|
----------------------------|---------------------------|-----------------------------------|---------------------|
----------------------------|---------------------------|-----------------------------------|---------------------|

---------------------------|---------------------|--------------------------------------|---------------------------
----------------7----10----|--10b----------------|---L--10b----10pb--10pb------10b-10pb-|--10pbr-------L-9-10-------
---------------------------|---------------------|--------------------------------------|---------------------------
---------------------------|---------------------|--------------------------------------|---------------------------
---------------------------|---------------------|--------------------------------------|---------------------------
---------------------------|---------------------|--------------------------------------|---------------------------

--------------------------------|-----------------------|------------------------------|-------------------|------||
--------------------------------|-----------------------|------------------------------|-------------------|--12b-||
-11g13------11g9--11------------|--9--11----------------|------------13g11----9--------|-------------------|------||
--------------------------9g11--|---------11------------|---L--------------------11p-9-|--11---------Lp--9-|------||
--------------------------------|-----------------------|------------------------------|-------------------|------||
--------------------------------|-----------------------|------------------------------|-------------------|------||
--------------------------------|-----------------------|------------------------------|-------------------|------||
