Pink Floyd - Seamus

|----------------------------------------------------------------------------|
|----------------------------------------------------------------------------|
|----2----0------------------------------------------------------------------|
|----0----0-----3----0-------8----7-----------4---5---7---5------------------|
|----------------------------8----7------------------------------------------|
|--0----------0----0-----/8-----------------0---0---0---0--------------------|
|                                                                            |
|----------------------------------------------12----------------------------|
|---------------------------11----10---------------------------/10--8--------|
|----------------------------------------------------------------------8/10--|
|-----------------------/11----10----------/12-------------------------------|
|----------------------------------------------------------------------------|
|----------------------------------------------------------------------------|

|----------------------------------------------------------------------------|
|----------------------------------------------------------------------------|
|-------------------------------------------------------------7--5-----------|
|--------------------------------------7-7--6-6--5--5--4---------------------|
|-----5-----7-----8-----7--5--0----------------------------------------------|
|--5--5--5--5--5--5--5--5--5--0-----0----------0-----0-----0-----------------|
|                                                                            |

|---------------------------------12----------------------------12/10--------|
|----------------------------------------------------------------------------|
|----------------------------/12---------------------------------------------|
|----------------------------------------------------------------------------|
|----------------------------------------------------------------------------|
|----------------------------------------------------------------------------|

|----------------------------------------------------------------------------|
|-----------------------------------8----------------------------------------|
|--------------------------------/7---7--5---5-5-----7--------5h7-5----------|
|-------------------------------------------------/7----------------7--5h7---|
|----------5---7---8---7---5-------------------------------------------------|
|--0-0---5---5---5---5---5---------------------------------------------------|
|                                                                            |
|----------------------------------------------------------------------------|
|------8------------------8--------------------------------------------------|
|---/7----------7-5---5/7-------------------------------5/7------------------|
|-------------------7--------------------------------------------------------|
|----------------------------------------------------------------------------|
|----------------------------------------------------------------------------|

|----------------------------------------------------------0-----------------|
|--------------------------------------10------------------------------------|
|----------7-7---7--5---------0-----/7---------------------------------------|
|-5---3h5---------------------0--------------------------------------------/7|
|---7----------------------------------------------------------5-------------|
|---------0-0---0-0---------0---------------0--2-2--3-3--5-5/7---7\--2-0-----|
|                                                                            |
|-------------------------7-----7\5-----------------------7------------------|
|-----------------------------------5-------------5------------5-------------|
|----7--5/7---5-----------------------5-------------5--/7--------5-----------|
|----7--5/7------------/7--------------5-------------------------------------|
|---------------------------------------------7------------------------------|
|----------------------------------------------------------------------------|

|----------------------------------------------------------------------------|
|----------------------------------------------------------------------------|
|-7------------------------------------------0-------------------------------|
|---------------------------------8---7------0-------------------------------|
|---------------------------------8---7--------------------------------------|
|---0-12-10---10--9--9-8--8--7--0---0-----------3--0-------------0-----------|
|                                                                            |
|-----12-10---10--9--9-8--8--7----8---7------12--------------------12--------|
|------------------------------------------------10\8------------------------|
|-----------------------------------------------------8/10-------------------|
|------------------------------/8--/7----/12--------------------/12----------|
|---7------------------------------------------------------------------------|
|----------------------------------------------------------------------------|

|----------------------------------------------------------------------------|
|--------------------------------------------------------------------------3-|
|----------------------------------------------------------------------------|
|--5-----0----------------0-0-0-0--0-0--0-0--------5-------------5-----------|
|--5-----0----------------0-0-0-0--0-0--0-0--------5-------------5-----------|
|-/5-3\--0------------/5--0-0-0-0--0-0--0-0---3/5--5----------/5-5------/3---|
|                                                                            |
|-------12--------------------12--------------12\\\5----------------------12-|
|------------10-8-----------------------------------------------8------------|
|-----------------8/10------------10/12-10-------------------/7--------------|
|---/12-------------------/12--------------12--------------------------/12---|
|----------------------------------------------------------------------------|
|----------------------------------------------------------------------------|

|----------------------------------------------------------------------------|
|----------6h8---------------------------------------8---8-------------------|
|--5h7-5-------7------7-7---5-------------------7-/7-----7-------------------|
|--------7-------------------------------------------------------------------|
|------------------------------3h5p3h5p3h5p3h5p3-----------------------------|
|------------------------------------------------------------0--2--2-3----4/5|
|                                                                            |
|----------12-------12-10-9--9-------7-5-3-----7----------------------------7|
|-----------------------------------------------------------------5----------|
|-12-10---------------------------/7-------5/7----------------------5-----/7-|
|-------12----------12-10-9--9-----------------------------------------------|
|---------------------------------------------------------------7------------|
|----------------------------------------------------------------------------|

|----------------------------------------------------------------------------|
|---------------------/8-8-8--7-7-7--6-6-6-5---------------------------------|
|-----------------7---/7-7-7--6-6-6--5-5-5-4---------------------------------|
|--------------/7-------------------------------8---7------------------------|
|-5--3---5--------------------------------------8---7-----------0---2---3---2|
|------3--------------------------------------0---0-----------0---0---0---0--|
|                                                                            |
|------------12---12-10--10-9--9-8--8-7--------8----7------------------0-----|
|-5--------------------------------------------------------------------------|
|---5------------------------------------------------------------------------|
|---------12--------------------------------/8---/7----------/3\5-0----------|
|-------------------------------------------------------------------5--------|
|----------------------------------------------------------------------------|

|----------------------------------------------------------------------------|
|----------------------------------------------------------------------------|
|----------------------------------------------------------------7---5-5-5---|
|---0---2---3---2---------------------------------------------/7-------------|
|--------------------------------------3--------5----------------------------|
|-0---0---0---0-----3\0---0-0--/5h6-7-----5h6h7----5--3--0-------------------|
|                                                                            |
|-------------------------0----------------------/7------12------------------|
|----------------------------------------------------------------------------|
|------------------------------------------------/7------------7/5--5--------|
|-------------------5/3------------------------------------------------------|
|-3/5--0--3/5-----------5----------------------------------------------------|
|----------------------------------------------------------------------------|

|----------------------------------------------------------------------------|
|----------------------------------------------------------------------------|
|------------------------------------------------7-----------------7---------|
|---------------------------------------------/7----------------/7-----------|
|--5---7---7/8---7-------5---7---7/8---7-------------------------------------|
|--5-5---5-----5---5-----5-5---5-----5---5-----------------------------------|
|                                                                            |
|----------------------------------------------------------------------------|
|--------------------------------------------/10-10---8--10--6/8-6-----------|
|----7------/7-7---------/7-7--5--7--------------------------------5-7--5/7--|
|-/7-------------/7--5--------------/7-5-------------------------------------|
|----------------------------------------------------------------------------|
|----------------------------------------------------------------------------|

|----------------------------------------------------------------------------|
|--------------------x---------x---------------------------------------------|
|--------------------7---5/7---7------------------------------7--------------|
|-------------------------------------------------------------7--------4-----|
|---------------------------------------------------3-----5------------------|
|----0--3/5--6--7------------------0--2-2--3-3--3/5----/7----------0-------0-|
|                                                                            |
|-7-7---7-5-----------------------------------------------------12-------12--|
|-------------------------------------6-6--6-6--/6-------------------/10-----|
|------------5/7------/9--9------------------------7----5/7--5/--------------|
|----------------------------------------------------------------------------|
|---------------------------------7------------------------------------------|
|----------------------------------------------------------------------------|

|----------------------------------------------------------------------------|
|----------------------------------------------------------------------------|
|--------------------8------7------------------------------------------------|
|-5-------6-----7----8------7------------------------------------------------|
|--------------------8------7------------------------------------------------|
|-----0------0----0----------------------------------------------------------|
|                                                                            |
|--------------------13-----12-----------------------------------------------|
|-8/10-6-------------13-----12-----------------------------------------------|
|--------7-------------------------------------------------------------------|
|----------------------------------------------------------------------------|
|----------------------------------------------------------------------------|
|-----------------0----------------------------------------------------------|



----------------- Acordes -----------------
