Pink Floyd - The Thin Ice

Solo:

e-----------------------------------------------------5-5p3-----------------------------------------
b------3b5----r3-3~~~~-x-x-x--5b6----r5-5~~~~-----3h5-------5---------------------------------------
g----------------------x--------------------------------------7p5---7p5-----------------------------
d-----------------------------------------------------------------7-----7p5-------------------------
a---------------------------------------------------------------------------7-6-5-3---3-------------
e----------------------------------------------5------------------------------------5---5-4-3-2-1-0-

e----------------------------------------17p15----15-17----------17-------17-------17-------17~-----
b----------------------------------15h17-------17----------21b22----21b22----21b22----21b22---------
g----------2-----------4----------------------------------------------------------------------------
d--2~~-----0-----3-----2----------------------------------------------------------------------------
a---------------------------------------------------------------------------------------------------
e----------------------------5----------------------------------------------------------------------

e--10b12----r10-10~~~~----12b13----r12-12~~~~----10b12----r10-10~~~~------17b19---------------------
b-----------------------------------------------------------------------15--------------------------
g---------------------------------------------------------------------------------------------------
d---------------------------------------------------------------------------------------------------
a---------------------------------------------------------------------------------------------------
e---------------------------------------------------------------------------------------------------

C Am F G
Mama loves her baby...
C G F C/G Am
Ooooooooooooooooooh...
C G F C/G Am D7 G
OooooooooooooooOOOOOOOOOOH baby
C Am F G
If you should go skating...

----------------- Acordes -----------------
Am = X 0 2 2 1 0
C = X 3 2 0 1 0
C/G = 3 3 2 X 1 X
D7 = X X 0 2 1 2
F = 1 3 3 2 1 1
G = 3 2 0 0 0 3
