Alceu Valença - Amor Que Vai

A        Dm  A          Dm
Amor que vai   amor que vem
A        Dm  A          Dm
Amor que vai   amor que vem
A
Amor que vai   amor que vem
                  C#m
Amor foge e vai embóra
         A
Amor que leva seus teréns
                         C#m
Pra não ter motivo de voltar
         Bm
Amor que vai
      C             A
Num cavalo alado chamado brisa
         Bm
Amor que vem
      C               A
Num galope rasgado na beira-mar  (bis)
         Dm      A     Dm  A
Amor maltrata deseja

       Dm        A    Dm  A
Amor comendo a maça
       Dm        A    Dm  A
Amor é pura incerteza
        Dm       A
O que será o amanha?

[Solo]

E|--------------------------------|
B|---10-12-10-12-10-12/14---------|
G|--------------------------11P9--|
D|--------------------------------|
A|--------------------------------|
E|--------------------------------|

E|-----------------------------------------9-7--------|
B|-------------------7-------7-9----7-9-10-----10-10--|
G|------6-7-9--6-7-9-----7-9------9-------------------|
D|--7-9-----------------------------------------------|
A|----------------------------------------------------|
E|----------------------------------------------------|

E|-----10-12-12b13r12---10-12-12b13r12-10-9---------|
B|--10---------------------------------------12p10--|
G|--------------------------------------------------|
D|--------------------------------------------------|
A|--------------------------------------------------|
E|--------------------------------------------------|

E|--13-12-----------------------------------------|
B|--------15-13-12--------------------------------|
G|-----------------14---------------12-----12h14--|
D|--------------------14-14---12-14----h14--------|
A|------------------------------------------------|
E|------------------------------------------------|

A        Dm  A          Dm
Amor que vai   amor que vem
A        Dm  A          Dm
Amor que vai   amor que vem
A
Amor que vai   amor que vem
                  C#m
Amor foge e vai embóra
         A
Amor que leva seus teréns
                         C#m
Pra não ter motivo de voltar
         Bm
Amor que vai
      C             A
Num cavalo alado chamado brisa
         Bm
Amor que vem
      C               A
Num galope rasgado na beira-mar  (bis)
         Dm      A     Dm  A
Amor maltrata deseja
       Dm        A    Dm  A
Amor comendo a maça
       Dm        A    Dm  A
Amor é pura incerteza
        Dm       A
O que será o amanha?

[Solo]

E|----------------------------------7-9--|-8-5----------------|
B|-------------------6------6-8-6-8------|-----8-6-5-----5----|
G|------6-7-9--6-7-9----7-9--------------|-----------7-7---6--|
D|--7-9----------------------------------|--------------------|
A|---------------------------------------|--------------------|
E|---------------------------------------|--------------------|

E|----13----12----13----12----10----9-----------|--8---------------------------|
B|-10----10----10----10----10----10---10-10-10--|----10-8----------------------|
G|----------------------------------------------|---------10-9-7-6-6-6-7-6~~~--|
D|----------------------------------------------|------------------------------|
A|----------------------------------------------|------------------------------|
E|----------------------------------------------|------------------------------|

A        Dm  A          Dm
Amor que vai   amor que vem
A        Dm  A          Dm
Amor que vai   amor que vem

----------------- Acordes -----------------
A = X 0 2 2 2 0
Bm = X 2 4 4 3 2
C = X 3 2 0 1 0
C#m = X 4 6 6 5 4
Dm = X X 0 2 3 1
