Alceu Valença - Casinha de Buinha

E|0-0-0-0-0-0-----------------------------|
B|5-3-5-3-5-3-----------------------------|
G|6-4-6-4-6-4-0-0-0-0-0-0-0-0-0-0-0-0-0-0-|
D|6-4-6-4-6-4-----------------------------|
A|4-2-4-2-4-2-----------7-7-----------7-7-|
E|x-x-x-x-x-x-5-7-5-7-5-----5-7-5-7-5-----|

E|0-0-0-0-0-0-0-0-------------------------|
B|3-1-3-1-3-1-3-1-------------------------|
G|4-2-4-2-4-2-4-2-0-0-0-0-0-0-0-0-0-0-0-0-|
D|4-2-4-2-4-2-4-2-------------------------|
A|2-0-2-0-2-0-2-0-------------------------|
E|x-x-x-x-x-x-x-x-2-3-5-2-3-5-2-3-5-3-5-3-|

E|0-0-0-0-0-0-0-0-|
B|3-1-3-1-3-1-3-1-|
G|4-2-4-2-4-2-4-2-|
D|4-2-4-2-4-2-4-2-|
A|2-0-2-0-2-0-2-0-|
E|----------------|


(repete)

----------------- Acordes -----------------
