Alceu Valença - Três Galeras

(intro)

E|----------------|
B|-11-------7---9-|
G|----9-9-9---9---|
D|----------------|
A|----------------|
E|-0--0-0-0-0-0-0-|

(riff 1 - verso 1)
E|----------------|---------------------------------------|
B|-11-------7---9-|-10---10---10---10---8---8---7---7-----|
G|----9-9-9---9---|----9----9----9----9---9---9---9---9-9-|
D|----------------|---------------------------------------|
A|----------------|---------------------------------------|
E|-0--0-0-0-0-0-0-|---------------------------------------|

Nas galeras do meu pensamento
Naveguei e hoje vim te buscar
Minha voz vem em ondas no vento
E meu corpo num braço de mar


(mesmo que a introdução)
E|----------------|
B|-11-------7---9-|
G|----9-9-9---9---|
D|----------------|
A|----------------|
E|-0--0-0-0-0-0-0-|

Na beira mar
O quebra-mar molhava a areia
No farol (clarão) da lua cheia
Candeias

(riff - verso 3)
E|----------------|---------------------------------------|
B|-11-------7---9-|-10---10---10---10---8---8---7---7-----|
G|----9-9-9---9---|----9----9----9----9---9---9---9---9-9-|
D|----------------|---------------------------------------|
A|----------------|---------------------------------------|
E|-0--0-0-0-0-0-0-|---------------------------------------|

E as janelas do apartamento
São de vidro pra se ver o mar
Se ela faz desse vidro um aquário
Com os peixes eu quero nadar

----------------- Acordes -----------------
