﻿Henrique e Juliano - Cidade Vizinha

Capo Casa 2

[Intro] G  G11+  G5  G6
        D  D4  D  D9
        G  G11+  G5  G6
        D  D4  D  D9

[Dedilhado]

   G        G11+     G5       G6
E|----------------------------0-----0-------|
B|-0-----0--2-----2--3-----3----------------|
G|-----0--------0--------0--------0---------|
D|---0--------0--------0--------0-----------|
A|------------------------------------------|
E|-3--------3--------3--------3-------------|

   D          D4         D        D9
E|-0h2-----2--2h3-----3--2-----2--0---------|
B|-------3----------3--------3--------3-2---|
G|-----2----------2--------2--------2-------|
D|-0----------0----------0--------0---------|
A|------------------------------------------|
E|------------------------------------------|


   G        G11+     G5       G6
E|----------------------------0-----0-------|
B|-0-----0--2-----2--3-----3----------------|
G|-----0--------0--------0--------0---------|
D|---0--------0--------0--------0-----------|
A|------------------------------------------|
E|-3--------3--------3--------3-------------|

   D          D4         D        D9
E|-0h2-----2--2h3-----3--2-----2--0---------|
B|-------3----------3--------3--------3-2---|
G|-----2----------2--------2--------2-------|
D|-0----------0----------0--------0---------|
A|------------------------------------------|
E|------------------------------------------|

[Solo]

E|------------------------------------------|
B|------------------------------------------|
G|-2/4--4/6--6/7--7/9--9/11--9/11\9\7-------|
D|------------------------------------------|
A|------------------------------------------|
E|------------------------------------------|

E|------------------------------------------|
B|------------------------------------------|
G|-2/4--4/6--6/7--2/4--2--7\----------------|
D|------------------------------------------|
A|----------------------------4/5-----------|
E|------------------------------------------|

[Primeira Parte]

   G        G11+     G5       G6
E|----------------------------0-----0-------|
B|-0-----0--2-----2--3-----3----------------|
G|-----0--------0--------0--------0---------|
D|---0--------0--------0--------0-----------|
A|------------------------------------------|
E|-3--------3--------3--------3-------------|

   D          D4         D        D9
E|-0h2-----2--2h3-----3--2-----2--0---------|
B|-------3----------3--------3--------3-2---|
G|-----2----------2--------2--------2-------|
D|-0----------0----------0--------0---------|
A|------------------------------------------|
E|------------------------------------------|

   G        G11+     G5       G6
E|----------------------------0-----0-------|
B|-0-----0--2-----2--3-----3----------------|
G|-----0--------0--------0--------0---------|
D|---0--------0--------0--------0-----------|
A|------------------------------------------|
E|-3--------3--------3--------3-------------|

   D          D4         D        D9
E|-0h2-----2--2h3-----3--2-----2--0---------|
B|-------3----------3--------3--------------|
G|-----2----------2--------2----------------|
D|-0----------0----------0--------0---------|
A|------------------------------------------|
E|------------------------------------------|

 G   G11+
Seis
G5                  G6              D    D4  D  D9
Essa é a hora que ela vai sair pra correr
   G   G11+
Depois
 G5               G6             D      D4  D  D9
Vai procurar alguma coisa leve pra comer

[Pré-Refrão]

  C9
Sua cabeça anda, sem ter tempo pra pensar
    Bm7(11)
Que antes era a gente
E hoje é vida singular
    G   G11+  G5
E agora?

Pra quem tá solteiro
         D           D4  D  D9
Cidade grande é foda

[Refrão]

    Em7
Eu sei que ela ta na cidade vizinha
 G                              D
Mas eu preciso da boca dela na minha
Ai ai ai ai
    Em7
Talvez essa hora, saiu do banho
 G                                D
Tá se arrumando pra sair com as amigas
Ai ai ai ai

   Em7
Tomara que saia, dê tudo errado
   G                                   D
E volte mais cedo, sem ninguém do seu lado
Ô o o

   Em7
Tomara que saia, dê tudo errado
   G                            D   D4  D
E sinta saudades, aqui do meu quarto

( G  G11+  G5  G6 )
( D  D4  D  D9 )

   G        G11+     G5       G6
E|----------------------------0-----0-------|
B|-0-----0--2-----2--3-----3----------------|
G|-----0--------0--------0--------0---------|
D|---0--------0--------0--------0-----------|
A|------------------------------------------|
E|-3--------3--------3--------3-------------|

   D          D4         D        D9
E|-0h2-----2--2h3-----3--2-----2--0---------|
B|-------3----------3--------3--------3-2---|
G|-----2----------2--------2--------2-------|
D|-0----------0----------0--------0---------|
A|------------------------------------------|
E|------------------------------------------|

[Pré-Refrão]

  C9
Sua cabeça anda, sem ter tempo pra pensar
    Bm7(11)
Que antes era a gente
E hoje é vida singular
    G   G11+  G5
E agora?

Pra quem tá solteiro
         D           D4  D  D9
Cidade grande é foda

[Refrão]

    Em7
Eu sei que ela ta na cidade vizinha
 G                              D
Mas eu preciso da boca dela na minha
Ai ai ai ai
    Em7
Talvez essa hora, saiu do banho
 G                                D
Tá se arrumando pra sair com as amigas
Ai ai ai ai

   Em7
Tomara que saia, dê tudo errado
   G                                   D
E volte mais cedo, sem ninguém do seu lado
Ô o o

   Em7
Tomara que saia, dê tudo errado
   G                            D   D4  D
E sinta saudades, aqui do meu quarto

----------------- Acordes -----------------
Capotraste na 2ª casa
Bm7(11)*  = 7 X 7 7 5 X - (*C#m7(11) na forma de Bm7(11))
C9*  = X 3 5 5 3 3 - (*D9 na forma de C9)
D*  = X X 0 2 3 2 - (*E na forma de D)
D4*  = X X 0 2 3 3 - (*E4 na forma de D4)
D9*  = X X 0 2 3 0 - (*E9 na forma de D9)
Em7*  = 0 2 2 0 3 0 - (*F#m7 na forma de Em7)
G*  = 3 2 0 0 0 3 - (*A na forma de G)
G11+*  = 3 5 5 6 3 3 - (*A11+ na forma de G11+)
G5*  = 3 5 5 X X X - (*A5 na forma de G5)
G6*  = 3 X 2 4 3 X - (*A6 na forma de G6)
