﻿Henrique e Juliano - Na Hora da Raiva

Capo Casa 5

Intro:

     G
E|------------------------------------------|
B|-------3--------------3-------------------|
G|-----0-----2p0------0-----2p0-------------|
D|---0-----0--------0-----0-----------------|
A|------------------------------------------|
E|-3--------------3-------------------------|

Primeira Parte - Primeira Estrofe:

       G                           D/F#
Encontrei uma caixinha cheia de relatos
                            Em
Um monte de documentos tão falsos
        C
Nossas vidas

Primeira Parte – Primeira Estrofe:


Parte 1

     G
E|------------------------------------------|
B|-------3--------------3-------------------|
G|-----0-----2p0------0-----2p0-------------|
D|---0-----0--------0-----0-----------------|
A|------------------------------------------|
E|-3--------------3-------------------------|

Parte 2

     D/F#
E|------------------------------------------|
B|-----------3--------------3---------------|
G|-----2-2-----2------2-2-----2-------------|
D|---0---0-0--------0---0-0-----------------|
A|------------------------------------------|
E|-2--------------2-------------------------|

Parte 3

     Em
E|------------------------------------------|
B|------------------------------------------|
G|-------0---2p0--------0---2p0-------------|
D|-----2--------------2---------------------|
A|---2--------------2-----------------------|
E|-0-------0------0-------0-----------------|

Parte 4

     C
E|------------------------------------------|
B|-------1---1p0----------------------------|
G|---0---0-------2-0-------0----------------|
D|------------------------------------------|
A|-3---3---3---------3-5/7------------------|
E|------------------------------------------|

Primeira Parte - Segunda estrofe:

           G
Em minhas mãos agora
                              D9
Tá cada parte dessa nossa história
                                  Em
E eu não sei se eu rasgo ou jogo fora
                        C
E o que é que eu faço agora

Refrão:

     G                        D9
Cometi a loucura de nossas fotos rasgar
                                Em
E uma por uma eu vou ter que colar
                    C
Mas foi na hora da raiva
                     G
Na hora, na hora da raiva


Naquele segundo eu pensei que até
   D9
Te odiava
                                Em
Mas respirei fundo e vi que eu te amava
                    C
Mas foi na hora da raiva

Na hora, na hora da raiva

Base Solo:

G  D9  Em  C

Solo:

Parte 1

E|----------------------------------------------------|
B|---------------------------8-8-8~-8-8h10------------|
G|-----5-5-7/9-7-9-7h9~--7/9---------------9\7-7-7h9~-|
D|-5/7------------------------------------------------|
A|----------------------------------------------------|
E|----------------------------------------------------|

Parte 2

E|----------------------------------------------------|
B|-----8-8h10-12-13r12-10~----------------------------|
G|-7/9---------------------12p9-10~-------------------|
D|----------------------------------------------------|
A|----------------------------------------------------|
E|----------------------------------------------------|

Parte 3

E|----------------------------------15b17~------------|
B|----------12h13-15b17-15b17r15-13-------------------|
G|-------14-------------------------------------------|
D|-12/14----------------------------------------------|
A|----------------------------------------------------|
E|----------------------------------------------------|

Parte 4

E|----------------------------------------------------|
B|-15b17-b17-b17-15b17r15p13-13~----------------------|
G|----------------------------------------------------|
D|----------------------------------------------------|
A|----------------------------------------------------|
E|----------------------------------------------------|

Primeira Parte – Segunda Estrofe:

           G
Em minhas mãos agora
                              D9
Tá cada parte dessa nossa história
                                  Em
E eu não sei se eu rasgo ou jogo fora
                        C
E o que é que eu faço agora

Refrão:

     G                        D9
Cometi a loucura de nossas fotos rasgar
                                Em
E uma por uma eu vou ter que colar
                    C
Mas foi na hora da raiva
                     G
Na hora, na hora da raiva


Naquele segundo eu pensei que até
   D9
Te odiava
                                Em
Mas respirei fundo e vi que eu te amava
                    C
Mas foi na hora da raiva

Na hora, na hora da raiva

Final:

G  D9  Em
                    C
Mas foi na hora da raiva
                     G
Na hora, na hora da raiva


Naquele segundo eu pensei que até
   D/F#
Te odiava
                                Em
Mas respirei fundo e vi que eu te amava
                    C
Mas foi na hora da raiva
                     G
Na hora, na hora da raiva

Dedlhado Final:

Parte 1

     G
E|------------------------------------------|
B|-------3--------------3-------------------|
G|-----0-----2p0------0-----2p0-------------|
D|---0-----0--------0-----0-----------------|
A|------------------------------------------|
E|-3--------------3-------------------------|

Parte 2

     D/F#
E|------------------------------------------|
B|-----------3--------------3---------------|
G|-----2-2-----2------2-2-----2-------------|
D|---0---0-0--------0---0-0-----------------|
A|------------------------------------------|
E|-2--------------2-------------------------|

Parte 3

     Em
E|------------------------------------------|
B|------------------------------------------|
G|-------0---2p0--------0---2p0-------------|
D|-----2--------------2---------------------|
A|---2--------------2-----------------------|
E|-0-------0------0-------0-----------------|

Parte 4

     C       G
E|-3-3-3---3--------------------------------|
B|-1-1-1---3--------------------------------|
G|-0-0-0---0--------------------------------|
D|-2-2-2---0--------------------------------|
A|-3-3-3---2--------------------------------|
E|---------3--------------------------------|

Solo Final:

Parte 1

E|----------------------------------------------------|
B|-13--13-13--13-13-13-12-12-12-13--13-13-15----------|
G|-12--12-12--12-12-12-12-12-12-12--12-12-12----------|
D|----------------------------------------------------|
A|----------------------------------------------------|
E|----------------------------------------------------|

Parte 2

E|----------------------------------------------------|
B|-15--15-15--15-15-15-13-13-13-15--15-15/17-17-------|
G|-12--12-12--12-12-12-12-12-12-12--12-12/14-14-------|
D|----------------------------------------------------|
A|----------------------------------------------------|
E|----------------------------------------------------|

Parte 3

E|-----------------------------------15b17------------|
B|----------12h13-15b17-17r15-13-13~------------------|
G|-------14-------------------------------------------|
D|-12/14----------------------------------------------|
A|----------------------------------------------------|
E|----------------------------------------------------|

----------------- Acordes -----------------
Capotraste na 5ª casa
C*  = X 3 2 0 1 0 - (*F na forma de C)
D/F#*  = 2 X 0 2 3 2 - (*G/B na forma de D/F#)
D9*  = X X 0 2 3 0 - (*G9 na forma de D9)
Em*  = 0 2 2 0 0 0 - (*Am na forma de Em)
G*  = 3 2 0 0 0 3 - (*C na forma de G)
