Pedra Letícia - Resolução (Vou Namorar Uma Puta)

Intro: Dm

Dm                   Gm           A
   Não quero mais discutir relação
                        Dm
Nem me importar com sua menstruação
                       Gm
Não quero mais passar medo
       A         Dm
Com você na direção,
A            Dm
Olha o caminhão!!!

                         Gm
Já me cansei de bancar o machão,
A               Dm
Eu vou mudar minha programação,
                 Gm          A                  Dm
Vou ver "Sex and the city" E depois vou correr pro salão,
A       Dm
Fazer pé e mão...


                    Gm          C
Eu quero alguém assim como eu,
                       F           E  Dm
E que me dê o que você não me deu,
                    Gm
Não quero mais Julieta
            A                Dm     A  Dm
A moda agora é um tipo de Romeu...

                     A

Vou namorar um traveco
                D
Agora a fila andou
                 A
Eu até ganho um amigo
            A
Joga bola comigo
               D
Ainda pega no gol

D                     A
Pode falar, não me importo
                   D
Com o que venha depois
                     A
Se eu ligo meu playstation
                                       D
Ele me pede com jeito pra ser o player dois

                  Em        A                      D    C#m    Bm
Ele é melhor que você que nunca atendeu o que eu pedia
                      Em                 A                      D
na falta de outro orifício, não faz sacrifício no forevis todo dia!

----------------- Acordes -----------------
A = X 0 2 2 2 0
Bm = X 2 4 4 3 2
C = X 3 2 0 1 0
C#m = X 4 6 6 5 4
D = X X 0 2 3 2
Dm = X X 0 2 3 1
E = 0 2 2 1 0 0
Em = 0 2 2 0 0 0
F = 1 3 3 2 1 1
Gm = 3 5 5 3 3 3
