﻿Calcinha Preta - A Calcinha Preta É Nossa

Intro: Dm Bb Dm Bb Dm Bb Dm Bb A C Dm


|-10----10--8-10-8-10--8/10-8-----------10----10-10/15--15-13-15-13-------------------------------
|---10-------------------------------11-10~~---10---------------------------15--13/15-13-13/15~---
|-----10----------------------------------------------10------------------------------------------
|-------------------------------------------------------------------------------------------------
|-------------------------------------------------------------------------------------------------
|-------------------------------------------------------------------------------------------------

|-10----10--8-10-8-10--8/10-8--------10----10-10/15--15-13-15-13-15-15/17---18-20---20-22~--------
|---10---------------------------11-10~~---10---------------------------------------------20---22-
|-----10------------------------------------------10----------------------------------------------
|-------------------------------------------------------------------------------------------------
|-------------------------------------------------------------------------------------------------
|-------------------------------------------------------------------------------------------------

Dm                                             Bb
É da calcinha que eu gosto, carrego no coração

 C                                                        Dm A  Dm
Inverno ou verão, estou esperando você
                                               Bb
É da calcinha que eu gosto, carrego no coração
C                                                         Dm  A
Inverno ou verão, o meu coração vai ferver
         Gm                                                  Dm
Qual é, não fique em casa chorando porquê
                                                   Bb
A calcinha preta chegou pra te vê
           A                           Dm    D
É nossa é nossa é nossa...
         Gm                                                    Dm
Qual é, não fique em casa chorando porquê
                                                 Bb
A calcinha preta chegou pra você
          A                           Dm
É nossa é nossa é nossa...

Onde tem calcinha eu vou

Onde tem calcinha eu vou
                                               Bb       C          Dm
Onde tem calcinha preta eu vou eu vou eu vou

Onde tem calcinha eu vou

Onde tem calcinha eu vou
                                                Bb      C         Dm
Onde tem calcinha preta eu vou eu vou eu vou

----------------- Acordes -----------------
A = X 0 2 2 2 0
Bb = X 1 3 3 3 1
C = X 3 2 0 1 0
D = X X 0 2 3 2
Dm = X X 0 2 3 1
Gm = 3 5 5 3 3 3
