Calcinha Preta - Amei Você

Intro: A  C#m/G#  F#m  D

 A              C#m/G#
Sei que vai voltar mais uma vez
         F#m
Com certeza te amei não me canso de dizer
     D
Adeus pode ir
A                      C#m/G#
Que seja então feliz
  F#m
Já encontrou um alguém pra casar
D
Adeus pode ir amor
A         C#m/G#
Saiba que eu tô bem
   F#m
Que eu vou indo
 D
Outra vez vai se arriscar em outro caso
 E  F#m7(11)   D
Você deve se lembrar

  E
Eu não quero não aparecer do nada sem ser convidada
 F#m7(11)              D    D4+(9)  D
Eu não sei viver forçando assim a barra

Eu deixo acontecer até você querer voltar pra mim
Eu digo no no

A                  E            F#m  D
Sei que vai voltar mais uma vez
     A               E        F#m D
Me garanto pois amei, amei você
     A               E        F#m
Com certeza te amei não me canso de dizer
          A                      E
Enquanto um amor te fere outro vem amar você
  F#m      D
Enquanto um amor te fere, outro vem pra só amar você

----------------- Acordes -----------------
A = X 0 2 2 2 0
C#m/G# = X X 6 6 5 4
D = X X 0 2 3 2
D4+(9) = X 5 6 7 5 X
E = 0 2 2 1 0 0
F#m = 2 4 4 2 2 2
F#m7(11) = 2 X 2 2 0 X
