Calcinha Preta - Amor Dividido

D                    A
Não quero mais esse amor dividido
Em                   G
o que eu quero é ficar contigo
D                   A
Só me procura pra levar pra cama
Em                  G
Vai ter que escolher quem é que você ama

(intro) D  A  Em  G

D                     A
Você me liga quando é madrugada
Em                 G
Embriagado querendo me ver
D                  A
Depois da tranza já que ir embora
Em                 G
Iventa alguma coisa pra fazer
D                     A
Não adianta sei que está me enganando

Em                       G
Que vai dormir nos braços da sua Mulher
D                    A
Fim de semana sempre inventa um compromisso
Em                   G
Eu fico só vendo programa de TV
Bm    A
Bye Bye
          Em
Não quero mais converssa com você
Bm    A
Bye Bye
        Em                      G
Procure outra e tente me esquecer
D                  A
Não quero mais esse amor dividido
Em
Sei que você só quer brincar comigo
D                   A
Só me procura pra levar pra cama
Em                  G
Vai ter que escolher quem é que você ama

( D  A  Em  G )

----------------- Acordes -----------------
A = X 0 2 2 2 0
Bm = X 2 4 4 3 2
D = X X 0 2 3 2
Em = 0 2 2 0 0 0
G = 3 2 0 0 0 3
