Calcinha Preta - Baby Dool

Intro: F  G   Am (4x)

Solo:

E|---12-12-12-12-10-------------------10-----10-12-13-15~-------|
B|------------------13-12-13~----12-13-----13-------------------|
G|--------------------------------------------------------------|
D|--------------------------------------------------------------|
A|--------------------------------------------------------------|
E|--------------------------------------------------------------|

E|---12-12-12-12-10-------------------10------------------------|
B|------------------13-12-13~----12-13-----13-12-13-12-10~------|
G|--------------------------------------------------------------|
D|--------------------------------------------------------------|
A|--------------------------------------------------------------|
E|--------------------------------------------------------------|

E|---12-12-12-12-10-------------------10-----10-12-13-15~-------|
B|------------------13-12-13~----12-13-----13-------------------|
G|--------------------------------------------------------------|
D|--------------------------------------------------------------|
A|--------------------------------------------------------------|
E|--------------------------------------------------------------|


E|---12-12-12-12-10-------------------10--------------------17--|
B|------------------13-12-13~----12-13-----13-12-13-12-10~------|
G|--------------------------------------------------------------|
D|--------------------------------------------------------------|
A|--------------------------------------------------------------|
E|--------------------------------------------------------------|

ínicio

Am
Só vc que sabe me fazer mulher
    F
Só vc faz tudo que eu quiser
   G                     C             E          Am
Só vc, entede o meu coração, enxe meu corpo de tesão
               F
Vem amor para mim
               Dm
que eu estou aqui
     E          Am
A te esperaaaaaaar . . .
F
Ontem sonhei com vc
   C
Estava no quarto tão só
  Dm                             Am
Estava tão linda vestida ; com aquele baby dool
    F
Limpei minha boca de mel
     C
Pensando só em vc
  Dm                            E
Amor eu te quero preciso desse teu prazeeeeeeer !
                     Am
E quando vc toca em mim!
    F     C
Ah ah ah ah . . .
            G                              Am
Eu fico toda molhada! Te juro fico logo assim     Refrão 2x
    F     C
Ah ah ah ah
           G
Eu fico arrepiada

----------------- Acordes -----------------
Am = X 0 2 2 1 0
C = X 3 2 0 1 0
Dm = X X 0 2 3 1
E = 0 2 2 1 0 0
F = 1 3 3 2 1 1
G = 3 2 0 0 0 3
