Calcinha Preta - Garotas Não Choram

G C D
      Teu cheiro está grudado em mim
G C D
      Más você não está perto
G C D
      Onde será que está?
C                          D
      Eu preciso te encontrar.
C                          D
      Eu preciso te encontraaar.

C       G          D
Não é amor, não é amor
       D
O que me levou às nuvens
C          G              D
Me enfeitiçou, me fez te amar
          Em
Depois de tudo se escondeu

C              G                   D
Não quer compromisso, não me dar notícias

                    Em
Não sabe que eu não durmo, não tá
C         G             D
Não faz assim, sofro demais
D                          ( G  C  D )
      Agora estou tão só.

G C D
      Deixa sentir você mais uma vez
G C D
      Más você não está perto
G C D
      Onde será que está?
C                    D
Eu preciso te encontrar.
C                    D
Eu preciso te encontraar.

C        G          D
Não é amor, não é amor
          D
O que me levou às nuvens
C         G                D
Me enfeitiçou, me fez te amar
          Em
Depois de tudo se escondeu

C               G                   D
Não quer compromisso, não me dar notícias
                    Em
Não sabe que eu não durmo, não tá
C         G             D
Não faz assim, sofro demais
                   G C D
Agora estou tão só.

G          D           C
É assim que eu amo e que falo de amor

É assim que falo de amoor
C                      D
Qual é a chance da paixão?
C                      D
Qual é a chance da paixão?

C       G          D
Não é amor, não é amor
       D
O que me levou às nuvens
C          G              D
Me enfeitiçou, me fez te amar
          Em
Depois de tudo se escondeu

C              G                   D
Não quer compromisso, não me dar notícias
                    Em
Não sabe que eu não durmo, não tá
C         G             D
Não faz assim, sofro demais
D                          ( G  C  D )
      Agora estou tão só.


----------------- Acordes -----------------
C = X 3 2 0 1 0
D = X X 0 2 3 2
Em = 0 2 2 0 0 0
G = 3 2 0 0 0 3
