Calcinha Preta - Não diga, não


D
Não diga não,
        F#m                Bm
Que não ama mais meu pobre coração,
       F#m                     G
Que um dia foi sua fonte inspiração,
       F#m            Em       A7
Ai meu Deus não vou ficar sem esse amor,
         D
Não diga não
      F#m                   Bm
Que já tem lá dentro do seu coração,
      F#m                      G
Outro amor soprando feito um furacão,
     F#m            Em       A7  Am7
Te levando bem pra longe amor de mim,
               G        A
Te amo tanto pra viver
                   F#m       Bm
Assim tão longe de você amor,

                  G
Vou embora pra não ver
                        Em
Outro alguém que não sou eu
    A          D  A A4
Oculpando meu lugar
D                         D           Bm
 Não dá pra negar que sou louco por você,
    G      Em A7
Não dá não dá,
D                       D          Bm
 Não dá pra negar minha vida é te querer,
    G      Em A7
Não dá não dá,
D                        D          Bm
 Não dá pra negar que sou louco por você,
    G      Em A7
Não dá não dá,
D                       D          Bm
 Não dá pra negar minha vida é te querer,
    G      Em A7            D    A Am7
Não dá não dá    meu grande amor,
                  G    A
Te amo tanto pra viver
                  F#m        Bm
Assim tão longe de você amor,
                  G
Vou embora pra não ver
                         Em
Outro alguém que não sou eu
    A          D  A A4
Oculpando meu lugar

----------------- Acordes -----------------
A = X 0 2 2 2 0
A4 = X 0 2 2 3 0
A7 = X 0 2 0 2 0
Am7 = X 0 2 0 1 0
Bm = X 2 4 4 3 2
D = X X 0 2 3 2
Em = 0 2 2 0 0 0
F#m = 2 4 4 2 2 2
G = 3 2 0 0 0 3
