Calcinha Preta - Não me deixe agora

E                 Am    F C               G
Não...não me deixe agora,porque existe amor
Am   F        C          G
Não agora... amor, meu amor
Am       F       C          G          Dm                  G     C
Se está longe... longe eu vou... te buscaaar,...te buscaaaa...aar

C  G/B   Am        Dm     Dm/C       G
Te peço aflito... e não quero um dia te perder
C   G/B     Am            Dm                     Dm/C      G
Eu sei tou sofrendo... também sei que ninguém vai resolver
F        E            Am             G              Dm        G            C E
Algumas vezes penso e tento te esquecer... mas eu te quero... porque amo você

C    G/B          Am      Dm         Dm/C      G
São tantas histórias... que o povo fala pra mim
C    G/B          Am      Dm         Dm/C     G
Que a noite lá fora... encontram você por aí
F        E            Am             G              Dm        G            C E
Algumas vezes penso e tento te esquecer... mas eu te quero... porque amo você



Refrão

C  G/B   Am        Dm     Dm/C       G
Te peço aflito... e não quero um dia te perder
C   G/B     Am            Dm                     Dm/C      G
Eu sei tou sofrendo... também sei que ninguém vai resolver
F        E            Am             G              Dm        G            C E
Algumas vezes penso e tento te esquecer... mas eu te quero... porque amo você

E                 Am    F C               G
Não...não me deixe agora,porque existe amor
Am   F        C          G
Não agora... amor, meu amor
Am       F       C          G          Dm                  G     C
Se está longe... longe eu vou... te buscaaar,...te buscaaaa...aar


E                 Am    F C               G
Não...não me deixe agora,porque existe amor
Am   F        C          G
Não agora... amor, meu amor
Am       F       C          G          Dm                  G     C
Se está longe... longe eu vou... te buscaaar,...te buscaaaa...aar


BIS....

----------------- Acordes -----------------
Am = X 0 2 2 1 0
C = X 3 2 0 1 0
Dm = X X 0 2 3 1
Dm/C = X 3 X 2 3 1
E = 0 2 2 1 0 0
F = 1 3 3 2 1 1
G = 3 2 0 0 0 3
G/B = X 2 0 0 3 3
