Calcinha Preta - Só Tenho Olhos Pra Você

    G
Só tenho lhos pra você
Em
E mais ninguém
C
O amor que sinto por você
G                   D
Ninguém tem
G
Se existe alguém que te ama
Em
E te quer tão bem
C
Esse alguém que a ama
G                      D
Sou eu meu bem
G
Não saem dos meus pensamentos
Em
Os melhores momentos
C
O tempo que passamos juntos

G                                        D
Não foi mais que cinco minutos
C      D7          Bm            Em
Te amo, te quero tão bem
C
Só existe no meu coração
   G                    D
É você, meu bem
C      D7          Bm            Em
Te amo, te quero tão bem
C                           Am
Sou o seu apaixonado
                                G7
Não quero mais ninguém

----------------- Acordes -----------------
