Calcinha Preta - Veneno

E                    Eb   C#m
Quantas vezes quiz me envolver
               B     A
Mas tenho medo de sofrer
             F#m          B
Estou me sentindo tao sozinha
E                     C#m
Esta escacarado o coração
                 B     A
Louca pra viver uma paixão
              F#m           B
Entregar meu corpo de uma vez

    A          Am         E      Eb   C#m   B
A voçe q amo tanto, seu olhar me faz querer
        F#
Me entregar de corpo inteiro
        B          A   B
Fazer tudo com voce

        E
Quero provar do teu veneno

       C#m
Me embriagar no teu prazer
      A                F#m
Incendiar meu corpo inteiro
         A            B
Nessa loucura que e voce
          E
Vem me abracar por que eu te amo
             C#m
Não deixe a noite amanhecer
           A              F#m
Corre pra mim tou te esperando
        A             B
Meu coracao so quer voce
          A   Am
Só quer voce

(quantas vezes quis me envolver...)



----------------- Acordes -----------------
A = X 0 2 2 2 0
Am = X 0 2 2 1 0
B = X 2 4 4 4 2
C#m = X 4 6 6 5 4
E = 0 2 2 1 0 0
Eb = X 6 5 3 4 3
F# = 2 4 4 3 2 2
F#m = 2 4 4 2 2 2
