Lairton - Dormi Na Praça

Intro 2x: F  C  Bb  C

   F           Am         Dm  Bb               A           Dm
Eu Caminhei sozinho pela rua, falei com as estrelas e com a lua
    Bb              A        Dm           Bb  F           C            F
Deitei no banco da praça tentando te esquecer adormeci e sonhei com você
    F         Am          Dm    Bb               A            Dm
No sonho você veio provocante, me deu um beijo doce e me abraçou
   Bb          A            Dm       Bb     F            C          F   C
E bem na hora "H" no ponto alto do amor já era dia e o guarda me acordou

     F                                          C
Seu guarda eu não sou vagabundo eu não sou delinqüente
                                  Bb  C          F   C
Sou um cara carente eu dormi na praça   pensando nela
     F                                 C
Seu guarda seja meu amigo me bata me prenda faça tudo comigo
              Bb C           F   C
Mas não me deixe   ficar sem ela

No sonho você veio.

(Refrão)

----------------- Acordes -----------------
A = X 0 2 2 2 0
Am = X 0 2 2 1 0
Bb = X 1 3 3 3 1
C = X 3 2 0 1 0
Dm = X X 0 2 3 1
F = 1 3 3 2 1 1
