Lairton - Oh Carol

A
Oh Carol.
          F#m
Sem o teu amor
             Bm
Tudo é tristeza
              E
Tudo é um horror

        A
Teus olhos
            F#m
Sempre a cintilar
             Bm    E
São Duas estrelas
               A   E
Sempre a me guiar

                            A
Eu não sei viver sem teu carinho
           F#m
Não me deixe amor
             Bm
Sou ave sem ninho
          E
Sem o teu calor

                               A
Esse imenso amor não tem mais fim
           F#m
Volte por favor
          Bm   E
Oh, Oh, carol
              A
Tem pena de mim

----------------- Acordes -----------------
A = X 0 2 2 2 0
Bm = X 2 4 4 3 2
E = 0 2 2 1 0 0
F#m = 2 4 4 2 2 2
