Queen - We Will Rock You

[Primeira Parte]

Buddy you're a boy
Make a big noise
Playin' in the street
Gonna be a big man some day
You got mud on your face
You big disgrace
Kickin' your can
All over the place

Sing it!

[Refrão]

We will, we will
Rock you!
We will, we will
Rock you!

[Segunda Parte]


Buddy you're a
Young man, hard man
Shoutin in the street
Gonna take on the
World some day
You got blood
On your face
You big disgrace
Wavin' your banner
All over the place

[Refrão]

We will, we will
Rock you!
We will, we will
Rock you!

[Terceira Parte]

Buddy you're an
Old man poor man
Pleadin' with your
Eyes gonna make
You some peace some day
You got mud on your face
Big disgrace
Somebody better put you
Back into your place

[Refrão]

We will, we will
Rock you!
Sing it!
We will, we will
Rock you!
Everybody!
We will, we will
Rock you!
We will, we will
Rock you!
All right

[Solo]

E|---------------------------------------------------|
B|---------------------------------------------------|
G|-9~~~----------------------------------------------|
D|---------------------------------------------------|
A|---------------------------------------------------|
E|---------------------------------------------------|

E|---------------------------------------------------|
B|---------------------------------------------------|
G|-5~\---2----2----x---2--2-2----2/14----------------|
D|-5~\---2----2----x---2--2-2----2/14----------------|
A|-3~\---0----0--x---x-0--0-0----0/------------------|
E|---------3b----x---x--------3b---------------------|

E|---------------------------------------------------|
B|14-15--15-14~---14-14h15--15p14-15p14-15-14~--14---|
G|14-14--14-14~---14-14-----14----14----14-14~--14---|
D|14-16--16-14~---14-14h16--16p14-16p14-16-14~--14---|
A|0---------0-----0--0------0-----0-----0-------0----|
E|---------------------------------------------------|

E|17p15----14----------------------------------------|
B|14----15-----15-x-15p14-x-15p14--------------------|
G|14-----------14-x-14----x-14----16-14~-------------|
D|14-----------14---14------14-----------------------|
A|0------------0----0-------0------------------------|
E|---------------------------------------------------|

E|---------------------14----------------------------|
B|17-x-17p14--x--17b19----17-14----------------------|
G|14-x-14-----x-----------------16b18r-16-14---------|
D|14-x-14-----x--------------------------------------|
A|0----0------0--------------------------------------|
E|---------------------------------------------------|

E|---------------------------------------------------|
B|14--15p14--15p14-----14~---------------------------|
G|14--14-----14-----14-14~---------------------------|
D|14--16p14--16p14--14-------------------------------|
A|0---0------0------0--------------------------------|
E|---------------------------------------------------|

E|---------------------------------------------------|
B|x-14--15p14--15p14-----14~-----14------------------|
G|x-14--14-----14-----14-14~-----14------------------|
D|x-14--16p14--16p14--14-----16b---------------------|
A|--0---0------0------0------0-----------------------|
E|---------------------------------------------------|

E|---------------------------------------------------|
B|14--15p14--15p14-----14~-----14--------------------|
G|14--14-----14-----14-14~-----14--------------------|
D|14--16p14--16p14--14-----16b-----------------------|
A|0---0------0------0------0-------------------------|
E|---------------------------------------------------|

E|---------------------------------------------------|
B|14--15p14--15p14-----14~-----14--------------------|
G|14--14-----14-----14-14~-----14--------------------|
D|14--16p14--16p14--14-----16b-14--------------------|
A|0---0------0------0------0-------------------------|
E|---------------------------------------------------|

----------------- Acordes -----------------
