Queen - We Will Rock You

Bm
Buddy you're a boy make a big noise
                                        F#m
Playin' in the street gonna be a big man some day
        Bm
You got mud on yo' face

You big disgrace

Kickin' your can all over the place

  Singin'
   Bm      F#m      E
   We will we will rock you
   Bm       F#m     E
   We will we will rock you


Bm
Buddy you're a young man hard man
                               F#m
Shoutin' in the street gonna take on
       Bm
the world some day

You got blood on yo' face

You big disgrace

Wavin' your banner all over the place

   Bm       F#m     E
   We will we will rock you

   Singin'

   Bm      F#m      E
   We will we will rock you

     Bm
    Buddy you're an old man poor man
                               F#m
    Pleadin' with your eyes gonna make you
             Bm
    some peace some day

    You got mud on your face

    You big disgrace

    Somebody better put you back into your place


    Bm       F#m     E
   We will we will rock you

Singin

   Bm       F#m     E
   We will we will rock you

  Everybody

   Bm      F#m      E
   We will we will rock you

     Bm       F#m     E
   We will we will rock you…

----------------- Acordes -----------------
Bm = X 2 4 4 3 2
E = 0 2 2 1 0 0
F#m = 2 4 4 2 2 2
