3 Doors Down - Here By Me

(intro)
    G*                 Csus
E|---------------|---------------|
B|--0-----0------|--1-----0------|
G|----0-----0----|----0-----0----| (2x)
D|------------0--|------0-----2--|
A|------2--------|--3------------|
E|--3------------|---------------|

(verso 1)
G*                  Csus                     G*  Csus
I hope you’re doing fine out there without me
 Am                  C                   G*   Csus
'Cause I’m not doing so good without you
G*                        Csus                 G*   Csus
The things I thought you’d never know about me
Am                C                            G*   Csus
Were the things I guess you always understood

   ___   G*                 Csus
 ||  e|---------------|---------------|

 ||  B|--0-----0------|--1-----0------|
 ||* G|----0-----0----|----0-----0----| x2
 ||* D|------------0--|------0-----2--|
 ||  A|------2--------|--3------------|
 ||  E|--3------------|---------------|
 ---
           Am               C                G*                 Csus       ___
     e|-----------------|---------------||---------------|---------------| ||
     B|--0h1-----1------|--1-----1------||--0-----0------|--1-----0------| ||Play all
     G|--2---2-----2----|----0-----0----||----0-----0----|----0-----0----|*|| Of
     D|--------2-----2--|------2-----2--||------------0--|------0-----2--|*||These
     A|--0--------------|--3------------||------2--------|--3------------| ||Twice
     E|-----------------|---------------||--3------------|---------------| ||
                                                                         ---

(pré-refrão)
Am                                    C
So how could I have been so blind for all these years?
Am                                 C
Guess I only see the truth through all this fear,And living without you…

    Am                                 C
E|----------------------------------|------------------------------|
B|--0h1-----1--------1-------1------|--1-----1--------1-----1------|
G|--2---2-----2------2---2-----2----|----0-----0--------0-----0----|
D|--------2-----2----------2-----2--|------2-----2--------2-----2--|
A|--0----------------0--------------|--3--------------3------------|
E|----------------------------------|------------------------------|

      Am                                 C
E|----------------------------------|-------------------------------|
B|--0h1-----1--------1-------1------|--1-----1----------------0h1---|
G|--2---2-----2------2---2-----2----|----0-----0------------0-------|
D|--------2-----2----------2-----2--|------2-----2--------2---------|
A|--0----------------0--------------|--3------------0-2-3-----------|
E|----------------------------------|-------------------------------|

(refrão)
G                Bm
And everything I had in this world
C          em           Am
And all that I’ll ever be
C            em          Am
It could all fall down around me.
C           em   d           G
Just as long as I have you,Right here by me.

E|--19-17-14-----------|
B|-----------15--------|
G|--------------14-12--| (2x)
D|---------------------|
A|---------------------|
E|---------------------|

(verso 2) (mesmos acordes do verso 1)
I can’t take another day without you
'Cause baby, I could never make it on my own
I’ve been waiting so long, just to hold you
And be back in your arms where I belong

   ___   G*                 Csus
 ||  e|---------------|---------------|
 ||  B|--0-----0------|--1-----0------|
 ||* G|----0-----0----|----0-----0----| x2
 ||* D|------------0--|------0-----2--|
 ||  A|------2--------|--3------------|
 ||  E|--3------------|---------------|
 ---
            Am               C                G*                 Csus       ___
     e|-----------------|---------------||---------------|---------------| ||
     B|--0h1-----1------|--1-----1------||--0-----0------|--1-----0------| ||Play all
     G|--2---2-----2----|----0-----0----||----0-----0----|----0-----0----|*|| Of
     D|--------2-----2--|------2-----2--||------------0--|------0-----2--|*||These
     A|--0--------------|--3------------||------2--------|--3------------| ||Twice
     E|-----------------|---------------||--3------------|---------------| ||
                                                                        ---

(pré-refrão 2)
Sorry I can’t always find the words to say
But everything I’ve ever know gets swept away Inside of your love…
    Am                                 C
E|----------------------------------|------------------------------|
B|--0h1-----1--------1-------1------|--1-----1--------1-----1------|
G|--2---2-----2------2---2-----2----|----0-----0--------0-----0----|
D|--------2-----2----------2-----2--|------2-----2--------2-----2--|
A|--0----------------0--------------|--3--------------3------------|
E|----------------------------------|------------------------------|

      Am                                 C
E|----------------------------------|-------------------------------|
B|--0h1-----1--------1-------1------|--1-----1----------------0h1---|
G|--2---2-----2------2---2-----2----|----0-----0------------0-------|
D|--------2-----2----------2-----2--|------2-----2--------2---------|
A|--0----------------0--------------|--3------------0-2-3-----------|
E|----------------------------------|-------------------------------|

(refrão)
G                Bm
And everything I had in this world
C                     Am
And all that I’ll ever be
C                      Am
It could all fall down around me.
C                      G                     chorus fill
Just as long as I have you,Right here by me.

  Chrous fill
E|--19-17-14-----------|
B|-----------15--------|
G|--------------14-12--| x2
D|---------------------|
A|---------------------|
E|---------------------|

(ponte)
Em               C
As the days grow long I see
Em                     C
That time is standing still for me
Am
When you’re not here

(pré-refrão 3)
Sorry I can’t always find the words to say
But everything I’ve ever know gets swept away Inside of your love…
    Am                                 C
E|----------------------------------|------------------------------|
B|--0h1-----1--------1-------1------|--1-----1--------1-----1------|
G|--2---2-----2------2---2-----2----|----0-----0--------0-----0----|
D|--------2-----2----------2-----2--|------2-----2--------2-----2--|
A|--0----------------0--------------|--3--------------3------------|
E|----------------------------------|------------------------------|

      Am                                 C
E|----------------------------------|-------------------------------|
B|--0h1-----1--------1-------1------|--1-----1----------------0h1---|
G|--2---2-----2------2---2-----2----|----0-----0------------0-------|
D|--------2-----2----------2-----2--|------2-----2--------2---------|
A|--0----------------0--------------|--3------------0-2-3-----------|
E|----------------------------------|-------------------------------|

(refrão)
G                Bm
And everything I had in this world
C                     Am
And all that I’ll ever be
C                      Am
It could all fall down around me.
C                      G                     chorus fill
Just as long as I have you,Right here by me.

  Chrous fill
E|--19-17-14-----------|
B|-----------15--------|
G|--------------14-12--| x1
D|---------------------|
A|---------------------|
E|---------------------|

G                Bm
And everything I had in this world
C                     Am
And all that I’ll ever be
C                      Am
It could all fall down around me.
C                      G                     ( G )
Just as long as I have you,Right here by me.

----------------- Acordes -----------------
A = X 0 2 2 2 0
Am = X 0 2 2 1 0
B = X 2 4 4 4 2
Bm = X 2 4 4 3 2
C = X 3 2 0 1 0
Csus = X 3 2 0 1 0
D = X X 0 2 3 2
E = 0 2 2 1 0 0
Em = 0 2 2 0 0 0
G = 3 2 0 0 0 3
