Estakazero - Encosta Neu

D      E      C#m        F#m                  D
Como é bom te ter oh menina prenda do meu coração
D      E       C#m            F#m           D
Como é bom sonhar com tu pegando em minha mão
D      E              C#m
Me levando pra outro lugar
                F#m                D   E C#m F#m7
Pra gente se em cama pra gente se amar
D          E        C#m   F#m    D
Quanto tempo sem te ter   faz doer
           E       C#m       F#m     D
Quanto tempo sem lêlêlêlêlêlêlêlêlê iê
D         E     C#m    F#m
As canções que eu te fiz
Bm        E      C#m     F#m
Uma frase que dizia assim

>Refrão(3x) :

            D          E              C#m
              Encosta neu dá um cheiro neu

                             F#m              D
              Seu corpo no meu corpo deixa doido eu

D         E              C#m  F#m  D
Encosta neu dá um cheiro neu eeu

>Repete música

----------------- Acordes -----------------
Bm = X 2 4 4 3 2
C#m = X 4 6 6 5 4
D = X X 0 2 3 2
E = 0 2 2 1 0 0
F#m = 2 4 4 2 2 2
F#m7 = 2 X 2 2 2 X
