Gusttavo Lima - Água de Bar

Bm          G
 Hoje eu não vou trabalhar
D           A
 Eu vou beber água de bar
Bm          G
 Hoje eu não vou trabalhar
D           A
 Eu vou beber água de bar
Bm   G   D         A
A, a, aaa, eu vou beber água de bar
Bm   G   D         A
A, a, aaa, eu vou beber ...

Verso : Bm  G  D  A

Bm          G
 Hoje eu não vou trabalhar
D           A
 Eu vou beber água de bar
Bm          G
 Hoje eu não vou trabalhar

D           A
 Eu vou beber água de bar
Bm   G   D         A
A, a, aaa, eu vou beber água de bar
Bm   G   D         A
A, a, aaa, eu vou beber água de bar

Bm                          A
Todos falam que eu não vivo no mundo real
Bm                           A
E tão dizendo por ai que eu sou cara de pau
          Bm
Porque eu gosto de curtir, gosto de dançar
A
E viver a vida
Bm
Gosto de beber, gosto de beijar
   A
É farra todo dia
Avida e so uma temos que aproveitar porque quando se morre nada pode se levar

Bm          G
 Hoje eu não vou trabalhar
D           A
 Eu vou beber água de bar
Bm          G
 Hoje eu não vou trabalhar
D           A
 Eu vou beber água de bar
Bm   G   D         A
A, a, aaa, eu vou beber água de bar
Bm   G   D         A
A, a, aaa, eu vou beber água de bar

----------------- Acordes -----------------
A = X 0 2 2 2 0
Bm = X 2 4 4 3 2
D = X X 0 2 3 2
G = 3 2 0 0 0 3
