Gusttavo Lima - DNA

[Intro] D  A  D  A

A
Eu era aquele cara que sonhava em casar, ter filhos
D
Você uma mãe solteira abandonada pelo ex marido
D            F#m    A  D
E a gente se encontrou
D                  F#m   A  D
E o nosso beijo se encaixou
A
As pessoas da cidade dizem que sou louco
A
Por assumir um filho que não era meu
D
Mas como posso não amar esse garoto
D
Se ele tem o mesmo sorriso que o seu
F#m    A       D
Vou lá, vou lá, deixa o mundo criticar
F#m    A       D                  A
Vou lá, vou lá, o amor não tem DNA


( D  A  D  A )

A
Eu era aquele cara que sonhava em casar, ter filhos
D
Você uma mãe solteira abandonada pelo ex marido
D            F#m    A  D
E a gente se encontrou
D                  F#m   A  D
E o nosso beijo se encaixou
A
As pessoas da cidade dizem que sou louco
A
Por assumir um filho que não era meu
D
Mas como posso não amar esse garoto
D
Se ele tem o mesmo sorriso que o seu
F#m    A       D
Vou lá, vou lá, deixa o mundo criticar
F#m    A       D                  A
Vou lá, vou lá, o amor não tem DNA

----------------- Acordes -----------------
A = X 0 2 2 2 0
D = X X 0 2 3 2
F#m = 2 4 4 2 2 2
