Gusttavo Lima - Fora do Comum

Intro:
    Em       C9          G/B        D/F#
E|-------2-3----------------7-7-7-7--5-5----------|
B|------------3-3-3--5-3----------------8-7-5~----|
G|------------------------------------------------|
D|-2-2-2------------------------------------------|
A|------------------------------------------------|
E|------------------------------------------------|

    Em       C9          G/B        D/F#
E|-------2-3----------------7-7-7-7--5-5----------|
B|------------3-3-3--5-3----------------8-7-5~----|
G|------------------------------------------------|
D|-2-2-2------------------------------------------|
A|------------------------------------------------|
E|------------------------------------------------|

Em                 C9
Nossa história é longa
           G/B
Mas eu resumi

                  D/F#
Perguntas sem respostas

Te respondo sim

Em             C9
Entrada sem saída
           G/B
Do meu coração
               D/F#
Depois de enfetiçado nessa ilusão
Em               C9
Eu sei que pra você
             G/B
É fácil superar
             D/F#
Pra outra pessoa

Em qualquer lugar

Em             C9
A tática perfeita
           G/B
Eu vou elaborar
             D/F#
Em outra ocasião
                C9
A gente se reencontrar
      D/F#
Se amar

Refrão:
Em                 C9
Você brincou com fogo
                G/B
E depois caiu fora
               D/F#
Saiu da minha vida
O que que eu faço agora
Em               C9            G/B
Menina estou a ponto de enlouquecer
          D/F#
Fora do comum não posso te esquecer

Solo:
    Em       C9          G/B        D/F#
E|-------2-3----------------7-7-7-7--5-5----------|
B|------------3-3-3--5-3----------------8-7-5~----|
G|------------------------------------------------|
D|-2-2-2------------------------------------------|
A|------------------------------------------------|
E|------------------------------------------------|

    Em       C9          G/B        D/F#
E|-------2-3----------------7-7-7-7--5-5----------|
B|------------3-3-3--5-3----------------8-7-5~----|
G|------------------------------------------------|
D|-2-2-2------------------------------------------|
A|------------------------------------------------|
E|------------------------------------------------|

----------------- Acordes -----------------
C9 = X 3 5 5 3 3
D/F# = 2 X 0 2 3 2
Em = 0 2 2 0 0 0
G/B = X 2 0 0 3 3
