Gusttavo Lima - Papo de Jacaré

(intro 2x) A F#m Bm E

A      F#m     Bm          E
Tô viajando na onda dessa menina
        A         F#m
Que dá aula de inglês
      Bm         E
Toma vinho português
A     F#m       Bm         E
E vive rindo da minha ignorância
      A         F#m          Bm         E
Mas a minha tolerância vai fundir a sua cuca
A        F#m     Bm
Vou te bater uma real
      E              A
Vou dizer que sou o tal
         F#m     Bm
Bater um papo no café
  E           A
É Papo de jacaré
           F#m      Bm
Mas ve se fala por favor

  E      A
A minha língua
        F#m         Bm         E            A     F#m Bm E A  (2x)
Que já tem até uma íngua por causa do seu inglês

A        F#m        Bm
Diz que vai me ensinar
      E         A
Então diga como é (4x)

( F#m Bm E A ) (2x)

(repete tudo)

    A        F#m    Bm        E
I love meu chuchu, merci beaucoup
     A      F#m    Bm    E      A F#m Bm E A
Meu Xuxu isso é francês e não inglês (2x)

(repete tudo)

----------------- Acordes -----------------
A = X 0 2 2 2 0
Bm = X 2 4 4 3 2
E = 0 2 2 1 0 0
F#m = 2 4 4 2 2 2
