Planta e Raiz - Eu Não Acredito No Sistema

Intro:
D                            G                     A
E|-----------------------------------------------------------
B|-----------------------------------------------------------
G|---7--10>9-7----5->7-0-------------------------------------
D|---------------------------------0p3-5-7-5-3-0-------------
A|-----------------------------------------------------------
E|-----------------------------------------------------------

D                                  G
Eu que não vou ensinar o q vc tem que aprender
D                                  G                               A
A vida mesmo vai mostra  o que vale não a pena viver  (eu só lhe digo)
D                      G  D
Eu não acredito no sistema     (2x)

(Intro)

D                                               G
Hoje o q eu tenho na mão é muito pouco quase nada
D                                           G        A
Mas meu plano já tá em ação, chegou a hora da virada

D                         G    D
Eu não acredito no sistema     (2x)

(Solo 2)

(Intro)

( D  G )
Ohhh Ehhh ehhhh ehh
O que corrompe e o que te Salva ?
O que corrompe e o que te Salva ?
Ohhh Ehhh ehhhh ehh

( D )

----------------- Acordes -----------------
A = X 0 2 2 2 0
D = X X 0 2 3 2
G = 3 2 0 0 0 3
