Luiz Gonzaga - A Vida do Viajante

Luiz Gonzaga
A vida do viajante
Violão: Melodia 2.854 exibições
Tom: G#

E|---------------------------------------------------------
B|-3-1-------1-------1-------3-1-------1-------------------
G|-----3-2-2---3-2-0-------------3-2-2---3-2-0-------------
D|------------------------------------------------3--------
A|---------------------------------------------------------
E|---------------------------------------------------------


E|---------------------------------------------------------
B|------------------------------------1-1------------------
G|-----------------------------------------3-2-2-2-0-0-----
D|--0---0--3-5--0---0--3-4-------------------------------3-
A|----3-----------3----------------------------------------
E|---------------------------------------------------------

E|-------------------------------------------------------------------
B|-1-1-1-1-1-1-3----1-1-1---1-----------------1----------------------
G|-----------------------------3------3-3-3-3----3--2--2--2--2-------
D|---------------------------------------------------------------3-2-
A|-------------------------------------------------------------------
E|-------------------------------------------------------------------



E|--------------------------------------------------------
B|--------------------------------------------------------
G|----2---2--2--0--0--------------------2--2--2--0--0-----
D|--------------------3-------------------------------5---
A|-3--------------------------------3---------------------
E|--------------------------------------------------------


E|-----------------------------------------------
B|---1--1--1-------------------------------------
G|-----------3--3--2---2--3--3--2--2--2---0-0----
D|---------------------------------------------3-
A|-3---------------------------------------------
E|-----------------------------------------------


E|-----------------------------
B|-3------1-------------------
G|-----2-------0-3-3--3-----2-
D|-----------------------3----
A|----------------------------
E|----------------------------


E|---------------------------------------------
B|3--3--3--1--1--1-----------------------------
G|------------------3-3-2-2----2---2--0--0-----
D|------------------------------------------3--
A|---------------------------------------------
E|---------------------------------------------


E|---------------------------------------------------------
B|------------------------------------1-1------------------
G|-----------------------------------------3-2-2-2-0-0-----
D|--0---0--3-5--0---0--3-4-------------------------------3-
A|----3-----------3----------------------------------------
E|---------------------------------------------------------



om: F
 C     F
Rerê, Rarê,
 C            F
Rerê, Rarê, Rarê  (bis)

         C
Unhum, unhum,
         F       C      F
unhum, unhum,

               Dm             Eb
Minha vida é andar por este país
               F             C/G
Pra ver se um dia descanso feliz

    F        Gm   Am     D7
Guardando recordações
     Gm     Am     Bb
Das terras onde passei
  C7      Bb     Am     Bb     Am      Gm     F
Andando pelos sertões e dos amigos que lá deixei.

 Dm     Am     Eb       F
Chuva e sol, poeira e carvão
 Dm       C     Bb      Am
Longe de casa sigo o roteiro
      Gm    F
Mais uma estação

         C
Unhum, unhum,
         F
unhum, unhum,
        C         F
e a alegria no coração!

 C     F
Rerê, Rarê,
 C            F
Rerê, Rarê, Rarê  (bis)

         C
Unhum, unhum,
         F       C      F
unhum, unhum,

               Dm             Eb
Minha vida é andar por este país
               F             C/G
Pra ver se um dia descanso feliz

    F        Gm   Am     D7
Guardando recordações
     Gm     Am     Bb
Das terras onde passei
  C      Bb     Am     Bb     Am      Gm     F
Andando pelos sertões e dos amigos que lá deixei.
 Dm     Am     Eb       F
Mar e terra, inverno e verão
 Dm       C       Bb      Am
Mostro o sorriso, mostro a alegria
Gm           F
Mas eu mesmo não

         C
Unhum, unhum,
         F
unhum, unhum,

        C         F
e a saudade no coração!

 C     F
Rerê, Rarê,
 C            F
Rerê, Rarê, Rarê  (bis)

         C
Unhum, unhum,
         F       C      F
unhum, unhum,

----------------- Acordes -----------------
Am = X 0 2 2 1 0
Bb = X 1 3 3 3 1
C = X 3 2 0 1 0
C/G = 3 3 2 X 1 X
C7 = X 3 2 3 1 X
D7 = X X 0 2 1 2
Dm = X X 0 2 3 1
Eb = X 6 5 3 4 3
F = 1 3 3 2 1 1
Gm = 3 5 5 3 3 3
