Red Hot Chili Peppers - Around The World

[Intro]

E|-12--------12--------12--------12--------12----------|
B|-12--------12--------12--------12--------12----------|
G|-14b16-----14b16-----14b16-----14b16-----14b16-------|  (6x)
D|-----------------------------------------------------|
A|-----------------------------------------------------|
E|-----------------------------------------------------|


[Primeira Parte]

E|-----------------------------------------------------|
B|-----------------------------------------------------|
G|-----------------------------------------------------|  (10x)
D|---3-5-3-5-3-5------3-5-3-5--------------------------|
A|-5----------------5----------------------------------|
E|-----------------------------------------------------|

All around the world
We could make time

Rompin' and a stompin'
'cause I'm in my prime
Born in the North
And sworn to entertain ya'
'Cause I'm down
For the state of Pennsylvania
I try not to whine but
I must warn ya'
'Bout the motha'
Fuckin' girls from California
Alabama baby said
Hallelujah
Good God, girl
I wish I knew ya


[Refrão]

E|-----------------------------------------------------|
B|-----------------------------------------------------|
G|---------------------8------------------------10-8---|
D|-8h10--10-10-8-10-10---10-8h10--10-10-8-10-10--------|
A|-----------------------------------------------------|
E|-----------------------------------------------------|

E|-----------------------------------------------------|
B|-----------------------------------------------------|
G|---------------------8-------------------------------|
D|-8h10--10-10-8-10-10---10--------------8----8--------|
A|--------------------------10---10---10---10----------|
E|-----------------------------------------------------|

E|-----------------------------------------------------|
B|-----------------------------------------------------|
G|---------------------8------------------------10-8---|
D|-8h10--10-10-8-10-10---10-8h10--10-10-8-10-10--------|
A|-----------------------------------------------------|
E|-----------------------------------------------------|

E|-----------------------------------------------------|
B|-----------------------------------------------------|
G|---------------------8-------------------------------|
D|-8h10--10-10-8-10-10---10----------------------------|
A|--------------------------10---10--------------------|
E|-----------------------------------------------------|

I know, I know for sure
That life is beautiful
Around the world
I know, I know it's you
You say hello
And then I say: I do


[Segunda Parte]

Come back baby
'cause I'd like to say
I've been around the world,
Back from Bombay
Fox hole love
Pie in your face
Living in and out
Of a big fat suitcase
Bonafide ride
Step aside my Johnson
Yes I could
In the woods of Wisconsin
Wake up the cake
It's a lake she's kissin' me
As they do
When they do in Sicily


[Refrão]

I know, I know for sure
That life is beautiful
around the world
I know, I know it's you
You say hello
and then I say: I do


[Interlúdio]

E|-12--------12--------12--------12--------12----------|
B|-12--------12--------12--------12--------12----------|
G|-14b16-----14b16-----14b16-----14b16-----14b16-------|  (4x)
D|-----------------------------------------------------|
A|-----------------------------------------------------|
E|-----------------------------------------------------|

E|-12--------12--------12--------12---------12---------|
B|-12--------12--------12--------12---------12---------|
G|-14b16-----14b16-----14b16-----14b16-----b16r14------|  (4x)
D|-----------------------------------------------------|
A|-----------------------------------------------------|
E|-----------------------------------------------------|


[Terceira Parte]

Where you want to go
Who you want to be
What you want to do
Just come with me
I saw God
And I saw the fountains
You and me girl
Sitting in the Swiss mountains
Me, oh, My O
Me and Guy O
Freer than a bird
'cause we're rocking Ohio
Around the world
I feel dutiful
Take a wife
'cause life is beautiful


[Refrão]

E|-----------------------------------------------------|
B|-----------------------------------------------------|
G|---------------------8------------------------10-8---|
D|-8h10--10-10-8-10-10---10-8h10--10-10-8-10-10--------|
A|-----------------------------------------------------|
E|-----------------------------------------------------|

E|-----------------------------------------------------|
B|-----------------------------------------------------|
G|---------------------8-------------------------------|
D|-8h10--10-10-8-10-10---10--------------8----8--------|
A|--------------------------10---10---10---10----------|
E|-----------------------------------------------------|

E|-----------------------------------------------------|
B|-----------------------------------------------------|
G|---------------------8------------------------10-8---|
D|-8h10--10-10-8-10-10---10-8h10--10-10-8-10-10--------|
A|-----------------------------------------------------|
E|-----------------------------------------------------|

E|-----------------------------------------------------|
B|-----------------------------------------------------|
G|---------------------8-------------------------------|
D|-8h10--10-10-8-10-10---10--------------8----10/12----|
A|--------------------------10---10---10---10----------|
E|-----------------------------------------------------|

I know, I know for sure
Ding deng dong dong ding deng
Dong dong ding deng
I know, I know it´s you
Ding deng dong dong ding deng
Dong dong ding deng

E|-----------------------------------------------------|
B|-----------------------------------------------------|
G|---------------------8------------------------10-8-8-|
D|-8h10--10-10-8-10-10---10-8h10--10-10-8-10-10--------|
A|-----------------------------------------------------|
E|-----------------------------------------------------|

E|-----------------------------------------------------|
B|-----------------------------------------------------|
G|---------------------8-------------------------------|
D|-8h10--10-10-8-10-10---10--------------8----8--------|
A|--------------------------10---10---10---10----------|
E|-----------------------------------------------------|

E|-----------------------------------------------------|
B|-----------------------------------------------------|
G|---------------------8-------------------------------|
D|-8h10--10-10-8-10-10---10-8h10--10-10-8-10-10--8h10--|
A|-----------------------------------------------------|
E|-----------------------------------------------------|

E|-----------------------------------------------------|
B|-----------------------------------------------------|
G|---------------------8-------------------------------|
D|-8h10--10-10-8-10-10---10----------------------------|
A|--------------------------10---10--------------------|
E|-----------------------------------------------------|

Mother Russia do not suffer
I know you're bold enough
I've been around the world
And I have seen your love
I know I know it's you
You say hello
And then I say: I do


[Final]

E|-13-13-13-13-13-13-13-13-13-13-13-13-13-13-13-13-----|
B|-15-15-15-15-15-15-15-15-15-15-15-15-15-15-15-15-----|
G|-14-14-14-14-14-14-14-14-14-14-14-14-14-14-14-14-----|
D|-----------------------------------------------------|
A|-----------------------------------------------------|
E|-----------------------------------------------------|

E|-13-13-13-13-13-13-13-13-13-13-13-13-13-13-13-13-----|
B|-15-15-15-15-15-15-15-15-15-15-15-15-15-15-15-15-----|
G|-14-14-14-14-14-14-14-14-14-14-14-14-14-14-14-14-----|
D|-----------------------------------------------------|
A|-----------------------------------------------------|
E|-----------------------------------------------------|

E|-15-15-15-15-15-15-15-15-15-15-15-15-15-15-15-15-----|
B|-17-17-17-17-17-17-17-17-17-17-17-17-17-17-17-17-----|
G|-14-14-14-14-14-14-14-14-14-14-14-14-14-14-14-14-----|
D|-----------------------------------------------------|
A|-----------------------------------------------------|
E|-----------------------------------------------------|

E|-17-17-17-17-17-17-17-17-17-17-17-17-17-17-17-17-----|
B|-18-18-18-18-18-18-18-18-18-18-18-18-18-18-18-18-----|
G|-19-19-19-19-19-19-19-19-19-19-19-19-19-19-19-19-----|
D|-----------------------------------------------------|
A|-----------------------------------------------------|
E|-----------------------------------------------------|

E|-13-13-13-13-13-13-13-13-13-13-13-13-13-13-13-13-----|
B|-15-15-15-15-15-15-15-15-15-15-15-15-15-15-15-15-----|
G|-14-14-14-14-14-14-14-14-14-14-14-14-14-14-14-14-----|
D|-----------------------------------------------------|
A|-----------------------------------------------------|
E|-----------------------------------------------------|

E|-13-13-13-13-13-13-13-13-13-13-13-13-13-13-13-13-----|
B|-15-15-15-15-15-15-15-15-15-15-15-15-15-15-15-15-----|
G|-14-14-14-14-14-14-14-14-14-14-14-14-14-14-14-14-----|
D|-----------------------------------------------------|
A|-----------------------------------------------------|
E|-----------------------------------------------------|

E|-15-15-15-15-15-15-15-15-15-15-15-15-15-15-15-15-----|
B|-17-17-17-17-17-17-17-17-17-17-17-17-17-17-17-17-----|
G|-14-14-14-14-14-14-14-14-14-14-14-14-14-14-14-14-----|
D|-----------------------------------------------------|
A|-----------------------------------------------------|
E|-----------------------------------------------------|

E|-17-17-17-17-17-17-17-17-17-17-20-20-20-20-20-20-----|
B|-18-18-18-18-18-18-18-18-18-18-18-18-18-18-18-18-----|
G|-19-19-19-19-19-19-19-19-19-19-19-19-19-19-19-19-----|
D|-----------------------------------------------------|
A|-----------------------------------------------------|
E|-----------------------------------------------------|

E|-13-13-13-13-13-13-13-13-13-13-13-13-13-13-13-13-----|
B|-15-15-15-15-15-15-15-15-15-15-15-15-15-15-15-15-----|
G|-14-14-14-14-14-14-14-14-14-14-14-14-14-14-14-14-----|
D|-----------------------------------------------------|
A|-----------------------------------------------------|
E|-----------------------------------------------------|

E|-13-13-13-13-13-13-13-13-13-13-13-13-13-13-13-13-----|
B|-15-15-15-15-15-15-15-15-15-15-15-15-15-15-15-15-----|
G|-14-14-14-14-14-14-14-14-14-14-14-14-14-14-14-14-----|
D|-----------------------------------------------------|
A|-----------------------------------------------------|
E|-----------------------------------------------------|

E|-15-15-15-15-15-15-15-15-15-15-15-15-15-15-15-15-----|
B|-17-17-17-17-17-17-17-17-17-17-17-17-17-17-17-17-----|
G|-14-14-14-14-14-14-14-14-14-14-14-14-14-14-14-14-----|
D|-----------------------------------------------------|
A|-----------------------------------------------------|
E|-----------------------------------------------------|

E|-17-17-17-17-17-17-17-17-17-17-17-17-17-17-17-17-----|
B|-18-18-18-18-18-18-18-18-18-18-18-18-18-18-18-18-----|
G|-19-19-19-19-19-19-19-19-19-19-19-19-19-19-19-19-----|
D|-----------------------------------------------------|
A|-----------------------------------------------------|
E|-----------------------------------------------------|

E|-13-13-13-13-13-13-13-13-13-13-13-13-13-13-13-13-----|
B|-15-15-15-15-15-15-15-15-15-15-15-15-15-15-15-15-----|
G|-14-14-14-14-14-14-14-14-14-14-14-14-14-14-14-14-----|
D|-----------------------------------------------------|
A|-----------------------------------------------------|
E|-----------------------------------------------------|

E|-13-13-13-13-13-13-13-13-13-13-13-13-13-13-13-13-----|
B|-15-15-15-15-15-15-15-15-15-15-15-15-15-15-15-15-----|
G|-14-14-14-14-14-14-14-14-14-14-14-14-14-14-14-14-----|
D|-----------------------------------------------------|
A|-----------------------------------------------------|
E|-----------------------------------------------------|

E|-15-15-15-15-15-15-15-15-15-15-15-15-15-15-15-15-----|
B|-17-17-17-17-17-17-17-17-17-17-17-17-17-17-17-17-----|
G|-14-14-14-14-14-14-14-14-14-14-14-14-14-14-14-14-----|
D|-----------------------------------------------------|
A|-----------------------------------------------------|
E|-----------------------------------------------------|

E|-17-17-17-17-17-17-17-17-17-17-17-17-----------------|
B|-18-18-18-18-18-18-18-18-18-18-18-18-----------------|
G|-19-19-19-19-19-19-19-19-19-19-19-19-----------------|
D|-----------------------------------------------------|
A|-----------------------------------------------------|
E|-----------------------------------------------------|