Red Hot Chili Peppers - Falling Into Grace

intro, talk-box

|----------------|----------------|----------------|----------------|
|----------------|----------------|----------------|----------------|
|----------------|----------------|----------------|----------------|
|----------------|----------------|----------------|-----4-(4)b-----|
|----------------|-----3-(3)b-----|----------------|----------------|
|-2----------0-2-|----------------|-2----------0-2-|----------------|

 verse, with talk-box
                                                            -1
|----------------|----------------|----------------|----------------|
|----------------|----------------|----------------|----------------|
|----------------|----------------|----------------|----------------|
|----------------|----------------|----------------|----------------|
|----------------|-----3-(3)b-----|----------------|----------------|
|-2----------0-2-|----------------|-2----------0-2-|-(2)----0------|

 fill, start second verse with this
                                                          -1
|----------------|--------------|----------------|---------------|
|----------------|--------------|----------------|---------------|
|----------------|------4b------|----------------|---------------|
|----------------|--------------|----------------|---------------|
|----------------|--------------|----------------|---------------|
|----------------|--------------|-2----------0-2-|-(2)----0-----|

 chorus, clean
                  1.,2.,3. endings        4. ending
|----------------|-----------------------|----------------|
|.---------------|----8-8-8-8--8-8-8-8--.|----------------|
|----------------|----7-7-7-7--7-7-7-7---|----------------|
|--5------4------|-----------------------|----------------|
|.-3------2------|----7-7-7-7--7-7-7-7--.|-5---4---3------|
|----------------|-0---------------------|----------------|

 guitar solo, with dist. & chorus

|-------------------|------------------|--------------------------------|
|-------------------|------------------|--------------------------------|
|-/11------12-11-12-|----15---(15)12--|-11h12p119/11--(11)98----9p8-|
|-------------------|------------------|--------------------------------|
|-------------------|------------------|--------------------------------|
|-------------------|------------------|--------------------------------|

|------------------|--------------------------------|-------------------------------|
|------------------|--------------------------------|-------------------------------|
|-(8)p5------8---5-|-8-5h8p54-(4)/8-5/8--9p8h9p8h9-|-(9)/12--(12)11--(11)9---8h9-|
|------------------|--------------------------------|-------------------------------|
|------------------|--------------------------------|-------------------------------|
|------------------|--------------------------------|-------------------------------|

|--------------------|---------------------------|
|--------------------|---------------------------|
|-(9)p8--------(8)1-|-(1)/7---6---5--(5)/20----|
|--------------------|---------------------------|
|--------------------|---------------------------|
|--------------------|---------------------------|

 there's an acoustic guitar playing some chords behind the solo...
 and those chords are B7 an C7. the strumming rhythm is quite easy, kind of
 indianish :)
 and on the last bar the acoustic guitar plays D, Db, C notes from 5th fret.

 interlude, with talk-box
                                                         harm.-1½
|----------------|----------------|----------------|----------------|
|----------------|----------------|----------------|----------------|
|----------------|----------------|----------------|----------------|
|----------------|----------------|----------------|--------5--/---|
|----------------|-----3-(3)b-----|----------------|----------/----|
|-2----------0-2-|----------------|-2----------0-2-|-(2)------------|
                                                            -1
|----------------|----------------|----------------|----------------|
|----------------|----------------|----------------|----------------|
|----------------|----------------|----------------|----------------|
|----------------|----------------|----------------|----------------|
|----------------|-----3-(3)b-----|----------------|----------------|
|-2----------0-2-|----------------|-2----------0-2-|-(2)----0------|

 that's it. not difficult at all.
 all you need is talk-box effect, which is kind of shitty.
 well, otherwise it's a cool song to play.
 and that cool chord in the chorus is called Em7.
 thanks.

----------------- Acordes -----------------
