Red Hot Chili Peppers - F.U.

Major Tone

 E|--------------------------------- 
 B|--------------------------------- 
 G|--------------------------------- 
 D|---5----0-5-3-2-0-0-------------- 
 A|-5-------------------3-3-2-2----- 
 E|-----------------------------2-3- 

 Minor Tone

 E|--------------------------------- 
 B|--------------------------------- 
 G|--------------------------------- 
 D|--------------------------------- 
 A|----5--0-5-3-2-0-0--------------- 
 E|--5----------------3-3-2-2-0-2---

----------------- Acordes -----------------
