Red Hot Chili Peppers - Give It Away

Introdução:

E|--------------8-----11--------11--------11----------|
B|--------------8-------------------------------------|
G|-------------10b12-----b12r10----b12r10----b12r10---|
D|-7--7-7-7-7-----------------------------------------|
A|-0--0-0-0-0-----------------------------------------|
E|----------------------------------------------------|

E|-11--------11---------------------------------------|
B|----------------------------------------------------|
G|----b12r10----b12r10--------------------------------|
D|----------------------------------------------------|
A|----------------------------------------------------|
E|----------------------------------------------------|

E|--------------8-------------------------------------|
B|--------------8-------------------------------------|
G|-------------10b12----------------------------------|
D|-7--7-7-7-7---------5-5---5-5---5-5---5-5---5-5-----|
A|-0--0-0-0-0-------------3-----3-----3-----3-----3br-|
E|----------------------------------------------------|


Primeira Parte:

E|----------------------------------------------------|
B|----------------------------------------------------|
G|------7-6-5b--------------7--8--9-------------------|
D|----x--------5-5-x-7----7---------------------------|
A|-0--------------------------------------------------|
E|----------------------------------------------------|

E|----------------------------------------------------|
B|----------------------------------------------------|
G|----7-6-5------------------7--5b6-------------------|
D|----------x-5b-x-5-7--------------5b----------------|
A|-0----------------------0---------------------------|
E|----------------------------------------------------|

(variação)
E|----------------------------------------------------|
B|----------------------------------------------------|
G|------7-6-5h6--------------7--8--9------------------|
D|----x---------5-5-x-7----7--------------------------|
A|-0-----------------------0--------------------------|
E|----------------------------------------------------|

E|----------------------------------------------------|
B|----------------------------------------------------|
G|----7-6-5------------------7--5b6-------------------|
D|----------x-5b-x-5-7----7---------5b----------------|
A|-0----------------------0---------------------------|
E|----------------------------------------------------|

What I've got, you've got
To give it to your mamma
What I've got, you've got
To give it to your pappa
What I've got, you've got
To give it to your daughter you do a little dance
And then you drink a little water

What I've got, you've got
To get it put it in you
What I've got, you've got
To get it put it in you
What I've got, you've got
To get it put it in you
Reeling with the feeling don't stop continue

Realize I don't want to be a miser
Confide with sly you'll be the wiser
Young blood is the lovin' upriser
How come everybody wanna keep it like the kaiser


Primeiro Refrão:

E|----------------------------------------------------|
B|----------------------------------------------------|
G|----------------------------------------------------|
D|-7-7-7-7-7-7-7-7-7-7-7-7-7-7-7-7...-----------------|
A|-0-0-0-0-0-0-0-0-0-0-0-0-0-0-0-0...-----------------|
E|----------------------------------------------------|

E|-8-8---7-7---7-5------------------------------------|
B|-8-8---7-7---7-5------------------------------------|
G|----------------------------------------------------|
D|-----7-----7-----7-7-7-7-7-7-7-7-7-7...-------------|
A|-----0-----0-----0-0-0-0-0-0-0-0-0-0...-------------|
E|----------------------------------------------------|

E|-8--8--8--8--8--8--8--8-----------------------------|
B|-8--8--8--8--8--8--8--8-----------------------------|
G|-7b-7b-7b-7b-7b-7b-7b-7b----------------------------|
D|----------------------------------------------------|
A|----------------------------------------------------|
E|----------------------------------------------------|

Give it away, give it away, give it away now
Give it away, give it away, give it away now
Give it away, give it away, give it away now
I can't tell if I'm a kingpin or a pauper


Segunda Parte:

Greedy little people in a sea of distress
Keep your more to receive your less
Unimpressed by material excess
Love is free love me say hell yes

I'm a low brow but I rock a little know how
No time for the piggies or the hoosegow
Get smart get down with the pow wow
Never been a better time than right now

Bob Marley poet and a prophet
Bob Marley taught me how to off it
Bob Marley walkin' like he talk it
Goodness me can't you see I'm gonna cough it


Segundo Refrão:

E|----------------------------------------------------|
B|----------------------------------------------------|
G|----------------------------------------------------|
D|-7-7-7-7-7-7-7-7-7-7-7-7-7-7-7-7...-----------------|
A|-0-0-0-0-0-0-0-0-0-0-0-0-0-0-0-0...-----------------|
E|----------------------------------------------------|

E|-8-8---7-7---7-5------------------------------------|
B|-8-8---7-7---7-5------------------------------------|
G|----------------------------------------------------|
D|-----7-----7----------------------------------------|
A|-----0-----0----------------------------------------|
E|----------------------------------------------------|

E|-8.../17...-----------------------------------------|
B|-8.../17...-----------------------------------------|
G|----------------------------------------------------|
D|----------------------------------------------------|
A|----------------------------------------------------|
E|----------------------------------------------------|

E|----------------------------------------------------|
B|----------------------------------------------------|
G|----------------------------------------------------|
D|-7--------------------------------------------------|
A|-0--------------------------------------------------|
E|----------------------------------------------------|

Give it away, give it away, give it away now
Give it away, give it away, give it away now
Give it away, give it away, give it away now

Give it away, give it away, give it away now
Give it away, give it away, give it away now
Give it away, give it away, give it away now
I can't tell if I'm a kingpin or a pauper


Interlúdio:

(Solo - Reverse)

(Base)

E|----------------------------------------------------|
B|----------------------------------------------------|
G|-9-9-9-9-9-9-9-9-9-9-9-9-9-9-9-9...-----------------|
D|-7-7-7-7-7-7-7-7-7-7-7-7-7-7-7-7...-----------------|
A|-0-0-0-0-0-0-0-0-0-0-0-0-0-0-0-0...-----------------|
E|----------------------------------------------------|

E|-19-19...\------------------------------------------|
B|-19-19...\------------------------------------------|
G|-19-19...\------------------------------------------|
D|----------------------------------------------------|
A|----------------------------------------------------|
E|----------------------------------------------------|


Terceira Parte:

Lucky me swimmin' in my ability
Dancin' down on life with agility
Come and drink it up from my fertility
Blessed with a bucket of lucky mobility

My mom I love her 'cause she love me
Long gone are the times when she scrub me
Feelin' good my brother gonna hug me
Drink my juice young love chug-a-lug me

There's a river born to be a giver
Keep you warm won't let you shiver
His heart is never gonna wither
Come on everybody time to deliver


Segundo Refrão:

Give it away, give it away, give it away now
Give it away, give it away, give it away now
Give it away, give it away, give it away now
I can't tell if I'm a kingpin or a pauper


Interlúdio 2:

(Solo - Reverse)


Quarta Parte:

What I've got, you've got
To give it to your mamma
What I've got, you've got
To give it to your pappa
What I've got, you've got
To give it to your daughter you do a little dance
And then you drink a little water

What I've got, you've got
To get it put it in you
What I've got, you've got
To get it put it in you
What I've got, you've got
To get it put it in you
Reeling with the feeling don't stop continue

Realize I don't want to be a miser
Confide with sly you'll be the wiser
Young blood is the lovin' upriser
How come everybody wanna keep it like the kaiser


Terceiro Refrão:

E|--------------8------8------8-----------------------|
B|--------------8------8------8-----------------------|
G|-------------10b12--10b12--10b12--------------------|
D|-7--7-7-7-7-----------------------------------------|
A|-0--0-0-0-0-----------------------------------------|
E|----------------------------------------------------|

E|-------------8.../-20...----------------------------|
B|-------------8.../-20...----------------------------|
G|----------------------------------------------------|
D|-7--7-7-7-7-----------------------------------------|
A|-0--0-0-0-0-----------------------------------------|
E|----------------------------------------------------|

E|--------------8------8------8-----------------------|
B|--------------8------8------8-----------------------|
G|-------------10b12--10b12--10b12--------------------|
D|-7--7-7-7-7-----------------------------------------|
A|-0--0-0-0-0-----------------------------------------|
E|----------------------------------------------------|

E|-------------8.../-20...----------------------------|
B|-------------8.../-20...----------------------------|
G|----------------------------------------------------|
D|-7--7-7-7-7-----------------------------------------|
A|-0--0-0-0-0-----------------------------------------|
E|----------------------------------------------------|

E|----------10--9--8----------------------------------|
B|----------------------------------------------------|
G|----------7---6--5----------------------------------|
D|-7--7-7---------------------------------------------|
A|-0--0-0---------------------------------------------|
E|----------------------------------------------------|

E|----------10--9\8-----------------------------------|
B|----------------------------------------------------|
G|----------7---6\5-----------------------------------|
D|-7--7-7---------------------------------------------|
A|-0--0-0---------------------------------------------|
E|----------------------------------------------------|

E|-/15-15-0-15-0-0-15-15\-----------------------------|
B|-/15-15-0-15-0-0-15-15\-----------------------------|
G|----------------------------------------------------|
D|----------------------------------------------------|
A|----------------------------------------------------|
E|----------------------------------------------------|

(Variações)
E|-20-20-17--20-20-17--20-20-17--20-20-17--20-20-17---|
B|-20-20-17--20-20-17--20-20-17--20-20-17--20-20-17---|
G|----------------------------------------------------|
D|----------------------------------------------------|
A|----------------------------------------------------|
E|----------------------------------------------------|

(Guitarra 2)

E|----------------------------------------------------|
B|----------------------------------------------------|
G|-2--2-2--7--6--5----------5-------------------------|
D|-2--2-2--7--6--5--x-x-x-x-5-------------------------|
A|-0--0-0--5--4--3--x-x-x-x-3-------------------------|
E|------------------x-x-x-x---------------------------|

E|----------------------------------------------------|
B|----------------------------------------------------|
G|-2--2-2--7--6--5--5-5-5-5-7-------------------------|
D|-2--2-2--7--6--5--5-5-5-5-7-------------------------|
A|-0--0-0--5--4--3--3-3-3-3-5-------------------------|
E|----------------------------------------------------|

E|----------------------------------------------------|
B|----------------------------------------------------|
G|-2--2-2--7--6--5------------------------------------|
D|-2--2-2--7--6--5--x-x-x-x---------------------------|
A|-0--0-0--5--4--3--x-x-x-x---------------------------|
E|------------------x-x-x-x-3b------------------------|

----------------- Acordes -----------------
