Red Hot Chili Peppers - I Could Die For You

[Intro:] A

F#m                  C#7
Something inside the cards I know is right
F#m
Don´t want to live
    C#7
Somebody else's life
  A
This is what I want to be
      Bm
And this is what I give to you
Because I get it free
A                   Bm
 She smiles while I do my time

[pre-chorus]
A        E       Bm  F#m
I could die for you
A        E       Bm
Oh this life I choose


F#m                 C#7
I'm here to be your only go-between
F#m                C#7
To tell you of the sights these eyes have seen
A
What I really want to do is
Bm
Turn into the motion
beauty that I can abuse
A               Bm
You know that I use my senses to

C#7(4)
You can see that it's
A
only everywhere
C#7(4)
I'd take it on and then
     A
I'd find a way to share

 E
Come along and go
  D
Along with me
 E
Wonder with me yo
     D
It's all for free

[chrous] x2
A        E       Bm  F#m
I could die for you
(What you wanna do)
A        E       Bm
Oh this life I choose

C#7
Come again and tell me
where you wanna go
 D
What it means for me
To be with you alone?
  C#7
Close the door and
No one has to know
 D     E
how we are

 E
Come along and go
  D
Along with me
 E
Wonder with me yo
     D
It's all for free

[chrous] x4
A        E       Bm  F#m
I could die for you
(What you wanna do)
A        E       Bm
Oh this life I choose

_______________________________________________________

Tablatura
-=======-

INTRO
   A                 Aadd9
e|-0-------|-0-------4-|-4-------0-|-0-------------------|
h|-2-------|-2-------2-|-2-------2-|-2-------------------|
G|-2-strum-|-2-strum-2-|-2-strum-2-|-2-strum-----2---2---|
D|-2-------|-2-------2-|-2-------2-|-2-----------2---2---|
A|-0-------|-0-------0-|-0-------0-|-0---------0---------|
E|---------|-----------|-----------|---------------4-----|

VERSE
   "something inside the cards..."
   F#m     C#7              A      Bm         A    Bm
e|-2-----|-7---|-2---|-7--|-5----|--7--12---|-5--|-7-----12----|
h|-2-----|-6---|-2---|-6--|-5----|--7--7----|-5--|-7-----7-----|
G|-2-----|-4---|-2---|-4--|-6----|--7--7----|-6--|-7-----7-----|
D|-0-----|-6---|-0---|-6--|-7----|--9--9----|-7--|-9-----9-----|
A|-0-----|-4---|-0---|-4--|-7----|--9--9----|-7--|-9-----9-----|
E|-2-----|-----|-2---|----|-5----|--7--7----|-5--|-7-----7-----|

CHORUS
   "I could die for you.."    "Oh this life..."
   A     E     Bm   F#m        A   E    Bm
e|-5-----7----|-7----9------|--5---7--|--7-7--7-7--7-------------------|
h|-5-----9----|-7----10-----|--5---9--|--7-10-7-10-7-------------------|
G|-6-----9----|-7----11-----|--6---9--|--7-7--7-7--7-----------7h9p7---|
D|-7-----9----|-9----11-----|--7---9--|--9-9--9-9--9-----------------7\|
A|-7-----7----|-9----9------|--7---7--|--9-9--9-9--9-------------------|
E|-5----------|-7-----------|--5------|--7-7--7-7--7-------------------|

   A                 Aadd9
e|-0--------4-|-4------------------|
h|-2--------2-|-2------------------|
G|-2-strum--2-|-2-strum----2---2---|
D|-2--------2-|-2----------2---2---|
A|-0--------0-|-0--------0---------|
E|------------|--------------4-----|

VERSE2
 "I'm here to be your only go..."
   F#m     C#7              A      Bm         A    Bm
e|-2-----|-7---|-2---|-7--|-5----|--7--12---|-5--|-7-----12----|
h|-2-----|-6---|-2---|-6--|-5----|--7--7----|-5--|-7-----7-----|
G|-2-----|-4---|-2---|-4--|-6----|--7--7----|-6--|-7-----7-----|
D|-0-----|-6---|-0---|-6--|-7----|--9--9----|-7--|-9-----9-----|
A|-0-----|-4---|-0---|-4--|-7----|--9--9----|-7--|-9-----9-----|
E|-2-----|-----|-2---|----|-5----|--7--7----|-5--|-7-----7-----|

  "you can see that it's only..."
   C#7sus4   A
e|--14-----|-----16---|-14---|-12--|
h|--9------|-14--14---|-9----|-14--|
G|--11-----|-14--14---|-11---|-14--|
D|--9------|-14--14---|-9----|-14--|
A|--11-----|-12--12---|-11---|-12--|
E|--9------|----------|-9----|-----|

PRE CHORUS
 "come along and go..........along with me"
    E                        D
e|--9--12--9--12--9--------|-9--9--5--|
h|--9--9---9--9---9-strum--|-7--7--7--|
G|--9--9---9--9---9--------|-7--7--7--|
D|--9--9---9--9---9--------|-7--7--7--|
A|-------------------------|-------5--|
E|-------------------------|----------|

 "wander with me yo..............it's all for free"
    E                            D
e|--9--12--9--12--9-----14-----|-9--9--9--|
h|--9--9---9--9---9-----9------|-7--7--7--|
G|--9--9---9--9---9-str-9--str-|-7--7--7--|
D|--9--9---9--9---9-----9------|-7--7--7--|
A|-----------------------------|----------|
E|-----------------------------|----------|

CHORUS2
   "I could die for you.."    "Oh this life..."
   A     E     Bm   F#m        A   E    Bm
e|-5-----7----|-7----9------|--5---7--|--7-7--7-7--7---7-9-7-7--7------|
h|-5-----9----|-7----10-----|--5---9--|--7-10-7-10-7---7-7-7-10-9------|
G|-6-----9----|-7----11-----|--6---9--|--7-7--7-7--7---7-7-7-7--7------|
D|-7-----9----|-9----11-----|--7---9--|--9-9--9-9--9---9-9-9-9--9------|
A|-7-----7----|-9----9------|--7---7--|--9-9--9-9--9---9-9-9-9--9------|
E|-5----------|-7-----------|--5------|--7-7--7-7--7---7-7-7-7--7------|

   "I could die for you.."    "Oh this life..."
   A     E     Bm   F#m       A   E    Bm
e|-5-----7-----7----9------|--5---7----7-7--7-7--7--|
h|-5-----9-----7----10-----|--5---9----7-10-7-10-7--|
G|-6-----9-----7----11-----|--6---9----7-7--7-7--7--|
D|-7-----9-----9----11-----|--7---9----9-9--9-9--9--|
A|-7-----7-----9----9------|--7---7----9-9--9-9--9--|
E|-5-----------7-----------|--5--------7-7--7-7--7--|

BRIGDE - play it with alot of scratches (ghost notes)
  "come again and tell me..."     "how we are..."
    C#7        Dadd9    C#7
e|--7--------|-9-------|-7-------|-9--|-12--|
h|--6--------|-7-------|-6-------|-7--|-9---|
G|--4--funky-|-7-funky-|-4-funky-|-7--|-9---|
D|--6--------|-7-------|-6-------|-7--|-9---|
A|--4--------|-5-------|-4-------|-5--|-7---|
E|-----------|---------|---------|----|-----|

PRE CHORUS
 "come along and go..........along with me"
    E                        D
e|--9--12--9--12--9--------|-9--9--5--|
h|--9--9---9--9---9-strum--|-7--7--7--|
G|--9--9---9--9---9--------|-7--7--7--|
D|--9--9---9--9---9--------|-7--7--7--|
A|-------------------------|-------5--|
E|-------------------------|----------|

 "wander with me yo..............it's all for free"
    E                            D
e|--9--12--9--12--9-----14-----|-9--9--9--|
h|--9--9---9--9---9-----9------|-7--7--7--|
G|--9--9---9--9---9-str-9--str-|-7--7--7--|
D|--9--9---9--9---9-----9------|-7--7--7--|
A|-----------------------------|----------|
E|-----------------------------|----------|

CHORUS3
   "I could die for you.."    "Oh this life..."
   A     E      Bm   F#m       A   E    Bm
e|-5-----7----|-7----9------|--5---7--|--7-7--7-7--7---7-9-7-7--7------|
h|-5-----9----|-7----10-----|--5---9--|--7-10-7-10-7---7-7-7-10-9------|
G|-6-----9----|-7----11-----|--6---9--|--7-7--7-7--7---7-7-7-7--7------|
D|-7-----9----|-9----11-----|--7---9--|--9-9--9-9--9---9-9-9-9--9------|
A|-7-----7----|-9----9------|--7---7--|--9-9--9-9--9---9-9-9-9--9------|
E|-5----------|-7-----------|--5------|--7-7--7-7--7---7-7-7-7--7------|

   A     E      Bm   F#m       A   E    Bm                 this is hard (triplet feel)
e|-5-----7----|-7----9------|--5---7--|--7-7--7-7--7--7-7--7-7-----7-----7-----|
h|-5-----9----|-7----10-----|--5---9--|--7-10-7-10-7--7-7--7-7-----7-----7-----|
G|-6-----9----|-7----11-----|--6---9--|--7-7--7-7--7--7-7--7-7h9p7-7h9p7-7h9p7-|
D|-7-----9----|-9----11-----|--7---9--|--9-9--9-9--9--9-9--9-9-----9-----9-----|
A|-7-----7----|-9----9------|--7---7--|--9-9--9-9--9--9-9--9-9-----9-----9-----|
E|-5----------|-7-----------|--5------|--7-7--7-7--7--7-7--7-7-----7-----7-----|

   A     E      Bm   F#m       A   E    Bm     (some variation..)
e|-5-----7----|-7----9--12---|--5---7--|--7-7--7--7-7--7--7-7-----|
h|-5-----9----|-7----10-10---|--5---9--|--7-7--10-7-7--10-7-7-----|
G|-6-----9----|-7----11-9----|--6---9--|--7-7--7--7-7--7--7-7-----|
D|-7-----9----|-9----11-11---|--7---9--|--9-9--9--9-9--9--9-9-----|
A|-7-----7----|-9----9--9----|--7---7--|--9-9--9--9-9--9--9-9-----|
E|-5----------|-7------------|--5------|--7-7--7--7-7--7--7-7-----|

   A     E      Bm   F#m       A   E    Bm
e|-5-----7----|-7----12--|--5---7---|-7-7--7-7--7--|
h|-5-----9----|-7----10--|--5---9---|-7-10-7-10-7--|
G|-6-----9----|-7----9---|--6---9---|-7-7--7-7--7--|
D|-7-----9----|-9----11--|--7---9---|-9-9--9-9--9--|
A|-7-----7----|-9----9---|--7---7---|-9-9--9-9--9--|
E|-5----------|-7--------|--5-------|-7-7--7-7--7--|

----------------- Acordes -----------------
A = X 0 2 2 2 0
Aadd9 = X 0 2 2 0 0
Bm = X 2 4 4 3 2
C#7 = X 4 3 4 2 X
C#7(4) = X 4 6 4 7 4
C#7sus4 = X 4 6 4 7 4
D = X X 0 2 3 2
Dadd9 = X X 0 2 3 0
E = 0 2 2 1 0 0
F#m = 2 4 4 2 2 2
