Red Hot Chili Peppers - I'll Be Your Domino

0:01
e|---15-15-15----------------------------------------------------------------|
B|---14-14-14----------------------------------------------------------------|
G|---15-15-15-and so on...---------------------------------------------------|
D|---------------------------------------------------------------------------|
A|---------------------------------------------------------------------------|
E|---------------------------------------------------------------------------|

Then...

Intro
e|---------------------------------------------------------------------------|
B|---------------------------------------------------------------------------|
G|---------------------------------------------------------------------------|
D|-------------------------------------------------------------13------------|
A|--15-----13-15-------15--------13-15------13-15-----13-15-13----13-15------|
E|---------------------------------------------------------------------------|

Verse 1 - 0:19

e|---------------------------------------------------------------------------|
B|---------------------------------------------------------------------------|
G|---------------------------------------------------------------------------|
D|---------------------------------------------------------------------------| Repeat as required
A|--15-----13-15-------15--------13-15------13-15-----13-15-13-15------------|
E|---------------------------------------------------------------------------|

Bridge - 0:36

e|---------------------------------------------------------------------------|
B|--------16--------------16-----------16----------18--18-16-----------------|
G|--14/15------14-14---15------14-14/15------14-14---------------------------| X3
D|---------------------------------------------------------------------------|
A|---------------------------------------------------------------------------|
E|---------------------------------------------------------------------------|

e|------------------------------------------------------15-15-15-15-15-------|
B|--------16--------------16------------16---------16---16-16-16-16-16-------|
G|--14/15------14-14---15------14-14/15------14/15------17-17-17-17-17-------|
D|---------------------------------------------------------------------------|
A|---------------------------------------------------------------------------|
E|---------------------------------------------------------------------------|


Verse 2 - 0:55
Guitar 2
e|---------------------------------------------------------------------------|
B|---------------------------------------------------------------------------|
G|---------------------------------------------------------------------------|
D|---------------------------------------------------------------------------| Repeat as required
A|--15-----13-15-------15--------13-15------13-15-----13-15-13-15------------|
E|---------------------------------------------------------------------------|

Guitar 1
e|---------------------------------------------------------------------------|
B|---------------------------------------------------------------------------|
G|--15/17--17--15--17-15-----------------------------------------------------|
D|-----------------------15-13--15-15-15--13--15b----------------------------|  X3
A|------------------------------------------------15-------------------------|
E|---------------------------------------------------------------------------|

e|---------------------------------------------------------------------------|
B|----------------------------------------16--13-----------------------------|
G|--15/17--17--15--17-15------------13/15------------------------------------|
D|-----------------------15-13--15-----------------15p13---------------------|  
A|--------------------------------------------------------15~----------------|
E|---------------------------------------------------------------------------|

Bridge - 1:12
e|---------------------------------------------------------------------------|
B|--------16--------------16-----------16----------18--18-16-----------------|
G|--14/15------14-14---15------14-14/15------14-14---------------------------| X3
D|---------------------------------------------------------------------------|
A|---------------------------------------------------------------------------|
E|---------------------------------------------------------------------------|

e|------------------------------------------------------15-15-15-15-15-------|
B|--------16--------------16------------16---------16---16-16-16-16-16-------|
G|--14/15------14-14---15------14-14/15------14/15------17-17-17-17-17-------|
D|---------------------------------------------------------------------------|
A|---------------------------------------------------------------------------|
E|---------------------------------------------------------------------------|

Chorus - 1:30

e|---------------------------------------------------------------------------|
B|--10-10-x-x-10-x-12-x-12-12-x-x-13-13-x-x-12-12-x-10-10--------------------|
G|--10-10-x-x-10-x-12-x-12-12-x-x-13-13-x-x-12-12-x-10-10--------------------|
D|--10-10-x-x-10-x-12-x-12-12-x-x-13-13-x-x-12-12-x-10-10--------------------|
A|---------------------------------------------------------------------------|
E|---------------------------------------------------------------------------|

Post Chorus - 1:48

e|---------------------------------------------------------------------------|
B|---------------------------------------------------------------------------|
G|--------17-----------------------------------------------------------------|
D|--15/17-------17-15-13--13h15p13----13-15--13-15-15-13h15p13---------------|
A|---------------------------------15--------------------------15------------|
E|---------------------------------------------------------------------------|

e|---------------------------------------------------------------------------|
B|---------------------------------------------------------------------------|
G|---------------------------------------------------------------------------|
D|--13--15-15-15--15-13---13-15--13---15--15b--15p13~------------------------|
A|---------------------------------------------------------------------------|
E|---------------------------------------------------------------------------|

Verse 3 - 1:57
e|---------------------------------------------------------------------------|
B|---------------------------------------------------------------------------|
G|---------------------------------------------------------------------------|
D|---------------------------------------------------------------------------| Repeat as required
A|--15-----13-15-------15--------13-15------13-15-----13-15-13-15------------|
E|---------------------------------------------------------------------------|


Bridge - 2:15
e|---------------------------------------------------------------------------|
B|--------16--------------16-----------16----------18--18-16-----------------|
G|--14/15------14-14---15------14-14/15------14-14---------------------------| X3
D|---------------------------------------------------------------------------|
A|---------------------------------------------------------------------------|
E|---------------------------------------------------------------------------|

e|------------------------------------------------------15-15-15-15-15-------|
B|--------16--------------16------------16---------16---16-16-16-16-16-------|
G|--14/15------14-14---15------14-14/15------14/15------17-17-17-17-17-------|
D|---------------------------------------------------------------------------|
A|---------------------------------------------------------------------------|
E|---------------------------------------------------------------------------|

Chorus - 2:33

e|---------------------------------------------------------------------------|
B|--10-10-x-x-10-x-12-x-12-12-x-x-13-13-x-x-12-12-x-10-10--------------------|
G|--10-10-x-x-10-x-12-x-12-12-x-x-13-13-x-x-12-12-x-10-10--------------------|
D|--10-10-x-x-10-x-12-x-12-12-x-x-13-13-x-x-12-12-x-10-10--------------------|
A|---------------------------------------------------------------------------|
E|---------------------------------------------------------------------------|

Guitar Solo - 2:50

Guitar 1
e|---------------------------------------------------------------------------|
B|---------------------------------------------------------------------------|
G|---------------------------------------------------------------------------|
D|--8h10p8h10p8h10p8--------12b---10---15b17r15-13h15------------------------|
A|---------------------------------------------------------------------------|
E|---------------------------------------------------------------------------|

e|---------------------------------------------------------------------------|
B|---------------------------------------------------------------------------|
G|--------15-17--17-17-17-17-17-17\10--------17--19-20--20b--17~-------------|
D|--15/17--------------------------------------------------------------------|
A|---------------------------------------------------------------------------|
E|---------------------------------------------------------------------------|

e|---------------------------------------------------------------------------|
B|---------------------------------------------------------------------------|
G|--------------------17--------17--------17---------------------------------|
D|--15p13-15----15/17-----15/17-----15/17------------------------------------|
A|---------------------------------------------------------------------------|
E|---------------------------------------------------------------------------|

Guitar 2
e|---------------------------------------------------------------------------|
B|--10-10-x-x-10-x-10-x-10-10-x-x-10-10-x-x-10-10-x-10-10--------------------|
G|--10-10-x-x-10-x-10-x-10-10-x-x-10-10-x-x-10-10-x-10-10--------------------| repeat as necessary
D|--10-10-x-x-10-x-10-x-10-10-x-x-10-10-x-x-10-10-x-10-10--------------------|
A|---------------------------------------------------------------------------|
E|---------------------------------------------------------------------------|

Bridge - 3:17
e|---------------------------------------------------------------------------|
B|--------16--------------16-----------16----------18--18-16-----------------|
G|--14/15------14-14---15------14-14/15------14-14---------------------------| X3
D|---------------------------------------------------------------------------|
A|---------------------------------------------------------------------------|
E|---------------------------------------------------------------------------|

e|------------------------------------------------------15-15-15-15-15-------|
B|--------16--------------16------------16---------16---16-16-16-16-16-------|
G|--14/15------14-14---15------14-14/15------14/15------17-17-17-17-17-------|
D|---------------------------------------------------------------------------|
A|---------------------------------------------------------------------------|
E|---------------------------------------------------------------------------|

Chorus - 3:34

e|---------------------------------------------------------------------------|
B|--10-10-x-x-10-x-12-x-12-12-x-x-13-13-x-x-12-12-x-10-10--------------------|
G|--10-10-x-x-10-x-12-x-12-12-x-x-13-13-x-x-12-12-x-10-10--------------------|
D|--10-10-x-x-10-x-12-x-12-12-x-x-13-13-x-x-12-12-x-10-10--------------------|
A|---------------------------------------------------------------------------|
E|---------------------------------------------------------------------------|

----------------- Acordes -----------------
