Red Hot Chili Peppers - Jungle Man

Play the whole song with a Chorus pedal and some dist.

Intro:

      F#m              A  B        F#m              C  B
e|-|---14-14-14-----------------|---14-14-14---------------|
B|-|---14-14-14----x-x--2--4----|---14-14-14----x-x--5--4--|
G|-|---14-14-14----x-x--2--4----|---14-14-14----x-x--5--4--|
D|-|---------------x-x--2--4----|---------------x-x--5--4--|
A|-|----------------------------|--------------------------|
E|-|----------------------------|--------------------------|x 2

e|-|------------------------------------------------------|
B|-|------------------------------------------------------|
G|-|------------------------------------------------------|
D|-|------------------------------------------------------|
A|-|--5-------5-5-5-5-5-5-5-5-5-.......-------------------|
E|-|------------------------------------------------------|

Verse:


e|-|------------------------|------------------------------|
B|-|------------------------|------------------------------|
G|-|------------------------|------------------------------|
D|-|------------4-4---4--2--|------------4-4---4--2--4-----|
A|-|------------------------|------------------------------|
E|-|--0h2--2--------2-------|--0h2--2--------2-------------|

                                 D9            E9 
e|-|----------------------|-------5--5---------7--7-----------|
B|-|----------------------|-------5--5---------7--7-----------|
G|-|----------------------|-------5--5---------7--7-----------|
D|-|-----------4-4---4-2--|-------4--4---------6--6-----------|
A|-|----------------------|--5-5--5--5--5--7-7-7--7--7--------|
E|-|--0h2--2-------2------|-----------------------------------|

Chorus:

      F#m              A  B        F#m              C  B
e|-|---14-14-14-----------------|---14-14-14---------------|
B|-|---14-14-14----x-x--2--4----|---14-14-14----x-x--5--4--|
G|-|---14-14-14----x-x--2--4----|---14-14-14----x-x--5--4--|
D|-|---------------x-x--2--4----|---------------x-x--5--4--|
A|-|----------------------------|--------------------------|
E|-|----------------------------|--------------------------|

Interlude:

     A9
e|-|--12--12--12--12--------------------|
B|-|--12--12--12--12--------------------|
G|-|--12--12--12--12--------------------|
D|-|--11--11--11--11--..........--------|
A|-|--12--12--12--12--------------------|
E|-|------------------------------------|

Outro:

     F#          E           F#          A  E
e|-|--2---2--2-2--0--------|--2---2--2-2----------|-
B|-|--2---2--2-2--0--------|--2---2--2-2----------|-
G|-|--3---3--3-3--1--------|--3---3--3-3--2-------|-
D|-|--4---4--4-4--2--------|--4---4--4-4--2--2----|-
A|-|--4---4--4-4--2--------|--4---4--4-4--0--2----|-
E|-|--2---2--2-2--0--------|--2---2--2-2-----0----|-

                    F#
e|-|--------------|--2--2--------|-
B|-|--------------|--2--2--------|-
G|-|--------------|--3--3--------|-
D|-|--Let-Ring----|--4--4--------|-
A|-|--------------|--4--4--------|-
E|-|--------------|--2--2--------|-

----------------- Acordes -----------------
A = X 0 2 2 2 0
A9 = X 0 2 2 0 0
B = X 2 4 4 4 2
C = X 3 2 0 1 0
D9 = X X 0 2 3 0
E = 0 2 2 1 0 0
E9 = 0 2 4 1 0 0
F# = 2 4 4 3 2 2
F#m = 2 4 4 2 2 2
