Red Hot Chili Peppers - Maybe

intro
|----------------|
|----------------|
|----------------|
|----------------|
|-1-1-1-3-0------|

Verso 1
Ouça o DVD para acertar o ritmo.
   Bb   Gm   Eb   F
|----------------------|
|-3--------------------|
|-3----3----3----5-----|
|-3----5----5----7-----| (2x)
|------5----6----8-----|
|----------------------|

"Maybe, if I pray every night
You'll come back to me.
Maybe, if I cry everyday
You'll come back to stay. "


Final do Verso.
   Bb     Bb4
|-------------------------|
|-6--6---6--6--6----------|
|-7--7---8--8--8----------|
|-8--8---8--8--8----------|
|-8--8---8--8--8----------|
|-------------------------|
"ohhhh, maybe..."

intro

Verso 2
   Bb   Gm   Eb   F
|----------------------|
|-3--------------------|
|-3----3----3----5-----|
|-3----5----5----7-----| (2x)
|------5----6----8-----|
|----------------------|
"Maybe, if I hold your hand,
You will understand,
And maybe, if I kissed your lips
You'll be at my command. "


Final, toque 6 vezes cada acorde
   Bb     Bb4    Bb     Bb4
|-----------------------------|
|-6--6---6--6---6--6---6--6---|
|-7--7---8--8---7--7---8--8---|
|-8--8---8--8---8--8---8--8---|
|-8--8---8--8---8--8---8--8---|
|-----------------------------|
"Ohhhh, maybe... "

----------------- Acordes -----------------
Bb = X 1 3 3 3 1
Bb4 = X 1 3 3 4 1
Eb = X 6 5 3 4 3
F = 1 3 3 2 1 1
Gm = 3 5 5 3 3 3
