Red Hot Chili Peppers - Save This Lady

G |-x---]
D |-x---]
A |-x---]
E |-x---]
G |-x---]
D |-x---]

verse 2nd part

G |-----------------------------------------------------------------------------]
D |-----------------------------------------------------------------------------]
A |---14---14---14---14---14----12---12---12---9--------------------------------]
E |-12---12---12---12---12----10---10---10----7-7-------------------------------]
G |-----------------------------------------------------------------------------]
D |-----------------------------------------------------------------------------]


chorus

G |-----------------------------------------------------------------------------]
D |-----------------------------------------------------------------------------]
A |--7--5-----------------------------------------------------------------------]
E |--7--5--5-x3-then---3-2-----------------------------------------------------]
G |--5--3--5-----------3-2------------------------------------------------------]
D |--------3-----------1-0------------------------------------------------------]

post chorus

G |--------8--------------------------------------------------------------------]
D |-6-8/10---10-6--8-6-8b-8-6--8-6-8b--8-6-8br---------------------------------]
A |--------------------------------------------7/-------------------------------]
E |----------------------------------------------------------------------------]
G |-----------------------------------------------------------------------------]
D |-----------------------------------------------------------------------------]

repeat verse and chorus

bridge

this x 2
G |-----0-------------0------0---------5--------3------1----1-0------------------]
D |------1-----3-------1------1----------------1-1------3-------3-1--------------]
A |----2--2---0-0----0--0---0--0---2-5--5-2---2---2---2----2---------------------]
E |---2------2---2--2------2------3----------2-------0----0----------------------]
G |--0------2------3------3------------------------------------------------------]
D |------------------------------------------------------------------------------]

G |-----0-------------0------0---------5--------3------1----1------5--------3----]
D |------1-----3-------1------1----------------1-1------3----3-------------1-1---]
A |----2--2---0-0----0--0---0--0---2-5--5-2---2---2---2----2----2-5-5-2---2---2--]
E |---2------2---2--2------2------3----------2-------0----0----3---------2-------]
G |--0------2------3------3------------------------------------------------------]
D |------------------------------------------------------------------------------]

G |-----]
D |-12--]
A |-12--]
E |-12--]
G |-10--]
D |-----]

post bridge

G |------------------------------------------------------------------------------]
D |------------------------------------------------------------------------------]
A |-12-12br-17br--17-14-17-17b-------------------------------------------------]
E |------------------------------------------------------------------------------]
G |------------------------------------------------------------------------------]
D |------------------------------------------------------------------------------]

repeat verse and chorus


Note: during the bridge, instead of doing

G |-----5-----]
D |-----------]
A |--2-5--5---]
E |-3---------]
G |-----------]
D |-----------]

you can do it

G |----5-----]
D |---1-1----]
A |--2-------]
E |-3--------]
G |----------]
D |----------]


I'm not sure of the chorus, but it sounds good

----------------- Acordes -----------------
