Red Hot Chili Peppers - Sikamikanico

Verse:(Very Fast)                                           Pre-Chorus:(Fast)
e-----------------------------------------------         e------------------------------------------------
b-----------------------------------------------         b------------------------------------------------
g--------3-3-3---3-3-3---3-3-3---5--------------         g--4-4-4-4-4-4-4-4-7-x-7-x-7---------------------
d--5-5-5-3-3-3---3-3-3---3-3-3---5--------------         d--4-4-4-4-4-4-4-4-7-x-7-x-7---------------------
a--5-5-5-1-1-1-x-1-1-1-x-1-1-1-x 3--------------         a--2-2-2-2-2-2-2-2-5-x-5-x-5---------------------
e--3-3-3----------------------------------------         e------------------------------------------------


Chorus:(Fast)
e-----------------------------------------------------------------------------------
b-----------------------------------------------------------------------------------
g-----------------------------------------------------------------------------------
d--9-9-9-x-9-x-9-x-x-x-10-10---9-9-9-x-9-x-9-x-x-x-12--10---------------------------
a--9-9-9-x-9-x-9-x-x-x-10-10---9-9-9-x-9-x-9-x-x-x-12--10---------------------------
e--7-7-7-x-7-x-7-x-x-x--8--8---7-7-7-x-7-x-7-x-x-x-10---8---------------------------

Bridge:(Slow)
e---------------------------------------------------
b---------------------------------------------------
g------------9-----7--------------------------------
d-----------------------9-----7---------------------
a------------------------------------10-------------
e--0--0--0------------------------------------------


Outro:(Added to the end of the chorus)
e-----------------------------------------------------------------------
b-----------------------------------------------------------------------
g-----------------------------------------------------------------------
d--12-12-12-12-12-12-12-12-12-12-12-12-12-12-12--10---------------------
a--12-12-12-12-12-12-12-12-12-12-12-12-12-12-12--10---------------------
e--10-10-10-10-10-10-10-10-10-10-10-10-10-10-10---8---------------------

----------------- Acordes -----------------
