Red Hot Chili Peppers - The Brothers Cup

INTRO

e|------------------------------------------|
B|--7--5------------------------------------|
G|--7--5--------5--x-x-x-x-x-x---7-5--------|
D|-----------------------------------8-8-5--|
A|----------5-5-----------------------------|
E|------------------------------------------|

e|-----------------------------------------------|
B|--7--5-----------------------------------------|
G|--7--5--------5--x-x-x-x-x-x--5-5-x-x-5-5------|
D|-----------------------------------------------|
A|----------5-5------------------------------7\--|
E|-----------------------------------------------|


CHORUS

e|----------------------------------------------------------|
B|----------------------------------------------------------|
G|----------------------------------------------------------|
D|----------------------------------------------------------|
A|--5-3-1---------5-3-1-3-3-1-----5-3-1--------5-3-1-3-3-1--|
E|--------3-1-3---------------3---------3-1-3---------------|



INTERLUDE

e-|------------------|---------------------|--------------------------|
B-|------------------|---------------------|--------------------------|
                       G-|--7-7--5-7-7-5-7--|--7-7--5--7-7--5--7--|--7-7--5--5-7--7-7--5--7--|
                       D-|------------------|---------------------|--------------------------|
                       A-|------------------|---------------------|--------------------------|
                       E-|------------------|---------------------|--------------------------|

e-|--------------------|--------------------|--------------------------|
B-|--------------------|--------------------|--------------------------|
                       G-|--7-7--5--7-7--5-7--|--7-7-7-7--7---5-5--|--7-7-7-7--7---5---7-5-7--|
                       D-|--------------------|--------------------|--------------------------|
                       A-|--------------------|--------------------|--------------------------|
                       E-|--------------------|--------------------|--------------------------|

e-|------------------|-----------------------|-------------------------|
B-|------------------|-----------------------|--9~--7~-----------------|
                       G-|-7-7-7-7--7---5-5-|-7-7-7-7--7--5---7-5-7-|--9~--7~--7-7--5--7--5-7-|
                       D-|------------------|-----------------------|-------------------------|
                       A-|------------------|-----------------------|-------------------------|
                       E-|------------------|-----------------------|-------------------------|

e-|---------------------|--------------------------|
B-|--9~--7~-------------|--9~--7~------------------|
                       G-|--9~--7~--7-7--5--7--|--9~--7~--7-7--5--7--5-7--|
                       D-|---------------------|--------------------------|
                       A-|---------------------|--------------------------|
                       E-|---------------------|--------------------------|


END

W/bar
e|----------------------|
B|---7~useyourbarhere---|
G|---7~-----------------|
D|----------------------|
A|----------------------|
E|----------------------|

----------------- Acordes -----------------
A- = X 0 2 2 1 0
B- = X 2 4 4 3 2
D- = X X 0 2 3 1
E- = 0 2 2 0 0 0
G- = 3 5 5 3 3 3
