Red Hot Chili Peppers - Turn It Again

VERSE

e|10--10--10/13--10--10-|
B|11--11---------11--11-|
G|12--12---------12--12-|X2
D|-------------------12-|
A|----------------------|
E|----------------------|

e|--------10/13--10--10-|
B|11--11---------11--11-|
G|12--12---------12--12-|X2
D|-------------------12-|
A|----------------------|
E|----------------------|

e|--------8/10---10--10-|
B|11--11---------11--11-|
G|12--12---------12--12-|X2
D|12--12-------------12-|
A|----------------------|
E|----------------------|


e|10--10--10/13--10--10-|
B|11--11---------11--11-|
G|12--12---------12--12-|
D|-------------------12-|
A|----------------------|
E|----------------------|
       1st Ending                          2nd Ending
e|10--10----------------10---|--------------------------------|
B|11--11----------------11---|------------------11p10h11--11--|
G|12--12--12p10h12--12--12---|----12p10h12--12--12p10h12--12--|
D|--------12p10h12--12--12---|----12p10h12--12----------------|
A|---------------------------|--------------------------------|
E|---------------------------|--------------------------------|
        3rd Ending, 4th just strum chord again                      
e|10--10----10-10-10-10---10--10------------------------------|
B|11--11----11-11-11-11---11--11------------------------------|
G|12--12----12-12-12-12---12--12------------------------------|
D|----------12-12-12-12---12--12------------------------------|
A|------------------------------------------------------------|
E|------------------------------------------------------------|


CHORUS

e|-------------------------------------|
B|------------------15-----------------|
G|------------------15-----------------|X3
D|15h17---17---17b-----r-17p15-15------|
A|-------------------------------------|
E|-------------------------------------|

e|---------------------------------------|        
B|---------------------------------------|
G|---------------------------------------|X2
D|15h17--17----17--15--------------------|
A|---------------------17--15------------|
E|-----------------------------18--15----|

e|-------------------------|
B|-------------------------|
G|-------------------------|X4
D|17--15-------------------|
A|--------17--15-----------|
E|----------------18--15---|

e|-------------------------------------|
B|------------------15-----------------|
G|------------------15-----------------|X3
D|15h17---17---17b-----r-17p15-15------|
A|-------------------------------------|
E|-------------------------------------|

e|-------------------------------------|
B|----------------18-18p15-------------|
G|----------------15-15----------------|X2
D|15h17---17--17b-----------17p15-15---|
A|-------------------------------------|
E|-------------------------------------|

e|---------------------------------------|        
B|---------------------------------------|
G|---------------------------------------|
D|15h17--17----17--15--------------------|
A|---------------------17--15------------|
E|-----------------------------18--15----|

e|-------------------------|
B|-------------------------|
G|-------------------------|X3
D|17--15-------------------|
A|--------17--15-----------|
E|----------------18--15---|

2nd Chorus Ending
e|----------------------------------------------------|
B|----------------------------------------------------|
G|------------------------15-15---------------15-15---|
D|15h17--17--15-17-17--15--------15-17-17--15---------|
A|----------------------------------------------------|
E|----------------------------------------------------|

e|--------------------------------|
B|--------------------------------|
G|----------------15-15-----------|
D|--15-17-17--15--------15-17-17\-|
A|--------------------------------|
E|--------------------------------|               

SOLO


Play Chorus then tremolo pick these notes
e|-----------------------------------15----15--18--15--18--15--18-|        
B|---------------------------15--18-----18------------------------|
G|-------------------15--17---------------------------------------|
D|15h17--17--15--17-----------------------------------------------|
A|----------------------------------------------------------------|
E|----------------------------------------------------------------|

e|-15--18--15--18--15--18--15--18--------|        
B|---------------------------------------|
G|---------------------------------------|
D|---------------------------------------|
A|---------------------------------------|
E|---------------------------------------|

then this really fast
e|----15---------------------------------|        
B|-15-----18--15--15---------------------|
G|---------------------------------------|
D|---------------------------------------|
A|---------------------------------------|
E|---------------------------------------|

e|----15------------------------------------------------------------|
B|-15-----18--15--15------15--15-----15--15--18-------18------15----|
G|--------------------17b--------17b-------------17b------17------17|
D|------------------------------------------------------------------|
A|------------------------------------------------------------------|
E|------------------------------------------------------------------|


then                                bend on the 15th fret twice here
e|------------------------------------------------------------------|
B|------------------------------------------------------------------|
G|----15-17-17-15-17-17-15-17-15-17---------------------------------|
D|------------------------------------------------------------------|
A|-----------------------------------13-15-13-15-13-15-13-15-13-15--|
E|------------------------------------------------------------------|

e|-------------------------------------------------------------------|
B|-------------------------------------------------------------------|
G|-------------------------------------------------------------------|
D|-------------------------------------------------------------------|
A|-13-15-13-15-15-13-------------------------------------------------|
E|-------------------15-13-15-15-13-10-13-10-13-13-10-8-5-8-8-5-8----|

Back to chorus and end on this
e|-------------------------------------------------------------------|
B|-------------------------------------------------------------------|
G|-------15-----15-----15-----15-------------------------------------|
D|-------15-----15-----15-----15-------------------------------------|
A|---17b----17b----17b----17b----17--15--17--------------------------|
E|-------------------------------------------------------------------|


| /  slide up
| \  slide down
| h  hammer-on
| p  pull-off
| ~  vibrato
| +  harmonic
| x  Mute note
| b  bend note
| r  release note


Some of us get a little
And some a lot
We've got to make due
With what ever we got
We get it hot we cool it down
And then we pass it around

You can dance
For the sake of a golden day
Take a chance on getting rid
Of whatever's in your way
Next stop big hop
Is turning night into day

Sometimes when
I'm lying there all alone
I think of every little nothing
That we could own
To overthrow all of you
Who have overgrown

All my friends
Like to spend
Days on end
On the mend
I turn to you, I turn into
And then I turn it again

Here we go
All we know
Heavy load,
Start to float
Without a doubt, we turn it out
And then we turn it again

Lets dance all night and day now
Get down and show the way how
I want to show you that I care

Two things I want to say now
You make it all ok now
I need to know that you are there

I've come to learn
Whatever time I can find to spend
Taking flight into
Whatever light we bend
Out on the street
I get a beat and then
I turn it to ten

Lace boots and the
Ladies of kasakstan
Kick 'em high to the sky
All of this just because we can
I turn to cuba
Then aruba then the dominican

We've got to move it
If we want to do our best
We've got to shake it
If we want to keep it fresh

I'm turning down
All the heavy psychology
To cut a rug
And I make no apology
I turn a cheek, I turn a key
And then I turn it for free

We've got to move it
Just a little to hit the spot
A whirling derbish in a flurry
A fox to trot
Come clown around, a robot
Doin' the astronaut

----------------- Acordes -----------------
