Red Hot Chili Peppers - What Is Soul

e|------------------------------------------------------------------------ 
b------------------------------------------------------------------------ 
g------------------------------------------------------------------------ 
d-------------------------------------------------3---------------------- 
a------3-------3--5--------------------3-------------5------3----3-5----- 
E|-5-------5-----------15/-------5----------5-------------5---5----------- 


d-----------------------------------3-hold------------------ 
a--------------------3----5-----------------5--------------- 
e|-1\--3--3----5--------------------------------------------- 

solo I am not 2 sure bout this but it sounds ok
d----------------------------------------------------------------15----- 
a-----------15---------15----17------------------15----------------17--- 
e|-17--------------17----------------17-------------------17------------- 


d----------------------------------------------15---------------- 
a-----------------------------------15--17-----------17---------- 
E|----------13\---15---15----17-----------------------------------



----------------- Acordes -----------------
