﻿Paula Fernandes - Não Precisa (part. Victor e Léo)

Capo Casa 2

[Intro]

                    C       G
E|-----------------------------------------|
B|-5-3p2------------------3-2-----2--------|
G|-------4-2---2--------2-------2----------|
D|-----------6---2----4-------2-------2----|
A|------------------5----------------------|
E|--------------------------5-------5------|

         C       G               C       G
E|-----------------------------------------|
B|-------------3-------2-------2-------3-2-|
G|-----------2-------2-------2-------2---2-|
D|-----2---4-------2-------2-------4-----2-|
A|-2/4---5-----------------------5---------|
E|---------------5-------5---------------5-|

[Primeira Parte]

Dedilhado da Primeira Parte


   D/F#            C
E|-----------------------------------------|
B|-------5---------------3-------3---------|
G|-----4---------------2-------2-----------|
D|---2-------2-------4-------4-------------|
A|-------------2-4-5-------5---------------|
E|-4-------4-------------------------------|

   Em
E|-----------------------------------------|
B|-------2-------2-------2-------2---------|
G|-----2-------2-------2-------2-----------|
D|---4-------4-------4-------4-------------|
A|-----------------------------------------|
E|-2-------2-------2-------2---------------|

   C               G
E|-----------------------------------------|
B|-------3-------3-------2--------2--------|
G|-----2-------2-------2--------2----------|
D|---4-------4-------2--------2------------|
A|-5-------5-------------------------------|
E|-----------------5--------5--------------|

   D5(9)             D
E|-------2-------2-2h4---------------------|
B|-----5-------5---------------------------|
G|---4-------4-----------------------------|
D|-2-------2-------2-----------------------|
A|-----------------------------------------|
E|-----------------------------------------|

                     D/F#
Você diz que não precisa
C                 Em
  Viver sonhando tanto
              C     G     D5(9)
Que vivo a fazer demais, por você

                D
Diz que não precisa
C9                Em7
  A cada vez que canto
        C9    G        D
Uma canção a mais pra você

[Refrão]

                   C9
Mas tem que ser assim
                G
Pra ser de coração
                 D         Em7
Não diga não precisa ah ah ahh

               C9
Tem que ser assim
               G
É seu meu coração
                 D         G
Não diga não precisa ah ah ahh

[Segunda Parte]

                    D
Eu já sonhei com a vida
C9               Em7
  Agora vivo um sonho
                 C9   G         D
Mas viver ou sonhar, com voce, tanto faz

                 D
Não diga não precisa
C9                  Em7
  Eu digo que é preciso
             C9    G     D
A gente se amar demais, nada mais

[Refrão]

                   C9
Mas tem que ser assim
                G
Pra ser de coração
                 D         Em7
Não diga não precisa ah ah ahh

               C9
Tem que ser assim
               G
É seu meu coração
                 D         G
Não diga não precisa ah ah ahh

[Solo] C9  G  D  Em7
       C9  G  D  G

Parte 1 de 4

E|---------------------------------------------------|
B|-----------------------------5---------------------|
G|-------2---2h4-2-----2---4/6-----------------------|
D|-2-2h4---4-------2h4---4---------------------------|
A|---------------------------------------------------|
E|---------------------------------------------------|

Parte 2 de 4

E|---------2-4---4-2-4-4--5-5------------------------|
B|-------2---5-5-5-5-5-5--4-7-7~---------------------|
G|-6\4p2---------------------------------------------|
D|---------------------------------------------------|
A|---------------------------------------------------|
E|---------------------------------------------------|

Parte 3 de 4

E|----17-17-16-14-12-12-------12---------------------|
B|----------------------12----12---------------------|
G|-18-------16-14-14-14----13-13---------------------|
D|---------------------------------------------------|
A|---------------------------------------------------|
E|---------------------------------------------------|

Parte 4 de 4

E|---------------------------------------------------|
B|---7\5--14\12--9/10--------------------------------|
G|---------------------------------------------------|
D|-9-------------------------------------------------|
A|---------------------------------------------------|
E|---------------------------------------------------|

[Segunda Parte]

                    D
Eu já sonhei com a vida
C9               Em7
  Agora vivo um sonho
                 C9   G         D
Mas viver ou sonhar, com voce, tanto faz

                 D
Não diga não precisa
C9                  Em7
  Eu digo que é preciso
             C9    G     D
A gente se amar demais, nada mais

[Refrão 2x]

                   C9
Mas tem que ser assim
                G
Pra ser de coração
                 D         Em7
Não diga não precisa ah ah ahh

               C9
Tem que ser assim
               G
É seu meu coração
                 D         G
Não diga não precisa ah ah ahh

----------------- Acordes -----------------
Capotraste na 2ª casa
C*  = X 3 2 0 1 0 - (*D na forma de C)
C9*  = X 3 5 5 3 3 - (*D9 na forma de C9)
D*  = X X 0 2 3 2 - (*E na forma de D)
D/F#*  = 2 X 0 2 3 2 - (*E/G# na forma de D/F#)
D5(9)*  = X 5 7 9 X X - (*E5(9) na forma de D5(9))
Em*  = 0 2 2 0 0 0 - (*F#m na forma de Em)
Em7*  = 0 2 2 0 3 0 - (*F#m7 na forma de Em7)
G*  = 3 2 0 0 0 3 - (*A na forma de G)
