John Lennon - Give Peace a Chance

    D
1. Ev'rybody's talkin' 'bout Bagism, Shagism, Dragism, Madism,
    Ragism, Tagism, this-ism, that-ism, ism ism ism,
            A         G             D
all we are saying is give peace a chance,
all we are saying is give peace a chance.

2. Ev'rybody's talkin' 'bout Minister, Sinister, Banisters and Canisters,
    Bishops, Fishops, Rabbis, and Pop Eyes, Bye bye, Bye byes
            A         G             D
All we are saying is give peace a chance
All we are saying is give peace a chance

3. Ev'rybody's talkin' 'bout Revolution, Evolution, Masturbation, Flagellation,
    Regulation, Integrations, mediations, United Nations, congratulations,
            A         G             D
All we are saying is give peace a chance
All we are saying is give peace a chance

4. Ev'rybody's talkin' 'bout John and Yoko, Timmy Leary, Rosemary,
    Smothers, Bobby Dylan, Cooper,Derek Taylor,

    Norman Mailer, Alan Ginsberg, Hare Krishna, Hare Hare Krishna.
             A         G             D
All we are saying is give peace a chance,
all we are saying is give peace a chance,
all we are saying is give peace a chance.......

----------------- Acordes -----------------
A = X 0 2 2 2 0
D = X X 0 2 3 2
G = 3 2 0 0 0 3
