John Lennon - I Found Out

CHORUS:
G          Am
I I found out
G          Am
I I found out

Am
Now that I showed you what I been through
Don't take nobody's word what you can do
There ain't no Jesus gonna come from the sky
 G
Now that I found out I know I can cry ...CHORUS

Some of you sitting there with your cock in your hand
Don't get you nowhere don't make you a man
I heard something bout my ma and my pa
They didn't want me so they made me your star ...CHORUS

Old Hare Krishna got nothing on you
Just keep you crazy with nothing to do
Keep you occupied with pie in the sky

There ain't no guru who can see through your eyes...CHORUS

I've seen through junkies I been through it all
I've seen religion from Jesus to Paul
Don't let them fool you with dope and cocaine
No one can harm you, feel your own pain
I I found out
I I found this out
I I found out
Out!
Out!

 (play with first two lines of song, then repeat for next two)
E|---------------------------------------------------|
B|---------------------------------------------------|
G|---------------------------------------------------|
D|---------------------------------------------------|
A|-----0-3-0--------0-3-0-------0-3-0-3-3-0-3-0---0--|
E|-0-3--------0-0-3---------0-3-----------------3----|

----------------- Acordes -----------------
Am = X 0 2 2 1 0
G = 3 2 0 0 0 3
