John Lennon - Stand By Me

(Base)

E|-----------------------------------------------------------|
B|-----------------------------------------------------------|
G|-----------------------------------------------------------|
D|-----------------------------------------------------------|
A|-----------------------------------------------------------|
D|--2-6-7--7--2-6-7--7--7-6-4--4--2-4--4--4-2-0--0--0-4-2--2-|

(melodia)


E|--------------------------------------------------------|
B|--------------------------------------------------------|
G|--6--9--11----6/9---2-4-6-4\2--2-4-6p4\2--2-4/6-4-2/4-2-|
D|--------------------------------------------------------|
A|--------------------------------------------------------|
D|--------------------------------------------------------|

E|-------------------------------------------------------------------|
B|-------------------------------------------------------------------|
G|-6--9-11--6-9-11--6-7-6-4-6-6p4-2-2/4-2--2-4-6p4-2--2-4/6--2-2/4-2-|
D|-------------------------------------------------------------------|
A|-------------------------------------------------------------------|
D|-------------------------------------------------------------------|


E|--------------------------------------------------------|
B|--5-7--5--7/10-9--7\5-7--7-5--2-3-2-0-2--2p0------------|
G|---------------------------------------------2--2-2/4-2-|
D|--------------------------------------------------------|
A|--------------------------------------------------------|
D|--------------------------------------------------------|

E|-----------------------------------------------------------|
B|-----------------------------------------------------------|
G|--2--4--6p4-2-4/6-4--2-2/4-2----6-4--2~--------------------|
D|-----------------------------------------------------------|
A|-----------------------------------------------------------|
D|-----------------------------------------------------------|

----------------- Acordes -----------------
