Diante do Trono - Enquanto Eu Viver

Intro: B9  G#m7  E9

E|-----------------|    |---------2-------|
B|---------5-4-2-4-|    |-----------4-2-4-|
G|-4-4-4-4---------|3x  |-4-4-4-4---------|
D|-----------------|    |-----------------|
A|-----------------|    |-----------------|
E|-----------------|    |-----------------|

Riff 1:

E|---------------------------------------------|
B|----7----7----7---7--------------------------|
G|-4-4--4-4--4-4---4----6-8-6-4----6-8-6-4---4-|
D|------------------------------6~---------6~--|
A|---------------------------------------------|
E|---------------------------------------------|2x

Riff 2:

E|-------------------------------------|------------------------|
B|-----7-----7-----7-----7-----7-----7-|------------------------|
G|-4-4---4-4---4-4---3-3---3-3---3-3---|-6-8-6-4----6-8-6-4---4-|
D|-------------------------------------|---------6~---------6~--|
A|-------------------------------------|------------------------|
E|-------------------------------------|------------------------|2x


Riff 3:

E|------------------------------------------------|
B|-12-11-------------------12-11------------------|
G|-------13-11-------------------13-11------------|
D|--------------13-11-9-11-------------13-11-9-11-|
A|------------------------------------------------|
E|------------------------------------------------|

Refrão: Riff  1:
      B9
Cantarei Teus louvores pra Tua Glória
  G#m7               E9
Enquanto eu viver, enquanto eu viver
       B9
Contarei Tua história pra Tua Glória
    G#m7               E9                 B9 F#
Enquanto eu viver, enquanto eu viver sou Teu

C#m7      E9             B9 F#  C#m7     E9
Oh, oh, oh, oh, oh,  sou Teu    oh, oh, oh, oh, oh      – Riff 2

Primeira Parte:
 B9                           E9
Cada instante pra Tua glória
                      G#m
Todo o tempo louvarei
                       E9
Pela Tua graça eu viverei

Pré-Refrão: Riff 3:
B9
As batidas do meu peito
E9
  Querem conhecer-te mais
G#m
  Meu salvador, eu vou mostrar
          E9
Que és o Deus que satisfaz

Refrão:

E|-------14-------14----14-------14-------14-----------------------------------|
B|-12-12----12-12----12----12-12----12-12----12—14-16-14-12----14-16-14-12--12-|
G|---------------------------------------------------------13-------------13---|
D|-----------------------------------------------------------------------------|
A|-----------------------------------------------------------------------------|
E|-----------------------------------------------------------------------------|

      B9
Cantarei Teus louvores pra Tua Glória
  G#m7               E9
Enquanto eu viver, enquanto eu viver
       B9
Contarei Tua história pra Tua Glória
    G#m7               E9                 B9 F#
Enquanto eu viver, enquanto eu viver sou Teu

Primeira Parte:
 B9
Cada instante pra Tua glória
E9
  Todo o tempo louvarei
G#m                      E9
  Pela Tua graça eu viverei

Pré-Refrão: Riff 3:
B9
As batidas do meu peito
E9
  Querem conhecer-te mais
G#m
  Meu salvador, eu vou mostrar
          E9
Que és o Deus que satisfaz

Refrão:

E|-------14-------14----14-------14-------14-----------------------------------|
B|-12-12----12-12----12----12-12----12-12----12—14-16-14-12----14-16-14-12--12-|
G|---------------------------------------------------------13-------------13---|
D|-----------------------------------------------------------------------------|
A|-----------------------------------------------------------------------------|
E|-----------------------------------------------------------------------------|

      B9
Cantarei Teus louvores pra Tua Glória
  G#m7               E9
Enquanto eu viver, enquanto eu viver
       B9
Contarei Tua história pra Tua Glória
    G#m7               E9                 B9
Enquanto eu viver, enquanto eu viver sou Teu

Ponte 2x:
 E9
Vivo para Te louvar
G#m7
O Teu nome exaltar
  B9                   F#
Quero o Teu amor irradiar

Refrão:
      B9
Cantarei Teus louvores pra Tua Glória
  G#m7               E9
Enquanto eu viver, enquanto eu viver
       B9
Contarei Tua história pra Tua Glória
    G#m7               E9
Enquanto eu viver, enquanto eu viver

E|-------14-------14----14-------14-------14-----------------------------------|
B|-12-12----12-12----12----12-12----12-12----12—14-16-14-12----14-16-14-12--12-|
G|---------------------------------------------------------13-------------13---|
D|-----------------------------------------------------------------------------|
A|-----------------------------------------------------------------------------|
E|-----------------------------------------------------------------------------|

      B9
Cantarei Teus louvores pra Tua Glória
  G#m7               E9
Enquanto eu viver, enquanto eu viver
       B9
Contarei Tua história pra Tua Glória
    G#m7               E9                 B9
Enquanto eu viver, enquanto eu viver sou Teu

Final: Riff 2:

E|-------------------------------------|------------------------|        E|---|
B|-----7-----7-----7-----7-----7-----7-|------------------------|        B|-7-|
G|-4-4---4-4---4-4---3-3---3-3---3-3---|-6-8-6-4----6-8-6-4---4-|        G|-4-|
D|-------------------------------------|---------6~---------6~--|2x      D|---|
A|-------------------------------------|------------------------|        A|---|
E|-------------------------------------|------------------------|        E|---|

     B9  F#
Sou Teu
C#m7        E9          B9 F#         C#m7            E9       B9
Oh, oh, oh, oh,    sou Teu            oh, oh, oh, oh, oh  Sou teu!

----------------- Acordes -----------------
B9 = X 2 4 4 2 2
C#m7 = X 4 6 4 5 4
E9 = 0 2 4 1 0 0
F# = 2 4 4 3 2 2
G#m = 4 6 6 4 4 4
G#m7 = 4 X 4 4 4 X
