Adriana Calcanhotto - Uns Versos

Acordes: Em Am

              Am
Sou sua noite, sou seu quarto
            Em
Se você quiser dormir
         Am
Eu me despeço
        Em
Eu em pedaços
           Am
Como um silêncio ao contrário
Em
Enquanto espero
Am
Escrevo uns versos
      Em
Depois rasgo

               Am                         |
Sou seu fado, sou seu bardo               |


           Em                             |
Se você quiser ouvir                      |

         Am                               |
O seu eunuco, o seu soprano               |

Em                                        |
 Um seu arauto                            |

Eu sou o sol da sua noite em claro,       |
Em                                        |             
 Um rádio                                 |

             Am                           |
Eu sou pelo avesso sua pele               |      B
                                          |
O seu casaco                              |      I

        Em                                |
Se você vai sair                          |      S

Am                                        |
 O seu asfalto                            |

        Em                                |
Se você vai sair                          |

Am                                        |
Eu chovo                                  |

 Sobre o seu cabelo pelo seu itinerário   |
Em                                        |
 Sou eu o seu paradeiro                   |

Am                                        |
 Em uns versos que eu escrevo             |

         Em                               |
Depois rasgo                              |

Am        Em                              |
 E depois rasgo                           |

----------------- Acordes -----------------
Am = X 0 2 2 1 0
B = X 2 4 4 4 2
Em = 0 2 2 0 0 0
