Boyce Avenue - Disturbia (Rihanna)

Tuning: D  G  C  F  A# C

/ = slide
^ = hammer on or pull off
* = thumb slap

Intro: (play 2x)
----------------------------------|
--------------0-------------------|
-2---2----5-----------------------|
---2---2/---5---3---3---2-3---2---|
-0--------3-----------5\----3---3-|
------------------3-------1-------|

Verse 1 and 2: (play 2x)
--------------------------------------|
--------------------------------------|
-2----5--------------2----0----4----2-|
-2----5----5----3----2----2----5----3-|
-0----3----5----3----0----3----5----3-|
-----------3----1--------------3----1-|


Pre-Chorus 1 and 2: (play 4x)
-------0-----------------------|
-----0-------------------------|
---0---------------------------|
-2---2---5---5-----------------|
-0---0---3---3---5---5---3---3-|
-----------------3---3---1---1-|

Chorus 1, 2 and 3:
---------------0-----------------|
-----0---------0-----------------|
-----0^2-------------4\2-----2^0-|
---2-------2---------5\3-----3---|
-0---*---3---*-----5-*-----3-*---|
-----*-------*---3---*---1---*---|

Turnaround: (play 2x)
----------------------------------|
--------------0-------------------|
-2---2----5-----------------------|
---2---2/---5---3---3---2-3---2---|
-0--------3-----------5\----3---3-|
------------------3-------1-------|

Breakdown: (slight palm mute)(play 4x)
----------------------------------|
--------------0-------------------|
-2---2----5-----------------------|
---2---2/---5---3---3---2-3---2---|
-0--------3-----------5\----3---3-|
------------------3-------1-------|
