CPM 22 - + 1 Dia

INTRO- G Pausa entra so o baixo e enseguida 
        e|3-3-3-3-3-5-5-5-5-5-5-3-3-3-

   G               E     F       G
   ALGUNS ANOS PASSARAM,TEMPOS ATRAS
                   C     D        G
   MESMO AONDE ESTIVER, EU VOU BUSCAR
  E            F         G
   SERA QUE UM DIA VAI MUDAR
  E           F         G    (G,F#,E,F#,C,D) 2x
   NÁO ADIANTA SO ESPERAR

REFRÄO-

  E    G C         D            E
   AINDA,HÁ MUITA COISA PRA PENSAR
      G    D         C
   EU NUNCA POSSO PARAR

   (G,C,D) 3 vezes


VERSO 2
   G               E         F     G
   SONHEI UMA VEZ, NEM SEI COMO DIZER
                  E      F    G
   SO LEMBRO QUE, IRIA ACONTECER
                 E         F        G
   NEM SEI PORQUE NÁO CONSEGUI ENTENDER
                   E           F
   ESPERAR PRA VER, O QUE VAI ACONTECER

REFRÁO 2

   E   G C        D             E
   AINDA HÁ MUITA COISA PRA PENSAR
           G D          C            E
   MAS NUNCA QUE EU PODERIA TE EXPLICAR
       G C           D         E
   AINDA QUE O TEMPO PASSE DEVAGAR
          G D         C    (G,F#,E,F#,C,D)
   EU NUNCA POSSO PARAR

ae galera,tipo tem uns riffs na intro q vcs usam c vcs kiserem e eu
ainda naum sei c eu tirei certo

e|-3-3-3-3-3--5-3-----------5-5-5-5-3-3-3-3-5-5-5-5-3-3-3-3-
b|----------------0--1-0------------------------------------
g|-----------------------2-0--------------------------------

----------------- Acordes -----------------
C = X 3 2 0 1 0
D = X X 0 2 3 2
E = 0 2 2 1 0 0
F = 1 3 3 2 1 1
F# = 2 4 4 3 2 2
G = 3 2 0 0 0 3
