CPM 22 - A cura

(G# F C# G# F D#)(2x)

SOLO: 2X
E|-11-11-11-11-11-11-11-11-11-11--8-8-8-8-9-9-9-9-8-8-8-8---------------------|
B|--9--9--9--9--9--9--9--9--9--9--9-9-9-9-9-9-9-9-9-9-9-9----9-11-9-11---9----|
G|---------------------------------------------------------8-----------8------| (2x)
D|----------------------------------------------------------------------------|
A|----------------------------------------------------------------------------|
E|----------------------------------------------------------------------------|

   Não quero voltar no passado mas
   G#    Fm        C#
   Pensei em te ligar
   G#    Fm    C#
   mas não sei se vai ser
   G#   D#    C#
   tão bom assim

   Bbm               C#
   Mas se eu estiver
            G#      D#
   em depressão profunda

   Bbm                   C#
   sei que você não presta
             G#    D#
   mas procurei a cura

   REFRÃO

   C#                      G#
   Dentro de você eu procurei a cura
   C#                      G#
   você sempre pareceu ser tão segura
   C#                      G#
   Dentro de você eu procurei a cura
   D#
   para os meus problemas pessoais

  (G# F C# G# F D#) 2x

E|-11-11-11-11-11-11-11-11-11-11--8-8-8-8-9-9-9-9-8-8-8-8---------------------|
B|--9--9--9--9--9--9--9--9--9--9--9-9-9-9-9-9-9-9-9-9-9-9----9-11-9-11---9----|
G|---------------------------------------------------------8-----------8------|   2x
D|----------------------------------------------------------------------------|
A|----------------------------------------------------------------------------|
E|----------------------------------------------------------------------------|

   G#      Fm                  D#
   Terça-feira eu deixei um recado na...
   G#    Fm         C#
   sua secretaria eletrônica
   G#              Fm              C#
   eu disse olha, é bom a gente se falar
   G#           D#                  C#
   agora que todo esse tempo ja passou

   Bbm               C#
   Mas se eu estiver
            G#      D#
   em depressão profunda
   Bbm                    C#
   sei que você não presta
             G#    D#
   mas procurei a cura

   ==== REFRÃO ====

   C#                      G#
   Dentro de você eu procurei a cura
   C#                      G#
   você sempre pareceu ser tão segura
   C#                      G#
   Dentro de você eu procurei a cura
   D#
   para os meus problemas pessoais

   FINAL: G# Bbm C# Bbm C# Bbm C# G#   (2x)
E|---------------------------------------------------------------------------
B|---------------------------------------------------------------------------
G|--8-x-x-8-x-x-8--6--8-x-x-8-x-x-8--8--8-x-x-8-x-x-8-----8-x-x-8-x-x-8/10-8-
D|--8-x-x-8-x-x-8--6--8-x-x-8-x-x-8--8--8-x-x-8-x-x-8--6--8-x-x-8-x-x-8/10-8-
A|--6-x-x-6-x-x-6--4--6-x-x-6-x-x-6--6--6-x-x-6-x-x-6--6--6-x-x-6-x-x-6/8--6-
E|-----------------------------------------------------4---------------------

 ---------------------------------------------------------------------------|
 ---------------------------------------------------------------------------|
 --8-x-x-8-x-x-8--6--8-x-x-8-x-x-8-----8-x-x-8-x-x-8--6---8-x-x-8-x-x-8-----|
 --8-x-x-8-x-x-8--6--8-x-x-8-x-x-8--8--8-x-x-8-x-x-8--6---8-x-x-8-x-x-8--6--|
 --6-x-x-6-x-x-6--4--6-x-x-6-x-x-6--8--6-x-x-6-x-x-6--4---6-x-x-6-x-x-6--6--|
 -----------------------------------6------------------------------------4--|

----------------- Acordes -----------------
Bbm = X 1 3 3 2 1
C# = X 4 6 6 6 4
D# = X 6 5 3 4 3
F = 1 3 3 2 1 1
Fm = 1 3 3 1 1 1
G# = 4 3 1 1 1 4
