CPM 22 - Ano Que Vem Talvez

Intro base:
  (E,Bm,G5,Bm,G5,Dm) 4 vezes
e|---------------------------------------------------------------------|
B|-0-0-0-0-0-0-0-0-0-0-0-0-0-0--0--0--0--0--0--0-0-0-0-0-0-0-0-0-0-----|
G|-9-9-9-9-9-9-9-9-9-9-9-9-9-12-12-12-11-11-11-7-7-7-9-9-7-9-7-9-9-----|
D|---------------------------------------------------------------------|
A|---------------------------------------------------------------------|
E|---------------------------------------------------------------------|

(D,Em,C)
Sem nostalgia
Sem querer de volta o que não é mais meu
Tá tudo indo bem
Espero que com você também

(D,Em,C)
Episódios se repetem
Novas coisas acontecem
Parece tão estranho existir

Refrão:

(E,D,C)
Ainda não me acostumei
Ano que vem talvez
Pensei em tudo que você me disse
O melhor já foi mas o melhor está por vir
E os dias ruins também não foram tão ruins assim

Sem drama dessa vez

Intro base:
  (E,Bm,G5,Bm,G5,D) 2 vezes
e|---------------------------------------------------------------------|
B|-0-0-0-0-0-0-0-0-0-0-0-0-0-0--0--0--0--0--0--0-0-0-0-0-0-0-0-0-0-----|
G|-9-9-9-9-9-9-9-9-9-9-9-9-9-12-12-12-11-11-11-7-7-7-9-9-7-9-7-9-9-----|
D|---------------------------------------------------------------------|
A|---------------------------------------------------------------------|
E|---------------------------------------------------------------------|

(D,Em,C)
Todos os dias
Eu gostaria de aprender a envelhecer
Se está tudo indo bem
É porque ontem encontrei você

(D,E,C)
Episódios se repetem
Novas chances aparecem
E a eterna dúvida do que virá depois

Refrão:
(E,D,C)
Ainda não me acostumei
Ano que vem talvez
Pensei em tudo que você me disse
O melhor já foi mas o melhor está por vir
E os dias ruins também não foram tão ruins assim

E agora é nossa vez

SOLO: (E,D,C)

e|---------------------------------------------------------------------
B|---------------------------------------------------------------------
G|-9--9-7/12--12-12-7--7-7/11--11-11/5--5-5-5-5/9--9-9-9/7--7-7--------
D|---------------------------------------------------------------------
A|-7--7-7/10--10-10-5--5-5/-9--9--9/3--3-3-3-3/7--7-7-7/5--5-5---------
E|---------------------------------------------------------------------

e|-----------------------------------------------------------------------------
B|-----------------------------------------------------------------------------
G|-9--9-9/12--12-12/7--7-7/14--14-14-12-12-12-12-12/16--16-16/14-12-14-12-11-12
D|-----------------------------------------------------------------------------
A|-7--7-7/10--10-10/5--5-5/12--12-12-10-10-10-10-10/14--14-14/12-10-12-10--9-10
E|-----------------------------------------------------------------------------

e|----------------------------------------------------------------------------
B|----------------------------------------------------------------------------
G|-9-7/9--9-9-12-12-12-9--9-9-9/7-7/9--9-9-12--12-12/7--7-7/11--11-11/5--5-5-3
D|----------------------------------------------------------------------------
A|-7-5/7--7-7-10-10-10/7--7-7-7/5-5/7--7-7/10--10-10/5--5-5/9---9--9/3--3-3-3-
E|----------------------------------------------------------------------------

e|---------------------------------------------------------------------
B|---------------------------------------------------------------------
G|-9--9-9-9/7-7-7/9----------------------------------------------------
D|---------------------------------------------------------------------
A|-7--7-7-7/5-5-5/7----------------------------------------------------
E|---------------------------------------------------------------------  by:V.D.P_

Refrão:
(E,D,C)
Ainda não me acostumei
Ano que vem talvez
Pensei em tudo que você me disse
O melhor já foi mas o melhor está por vir
E os dias ruins também não foram tão ruins assim

(E,Bm,G5,Bm,G5,Dm) 4 vezes
E agora é nossa vez
Sem drama dessa vez
Ano que vem talvez
E agora é nossa vez

----------------- Acordes -----------------
Bm = X 2 4 4 3 2
C = X 3 2 0 1 0
D = X X 0 2 3 2
Dm = X X 0 2 3 1
E = 0 2 2 1 0 0
Em = 0 2 2 0 0 0
G5 = 3 5 5 X X X
