Oasis - Champagne Supernova

Autor: Noel Gallagher

Acordes
-------
Asus2    (x02200) [Nota: listado como #1 em partes de solo]
Asus2/G  (3x2200) [#2]
Asus2/F# (2x2200) [#3]
Asus2/E  (0x2200) [#4]
A        (x02220) [#1b]
G        (3x0033) [#2b]
F#m6     (2x022x) [#3b]
E        (022100)
G2       (355433) [#5b]
A2       (577655)
D        (xx0232)
F2       (133211) [#4b]

Progressão dos Acordes
----------------------

   Asus2             Asus2/G           Asus2/F#          Asus2/E
e-----0-0-0---0--0-0----0-0-0---0--0-0----0-0-0---0--0-0----0-0-0---0--0-0--
B-----0-0-0---0--0-0----0-0-0---0--0-0----0-0-0---0--0-0----0-0-0---0--0-0--
G-----2-2-2---2--2-2----2-2-2---2--2-2----2-2-2---2--2-2----2-2-2---2--2-2--
D-----2-2-2---2--2-2----2-2-2---2--2-2----2-2-2---2--2-2----2-2-2---2--2-2--
A--0--------0---------------------------------------------------------------
E--------------------3--------3--------2--------2--------0--------0---------


Tablatura
---------
s = slide
/ = slide não especifico
b = bend
r = soltar bend
(H) = harmonica
h = hammer (martelar)
p = tirar
^ = fazer a nota "vibrar"

Riff 1
------
  G2
B------10------10------10------10-------10------10------10------10--
G-9h11----9h11----9h11----9h11-----9h11----9h11----9h11----9h11-----

Riff 2
------
  G2                                        D
B------10------10------10------10h12p10----------10------10-----10---
G-9h11----9h11----9h11----9h11----------11--9h11----9h11---9h11------

                     E
B------10h12p10-----------10------10------10------10------10------10------10-
G-9h11----------11---9h11----9h11----9h11----9h11----9h11----9h11----9h11----

Riff 3
------
        e--------------------------------------------------
        B-12b13r12--10----10-------------------10---12p10--
guit.   G--------------11------11---------9h11------------- (3x)
#1      D----------------------------9h11------------------
        A-------------------------12-----------------------
        E--------------------------------------------------

        e--------------------------------------------------
        B---------------------------------------2----4p2---
guit.   G---4b5r4----2-----2--------------2h4-------------- (3x)
#2      D---------------4-------4----2h4-------------------
        A--------------------------0-----------------------
        E--------------------------------------------------


Na 3 vez, toque:

        e------------------------
        B------5-segure-------3--
guit.   G--4s6------------2s4----
#1      D------------------------
        A------------------------
        E------------------------

        e-------12-segure--------
        B-12s14------------------
guit.   G------------------------
#2      D------------------------
        A------------------------
        E------------------------


Intro
-----
ACORDE#          #1                        #2                           #3
e-----------------------------------------------------------------------12(H)-
B----------12(H)-------10---------10-------------------10--12-10-----10-------
G-------9--------9h11-------9h11------9h11--9-----9-11------------11----------
D-9s11------------------------------------------------------------------------
A-----------------------------------------------------------------------------
E-----------------------------------------------------------------------------

                        #4                                   #1          #2
e----------------------------------------------------------------------------
B---------10------10---10h12p10----------10------10------10------------------
G----9h11----9h11---------------11--9h11----9h11----9h11----11/--2--------2--
D---------------------------------------------------------------------2h4----
A----------------------------------------------------------------------------
E----------------------------------------------------------------------------

                             #3             #4               #1
e--------------------------------------------------------------
B-------------10------10---------------------------5------3----
G--------9h11----9h11----11/-2-----------2-----4s6----2s4----2-
D-2h4-------------------------------2h4------------------------
A--------------------------------------------------------------
E--------------------------------------------------------------

Verso 1
-------
Asus2
How many special people change
Asus2/G
How many lives are living strange
Asus2/F#                              Asus2/E
Where were you while we were geting high
                                G--------------2-----2-----2----
                                D----------2h4---2h4---2h4-------
Verso 2
-------
Slowly walking down the hall
Faster than a cannonball
Where were you while we were getting high

Refrão 1
--------
                 Asus2
Someday you will find me
G-----2-----2-----2----
D-2h4---2h4---2h4------

                   Asus2/G
caught beneath the landslide
     Asus2/F#                   Asus2/E
in a champagne supernova in the sky
                 Asus2
Someday you will find me
G-----2-----2-----2---
D-2h4---2h4---2h4-----

                   Asus2/G
caught beneath the landslide
     Asus2/F#               Asus2/E
In a champagne supernova, a champagne supernova in the
                                B---------10----10----
                                G----------9h11--9----

#1                 #2                      #3             #4
sky
e----------------------------------------------------------------------
B--------10---------------------------------------------------10--10/--
G---9h11----9h11-9-----------2--2h4p2-------------2------------9---9/--
D-------------------2----2h4-----------2h4----2h4----2h4--2------------
A----------------------------------------------------------------------
E----------------------------------------------------------------------


Verso 3
-------
Wake up at dawn and ask her why
       G----------------------2h4--
       D-----------------2h4-------

A dreamer dreams, she never dies
G-2-------------------------2-------
D----------------------2h4-----2h4--

Wipe that tear away now from your eye
        B-------------------------------------5------3-----
        G-----------------2---------------4s6----2s4----2--
        D------------2h4-----2h4--2------------------------

Slowly walking down the hall
    G----------------------2------
    D-----------------2h4---------

Faster than a cannonball
    G-----------------2----------
    D------------2h4-----2h4--2--

Asus2/F#                              E
Where were you while we were getting high

Refrão 2
--------
                 A
Someday you will find me
                   G
caught beneath the landslide
     F#m6                       E
in a champagne supernova in the sky
                 A
Someday you will find me
                   G
Caught beneath the landslide
     F#m6                   E
In a champagne supernova, a champagne supernova

Ponte
------
    G2
Cos people believe that they're gonna get away for the
B---------------------------------------------------
G---(RIFF #1)---------------------------------------

  A2
summer
e--------------------------------------------------------------
B--------------------------------------------------------------
G-------------2-2--------2-2--4b5-b5-b5-b4.5--b4.5r4--2-----2--
D--------2h4--------2h4----------------------------------4-----
A--------------------------------------------------------------
E--------------------------------------------------------------

    G2                              D
But you and I, we live and die, the world's still spinning round
B---------------------------------------------------------------
G---(RIFF #2)---------------------------------------------------

              E
We don't know why............why, why, why, why
B------------------------------------------------------
G---(CONTINUE RIFF #2)---------------------------------

  #1          #2           #3            #4
B---------5------------5-------------5------------5------
G-----4s6----------4s6-----------4s6----------4s6--------


[RIFF #3 AQUI]

Verso
-----
How many special people change
    G-------------------------2h4-2---
    D---------------------2h4---------

How many lives are living strange
    G------------------------2------
    D--------------------2h4---2h4--

Where were you while we were getting high
    B-----------------------------------------------5--
    G----------------------2--------------------4s6----
    D-----------------2h4-----2h4-2-------------------

Slowly walking down the hall
    G------------------2h4----------
    D--------------2h4-----2h4-2h4--

Faster than a cannonball
    G------------2h4----------
    D--------2h4-----2h4-2h4--

Asus2/F#                             E
Where were you while we were getting high

[Acordes do Refrão 2]

Someday you will find me
Caught beneath the landslide
In a champagne supernova in the sky
Someday you will find me
Caught beneath the landslide
In a champagne supernova, a champagne supernova

    G2
Cos people believe that they're gonna get away for the
  (RIFF #1)

A2
summer
e----------------------------------------------------------------------------
B-------------------------------------------------5--------------------------
G-----4b5--b5r4--2-----2----4--2--4--2-----2--4b6---b5r4-2---2-2--4--2--4--2-
D-------------------4-------------------4------------------4-----------------
A----------------------------------------------------------------------------
E----------------------------------------------------------------------------

    G                               D
But you and I, We live and die, the world's still spinning round
   (RIFF #2)

              E
We don't know why......why, why, why, why
   (CONTINUE RIFF #2)

Interlúdio Musical e Solo
-------------------------

1 parte: Noel Gallagher

   #1b                              #2b
e------------------------------------------------------5-----------------
B--8------8------8------8------------------------------------------------
G--7b8r7--7b8r7--7b8r7--7b8r7--5---------5---5--7--7b9---b9r7--5--7--5---
D--------------------------------7---5h7---7---------------------------7-
A------------------------------------------------------------------------
E------------------------------------------------------------------------

  #3b                      #4b           #5b
e-----------------------------------------------
B------5---5-----5--5---------------------------
G------5---5-----5--5---------------------------
D--5h7---7---7---------7--------5---5-----------
A---------------------------5s7---7---7-5-------
E-----------------------------------------8-5---

2 parte: Paul Weller

         #1b                                #2b
e--------------------------------------------------------------------
B-13--10--13b13.5----10------10---10b12r10------10^^^-----10--8--10--
G------------------------12-----------------12-----------------------
D--------------------------------------------------------------------
A--------------------------------------------------------------------
E--------------------------------------------------------------------

  #3b                 #4b             #5b                      #1b
e-----------------------------15--17---20b22--20-17----17----17---------
B-10b12r10---8-10^^^------17------------------------20----20----20b22---
G-----------------------------------------------------------------------
D-----------------------------------------------------------------------
A-----------------------------------------------------------------------
E-----------------------------------------------------------------------
                   #2b                                  #3b
e---17-20-20b22r20--17--20--17---15--15--17--15-------------------------------
B------------------------------------------------17--17--17--17s15--15--15s12-
G-----------------------------------------------------------------------------
D-----------------------------------------------------------------------------
A-----------------------------------------------------------------------------
E-----------------------------------------------------------------------------

                     #4b           #5b             #1b
e----------------------------------------------------------------------------
B-12--13--12--10--10---------8--10---------8--10---13p10----8h10----8h10-10--
G-------------------------9-------------9------------------------------------
D----------------------------------------------------------------------------
A----------------------------------------------------------------------------
E----------------------------------------------------------------------------

  #2b                         #3b          #4b         #5b              #4b
e--------------------------------------------------------------------------
B--8h10----8h10--8--10b12r10--8h10----8h10--------8-10--13b15--13-10-13-10-
G-----------------------------------------------9--------------------------
D--------------------------------------------------------------------------
A--------------------------------------------------------------------------
E--------------------------------------------------------------------------

 #5b             #4b  #5b                   Asus2
e-------------------------------------------------
B----13--15--13------------13--15--13b13.5--------
G----------------14^^^^---------------------14^^^-
D-------------------------------------------------
A-------------------------------------------------
E-------------------------------------------------

3 parte: Noel Gallagher

          #2                        #3                  #4
e-----------------------------------------------------------
B-----------------------------------------------------------
G-4b5.5r4--2--------2--4b5r4--2-------------------2---------
D--------------2h4---------------4-----------2h4-----2h4----
A-----------------------------------------------------------
E-----------------------------------------------------------

(RIFF #3)

How many special people change
B--------------------------------5-----
G----------------------------4s6----2--

How many lives are living strange
G-----------------------2--2h4p2-----
D------------------2h4-----------2h4-

Where were you while we were getting high
G----------------------------2----------
D-----------------------2h4-----2h4--2--

  We were getting high
B-------10--10h12p10-----------
G-9h11----------------9h11-9---

We were getting high
B-------10----------------
G--9h11-------------------

We were getting high
B-------10--------------
G--9h11----9h11---------

We were getting high
B-------10--10h12p10-------10-
G--9h11---------------9h11----

  We were getting high
B------10--10h12p10-------------
G-9h11---------------9h11--9----

We were getting high
e-----------0-----------
B-------3s5-------------

We were getting high
G--7-6----7-6----7-6-----
D------7------7------7---

We were getting high
B---------------------2--
G----------------2h4-----

[Progressão de acordes de novo, mas com esse riff]

G-7-6----7-6----7-6----(repetir inúmeras vezes)
D-----7------7------7-- 

Até:

  F2                     G2                      Asus2 
e--------------------------------------------------------------------
B--------------------------------------------------------------------
G-4b5--4--2-------2-2----4b5r4--2----2h4--2--2---4b6-----------------
D-------------2h4----------------------------------------------------
A--------------------------------------------------------------------
E--------------------------------------------------------------------

                                      acústico:  Fmaj7       G     Asus2
e-------------------------------------------------------------------------
B-------------------------------------------------------------------------
G-(até--)-b6r4--2-----------2--------------------------------2-----4b6----
D-------------------5--2h4-----2h4--2--------2h4--------2h4---------------
A--------------------------------------0----------------------------------
E-------------------------------------------------------------------------

Rafael Tosta

----------------- Acordes -----------------
A = X 0 2 2 2 0
A2 = X 0 2 2 0 0
Asus2 = X 0 2 2 0 0
Asus2/E = 0 X 2 2 0 0
Asus2/F# = 2 X 2 2 0 0
Asus2/G = 3 X 2 2 0 0
D = X X 0 2 3 2
E = 0 2 2 1 0 0
F#m6 = 2 X 1 2 2 X
F2 = 1 3 5 2 1 1
G = 3 2 0 0 0 3
G2 = 3 X 0 2 0 X
