Oasis - Some Might Say

[Intro]

    D                        Bsus2           G          D           A
E|-----------------------------------------------------2-0-2---0-0-0-0-0-0-0-0-|
B|------------------------------2---2---2-------3------------3-2-3-2-3-2-2-3-2-|
G|--------------------------2s4--4---4---4--------4----2-------2-2-2-2-2-2-2-2-|
D|-7---9---7--9-7---9--7-9--2s4---4---4---4-4s5-----5--0-------2-2-2-2-2-2-2-2-|
A|-5-5-5-5-5--5-5-5-5--5-5--0h2-------------4s5----------------0-0-0-0-0-0-0-0-|
E|-----------------------------------------------------------------------------|

[Intro Solo]

    D                                           Bsus2
E|----------------------------------------------------------------------------|
B|----------------------------------------------------------------------------|
G|---9b11--9--7--9--7---9b11-9b11--9--7--7----------7--9--9b11r9--7--9--7-----|
D|------------------------------------------7--7h9----------------------------|
A|----------------------------------------------------------------------------|
E|----------------------------------------------------------------------------|
                  G                 D                       A
E|----------------------------------------------------------------------------|
B|--8--7--8--7--8s10--8--7--8--7--8s10--10--10--12--10--12--10----------------|
G|--------------9s11--9--7--9--7--9s11--11--11--------------------------------|
D|----------------------------------------------------------------------------|
A|----------------------------------------------------------------------------|
E|----------------------------------------------------------------------------|


 D                                     Bsus2
Some might say that sunshine follows thunder
        G              D               A
Go and tell it to the man who cannot shine
 D                                   Bsus2
Some might say that we should never ponder
   G                   D                   A
On our thoughts today cos they will sway over time

            Em          G               D
Some might say we will find a brighter day
            Em          Cadd9           G
Some might say we will find a brighter day yeah

                D               G          Em         G             D   G  Em  G
Cos I've been standing at the station, in need of education in the rain
     D            G       Em         G            D    G   Em    G
You made no preparation, for my reputation once again
     D               G        Em             G              D     G  Em  G
The sink is full of fishes, she's got dirty dishes on the brain
D            G       Em          G           D    G    Em  G
Overflowing gently, but it's all elementary my friend


   F#m          F                   C                A
E|--------------------------------------------------------------10--12------|
B|-5s7--5--3--5-5b6r5--3--3------3--5b6r5---3--5--3--5--10--12--------------|
G|----------------------------4---------------------------------------------|
D|--------------------------------------------------------------------------|
A|--------------------------------------------------------------------------|
E|--------------------------------------------------------------------------|

   D                                        Bsus2
E|--------------------------------------------------------------------------|
B|------------------------------------------8--7--8--7--8--7--8s10-10--8--7-|
G|-----7----7---7--9--9b11r9--7--7h9--7-----9--7--9--7--9--7--9s11-11--9--7-|
D|-7h9----9---9-------------------------------------------------------------|
A|--------------------------------------------------------------------------|
E|--------------------------------------------------------------------------|

                   G                       D                        A
E|--------------------------------------------------------------------------|
B|-8--7--8--7--8--8s10--10--8--7--8--7--8--8s10--10--8--7--8--7--8--7--7--8-|
G|-9--7--9--7--9--9s11--11--9--7--9--7--9--9s11--11--9--7--9--7--9--7--7--9-|
D|--------------------------------------------------------------------------|
A|--------------------------------------------------------------------------|
E|--------------------------------------------------------------------------|

E|--------------------------------------------------------------------------|
B|-7--7--8--7--10--10--10--8--7---------------------------------------------|
G|-7--7--9--7--11--11--11--9--7---------------------------------------------|
D|--------------------------------------------------------------------------|
A|--------------------------------------------------------------------------|
E|--------------------------------------------------------------------------|

Some might say they don't believe in heaven
Go and tell it to the man who lives in hell
Some might say you get what you've been  given
If you don't get yours I won't get mine as well
Some might say we will find a brighter day
Some might say we will find a brighter day  yeah
Cos I've been standing at the station in need of education in the rain
Made no preparation for my reputation once again
The sink is full of fishes she's got dirty dishes on the brain
And my dog's been itchin', itchin' in the kitchen once again
Some might say (some might say)
You know what some might say

[Final Solo]

   D      G          Em       G         D
E|----------------------------------------------------|
B|----------------------------------------------------|
G|----------------------------------------------------|
D|----s4--2--0----------0-----0--2s4--0---------------|
A|----------------0--2-----2--------------------------|
E|----------------------------------------------------|

----------------- Acordes -----------------
A = X 0 2 2 2 0
Bsus2 = X 2 4 4 2 2
C = X 3 2 0 1 0
Cadd9 = X 3 5 5 3 3
D = X X 0 2 3 2
Em = 0 2 2 0 0 0
F = 1 3 3 2 1 1
F#m = 2 4 4 2 2 2
G = 3 2 0 0 0 3
