Oasis - Stay Young

Intro
-----
   D                                        Em7                  G
E |---------------------------------------------------------------------------|
B |-10h12-10--10/8-7--8--7--8-------10----------------------------------------|
G |-11h12-11--11/9-7--9--7--9--9s11----11s9--7---9~b10.5r9p7----7--7----7--7--|
D |----------------------------------------------------------9-------9--------|
A |---------------------------------------------------------------------------|
E |---------------------------------------------------------------------------|
   D                                        Em7            G
E |----------------------------------------------------------------------------|
B |-10h12-10--10/8-7--8--7--8-------10-------------------------------------8-7-|
G |-11h12-11--11/9-7--9--7--9--9s11----11s9--7---9bbbbbb10.5-b10.5r9-7-7-7-----|
D |----------------------------------------------------------------------------|
A |----------------------------------------------------------------------------|
E |----------------------------------------------------------------------------|

Verso
-----
D              Em7             G
One way out is all you're ever gonna get
     D                    Em7             G
From those who'll hand it out don't never let it upset you    D                 Em7                    G
Cos they'll put words into our mouths, they're making us feel so
Pre-chorus
----------
  Em                    G                    Em
  ashamed               Making us take the blame
E |----------------------------------------------------------------|
B |----------------------------------------------------------------|
G |----------------------------------------------------------------|
D |---------------------------------------0h2h5--------------------|
A |---------------------------------0h2h5--------------------------|
E |-0----0----0-----2-----3---------------------0----0----0-----2--|
  G                     Em              G
  Making us cold in the night           Making us quesion my
E |------------------------------------------------------------|
B |------------------------------------------------------------|
G |------------------------------------------------------------|
D |-----------------0h2h5--------------------------------------|
A |-----------0h2h5--------------------------------------------|
E |-3---------------------0---0---0---2---3--------------------|  A
  heart and my soul and I think that it's not quite right
E |-----------------------------------------------------------------------|
B |-----------------------------------------------------------------------|
G |-------------------------6~~~~~~~~~~~~~~~7~~~~~~~~~9~~~~---------------|
D |-7~~~~~~~~~~~~9~~~~~~~~~~x---------------x---------x-------------7--9--|
A |-x------------x----------4~~~~~~~~~~~~~~~5~~~~~~~~~7~~~~--/7--9--------|
E |-5~~~~~~~~~~~~7~~~~~~~~~~----------------------------------------------|
E |-----------------------------------------------------------------------|
B |-----------------------------------------------------------------------|
G |-7--9--9b10.5r9--7--7--------------------------------------------------|
D |-----------------------------------------------------------------------|
A |-----------------------------------------------------------------------|
E |-----------------------------------------------------------------------|

Chorus
------
  D         F#5         G      D/F#      Em                A
  Hey, stay young and invincible  cos we know just what we are
E |---------------------------------------------------------------------|
B |---------------------------------------------------------------------|
G |------------------------------7---------7-----------------7---9b10.5-|
D |-------------------------7h9-------7h9---------------7h9-------------|
A |---------------------------------------------------------------------|
E |---------------------------------------------------------------------|
  D         F#5          G       D/F#      Em                A
  Come what may, we're unstoppable  cos we know just what we are
E |----------------------------------------------------------------------|
B |----------------------------------------------------------------------|
G |-7----------------------7-------7---------7-----------------7--9b10.5-|
D |-------------------7h9-----7h9-------7h9---------------7h9------------|
A |----------------------------------------------------------------------|
E |----------------------------------------------------------------------|
  G       D/F#    Em                A
               We know just what we are
E |---------------------------------------------|
B |---------------------------------------------|
G |-7-------7-------7-----------------7--9b10.5-|
D |----7h9-----7h9---------------7h9------------|
A |---------------------------------------------|
E |---------------------------------------------|
  G       D/F#    Em
          Yeah we know just what we are
E |-----------------------------------------------------|
B |--------------------------------------------10~~~----|
G |-7-------7-------7~~~~-----------------9s11~~~~~~----|
D |----7h9-----7h9--------------------------------------|
A |-----------------------------------------------------|
E |-----------------------------------------------------|

 Interludio
-----------------
   D                                      Em7         G
E |------------------------------------------------------------7---------------|
B |-10h12-10--10/8-7--8-7-8-------10-------------------------------------------|
G |-11h12-11--11/9-7--9-7-9--9s11----11s9--7------7---7-9b10.5--b10.5r9p7--7-7-|
D |-------------------------------------------7h9---9---------------------9----|
A |----------------------------------------------------------------------------|
E |----------------------------------------------------------------------------|
   D                                        Em7             G
E |--------------------------------------------------------10-12b13.5r12-10-10-|
B |-10h12-10--10/8-7--8--7--8-------10---------------10-12---------------------|
G |-11h12-11--11/9-7--9--7--9--9s11----11s9--7--9s11---------------------------|
D |----------------------------------------------------------------------------|
A |----------------------------------------------------------------------------|
E |----------------------------------------------------------------------------|

Verso
-----
Feed your head with all the things you need when you're hungry
Stay in bed and sleep all day as long as it's Sunday
Cos they'll put words into your mouth they're
Making you feel so ashamed

Pre-chorus
----------
Making us take the blame
Making us cold in the night
Making us question my heart and my soul
and I feel that it's not quite right

Chorus
------
Hey, stay young and invincible
Cos we know just what we are
Come what may, we're unstoppable
Cos we know just what we are

Solo
----
   D                     Em7              G              D
E |---------------------------------------------------------------------------|
B |------------------------7-8-7-----10--8--7---------------------------------|
G |-9bbb10.5------9-----9---------7------------9-------7---9b10.5-----9b10.5--|
D |-----------------------------------------------7h9-------------------------|
A |---------------------------------------------------------------------------|
E |---------------------------------------------------------------------------|
                   Em7              G             Em              G
E |----------------------------------------------------------------------------|
B |------------------7-8-7-----10--8--7--------------------------------10/8--7-|
G |-b10.5r9~~~----9---------7------------9--7-------7-------7-------7--11/9--7-|
D |--------------------------------------------7h9-----7h9-----7h9-------------|
A |----------------------------------------------------------------------------|
E |----------------------------------------------------------------------------|
        Em             G                 Em              G
E |-------------------------------------------------------------------|
B |-------------------------10/8--7---------------------------10/8--7-|
G |------7-------7-------7--11/9--7--------7-------7-------7--11/9--7-|
D |-7h9-----7h9-----7h9---------------7h9-----7h9-----7h9-------------|
A |-------------------------------------------------------------------|
E |-------------------------------------------------------------------|
   A          A              A           G   G   G   A              A
E |--------------------------------------------------------------------------|
B |--------------------------------------------------------------------------|
G |----------------------------------------11--11--11--12--12--12--12s14--14-|
D |-11--11--11--12--12--12--12s14--14--14------------------------------------|
A |--------------------------------------------------------------------------|
E |--------------------------------------------------------------------------|
      A                             D         F#5
                                    Hey, stay young and
E |---------------------------------------------------|
B |-----12--12--12--12s14--14--14--14s15--------14----|
G |-14------------------------------------------------|
D |---------------------------------------------------|
A |---------------------------------------------------|
E |---------------------------------------------------|
       G       D/F#     Em                A               D         F#5
     invincible  cos we know just what we are             Come what may
E |-----------------------------------------7------------------------------|
B |------------------------------------------------------------------------|
G |------7-------7--------7----------9b10.5--b10.5r9p7---7--9b10.5----6----|
D |-7h9-----7h9------7h9-------------------------------9-------------------|
A |------------------------------------------------------------------------|
E |------------------------------------------------------------------------|
        G       D/F#     Em                A      D         F#5
we're unstoppable cos we know just what we are    Hey, stay young
E |-----------------------------------------------------------------|
B |-------------------------------------10/8-7----------------------|
G |-------7-------7--------7------------11/9-7------9b10.5----6-----|
D |--7h9-----7h9------7h9-----------------------7h9-----------------|
A |-----------------------------------------------------------------|
E |-----------------------------------------------------------------|
       G      D/F#     Em                A                  D         F#5
 and invincible cos we know just what we are and            Come what may
E |--------------------------------------7--------7---------------------------|
B |---------------------------------------------------------------------------|
G |------7------7--------7--------9b10.5---9b10.5---9b10.5r9--9--------/6-----|
D |-7h9----7h9------7h9-------------------------------------------------------|
A |---------------------------------------------------------------------------|
E |---------------------------------------------------------------------------|

        G       D/F#     Em                A          D               F#5
we're unstoppable cos we know just what we are
E |----------------------------------------------------------------------------|
B |----------------------------------------------------------------------------|
G |-------7-------7--------7-------9b10.5r9--7-------7--9b10.5--9b10.5-b10.5r9-|
D |--7h9-----7h9------7h9-----------------------7h9----------------------------|
A |----------------------------------------------------------------------------|
E |----------------------------------------------------------------------------|
      G        D/F# * Em    A               D              F#5             G
E |----------------------------------------------------------------------------|
B |----7-8-7-----10--8--7------------------------7h8--7--10--8--7-----10--8----|
G |-9---------7------------9-------7--9b10.5--7--------------------7---------7-|
D |---------------------------7h9----------------------------------------------|
A |----------------------------------------------------------------------------|
E |----------------------------------------------------------------------------|
            *
        D/F# Em     A      D                 F#5               G         D/F#
E |----------------------------------------------------------------------------|
B |-10--8------10--8--7--------------------------------------------------------|
G |--------7-------------9----------------7-----------------7----------------7-|
D |--------------------------------7h8h9-------------7h8h9-------------7h8h9---|
A |--------------------------7h8h9-------------7h8h9-------------7h8h9---------|
E |----------------------------------------------------------------------------|
   *  Em                  A    D                 F#5             G            D/F#
E |-----------------------------------------------------------------------|
B |-----------------------------------------------------------------------|
G |-9--9b10.5r9--7--7-----------------7-----------------7--9b10.5r9--7--7-|
D |----------------------------7h8h9-------------7h8h9--------------------|
A |----------------------7h8h9-------------7h8h9--------------------------|
E |-----------------------------------------------------------------------|
   *  Em                          A
E |--------------7--------7--------7----------|
B |-------------------------------------------|
G |-7--9--9b10.5---9b10.5---9b10.5---9b10.5r9-|
D |-------------------------------------------|
A |-------------------------------------------|
E |-------------------------------------------|
   G              D/F#          * Em           A
E |------------------------------------------------|
B |-7-------7-------7-------7-------7--------------|
G |-9b10.5--9b10.5--9b10.5--9b10.5--9b10.5r9--7--7-|
D |------------------------------------------------|
A |------------------------------------------------|
E |------------------------------------------------|
   G              D/F#          * Em           A
E |------------------------------------------------|
B |-7-------7-------7-------7-------7--------------|
G |-9b10.5--9b10.5--9b10.5--9b10.5--9b10.5r9--7--7-|
D |------------------------------------------------|
A |------------------------------------------------|
E |------------------------------------------------|
   G              D/F#          * Em           A
E |------------------------------------------------|
B |-7-------7-------7-------7-------7--------------|
G |-9b10.5--9b10.5--9b10.5--9b10.5--9b10.5r9--7--7-|
D |------------------------------------------------|
A |------------------------------------------------|
E |------------------------------------------------|
   G              D/F#          * Em           A
E |------------------------------------------------|
B |-7-------7-------7-------7-------7--------------|
G |-9b10.5--9b10.5--9b10.5--9b10.5--9b10.5r9--7--7-|
D |------------------------------------------------|
A |------------------------------------------------|
E |------------------------------------------------|
  N.C.
E |-------------------------------------------------------------------------|
B |-------7---10--------7---10--------7----10--8--7--8--7-----------7---10--|
G |---7h9-----------7h9-----------7h9---7------------------7----7h9------7--|
D |-------------------------------------------------------------------------|
A |-------------------------------------------------------------------------|
E |-------------------------------------------------------------------------|

E |----------------------------------------------------------------------------|
B |-----7---10--------7---10--10--8--7--8--10--8--7--8--7--7--7--7--7--7--7--7-|
G |-7h9------7----7h9------7---7--7--7--7---7--7--7--7--9--7--7--9--7--7--9--7-|
D |----------------------------------------------------------------------------|
A |----------------------------------------------------------------------------|
E |----------------------------------------------------------------------------|

----------------- Acordes -----------------
A = X 0 2 2 2 0
D = X X 0 2 3 2
D/F# = 2 X 0 2 3 2
Em = 0 2 2 0 0 0
Em7 = 0 2 2 0 3 0
F#5 = 2 4 4 X X X
G = 3 2 0 0 0 3
