Wesley Safadão - Como Num Filme Triste, Chorei

Intro:
E|-----------------------------------------------------------------
B|-------12/14-14-14-12-14-14--------12/14-14-14-12-14-12----------
G|-9-9-9------------------------9-9-9-----------------------9-9-9--
D|-----------------------------------------------------------------
A|-----------------------------------------------------------------
E|-----------------------------------------------------------------

E|-----------------------------------------------------------------
B|-------------------------12--12--12-12/14------------------------
G|-11/13-13-13-11-13-11--13--13--13--------------------------------
D|-----------------------------------------------------------------
A|-----------------------------------------------------------------
E|-----------------------------------------------------------------

Bm                         G
Me liga e diz que ainda me ama,
       D                A
Não aguento mais tanta solidão,
Bm                      G
Quando se foi, levou a minha paz

             D                 A
Por que não volta atrás, meu amor.  (2x)

 Bm                        G
Como num filme triste, chorei,
                              D
Lendo as cartas que deu para mim,
                       A
Como num jogo tudo acabou,
                   Bm
Mas fui eu que perdi.  (2x)

----------------- Acordes -----------------
A = X 0 2 2 2 0
Bm = X 2 4 4 3 2
D = X X 0 2 3 2
G = 3 2 0 0 0 3
