Wesley Safadão - Decreto Liberado

Intro: G#m F#

E|------11-11------11-----------11-11--------11--|
B|-9-9--------9-9-----7-8-9---9---------9-9------|
G|-----------------------------------------------|
D|-----------------------------------------------|
A|-----------------------------------------------|
E|-----------------------------------------------|

E|--------9-9-----9-----------9-9--------9-------|
B|---7--7-----7-7---5-6-7---7-------7-7----------|
G|-----------------------------------------------|
D|-----------------------------------------------|
A|-----------------------------------------------|
E|-----------------------------------------------|

G#m
Decreto liberado pra ela
Que foi abandonada
F#
Coitado do cara

Coitado do cara
          G#m
Que largou
Agora aguenta ela
E as amigas dela
F#
Coitado do cara
Coitado do cara
          G#m
Que largou
Eu já tô vendo
Ela bebendo
Ela descendo
Ela fazendo
O que nunca fez
F#
Nem tá lembrando que já teve ex
Tá nem ligando já passou a vez
 C#m                      D#
Reza pra não se arrepender
     G#m
Soltou
     E             B
Quem não devia soltar
      F#              G#m
O problema é se ela gostar
     E                 B
Ninguém vai conseguir frear
                       G#m
Quando ela começa a arrochar
                    D#
Na batida do paredão
Bebeu desceu
           G#m
Bumbum no chão
               D#
Na batida do paredão
Bebeu desceu
           G#m
Bumbum no chão
                D#
Na batida do paredão
Bebeu desceu
           G#m
Bumbum no chão

Intro: G#m F#

E|------11-11------11-----------11-11--------11--|
B|-9-9--------9-9-----7-8-9---9---------9-9------|
G|-----------------------------------------------|
D|-----------------------------------------------|
A|-----------------------------------------------|
E|-----------------------------------------------|

E|--------9-9-----9-----------9-9--------9-------|
B|---7--7-----7-7---5-6-7---7-------7-7----------|
G|-----------------------------------------------|
D|-----------------------------------------------|
A|-----------------------------------------------|
E|-----------------------------------------------|

G#m
Decreto liberado pra ela
Que foi abandonada
F#
Coitado do cara
Coitado do cara
          G#m
Que largou
Agora aguenta ela
E as amigas dela
F#
Coitado do cara
Coitado do cara
          G#m
Que largou
Eu já tô vendo
Ela bebendo
Ela descendo
Ela fazendo
O que nunca fez
F#
Nem tá lembrando que já teve ex
Tá nem ligando já passou a vez
 C#m                      D#
Reza pra não se arrepender
     G#m
Soltou
     E             B
Quem não devia soltar
      F#              G#m
O problema é se ela gostar
     E                 B
Ninguém vai conseguir frear
                       G#m
Quando ela começa a arrochar
                    D#
Na batida do paredão
Bebeu desceu
           G#m
Bumbum no chão
               D#
Na batida do paredão
Bebeu desceu
           G#m
Bumbum no chão
                D#
Na batida do paredão
Bebeu desceu
           G#m
Bumbum no chão

Final: G#m F#

E|------11-11------11-----------11-11--------11--|
B|-9-9--------9-9-----7-8-9---9---------9-9------|
G|-----------------------------------------------|
D|-----------------------------------------------|
A|-----------------------------------------------|
E|-----------------------------------------------|

E|--------9-9-----9-----------9-9--------9-------|
B|---7--7-----7-7---5-6-7---7-------7-7----------|
G|-----------------------------------------------|
D|-----------------------------------------------|
A|-----------------------------------------------|
E|-----------------------------------------------|

----------------- Acordes -----------------
B = X 2 4 4 4 2
C#m = X 4 6 6 5 4
D# = X 6 5 3 4 3
E = 0 2 2 1 0 0
F# = 2 4 4 3 2 2
G#m = 4 6 6 4 4 4
