Wesley Safadão - Me Libera, Nega!

Bm      G           D
O que pensa que eu sou?
        A            Bm
Se não sou o que pensou
Bm
Me libera
G
Não insista
D       A
Vai viver um outro amor...

(solo)(Bm D A)2x

Bm                                  D
Me lembro quando me deixou sozinha Amor
                  Bm
O que fiz pra merecer?
                                  D
Pensa que eu sou sua menina Não sou
                   Bm
Um brinquedo pra você... (2X)

Bm        G
Eu quero te possuir
D           A
Quero você toda pra mim... (2X)
Bm      G           D
O que pensa que eu sou?
        A            Bm
Se não sou o que pensou
          G
Me libera
            D
Não insista
       A            Bm
Vai viver um outro amor... (2X)

(solo) (Bm D A )2x

----------------- Acordes -----------------
A = X 0 2 2 2 0
Bm = X 2 4 4 3 2
D = X X 0 2 3 2
G = 3 2 0 0 0 3
