Arlindo Cruz - Samba da Globalização 2010

       E               A
  Uma Grande Família assim
             B7
Vira Zorra Total
                 E
quando rola um auê
                       A
Sai até no Jornal Nacional

               B7
Vale a ver de Novo
           E
no Globo Rural
                      A
É Casseta de outro Planeta
               B7
Com Estrelas dando

           E
Bom Dia Brasil
                       A
É Fantástico ver o Faustão

           B7
O Jô e o Didi
                E
juntos num Caldeirão
       A              B7
Da Tv Xuxa até Altas Horas

          E    E7
Eu pude notar

(pausa)

A                  B7
Novidades e o Globo Esporte
          E  E7
é Espetacular
A          B7
Globo é noticia
         E
é jornal da Globo
              E7
Profissao de reporter é chegar na frente
  A                 B7
O filme depois da Novela
               E
Deixa a Tela Quente
            A
Mas quem te viu
              B7
quem te vê Globinho
           E      E7
Como você cresceu!

     A          B7
Assisti hoje no Vídeo
                E  E7
o show que você deu
        A             B7
Globo Repórter é BBBeleza
                 E
E pra ser Mais Você
             E7
é muita Malhação

Refrão 2x:
2010
              A
é com as bolas nos pés
            B7     E
e o controle nas maos

(vai ter eleição)
                A         B7
Nessa copa vai dar Brasil
            E
Salve a seleção
                   A
O povo escolheu a Globo
          B7         E
Isso é Globalização

E     E
Plim  Plim

----------------- Acordes -----------------
A = X 0 2 2 2 0
B7 = X 2 1 2 0 2
E = 0 2 2 1 0 0
E7 = 0 2 2 1 3 0
