Raimundos - Baile Funky

Como várias músicas dos Raimundos a afimação da 6º corda é em Ré (D)

INTRO:
|---------------------------------------------------------------------|
|---------------------------------------------------------------------|
|---------------------------------------------------------------------|
|---------------------------------------------------------------------|
|-0-0-13-0-12--10-7-12-10-7-3-5--5-5-7-0-0-13-0-12--10-7-12-10-7-3-5--|
|-0-0-13-0-12--10-7-12-10-7-3-5--5-5-7-0-0-13-0-12--10-7-12-10-7-3-5--|

Riff 1
|-----------------------------------|
|-----------------------------------|
|-----------------------------------|   x7
|-----------------------------------|
|-0-0-0---0-0-0---0-0-0---3-0-5p2---|
|-0-0-0---0-0-0---0-0-0---3-0-5p2---|

Riff 1(Continuação)
|-------------------------|
|-------------------------|
|-------------------------|
|-------------------------|
|-0-0-0---0-0-0---0-0-0---|
|-0-0-0---0-0-0---0-0-0---|


Riff 2

|----------------|
|----------------|
|----------------|
|----------------|
|7/8-7---5/7-5---|
|------7---------|

Riff 3
|--------------|
|--------------|
|--------------|    x8
|--------------|
|-0-0-3-5-7-5--|
|-0-0-3-5-7-5--|

(F# G G )
Essa mulher tá me olhando
E me dizendo que me quer no meio
Funk baile funky

Riff 3:  x4

(F# G G)
Moça bonita do jeito que a nêga grita
É na lapada
Nós vamos tirando o sangue

Riff 3:  x4

Riff 3
Sul, essa mulher tá me dizendo
Que a vontade dá no sul
A bússola tá me dizendo que ela tá no sul

Riff 3:  x4

(F#G G G)
Você com a arma do lado
Tome cuidado na briga que esse rei na barriga
Tá ficando velho

Riff 3:  x4

(F#G G G)
Alto lá nego doido
Tá com medo pra que veio
Tá com perna bamba de quem vai morrer

Riff 3:  x4

Riff 1
Eu tô cansado da TV e do bombardeio da moda
Manda comprar tudo que eu ver
Tudo que ela tem pra vender
Eu tô cansado eu sou um calo nos dedo
Da mão na roda
Que não para de crescer
A lei não sabe a diferença o que é ser e ficar louco
O remédio é tão forte que mata cada dia um pouco
Se todo excesso fosse visto como fraqueza
E não como insulto
Já me tirava do sufoco

A porta tá sempre aberta pro povo

|------------------------------------------------------------------------------------------------------------------------------------|
|------------------------------------------------------------------------------------------------------------------------------------|
|-------9/10-101010---7-4--7/9--7--4-----------11/12--121212--9-4-7/9-999--------9/10--101010--7-4-7/9--7----------------------------|
|-------9/10-101010---7-4--7/9--7--4-----------11/12--121212--9-4-7/9-999--------9/10--101010--7-4-7/9--7--9-------------------------|
|--0-0--7/8---8-8-8---5-2--5/7--5--2--3---0-0---9/10--101010--7-2-5/7-777-3--0-0-7/8----8-8-8--5-2-5/7--5--9--3----------------------|
|--0-0--------------------------------3---0-0-----------------------------3--0-0---------------------------9--3----------------------|

Casca do cerrado chegaram os mortos de fome
Sujeira de outra parte que vem pra sujar seu nome
Eu te falei que o ladrão que rouba mesmo
É bem vestido e eu vi de monte

|--------------------|
|--------------------|
|--------------------|
|--------------------|
|-0-0--3-3--7-7--8-8-|
|-0-0--3-3--7-7--8-8-|

|------------------------------------------------------------------------------------------------------------------------------------|
|------------------------------------------------------------------------------------------------------------------------------------|
|-------9/10-101010---7-4--7/9--7--4-----------11/12--121212--9-4-7/9-999--------9/10--101010--7-4-7/9--7----------------------------|
|-------9/10-101010---7-4--7/9--7--4-----------11/12--121212--9-4-7/9-999--------9/10--101010--7-4-7/9--7--9-------------------------|
|--0-0--7/8---8-8-8---5-2--5/7--5--2--3---0-0---9/10--101010--7-2-5/7-777-3--0-0-7/8----8-8-8--5-2-5/7--5--9--3----------------------|
|--0-0--------------------------------3---0-0-----------------------------3--0-0---------------------------9--3----------------------|

Essa zoada no telhado é o vento que a vida leva
É o pensamento antiquado, te apaga queimando a erva
Enraizado fica o dono do pé que finca na terra
E faz a ponte

|--------------------|
|--------------------|
|--------------------|
|--------------------|
|-0-0--3-3--7-7--8-8-|
|-0-0--3-3--7-7--8-8-|

Povo de Zé ofensa

|----------------------------------------|
|----------------------------------------|
|----------------------------------------|
|----------------------------------------|
|-7-3-5-0-0---0-0-0---7-3-5-0-0---0-0-0--|
|-7-3-5-0-0---0-0-0---7-3-5-0-0---0-0-0--|

Riff 2:  x4

(F>G G G)
É na igreja que o povo esvazia as bolsa
Tem quatro santos, três queimando o kunk

Riff 2:  x4

Riff 1
Decidindo o destino dos outros como se fosse Deus
Atrás da mesa o açougueiro comanda
E a intolerância me manda de novo pro banco dos réus
Armando com propaganda.
Naquela teia de aranha tem cobra, cachorro e rato
E o remédio pra matar é verde e feito de mato
Chegou a hora de mudar, de por sangue novo
E deixar essa porta sempre aberta pro povo

|------------------------------------------------------------------------------------------------------------------------------------|
|------------------------------------------------------------------------------------------------------------------------------------|
|-------9/10-101010---7-4--7/9--7--4-----------11/12--121212--9-4-7/9-999--------9/10--101010--7-4-7/9--7----------------------------|
|-------9/10-101010---7-4--7/9--7--4-----------11/12--121212--9-4-7/9-999--------9/10--101010--7-4-7/9--7--9-------------------------|
|--0-0--7/8---8-8-8---5-2--5/7--5--2--3---0-0---9/10--101010--7-2-5/7-777-3--0-0-7/8----8-8-8--5-2-5/7--5--9--3----------------------|
|--0-0--------------------------------3---0-0-----------------------------3--0-0---------------------------9--3----------------------|

Casca do cerrado chegaram os mortos de fome
Sujeira de outra parte que vem pra sujar seu nome
Eu te falei que o ladrão que rouba mesmo
É bem vestido e eu vi de monte

|--------------------|
|--------------------|
|--------------------|
|--------------------|
|-0-0--3-3--7-7--8-8-|
|-0-0--3-3--7-7--8-8-|

|------------------------------------------------------------------------------------------------------------------------------------|
|------------------------------------------------------------------------------------------------------------------------------------|
|-------9/10-101010---7-4--7/9--7--4-----------11/12--121212--9-4-7/9-999--------9/10--101010--7-4-7/9--7----------------------------|
|-------9/10-101010---7-4--7/9--7--4-----------11/12--121212--9-4-7/9-999--------9/10--101010--7-4-7/9--7--9-------------------------|
|--0-0--7/8---8-8-8---5-2--5/7--5--2--3---0-0---9/10--101010--7-2-5/7-777-3--0-0-7/8----8-8-8--5-2-5/7--5--9--3----------------------|
|--0-0--------------------------------3---0-0-----------------------------3--0-0---------------------------9--3----------------------|

Essa zoada no telhado é o vento que a vida leva
É o pensamento antiquado, te apaga queimando a erva
Enraizado fica o dono do pé que finca na terra
E faz a ponte

|--------------------|
|--------------------|
|--------------------|
|--------------------|
|-0-0--3-3--7-7--8-8-|
|-0-0--3-3--7-7--8-8-|

|------------------------------------------------------------------------------------------------------------------------------------|
|------------------------------------------------------------------------------------------------------------------------------------|
|-------9/10-101010---7-4--7/9--7--4-----------11/12--121212--9-4-7/9-999--------9/10--101010--7-4-7/9--7----------------------------|
|-------9/10-101010---7-4--7/9--7--4-----------11/12--121212--9-4-7/9-999--------9/10--101010--7-4-7/9--7--9-------------------------|
|--0-0--7/8---8-8-8---5-2--5/7--5--2--3---0-0---9/10--101010--7-2-5/7-777-3--0-0-7/8----8-8-8--5-2-5/7--5--9--3----------------------|
|--0-0--------------------------------3---0-0-----------------------------3--0-0---------------------------9--3----------------------|

A justiça não me olha porque é cega
Mas o seu dinheiro na carteira ela enxerga
A lei do cão não é nada mais que a própria lei do homem

|--------------------|
|--------------------|
|--------------------|
|--------------------|
|-0-0--3-3--7-7--8-8-|
|-0-0--3-3--7-7--8-8-|

|------------------------------------------------------------------------------------------------------------------------------------|
|------------------------------------------------------------------------------------------------------------------------------------|
|-------9/10-101010---7-4--7/9--7--4-----------11/12--121212--9-4-7/9-999--------9/10--101010--7-4-7/9--7----------------------------|
|-------9/10-101010---7-4--7/9--7--4-----------11/12--121212--9-4-7/9-999--------9/10--101010--7-4-7/9--7--9-------------------------|
|--0-0--7/8---8-8-8---5-2--5/7--5--2--3---0-0---9/10--101010--7-2-5/7-777-3--0-0-7/8----8-8-8--5-2-5/7--5--9--3----------------------|
|--0-0--------------------------------3---0-0-----------------------------3--0-0---------------------------9--3----------------------|

E quanto mais eu olhava aumentava a crença
De que o guarda do seu lado não é nada que você pensa
Pro povo do cerrado
Do alto do Colorado
Tem outro nome

|--------------------|
|--------------------|
|--------------------|
|--------------------|
|-0-0--3-3--7-7--8-8-|
|-0-0--3-3--7-7--8-8-|

Povo de Zé ofensa

|----------------------------------------|
|----------------------------------------|
|----------------------------------------|
|----------------------------------------|
|-7-3-5-0-0---0-0-0---7-3-5-0-0---0-0-0--|
|-7-3-5-0-0---0-0-0---7-3-5-0-0---0-0-0--|

Por: Pablo Farias Muniain
     Yan de Azevedo Monteiro

----------------- Acordes -----------------
F# = 2 4 4 3 2 2
G = 3 2 0 0 0 3
