Raimundos - Carro Forte


Obs.: Os acordes entre parênteses são repetidos várias vezes(alternando)
      7(9) => bend da 7a. à 9a. casa
------------------------------------------------------------------------

Intro: E5*     A5 D5 A5 B5(4X)
               F#5 D5(2X) (D#5 E5)
               (G#5 A5) E5 D5 (G#5 A5) F#5 G5 A5(2X)

     A5                    A5
Da mulher eu faço o carro forte
                       A5
Dos peitos eu faço o farol
                            F#5 G5 G#5 A5
e dos pentelhos a instalação
         A5                   A5
Do mijo dela eu fabrico a gasolina
               A5
do cu faço a buzina
                         F#5 G5 G#5 A5
e do pinguelo o freio de mão

       A5                A5
Do meu pau eu faço a manivela
                   E5
que toca na buceta dela
                     A5
e tiro o carro do sertão
                            D5
Oh Oh - tiro o carro do sertão
     E5                     A5
Oh Oh - tiro o carro do sertão
                            D5
Oh Oh - tiro o carro do sertão
     E5
Oh Oh - tiro o carro do sertão


Solo (guitarra base toca Intro)
e|-3-5-5-5--8-5-8-5-8-5--------------------------------------------
B|-3-5-5-5---------------------------------------------------------
G|---------------------7-5-7(9)-7(9)-7(9)-----------4-4-7-7-6-6-4--
D|---------------------------------------4-4-6-6-7-7---------------
A|-----------------------------------------------------------------
E|-----------------------------------------------------------------


e|--------------7-7-10-10-9-9-7-----------------------------------
B|-7-7-9-9-10-10--------------------------------------------------
G|------------------------------8-9-9-9---------------------------
D|----------------------------------------5-7-8-7-5---------------
A|-------------------------------------------------5-7------------
E|----------------------------------------------------------------
                               |3 vezes| |---3 vezes--|

Repita o verso de novo e depois: A5 D5 A5 B5 F#5 D5 (D#5 E5)
                                 (G#5 A5) E5 D5 (G#5 A5) F#5 G5 A5(2X)


Acordes:
  E5* E5  A5  D5  B5  F#5 D#5 G#5 G5
e|---|---|---|---|---|---|---|---|---|
B|---|---|---|---|---|---|---|---|---|
G|---|-9-|---|-7-|---|---|-8-|---|---|
D|-2-|-9-|-7-|-7-|-9-|-4-|-8-|-6-|-5-|
A|-2-|-7-|-7-|-5-|-9-|-4-|-6-|-6-|-5-|
E|-0-|---|-5-|---|-7-|-2-|---|-4-|-3-|


Tab: Arthur Bueno

----------------- Acordes -----------------
