Raimundos - Crocodilo Meio Kilo

Obs.: Essa é uma ótima música, afine a corda E em um tom abaixo (D) como na tab.

      Qualquer comentário, sugestões, elogios, críticas, desilusões amorosas,


*: (PM) Palmed Muted

______________________________________________________________________________________
                             Intro                Versos
   Riff 1                        Riff 2                          2x         5x     2x
E-|-----------------------------|---------------||---------|-------|--|------|--------|
B-|-----------------------------|---------------||---------|-------|--|------|--------|
G-|-----------------------------|---------------||---------|-------|--|------|--------|
D-|-----------------------------|---------------||---------|-------|--|------|--------|
A-|-4-77--4-77--0-4-0-4-5-4-2-0-|-2-222-2-4-5-4-||-4-77777-|-00000-|04|-4-77-|-0-4-0-4|
D-|-4-77--4-77--0-4-0-4-5-4-2-0-|-2-222-2-4-5-4-||-4-77777-|-00000-|04|-4-77-|-0-4-0-4|

             Refrão

E-|--------||-------------------------------------------------|-----------------------|

B-|--------||-------------------------------------------------|-----------------------|
G-|-Riff 2-||--------12-14-14-14-14---------------------------|--------12-14-14-14-14-|
D-|--------||--------12-14-14-14-14---------------------------|--------12-14-14-14-14-|
A-|--------||-77777--10-12-12-12-12--14-12-1010101010---55555-|-77777--10-12-12-12-12-|
D-|--------||-77777------------------14-12-1010101010---55555-|-77777-----------------|

                      Muitas             Refrão 2
                      Vezes
E-|------------------|-------||--------||---------------------------------------------|
B-|------------------|-------||-Repete-||---------------------------------------------|
G-|------------------|-------||--------||--------12-14-14-14-14-----------------------|
D-|------------------|-------||-Intro--||--------12-14-14-14-14-----------------------|
A-|-14-12-1010101010-|-11-12-||--------||-77777--10-12-12-12-12-14-14-1010101010-55555|
D-|-14-12-1010101010-|-11-12-||-Versos-||-77777-----------------12-12-1010101010-55555|

                                                      Pós-Refrão
                                                       Varias vezes
E-|-------------------------------------------------||-------|-------|---------------||
B-|-------------------------------------------------||-------|-------|---------------||
G-|--------12-14-14-14------------------------------||-------|-------|---------------||
D-|--------12-14-14-14------------------------------||-------|-------|---------------||
A-|-77777--10-12-12-12-14-14--1010101010-1212121212-||-11-12-|-12-14-|-12-10-9-10----||
D-|-77777--------------12-12--1010101010-1212121212-||-11-12-|-12-14-|-12-10-9-10----||


   Fim
E-|----||
B-|----||
G-|----||
D-|----||
A-|-7--||
D-|-7--||

----------------- Acordes -----------------
