Raimundos - Fique! Fique!

Tab by Pero (Esckor)

A música tem as guitarras e o baixo afinado em Ré (A mizaum ao inves de mi (E) eh afinada em ré (D))

Intro:

|-------------------------|
|-------------------------|
|-------------------------|
|-------------------------|      (2x)
|-------------------------|
|--0--2--0--2--0--2--0--3-|

Riff1a:
(Gtr 1)

|-------------------------|
|-------------------------|
|-------------------------|
|--0--2--0--2--0--2--0--3-|     (8x)      
|--0--2--0--2--0--2--0--3-|
|--0--2--0--2--0--2--0--3-|


Riff 1b:
(Gtr 2...ele entra na sexta vez q o Riff1a Tocar)

|-------------------------------|
|-------------------------------|
|--7--9--7--9--7--9--7--10------|
|--x--x--x--x--x--x--x--x-------|    (2x)
|--5--7--5--7--5--7--5--8-------|
|-------------------------------|

Riff2:

|------------------------------------|
|------------------------------------|
|------------------------------------|
|------------------------------------|     (2x)
|------------------------------------|
|--0--3--2--5--0--3--2--6-6-6-6------|

Riff3:

|----------------------|
|----------------------|
|----------------------|
|--0/2--0/2--0/2--0/3--|  (8x)
|--0/2--0/2--0/2--0/3--|
|--0/2--0/2--0/2--0/3--|

"Faça o q quiser...."

Riff4

|-------------------|
|-------------------|
|-------------------|
|-------------------|
|-------------------|
|--0--3--2--6-6-6-6-|

Riff3:

|----------------------|
|----------------------|
|----------------------|
|--0/2--0/2--0/2--0/3--|  (4x)
|--0/2--0/2--0/2--0/3--|
|--0/2--0/2--0/2--0/3--|


|-------------------|
|-------------------|
|-------------------|
|-------------------|
|-------------------|
|--0--3--2--6-6-6-6-|

Refrão:

|------------------------|
|------------------------|
|------------------------|
|--0--10-10--12--10--12--|
|--0--10-10--12--10--12--|
|--0--10-10--12--10--12--| 

Tu Ta c/ Medo....

|-------------------------|
|-------------------------|
|-------------------------|
|--0--3-3--5/6--5-6-5-6-3-|
|--0--3-3--5/6--5-6-5-6-3-|
|--0--3-3--5/6--5-6-5-6-3-| 

Do Pesadelo..

|------------------------|
|------------------------|
|------------------------|
|--0--10-10--12--10--12--|
|--0--10-10--12--10--12--|
|--0--10-10--12--10--12--|

Pro seu Governo...

|--------------|
|--------------|
|--------------|
|--3--3--3--3--|
|--3--3--3--3--|
|--3--3--3--3--|

Não Pisa no Meu Calo que eh pra naum rolar stress!!

Riff3:

|----------------------|
|----------------------|
|----------------------|
|--0/2--0/2--0/2--0/3--|  (8x)
|--0/2--0/2--0/2--0/3--|
|--0/2--0/2--0/2--0/3--|

"Falo Falo Falo pra caralho..."

Riff4

|-------------------|
|-------------------|
|-------------------|
|-------------------|
|-------------------|
|--0--3--2--6-6-6-6-|

Refrão:

|------------------------|
|------------------------|
|------------------------|
|--0--10-10--12--10--12--|
|--0--10-10--12--10--12--|
|--0--10-10--12--10--12--| 

Tu Ta c/ Medo....

|-------------------------|
|-------------------------|
|-------------------------|
|--0--3-3--5/6--5-6-5-6-3-|
|--0--3-3--5/6--5-6-5-6-3-|
|--0--3-3--5/6--5-6-5-6-3-| 

Do Pesadelo..

|------------------------|
|------------------------|
|------------------------|
|--0--10-10--12--10--12--|
|--0--10-10--12--10--12--|
|--0--10-10--12--10--12--|

Pro seu Governo...

|--------------|
|--------------|
|--------------|
|--3--3--3--3--|
|--3--3--3--3--|
|--3--3--3--3--|

Não Pisa no Meu Caloooooooo!!!

Intro Solo:

(Marquim)
|-------------------------------------------------------|
|-------------------------------------------------------|
|-------------------------------------------------------|
|-------------------------------------------------------|   (4x)
|-------------------------------------------------------|
|--[5]-[5]-[5]-[5]-[4]-[4]-[4]-[4]--3-3-3-3-2-0---------|

[ ]- harmônico

(Digão)
|-------------------------------------------------------|
|-------------------------------------------------------|
|-------------------------------------------------------|
|-------------------------------------------------------|
|-------------------------------------------------------|
|--[4]-[4]-[4]-[4]-[3]-[3]-[3]-[3]--3-3-3-3-2-0---------|

[ ]- harmônico

Solo:
(Ta meio errado mas dá pra enganar...heheheh)

|-----------------------------------------------------------------------------------------------------------------------------------------------------------------|
|--/13--/13--/13-11-13-16-13-11-13-16-13-11-13-16-13-11-13-16-13-11-11-11-/13-11/12-9/11-9------------------------------------------------------------------------|
|--/15--/15--/15----------------------------------------------------------------------------------------------------12-11-9-11-9----9-11--------------------------|
|--------------------------------------------------------------------------------------------------------------------------------------11------11-9---------------|
|-----------------------------------------------------------------------------------------------------------------------------------------------------11-10-9-----|
|-----------------------------------------------------------------------------------------------------------------------------------------------------------------|

|----------------------------------------------------------------------------9-/12-------9/12-9-7/9------|
|--------------------------------------------------------------------11-12-------------------------------|
|----------------------------------------------------------9-11-12---------------------------------------|
|------------------------------------------9-11-9---9-11-------------------------------------------------|
|-----11-10-9-7-7-9-7----------9-11--------11------------------------------------------------------------|
|--11------------9--------9-7-9-11-----------------------------------------------------------------------|

|--16-17-20-16-17-20-16-17-20-16-17-20-16-17-20-16-17-20-16-17-20-16-17-20/~22---------------------------|
|--------------------------------------------------------------------------------------------------------|
|--------------------------------------------------------------------------------------------------------|
|--------------------------------------------------------------------------------------------------------|
|--------------------------------------------------------------------------------------------------------|
|--------------------------------------------------------------------------------------------------------|


Base do solo:

|----------------------|-----------------------|
|----------------------|-----------------------|
|----------------------|-----------------------|
|-0-0-3--(3)-3-3-3-3-2-|-0-0-3--(3)-3-3-3-3-2--|
|-0-0-3--(3)-3-3-3-3-2-|-0-0-3--(3)-3-3-3-3-2--|
|-0-0-3--(3)-3-3-3-3-2-|-0-0-3--(3)-3-3-3-3-2--|

Depois:

|------------------------|
|------------------------|
|------------------------|
|--0--10-10--12--10--12--|
|--0--10-10--12--10--12--|
|--0--10-10--12--10--12--|

|-------------------------|
|-------------------------|
|-------------------------|
|--0--3-3--5/6--5-6-5-6-3-|
|--0--3-3--5/6--5-6-5-6-3-|
|--0--3-3--5/6--5-6-5-6-3-| 


|------------------------|
|------------------------|
|------------------------|
|--0--10-10--12--10--12--|
|--0--10-10--12--10--12--|
|--0--10-10--12--10--12--|

|--------------|
|--------------|
|--------------|
|--3--3--3--3--|
|--3--3--3--3--|
|--3--3--3--3--|

Não Pisa no Meu Calo que eh pra naum rolar stress!!


Refrão:

|------------------------|
|------------------------|
|------------------------|
|--0--10-10--12--10--12--|
|--0--10-10--12--10--12--|
|--0--10-10--12--10--12--| 

Tu Ta c/ Medo....

|-------------------------|
|-------------------------|
|-------------------------|
|--0--3-3--5/6--5-6-5-6-3-|
|--0--3-3--5/6--5-6-5-6-3-|
|--0--3-3--5/6--5-6-5-6-3-| 

Do Pesadelo..

|------------------------|
|------------------------|
|------------------------|
|--0--10-10--12--10--12--|
|--0--10-10--12--10--12--|
|--0--10-10--12--10--12--|

Pro seu Governo...

|--------------|
|--------------|
|--------------|
|--3--3--3--3--|
|--3--3--3--3--|
|--3--3--3--3--|

Não Pisa no Meu Calo que eh pra naum rolar stress!!

|------------------------|
|------------------------|
|------------------------|
|--0--10-10--12--10--12--|
|--0--10-10--12--10--12--|
|--0--10-10--12--10--12--| 

Tu Ta c/ Medo....

|-------------------------|
|-------------------------|
|-------------------------|
|--0--3-3--5/6--5-6-5-6-3-|
|--0--3-3--5/6--5-6-5-6-3-|
|--0--3-3--5/6--5-6-5-6-3-| 


Do Pesadelo..

|------------------------|
|------------------------|
|------------------------|
|--0--10-10--12--10--12--|
|--0--10-10--12--10--12--|
|--0--10-10--12--10--12--|

Pra seu Governo....

|--------------|
|--------------|
|--------------|
|--3--3--3--3--|  (2x)
|--3--3--3--3--|
|--3--3--3--3--|

Não Pisa no Meu Caloooooooooooooooo!!!!

|---|
|---|
|---|
|-0-|  último toque!
|-0-|
|-0-|

__________________________________________________________


Letra
-===-

(Letra: Telo e Digão / Música: Marquinho, Canisso e Digão)

Fique, fique, fique
Dando mole aí fique!

Faça o que quiser
Vá pra frente ou vá de ré
Vá para a esquerda ou pra direita
Só não pisa no meu pé
Escuta o que eu te falo
Larga de ser otário
Não pisa no meu calo
Que é para não rolar stress

Tremendo d'um bagulho e ainda se acha sexy
Gastou com as vagabundas um talão de cheques
Cebolão do Paraguai e disse que é rolex
Só deu uma topadinha e já tomou um dor flex

Vai haver separação, um dia, o joio do trigo
Tu fala tanta bosta que dar dor de ouvido
Pensar que o mundo gira ao redor do teu umbigo
Tanta gente pra perturbar, e tu vem folga logo comigo!

(Refrão)
Tu tá com medo
Do pesadelo!
Pro seu governo
Não pisa no meu calo que é pra não rolar stress (2x)

Falo, falo, falo pra caralho e não me calo
Que os valete é isso mesmo, é carta fora do baralho
Tremenda d'uma galinha quer cantar de galo
Minha palavra é minha arma e é com ela que eu disparo

Homi qui é homi honra os compromisso
É pau pra toda obra, canivete suíço
Traíra toma caldo e rala o rabo no ouriço
Se tu qué me peitar eu vou chamar o Canisso

----------------- Acordes -----------------
