Raimundos - Mas Vó

[Intro]  G  D  D#  G  D  D#  C

[Riff 1]

E|-------------------------------------------|
B|---------3---------------------------------|
G|-------3-----------3---3-------------------|
D|-----5---------5-----5---------------------|
A|---5---------5---5-------------------------|
E|-3---------3-------------------------------|

[Riff 2]

E|----------------------------------------------------------------------------------------------------------------|
B|----------------------------------------------------------------------------------------------------------------|
G|----------------------------------------------------------------------------------------------------------------|
D|-5-5-5-5-5-------------------5-5-5-5-5--------------------5-5-5-5-5-------------------5-5-5-5-5---4/5-5-5-5-5---|
A|-----------5-5-5/6-6-6-0-3-3------------5-5-5/6-6-6-0-3-3-----------5-5-5/6-6-6-5-6-6-----------5-------------5-|
E|----------------------------------------------------------------------------------------------------------------|

[Riff 3]


E|----------------------------------------------------|
B|---------3-------------------------3----------------|
G|-------3-----------3---3---------3------------------|
D|-----5---------5-----5---------5--------------------|
A|---5---------5---5-----------5----------------------|
E|-3---------3---------------3------------------------|

[Riff 1]
Apesar de tanto tempo pra encontrar a paz
Coitado do homem no caminho ele tropeça demais
Olhem e vejam só o que foi que ele fez, coitado do homem no caminho
Tropeçou mais uma vez, esse coitado para encontrar a paz
Tropeça, cai de queixo, já nem olha para tras
Já perdeu as contas que o sistema fez
Se julga o super-homem e tropeçou mais uma vez

[Riff 2]
Apesar de tanto tempo pra chegar à lua
É tanta miséria e fome o pesadelo é que a vida continua
Esse coitado pra encontrar a paz
Coitado do homem no caminho ele tropeça
Apesar de tanto tempo pra chegar à lua
É tanta miséria e fome o pesadelo é que a vida continua
Esse coitado pra encontrar a paz
Coitado do homem no caminho ele tropeça


 G                   D      D#           G
Só que em pingo d'água ninguém nunca deu um nó
 G                       D    D#         G
Surdo é cego dos ouvido já dizia minha avó
 G               D   D#               G
Se algo deu errado, não é tão ruim assim
   D
Se ainda não deu certo
D#         C             G
É por que não chegou no fim

[Riff 3]

[Riff 2]
Mas vó o mundo anda cheio de cabra safado
Tirador de onda, atrasador de lado
Com sede de sangue, fama e poder
Em vez de ajudar ele atrapalha você
Assim que a gente cai
E pede pra ajudar
Ele te estende a mão
Só pra empurrar!
Com sede de sangue, fama e poder
Em vez de ajudar ele atrapalha


 G                      D
Mas muleque fique esperto
 D#            G
Não vá se igualar
G                        D    D#        G
Essa gente tão perversa pode te contaminar
G            D  D#        G
E essa maldade te fazer ruim
  D
Cuidado fique esperto
  D#       C
Que ainda não chegou no fim

[Solo]

E|------------------------------------------------------------------------|
B|------------------------------------------------------------------------|
G|--7H~----5--3--2--3--2--------------------------------------------------|
D|------------------------5b--------5--3----------------------------------|
A|----------------------------------------5--5b-5~------------------------|
E|------------------------------------------------------------------------|


E|------------------------------------------------------------------------|
B|------------------------------------------------------------------------|
G|------------------------------------------------------------------------|
D|------------------------------------------------------------------------|
A|--3--5~----5--3---------------------------------------------------------|
E|----------------6--5~----6--5--1--3~-----3~-----/slide com a palheta!---| 


E|------------------------------------------------------------------------|
B|---------------------------------11~-10~-8-10-11-10-8~-8h10p8-8---------|
G|--5b-3~-------3---5--5b~----5/7-----------------------------------------|
D|----------3-5-----------------------------------------------------------|
A|------------------------------------------------------------------------|
E|------------------------------------------------------------------------|


E|----------------------------------------------------13-15~--------------|
B|-------------------------13-13-13-13-11-13-15~---15---------------------|
G|--10--10--10--10b--10---------------------------------------------------|
D|------------------------------------------------------------------------|
A|------------------------------------------------------------------------|
E|------------------------------------------------------------------------|

E|--15-18-18bFULL-------18------------------------------------------------|
B|----------------18-20----20-18--------------------------------18-20-18~-|
G|--------------------------------19-17-15----15-17-17-15-17-19-----------|
D|-----------------------------------------17-----------------------------|
A|------------------------------------------------------------------------|
E|------------------------------------------------------------------------| 


E|-----------------------------------------------------------18b----------| 
B|-----------------------------------------------------15-18-----20~------| 
G|--------------------------------14----14-15-14-15-17--------------------| 
D|-----------14----14-15-14-15-17----17-----------------------------------| 
A|--17-15-17----17--------------------------------------------------------|
E|------------------------------------------------------------------------|


 G                   D      D#           G
Só que em pingo d'água ninguém nunca deu um nó
 D                  D#   C
Surdo é cego dos ouvido já dizia minha avó
 G               D   D#               G
Se algo deu errado, não é tão ruim assim
   D
Se ainda não deu certo
D#         C             G
É por que não chegou no fim

----------------- Acordes -----------------
C = X 3 2 0 1 0
D = X X 0 2 3 2
D# = X 6 5 3 4 3
G = 3 2 0 0 0 3
