Raimundos - Minha Cunhada


Introdução - G Em C D    2x

Tom - G


                  G
Minha cunhada, prima irmã de tia minha
                                         Em
Já me disse que a vizinha vai morrer do coração
                C
Eu descobri que pimenta malagueta
                D                                 G
Quando entra na buceta vai se enganchar no pulmão
Não
Não é assim que se fode não
                     Em
Não é assim que se fode não
                                    C
Não é assim que se fode não
                                   D
Não é assim que se fode

                    G
Eu vou te dar uma lição
                                        Em
Pense nisso meu amor que o buraco e mais embaixo
                C                       G
Se te dão uma banana, você logo pede um cacho
                                     C
Você deve tá achando a brincadeira engraçada
                  D                              G
É certo que tu tá ficando muito alaceada
                                         C
E quando meu pinto se sentir um pouco frouxo
                D                       G
Vou te botar de quatro e meter bem no seu roxo
Não
Não é assim que se fode não
                     Em
Não é assim que se fode não
                                    C
Não é assim que se fode não
                                   D
Não é assim que se fode
                    G      C   D     G
Eu vou te dar uma lição

----------------- Acordes -----------------
C = X 3 2 0 1 0
D = X X 0 2 3 2
Em = 0 2 2 0 0 0
G = 3 2 0 0 0 3
