Raimundos - Rebelde Sem Causa

Obs: Afinação em Eb (Original) e faça os Acordes em Power-Chords.

Riff
E|-----------1717-------------------------|-----------1212------12-13-12----12-----------
B|------1717------1717-1818---------------|------1313------1313----------15----13-12-13--
G|-1414---------------------1717------1717|-1212-----------------------------------------
D|-------------------------------1515-----|----------------------------------------------
A|----------------------------------------|----------------------------------------------
E|----------------------------------------|----------------------------------------------

Intr:
      A                   F                    C                   E
E|-----------1717-------------------------|-----------1212------12-13-12----12-----------
B|------1717------1717-1818---------------|------1313------1313----------15----13-12-13--
G|-1414---------------------1717------1717|-1212-----------------------------------------
D|-------------------------------1515-----|----------------------------------------------
A|----------------------------------------|----------------------------------------------
E|----------------------------------------|----------------------------------------------

     A                    F                    C                   E  
E|-----------1717-------------------------|-----------1212------12-13-12----12-----------
B|------1717------1717-1818---------------|------1313------1313----------15----15-13-15--
G|-1414---------------------1717------1717|-1212-----------------------------------------
D|-------------------------------1515-----|----------------------------------------------
A|----------------------------------------|----------------------------------------------
E|----------------------------------------|----------------------------------------------


     E                                                              A
E|----------------------------------------------------------------------------
B|-13-12-13-12----12----------------------------------------------------------
G|-------------14----14-13-14-13----13----------------------------------------
D|-------------------------------15----15-14-15-14-12-14-12-10-12-10-9-10-7~~-
A|----------------------------------------------------------------------------
E|----------------------------------------------------------------------------

 A                  F
Meus dois pais me tratam muito bem
       C                       E
(O que é que você tem que não fala com ninguém?)
 A                 F
Meus dois pais me dão muito carinho
    C                        E
(Então porque você se sente sempre tão sozinho?)
 A                      F
Meus dois pais me compreendem totalmente
      C                        E
(Como é que cê se sente , desabafa aqui com a gente!)
 A                      F
Meus dois pais me dão apoio moral
      C                     E
(Não dá pra ser legal , só pode ficar mal !)


  A          F           C             E  | Vocal
MA MA MA MAMA MAMA MA (PAPAPA PA  PA PA PAPA PA)  (2x)


D                   F
  Minha mãe até me deu essa guitarra
C                          G
 Ela acha bom que o filho caia na farra
D                        F
  E o meu carro foi meu pai que me deu
C                     G
 Filho homem tem que ter um carro seu
D                         F
  Fazem questão que eu só ande produzido

C                         G
 Se orgulham de ver o filhinho tão bonito
D                            F
  Me dão dinheiro prá eu gastar com a mulherada
C                     E
 Eu realmente não preciso mais de nada ahahah...


Solo: 2x
     A      F        C     E  
E|-----|-----|--------|------------|
B|-----|-----|--------|------------|
G|-----|-----|--------|------------|
D|-----|-----|--5-----|------------|
A|-----|--7--|-----3--|--2-3-5-----|
E|--5--|-----|--------|------------|

     Base: D                 A     C                 G
Oitavadas: F                 E     C                 B C D
             Meus pais não querem    Que eu fique legal
     Base: D                 A     C                         E
Oitavadas: F                 E     G                         G#  B (+ Agudo)
             Meus pais não querem    Que eu seja um cara normal

Refrão:

  A               F
Não vai dar , assim não vai dar
      C                                  E
Como é que eu vou crescer sem ter com quem me revoltar
  A               F
Não vai dar , assim não vai dar
       C                         E
Pra eu amadurecer sem ter com quem me rebelar


Refrão  +  Vocal: 2x


Refrão  +  Vocal: 2x  | Riff 4x

----------------- Acordes -----------------
A = X 0 2 2 2 0
B = X 2 4 4 4 2
C = X 3 2 0 1 0
D = X X 0 2 3 2
E = 0 2 2 1 0 0
F = 1 3 3 2 1 1
G = 3 2 0 0 0 3
G# = 4 3 1 1 1 4
