Chiclete Com Banana - Bateu Saudade

Gm                 D
Bateu saudade, bateu vem dizer
                    Gm
Oh! minha louca paixao
                    Cm
Venha pega na minha mao oh oh oh
D                 Gm
Coisinha do coraçao
         Cm              Gm
Pode cantar, que eu quero ver
          D           Gm
Voce dançar, fazer aue
         Cm              Gm
Pode cantar, que eu quero ver
          D           Gm
Voce dançar, fazer aue
                  Cm
Quem fala é o desejo
                                  Gm
Eu quero ouvir, que canta essa canção
                                D
Me de o seu abraço, me de sua paixao

                                 Gm  G
Eu quero simplesmente ser o seu amor
Cm
Venha
                Gm
Que eu te dou amor
Que eu te dou amor
                  D
Que eu te dou carinho
Que eu te dou carinho
Gm
Seja onde for

----------------- Acordes -----------------
Cm = X 3 5 5 4 3
D = X X 0 2 3 2
G = 3 2 0 0 0 3
Gm = 3 5 5 3 3 3
