Fundo de Quintal - Nosso Grito

D
Você já não quer mais amar
Sem rumo,tá sem direção
A            A
Se encontra sozinho no cais
A                A
Tentanto encontrar solução
D
Amigo não vá se entregar
Eu sei tá ruim de aguentar
A           A
Mas deus tá aqui pra ajudar
A            A
Não deixe esse barco afundar

D
Êta vida, eta vida de cão
A            A
A gente ri, a gente chora
A            A
A gente abre o coração

D
A gente tem mais que lutar
Seguir a nossa diretriz
A          A
Sonhar e tentar ser feliz
A          A
Viver pra cantar e sorrir
D
É hora da gente se unir
É hora de darmos as mãos
A         A
O negro ao branco se unir
A         A
Gritando numa só razão

----------------- Acordes -----------------
A = X 0 2 2 2 0
D = X X 0 2 3 2
