Titãs - É Preciso Saber Viver

Intro: D  D7M  D7  G  Gm6
       D  Bm  E  G  A7

Primeira Parte:

        D
Quem espera que a vida
      D7M
Seja feita de ilusão
       D7
Pode até ficar maluco
       G
Ou morrer na solidão
      Gm6
É preciso ter cuidado
          D            Bm
Pra mais tarde não sofrer
E           G     A7
É preciso saber viver
      D
Toda pedra no caminho

      D7M
Você pode retirar
       D7
Numa flor que tem espinhos
      G
Você pode se arranhar
      Gm6
Se o bem e o mal existem
      D         Bm
Você pode escolher
E          G     A7
É preciso saber viver

Refrão:

G          D       Bm
É preciso saber viver
G          D       Bm
É preciso saber viver
G          D       Bm
É preciso saber viver
G          D       Bm
É preciso saber viver
 E          G  A7
Saber viver

Solo:

E|-----7\--5/--7\-------------------------------------|
B|-5/7-------------5/7--------------------------------|
G|---------------------7---4/6~-----------------------|
D|----------------------------------------------------|
A|----------------------------------------------------|
E|----------------------------------------------------|

E|-----7\--5/--7/--10--12\10/14\---12\10/12-----------|
B|-5/7--------------------------------------12~-------|
G|----------------------------------------------------|
D|----------------------------------------------------|
A|----------------------------------------------------|
E|----------------------------------------------------|

E|----------------------------------------------------|
B|-10/11~~--11/13\---8/10-----\\----------------------|
G|------------------------10--\\----------------------|
D|----------------------------------------------------|
A|----------------------------------------------------|
E|----------------------------------------------------|

E|----------------------------------------------------|
B|-------------9~----9/12--12--12---12/14~------------|
G|-7\4/9-------9~----9/12--12--12---12/14~------------|
D|--------/-9~-------9/12--12--12---12/14~------------|
A|----------------------------------------------------|
E|----------------------------------------------------|

Adaptação do Solo:

E|----------7--5--7-----------------------------------|
B|----5/7-------------5/7-----------------------------|
G|-------------------------7----------4/6-------------|
D|----------------------------------------------------|
A|----------------------------------------------------|
E|----------------------------------------------------|

E|----------7--5--7--10--12p10--12/14---12---10/12----|
B|----5/7------------------------------------------12-|
G|----------------------------------------------------|
D|----------------------------------------------------|
A|----------------------------------------------------|
E|----------------------------------------------------|

E|----------------------------------------------------|
B|---10/11---11/13-------10-10-----------------9------|
G|--------------------------11-------7\4/9-----9------|
D|-----------------------------------------9----------|
A|----------------------------------------------------|
E|----------------------------------------------------|

E|---7--7--7---7/9------------------------------------|
B|---8--8--8---8/10-----------------------------------|
G|---7--7--7---7/9------------------------------------|
D|----------------------------------------------------|
A|----------------------------------------------------|
E|----------------------------------------------------|

Base Solo: D  D7M  D7  G  Gm6
           D  Bm  E  G  A7   2x

Repete a Primeira Parte:

        D
Quem espera que a vida
      D7M
Seja feita de ilusão
       D7
Pode até ficar maluco
       G
Ou morrer na solidão
      Gm6
É preciso ter cuidado
          D            Bm
Pra mais tarde não sofrer
E          G       A7
É preciso saber viver
      D
Toda pedra no caminho
      D7M
Você pode retirar
       D7
Numa flor que tem espinhos
      G
Você pode se arranhar
      Gm6
Se o bem e o mal existem
      D         Bm
Você pode escolher
E          G        A7
É preciso saber viver

Repete o Refrão:

G          D       Bm
É preciso saber viver
G          D       Bm
É preciso saber viver
G          D       Bm
É preciso saber viver
G          D       Bm
É preciso saber viver
 E          G  A7
Saber viver

G          D       Bm
É preciso saber viver
G          D       Bm
É preciso saber viver
G          D       Bm
É preciso saber viver
G          D       Bm
É preciso saber viver
 E          G  A7
Saber viver

G          D       Bm
É preciso saber viver
G          D       Bm
É preciso saber viver
G          D       Bm
É preciso saber viver
G          D       Bm
É preciso saber viver
 E          G  A7  D
Saber viver

----------------- Acordes -----------------
A7 = X 0 2 0 2 0
Bm = X 2 4 4 3 2
D = X X 0 2 3 2
D7 = X X 0 2 1 2
D7M = X X 0 2 2 2
E = 0 2 2 1 0 0
G = 3 2 0 0 0 3
Gm6 = 3 X 2 3 3 X
