Titãs - Pedofilia

INTRO:

E|-------------------------------------------------------------------------------------------|
B|-------------------------------------------------------------------------------------------|
G|-------------------------------------------------------------------------------------------|
D|----------4---------4---------4-------------------4---------4---------4--------------------|
A|--------------------------------------------------------------------------------0----------|
E|--2-2-2-2---2-2-2-2---2-2-2-2---2-2-2-2---2-2-2-2---2-2-2-2---2-2-2-2---2-2-2-2---4-2------|

A introdução também será usada nas estrofes, ela será representada por Riff 1


Riff 1

Ele disse: 'eu tenho um brinquedo,
Vem aqui, vou mostrar pra você'.
Ele disse: 'esse é o nosso segredo,
E ninguém mais precisa saber.'



Riff 1

'Eu não vou te fazer nenhum mal', ele disse,
E então me pegou pela mão
Ele disse que era normal, que pedisse,
E eu não tinha porque dizer não


REFRÃO
F#5                 A5
Não sou eu mais em mim
B5         D5
Não sou eu mais
F#5            A5
Sou só nojo de mim
B5              D5
Só nojo, por dentro

F#5                 A5
Não sou eu mais em mim
B5         D5
Não sou eu mais
F#5             A5
Sou só nojo de mim
B5           D5
Só esquecimento

(F#5)

Riff 1

Ele disse:'eu tenho um presente,
Vem comigo que eu vou te mostra'
Ele disse: 'isso é só entre a gente
E não é pra ninguém escutar'.

Riff1

'Eu não vou fazer nada de errado, eu te juro,
Vem aqui, vamos nos conhecer'.
'Vem aqui, fica aqui do meu lado, no escuro
Eu prometo cuidar de você'


REFRÃO
F#5                 A5
Não sou eu mais em mim
B5         D5
Não sou eu mais
F#5            A5
Sou só nojo de mim
B5              D5
Só nojo, por dentro

F#5                 A5
Não sou eu mais em mim
B5         D5
Não sou eu mais
F#5             A5
Sou só nojo de mim
B5           D5
Só esquecimento


E|---------------------------------------------|
B|---------------------------------------------|
G|---------------------------------------------|
D|---------------------------------------------|
A|---4-3---0----4-3------4-3---0---4-3---------|
E|-2-----4----2--------2-----4---2-------------|

Não, não, não…


REFRÃO
F#5                 A5
Não sou eu mais em mim
B5         D5
Não sou eu mais
F#5            A5
Sou só nojo de mim
B5              D5
Só nojo, por dentro

F#5                 A5
Não sou eu mais em mim
B5         D5
Não sou eu mais
F#5             A5
Sou só nojo de mim
B5           D5
Só esquecimento


E|---------------------------------------------|
B|---------------------------------------------|
G|---------------------------------------------|
D|---------------------------------------------|
A|---4-3---0----4-3------4-3---0---4-3---------|
E|-2-----4----2--------2-----4---2-------------|

(F#5)

----------------- Acordes -----------------
A = X 0 2 2 2 0
A5 = X 0 2 2 X X
B5 = X 2 4 4 X X
D5 = X 5 7 7 X X
F#5 = 2 4 4 X X X
