Limão Com Mel - Ligação No Rádio

G                                    Am
Hoje eu liguei no rádio e  pedi a nossa canção,
      Bm                 D                G
dediquei para voçê do fundo do coração,apaixonei
                  Am           Bm
toda cidade  foi tanta emoção só   não consegui
             D               C       D
voçê nem ao menos reação do amor oh oh...
C                D        G                 D
se foi tudo ilusão que pena só quero uma reação
         G C                   D               G
me atenda,liga ao ,enos pra dizer que ouvio nossa
C      G                D             Em
canção,e se chorar não vá dizer que não (G)
C                   D                 G     C
essa história vai doer no fundo do seu coração,pra
G               D             Am
que chorar pra que dizer que não...

----------------------------------------------------
TE AMO ROSINALVA ESSA É PRA VOCÊ "JOCELIN" TE AMO MUITO...

----------------- Acordes -----------------
Am = X 0 2 2 1 0
Bm = X 2 4 4 3 2
C = X 3 2 0 1 0
D = X X 0 2 3 2
Em = 0 2 2 0 0 0
G = 3 2 0 0 0 3
