Molejo - Amigo Gaguinho

A                      E
Tenho um amigo que é gaguinho e ele só apronta
F#m              D           E
Essa semana na balada passei mó vergonha
A                      E
E disse que mulher bonita ele pra me ajudar
F#m              D           E
Correu e chamou a menina pra desenrolar

A                E
Pensei comigo: "Não"
F#m
Mas não adiantou
D                      E
O gaguinho todo empolgado logo começou

A                      E
O meu colega aqui quer cu-cu-cu-cu-cu

O meu colega aqui quer cuidar de você
A                      E
Quer que tu dê uma-ma-ma-ma-ma-ma-ma


Quer que tu dê uma-ma-ma atenção pra ele (2x)

A                      E
E antes de finalizar eu só ouvi dizer
F#m              D
Se não quiser o meu amigo tu vai se-se-se-se
E
Se arrepender...

A
Tu vai se-se-se-se-se

Tu vai se-se-se-se-se
F#m
Tu vai se-se-se-se-se

Se arrepender...

Ele voltou entusiasmado doido pra contar
Tudo que ela respondeu e começou a vibrar
Eu bem no meio da balada ao som do tambozão
O gaguinho me revelava a situação

Fica tranquilo, irmão
Que eu não marquei bobeira
As minas sempre se amarram na minha gagueira
Ela quer dá, ela quer dá-dá-dá-dá-dá

E quer pi-pi-pi-pi-pi-pi, e quer pi-pi-pi-pi-pi pedir pra tu

E antes de finalizar eu só ouvi dizer
Se não quiser o meu amigo tu vai se-se-se-se
Se arrepender...

Tu vai se-se-se-se-se


----------------- Acordes -----------------
A = X 0 2 2 2 0
D = X X 0 2 3 2
E = 0 2 2 1 0 0
F#m = 2 4 4 2 2 2
