Comunidade Católica Shalom - Shalom Para Ti

E           C#m
Shalom para ti
F#m          A
Shalom para mim
   C#m B C#m
Shalom, Shalom
E            C#m
Que tenhas a paz
F#m           A
Que tenhas a paz
B   C#m B  C#m
Shalom, Shalom

----------------- Acordes -----------------
A = X 0 2 2 2 0
B = X 2 4 4 4 2
C#m = X 4 6 6 5 4
E = 0 2 2 1 0 0
F#m = 2 4 4 2 2 2
