Pearl Jam - Can't Keep

intro/verse/postchorus:
------------------------------------------------------------------------------
--7--7-7--5--5-5----5-----7--5------------------------------------------------
--5--5-5--5--5-5--5-5--5--5--5------------------------------------------------
--7--7-7--7--7-7--7-7--7--7--7------------------------------------------------
------------------------------------------------------------------------------
------------------------------------------------------------------------------


---------------------------|----------------------|---------------------------
--------10--8h10p8--\5--\1-|--10-10p8-10-13-12-10-|---------------------------
---------------------------|----------------------|---------------------------
---------------------------|----------------------|---------------------------
---------------------------|----------------------|---------------------------
---------------------------|----------------------|---------------------------
              riff a             riff b                                                   

prechorus
--3--3--3-3---3-3-3-3--3--3--3-3---3-3-3-3--3--3--3-3--3-3-3-3--3--3-3-3-3-3--
--3--3--3-3---3-3-3-3--3--3--3-3---3-3-3-3--3--3--3-3--3-3-3-3--3--3-3-3-3-3--
--0--0--0-0---0-0-0-0--0--0--0-0---0-0-0-0--0--0--0-0--0-0-0-0--0--0-0-0-0-0--
--2--2--2-2---2-2-2-2--1--1--1-1---1-1-1-1--0--0--0-0--0-0-0-0----------------
----------------------------------------------------------------4--4-4-4-4-4--
------------------------------------------------------------------------------



chorus?:
------------------------------------------------------------------------------
-8---8--8--8--8---10--10--10--10---12--12--12--12--10--10--10---8--8--8--8----
-9---9--9--9--9---9---9---9---9----9---9---9---9---9---9---9----9--9--9--9----
-10--10-10-10-10--10--10--10--10---10--10--10--10--10--10--10---10-10-10-10---
------------------------------------------------------------------------------
------------------------------------------------------------------------------


------------------------------------------------------------------------------
-10--10--10--12--12--12--12--13--13--13---------------------------------------
-9---9---9---9---9---9---9---9---9---9----------------------------------------
-10--10--10--10--10--10--10--10--10--10---------------------------------------
------------------------------------------------------------------------------
------------------------------------------------------------------------------

solo 1:
------------------------------------------------------------------------------
--10---8--13b-10--12--10--13vvv-12vvv-15--10vv--------------------------------
------------------------------------------------------------------------------
------------------------------------------------------------------------------
------------------------------------------------------------------------------
------------------------------------------------------------------------------

solo 2:
---------------------|-----------------------------------|--------------------
---------------------|--7-7-7-5-5-5-------5-5-5-7-5-5-5--|-5-8-10-10-10-------
--7-7-7-5--5-------5-|--------------5-5-5----------------|--------------------
--------------7--7---|-----------------------------------|--------------------
---------------------|-----------------------------------|--------------------
---------------------|-----------------------------------|--------------------
                           2x                                                 

------------------------------------------------------------------------------
--10-12-12-10-12-13vvvvv--15b-13vvvv-15-13-12-10vvv---8-10-8vvv---------------
------------------------------------------------------------------------------
------------------------------------------------------------------------------
------------------------------------------------------------------------------
------------------------------------------------------------------------------

----------------- Acordes -----------------
