Pearl Jam - Corduroy

Intro

E|-----------------------|------------------------|
B|-----------------------|------------------------|
G|-----------------------|------------------------|
D|----------9-------9----|----------9-------9-----|
A|--7----7-------7-------|--7----7-------7-----7--|
E|-----------------------|------------------------|

|-----------------------|-----------------------|
|-----------------------|-----------------------|
|-----------------------|-----------------------|
|----------9-------9----|----------9-------9----|
|--0----0-------0-------|--0----0-------0-------|
|-----------------------|-----------------------|

(4x)

|------------------------|-------------------------3--|
|------------------------|-------------------------3--|
|------------------------|-----10--10--10--x--9----0--|
|----------9----9--9--9--|--9--10--10--10--x--9----0--|
|---------------x--x--x--|--x--8---8---8---x--7----x--|
|--8----8-------8--8--8--|--8----------------------3--|


Verso

      F              E    G                                                            
|-------------------------3--|  
|-------------------------3--|                                                                   
|-----10--10--10--x--9----0--|
|-----10--10--10--x--9----0--|
|-----8---8---8---x--7----x--|
|-------------------------3--|

Refrão

      Cadd9          G/B        Aadd9  G                                                       
------------------|-----------------------|----3--3----------------|
------3--3--3--3--|--3----3--3---------3--|----3--3----------------|
------0--0--0--0--|--0----0--0----2----0--|----0--0----------------|
------x--x--x--x--|--x----x--x----2----0--|------------------------|
------3--3--3--3--|--2----2--2----0----x--|------------------------|
------------------|--------------------3--|------------------------|

Bridge

|-------------------------|
|-------------------------|
|-------------------------|
|-------9--9-----9--------|
|--7----------7-----7--7--|
|-------------------------|

--------------------------|------------------------|-------------------------|
--------------------------|------------------------|-------------------------|
--------------------------|------------------------|-------------------------|
-----9--9--------9-----9--|-------9--------9-------|-------9--------9-----9--|
--7--------7--7-----7-----|--0-------0--0----------|-------------------------|
--------------------------|---------------------8--|----8-----8--8-----8-----|

-------------------------|--------------------------|-------------------------|
-------------------------|--------------------------|-------------------------|
-------------------------|--------------------------|-------------------------|
-------9--------9--------|-------9--9-9----9-----9--|-------9--------9--------|
--7-------7--7-----7--7--|----7---------7-----7-----|--0-------0--0-----0-----|
-------------------------|--------------------------|----------------------8--|

-------------------------|-------------------------3--|
-------------------------|-------------------------3--|
-------------------------|-----10--10--10--x--9----0--|
-------9-----9--9--9--9--|--9--10--10--10--x--9----0--|
-------------x--x--x--x--|--x--8---8---8---x--7----x--|
----8-----8--8--8--8--8--|--8----------------------3--|

Riff do solo

|--------------------------|
|--------------------------|
|--------------------------|
|--9--9--9--9--9--9--9--9--|
|--7--7--7--7--7--7--7--7--|
|--0--0--0--0--0--0--0--0--|

------------------------|------------------------|-------------------------|
------------------------|------------------------|-------------------------|
------------------------|------------------------|-------------------------|
----9--9----9--9--9--9--|--9----9----9--9--9--9--|----9--9--9--9--9--9--9--|
----7--7----7--7--7--7--|--0----0----0--0--0--x--|----x--x--x--x--x--x--x--|
----0--0----0--0--0--0--|---------------------8--|----8--8--8--8--8--8--8--|


Letra

                        F E  G
      The waiting drove me mad.
                        F E         G
      You're finally here and I'm a mess.
                         F E     G
      I'll take your interest back.
                        F E        G
      Can't let you roam inside my head.

 Cadd9             G/B         Aadd9 G
 I don't want to take what you can give.
 Cadd9             G/B         Aadd9 G
 I would rather starve than eat your bread.
 Cadd9             G/B       Aadd9 G
 I would rather run but I can walk.
 Cadd9             G/B         Aadd9 G
 Guess I'll lie alone just like before.


 (Bridge)

                      F  E    G
        I'll take the firmest path.
                     F  E      G
        and I must refuse your test.
                    F  E    G
        Push me and I will resist.
                    F  E    G
        This behavior's not unique.

 Cadd9             G/B          Aadd9 G
 I don't want to live for those who know.
 Cadd9             G/B         Aadd9 G
 They can buy but can't put on my clothes.
 Cadd9             G/B         Aadd9 G
 I don't want to wait for them to walk.
 Cadd9             G/B         Aadd9 G
 Never would have known of me before.
 Cadd9             G/B         Aadd9 G
 I don't want to be held in your debt.
 Cadd9             G/B         Aadd9 G
 I'll pay it off in blood then I'll be wed.
 Cadd9             G/B         Aadd9 G
 I'm already cut up and half dead.
 Cadd9             G/B         Aadd9 G
 I'll end up alone like I began.


 (B  C)
 Everything has changed.
 Absolutely nothing's changed.
 Take my hand.
 Grab my picture.
 Still my teacher.

 Cadd9             G/B          Aadd9 G
 I don't want to take what you can give.
 Cadd9             G/B          Aadd9 G
 I would rather starve than eat your breast.
 Cadd9             G/B          Aadd9 G
 All the things that others want from me.
 Cadd9             G/B          Aadd9 G
 Can't buy what I want because it's free.
 Cadd9             G/B          Aadd9 G
 Can't buy what I want because it's free.
 Cadd9             G/B          Aadd9 G
 Can 't be what you want because I'm..


 F  E  G
                     F  E     G
 I ain't s'posed to be just fun
                    F  E         G
 Oh, to live and die, let it be done
             F  E        G
 I figure I'll be damned,
                 F  E G
 All alone like I began...


 Riff do solo

----------------- Acordes -----------------
Aadd9 = X 0 2 2 0 0
B = X 2 4 4 4 2
C = X 3 2 0 1 0
Cadd9 = X 3 5 5 3 3
E = 0 2 2 1 0 0
F = 1 3 3 2 1 1
G = 3 2 0 0 0 3
G/B = X 2 0 0 3 3
