Pearl Jam - Deep

Stone-open-A(EAEAC#E) low-->high, wear slide on pinky
Mike-standard

-|---------------|-----------------|------------------------------------------
-|---------------|-----------------|------------------------------------------
-|-3---2---------|--7--7--7--7--7--|------------------------------------------
-|-0---2---------|--7--7--7--7--7--|------------------------------------------
-|-x---2---------|--7--7--7--7--7--|------------------------------------------
-|-3---2---------|--7--7--7--7--7--|------------------------------------------
 Intro, Stone 4x

-|-------------------------------------------------5b6----5/10--------------|-
-|------2-5p2------------x-----------------2-5p2-2--------------------------|-
-|-4b6-------4b6-4b6r4p2---2vvvvvvvv-0-4b6---------------------7\-----16b18-|-
-|----------------------------------------------------------------x-x-------|-
-|--------------------------------------------------------------------------|-

-|--------------------------------------------------------------------------|-
 Intro, Mike

-|--------------------------------------------------------------------------|-
-|-17p14-------14-17p14-------14--------------------------------------------|-
-|-------16b18----------16b18----16b18r16p14----16----14b16r14vvvvvvvvvvvv--|-
-|-------------------------------------------16----16---------------------0-|-
-|--------------------------------------------------------------------------|-
-|--------------------------------------------------------------------------|-


-|-------------------17b19-------------17b19--\--|----------------------------
-|-------14-17p14-14-----------------------------|----------------------------
-|-16b18-----------------------------------------|----------------------------
-|-----------------------------------------------|----------------------------
-|-----------------------------------------------|----------------------------
-|-----------------------------------------------|----------------------------


-|------------------------------------------------------9-7-9-9-0----|--------
-|-------------------------------------------------------------------|--------
-|-/9-------9------/9-------9-7b----/9-------9------/9------------9\-|--------
-|-/9--7--6---7-6\-/9--7--6------9\-/9--7--6---7-6\-/9---------------|--------
-|-/9--------------/9---------------/9--------------/9---------------|--------
-|-------------------------------------------------------------------|--------
 Stone (*play all 9th frets with slide, all other notes with index finger)

-|----------------------------------------------------------9-7-9-9-0----|----
-|-----------------------------------------------------------------------|----
-|-/9-------9-------/9-------9-7b-----/9-------9--------/9------------9--|----
-|-/9--7--6---7-6\--/9--7--6------9\--/9--7--6---7-6\---/9---------------|----
-|-/9---------------/9----------------/9----------------/9---------------|----
-|-----------------------------------------------------------------------|----


-|-------7\6---------------------------------7\6-------------------------|----
-|-----------6/7---------------7b9---------------6/7---------------------|----
-|-6vv-4---------4-3-6vv---4-----------6vv-4---------4-3-6v-6-4-6-6\-----|----
-|------------------------------------------------------------------2-4--|----
-|-----------------------------------------------------------------------|----
-|-----------------------------------------------------------------------|----
 Mike                                                                  2x

-|--------------------------|------------------|------------------------------
-|--------------------------|------------------|------------------------------
-|--------------------------|-------/15--14--\-|------------------------------
-|--------------------------|-------/15--14--\-|------------------------------
-|--9------x-------12-12-12-|-9-----/15--14--\-|------------------------------
-|--9------x--12---12-12-12-|-9----------------|------------------------------
  Verse, Stone            3x        w/slide

-|----|----|----|----|----|-7-/--------------------|----|--------------|------
-|----|----|----|----|----|-7-/--------------------|----|-14\----------|------
-|----|----|----|----|----|-7-/-----------5-/------|----|--------------|------
-|----|----|----|----|----|---------------5-/------|----|-------x-/-\--|------
-|----|----|----|----|----|---------------5-/------|----|-------x-/-\--|------
-|----|----|----|----|----|------------------------|----|--------------|------
 Verse, Mike               "he just ain't nothin'"(volume swell)

-|------------------------------------------------------9-7-9-9-0----|--------
-|-------------------------------------------------------------------|--------
-|-/9-------9------/9-------9-7b----/9-------9------/9------------9\-|--------
-|-/9--7--6---7-6\-/9--7--6------9\-/9--7--6---7-6\-/9---------------|--------
-|-/9--------------/9---------------/9--------------/9---------------|--------
-|-------------------------------------------------------------------|--------
 Chorus, Stone (*same as before)

-|----------------------------------------------------------9-7-9-9-0----|----
-|-----------------------------------------------------------------------|----
-|-/9-------9-------/9-------9-7b-----/9-------9--------/9------------9--|----
-|-/9--7--6---7-6\--/9--7--6------9\--/9--7--6---7-6\---/9---------------|----
-|-/9---------------/9----------------/9----------------/9---------------|----
-|-----------------------------------------------------------------------|----


-|-------7\6---------------------------------7\6---------------------------|--
-|-----------6/7---------------7b9---------------6/7-----------------------|--
-|-6vv-4---------4-3-6vv---4-----------6vv-4---------4-3-6vv-6-4-6-6\------|--
-|--------------------------------------------------------------------2-4--|--
-|-------------------------------------------------------------------------|--
-|-------------------------------------------------------------------------|--
 Chorus, Mike                                                            2x

-|-------------------------|------------------|--------x-------------------|--
-|-------------------------|------------------|----------------------------|--
-|-------------------------|-------/15--14--\-|----------------------------|--
-|-------------------------|-------/15--14--\-|-----------------7vvv-6vvv--|--
-|--9----x-x-12---12-12-12-|--9----/15--14--\-|----------------------------|--
-|--9----x-x-12---12-12-12-|--9---------------|----------------------------|--
 2nd Verse, Stone        3x With Fill 1        Fill 1 (feedback)w/trem.bar

-|----------------------------------------------------------9-7-9-9-0----|----
-|-----------------------------------------------------------------------|----
-|-/9-------9-------/9-------9-7b-----/9-------9--------/9------------9\-|----
-|-/9--7--6---7-6\--/9--7--6------9\--/9--7--6---7-6\---/9---------------|----
-|-/9---------------/9----------------/9----------------/9---------------|----
-|-----------------------------------------------------------------------|----
 Chorus, Stone                                                         2x

-|-------7\6---------------------------------7\6--------------------------|---
-|-----------6/7---------------7b9---------------6/7----------------------|---
-|-6vv-4---------4-3-6vv---4-----------6vv-4---------4-3-6vv-6-4-6-6\-----|---
-|--------------------------------------------------------------------2-4-|---
-|------------------------------------------------------------------------|---
-|------------------------------------------------------------------------|---
 Chorus, Mike                                                           2x

-|-----9-7-9-9-0-------------------------|------------------------------------
-|---------------------------------------|------------------------------------
-|-/9------------9\-/12--12-10----12-----|------------------------------------
-|-/9---------------/12--------12-----10-|------------------------------------
-|-/9---------------/12------------------|------------------------------------
-|---------------------------------------|------------------------------------
 Bridge, Stone     *fret 12th with slide, 10th with index finger

-|---------------------------------|----------------------------------|-------
-|---------------------------------|----------------------------------|-------
-|-/15-----\--/12--12-10----12-----|-/15--\14--\-/12--12-10----12-----|-------
-|-/15-----\--/12--------12-----10-|-/15--\14--\-/12--------12-----10-|-------
-|-/15-----\--/12------------------|-/15--\14--\-/12------------------|-------
-|---------------------------------|----------------------------------|-------
              *same as before

-|---------------------------------|------------------------------------------
-|---------------------------------|------------------------------------------
-|-/15-----\--/12--12-10----12-----|------------------------------------------
-|-/15-----\--/12--------12-----10-|------------------------------------------
-|-/15-----\--/12------------------|------------------------------------------
-|---------------------------------|------------------------------------------


-|-----------------------------------------------------------------|----------
-|-----------------------------------------------------------------|----------
-|-6vv-6-4-6-6\------2-------5---4---2------5--------2-------5---4-|----------
-|--------------2-4--2-------5---4---2------5--------2-------5---4-|----------
-|-------------------0-------3---2---0------3--------0-------3---2-|----------
-|-----------------------------------------------------------------|----------
 Bridge, Mike

-|------------|-----------|-----------------|---------------------------------
-|------------|-----------|-----------------|---------------------------------
-|-/15--14--\-|--3---2----|--7--7--7--7--7--|---------------------------------
-|-/15--14--\-|--0---2----|--7--7--7--7--7--|---------------------------------
-|-/15--14--\-|--x---2----|--7--7--7--7--7--|---------------------------------
-|------------|--3---2----|--7--7--7--7--7--|---------------------------------
 Solo rhythm,  Stone    3x

-|--------------------------------------------------------------------------|-
-|-----2-5p2-2---------2----------------------------------------------------|-
-|-4b6---------4b6r4-2---2vvvvvvvvvvvv/-16b18-16-14-16-14-16-14-------------|-
-|--------------------------------------------------------------16vvvvvvvv/-|-
-|--------------------------------------------------------------------------|-
-|--------------------------------------------------------------------------|-
 Solo, Mike

-|-0---------------------------------17b19-----------17b19-|------------------
-|-0-0----------14-14-17p14-14-14-14-------------x---------|------------------
-|---0-0--16b18-----------------------------------x--------|------------------
-|-----0-------------------------------------------x-------|------------------
-|---------------------------------------------------------|------------------
-|---------------------------------------------------------|------------------
 let ring                                       rake

-|---15b19r15vvvvvvvvvv--x\------17--b--b--21--|---------|--------------------
-|--x----------------------------17--b--b--21--|-x-----x-|--------------------
-|-x-------------------------------------------|-x---x---|--------------------
-|--------------------------x------------------|---x-----|--------------------
-|---------------------------x-----------------|---------|--------------------
-|----------------------------0----------------|---------|--------------------
 rake                      rake  slow bend

-|--------|------------|----------|---------------|------------|--------------
-|--------|------------|----------|---------------|------------|--------------
-|--------|------------|----------|---------------|------------|--------------
-|--------|------------|----------|---------------|------------|--------------
-|-9----x-|------------|-9----9-x-|-------12-12-x-|-9----9-9-x-|--------------
-|-9----x-|-12----12-x-|-9----9-x-|-12----12-12---|-9----9-9---|--------------
 3rd verse, Stone                                  With Fill 2

-|------------|------------|------------|--6vvvvvvvv---|----------------------
-|------------|------------|------------|--6vvvvvvvv---|----------------------
-|------------|------------|------------|--6vvvvvvvv---|----------------------
-|------------|------------|------------|--------------|----------------------
-|-------12---|-9----9-x-x-|-12----12-x-|--------------|----------------------
-|-12----12-x-|-9----9-x-x-|-12----12---|--------------|----------------------
                                         Fill 2(fade in, w/feedback)

-|----------------------|-------------------|-------------------------|-------
-|----------------------|-------------------|-------------------------|-------
-|-----3---3h4p3--------|------6----6h7p6---|-----3---3-3h4p3---------|-------
-|-------x-------4--x---|----7-7----------7-|-------x---------4---x---|-------
-|-4-------------4--x-4-|-7-------7-------7-|-4---------------4---x-4-|-------
-|-2--------------------|-------------------|-2-----------------------|-------
  Mike

-|--------------------|---------------------|-15vvvv--14vvvv--|---------------
-|--------------------|---------------------|-----------------|---------------
-|-------6----6h7p6---|---------------------|-12vvvv--11vvvv--|---------------
-|----7--7----------7-|-------------4--4-4\-|-----------------|---------------
-|-7--------7-------7-|-4---4---4-----------|-----------------|---------------
-|--------------------|-2---2---2-----------|-----------------|---------------
                       Stone enters, playing the two bars on the next line

-|------12--------|-------------|---------------------------------------------
-|-------x--------|-------------|---------------------------------------------
-|-------------14-|-/15---14--\-|---------------------------------------------
-|-------------14-|-/15---14--\-|---------------------------------------------
-|-------------14-|-/15---14--\-|---------------------------------------------
-|----------------|-------------|---------------------------------------------
  Stone

-|----------------------------------------------------------9-7-9-9-0----|----
-|-----------------------------------------------------------------------|----
-|-/9-------9-------/9-------9-7b-----/9-------9--------/9------------9\-|----
-|-/9--7--6---7-6\--/9--7--6------9\--/9--7--6---7-6\---/9---------------|----
-|-/9---------------/9----------------/9----------------/9---------------|----
-|-----------------------------------------------------------------------|----
 Chorus, Stone                                                         2x

-|-------7\6---------------------------------7\6--------------------------|---
-|-----------6/7---------------7b9---------------6/7----------------------|---
-|-6vv-4---------4-3-6vv---4-----------6vv-4---------4-3-6vv-6-4-6-6\-----|---
-|--------------------------------------------------------------------2-4-|---
-|------------------------------------------------------------------------|---
-|------------------------------------------------------------------------|---
 Chorus, Mike                                                           2x

-|-----9-7-9---0--------------------------|-----------------------------------
-|----------------------------------------|-----------------------------------
-|-/9----------7-9\-/12--12-10----12------|-----------------------------------
-|-/9---------------/12--------12-----10--|-----------------------------------
-|-/9---------------/12-------------------|-----------------------------------
-|----------------------------------------|-----------------------------------
 Outro, Stone

-|------------------------------------------------------------------|---------
-|------------------------------------------------------------------|---------
-|-/15-----\--/12--12-10----12-----/15--\14--\-/12--12-10----12-----|---------
-|-/15-----\--/12--------12----10--/15--\14--\-/12--------12----10--|---------
-|-/15-----\--/12------------------/15--\14--\-/12------------------|---------
-|------------------------------------------------------------------|---------


-|--------------------------------|----------------|--------------------------
-|--------------------------------|----------------|--------------------------
-|-/15-----\--/12--12-10----12----|-/15--15----15--|--------------------------
-|-/15-----\--/12--------12----10-|-/15-----15-15--|--------------------------
-|-/15-----\--/12-----------------|-/15------------|--------------------------
-|--------------------------------|----------------|--------------------------


-|-------------------|---------------------|---------------------|------------
-|-------------------|---------------------|---------------------|------------
-|-/12--12----12vvvv-|-/15--15------15vvvv-|-/12--12------12vvvv-|------------
-|-/12-----12--------|-/15-----15vv--------|-/12-----12vv--------|------------
-|-/12---------------|-/15-----------------|-/12-----------------|------------
-|-------------------|---------------------|---------------------|------------


-|------------------------------------|-------------------|-----------------|-
-|------------------------------------|-------------------|-----------------|-
-|-/15--15----\14---/12--12----12vvvv-|-/15--15----15vvvv-|-/12--12----12vvv|-
-|-/15-----15-\14---/12-----12--------|-/15-----15--------|-/12-----12------|-
-|-/15--------\14---/12---------------|-/15---------------|-/12-------------|-
-|------------------------------------|-------------------|-----------------|-


-|----------------------------------------------------------------|-----------
-|----------------------------------------------------------------|-----------
-|-/15--14--12-12-12-12-12-12-12-12-12-12-12-12-12-12-12-12-12-12-|-----------
-|-/15--14--12-12-12-12-12-12-12-12-12-12-12-12-12-12-12-12-12-12-|-----------
-|-/15--14--12-12-12-12-12-12-12-12-12-12-12-12-12-12-12-12-12-12-|-----------
-|----------------------------------------------------------------|-----------


-|-/-x-\--\--------/x-\-x-\-----/-----/-------x-\----------------|------------
-|----------\---------------x-/-----/---x/-/------x\-------------|------------
-|------------\--/----------------/-----x/-/-----------x\-x\-x\--|------------
-|-----------------------------------------------------x\-x\-x\--|------------
-|-----------------------------------------------------x\-x\-x\--|------------
-|---------------------------------------------------------------|------------
 random slides, till end                             pick scrape w/ delay

-|-------------------------------------------------------|--------------------
-|-------------------------------------------------------|--------------------
-|-6vv-6-4-6-6\------2----5----2----5----4--2----5----2--|--------------------
-|--------------2-4--2----5----2----5----4--2----5----2--|--------------------
-|-------------------0----3----0----3----2--0----3----0--|--------------------
-|-------------------------------------------------------|--------------------
 Outro, Mike

-|-----------|--------------------------------------------------------------|-
-|-----------|--------------------------------------------------------------|-
-|-5----2----|-5----4--2----5----2----5----4--2-2-2-2-2-2-2-2-2-2-2-2-2-2-2-|-
-|-5----2----|-5----4--2----5----2----5----4--2-2-2-2-2-2-2-2-2-2-2-2-2-2-2-|-
-|-3----0----|-3----2--0----3----0----3----2--0-0-0-0-0-0-0-0-0-0-0-0-0-0-0-|-
-|-----------|--------------------------------------------------------------|-
           2x                                          strum A5 till end
