Pearl Jam - Even Flow

Afinação: D A D G B E

[Intro]

(Riff 1)

(Guitarra 1)
E|----------------------------------------------------|
B|----------------------------------------------------|
G|----------------------------------------------------|
D|----------------------------------------------------|
A|------------3p0---3/5-------------------------------|
E|-\--5/7---0-----0-----0-0--6-5-3-0------------------|

E|----------------------------------------------------|
B|----------------------------------------------------|
G|----------------------------------------------------|
D|----------------------------------------------------|
A|-------3p0---3/5------------------------------------|
E|-5/7-0-----0-----0-0--6-5-3-0-----------------------|


E|----------------------------------------------------|
B|----------------------------------------------------|
G|----------------------------------------------------|
D|----------------------------------------------------|
A|-------3p0---3/5--------------5-3-------------------|
E|-5/7-0-----0-----0-0--6-5-3-0-----6-5-3-0-3-5-0-----|

(Guitarra 2)

E|----------------------------------------------------|
B|----------5-x-5/7-----------------------------------|
G|--------x-5-x-5/7-----------------------------------|
D|----5/7-x---------0-0-6-5-3-0-----------------------|
A|----------------------------------------------------|
E|-15\------------------------------------------------|

E|----------------------------------------------------|
B|-------5-x-5/7-7-7----------------------------------|
G|-------5-x-5/7-7-7----------------------------------|
D|-5/7-x-------------6-5-3-0--------------------------|
A|----------------------------------------------------|
E|----------------------------------------------------|

E|----------------------------------------------------|
B|-------5-x-5/7--------------------------------------|
G|-----x-5-x-5/7-------------7-5----------------------|
D|-5/7-x---------0-0-6-5-3-0-----6-5-3-0-3-5-0--------|
A|----------------------------------------------------|
E|----------------------------------------------------|

[Primeira Parte]

Freezin', rests his head on a pillow made of concrete, again

Oh, Feelin' maybe he'll see a little better set a

Days, ooh yeah

Oh, hand out, faces that he sees time again ain't that

Familiar, ooh yeah

Oh, dark grin, he can't help, when he's happy looks

Insane, oh yeah

(Riff 2)

(Guitarra 1)

[Parte 1 de 3]

E|----------------------------------------------------|
B|----------------------------------------------------|
G|----------------------------------------------------|
D|----------------------------------------------------|
A|-----3p0---3/5--------------------------------------|
E|-0-0-----0------0--0-5/7--0-0-----------------------|

[Parte 2 de 3]

E|----------------------------------------------------|
B|----------------------------------------------------|
G|----------------------------------------------------|
D|----------------------------------------------------|
A|------3p0---3/5----------------5-3------------------|
E|-/7-0-----0------0--0-5/7-0-0-------6-5-3-0-3-5-----|

[Parte 3 de 3]

E|----------------------------------------------------|
B|----------------------------------------------------|
G|----------------------------------------------------|
D|----------------------------------------------------|
A|-----------3p0---3/5--------------------------------|
E|----5/7--0-----0-----0-0--6-5-3-0-------------------|

E|----------------------------------------------------|
B|----------------------------------------------------|
G|----------------------------------------------------|
D|----------------------------------------------------|
A|------3p0---3/5----------------5-3------------------|
E|-/7-0-----0------0--0-5/7-0-0-------6-5-3-0-3-5-0---|

E|----------------------------------------------------|
B|----------------------------------------------------|
G|----------------------------------------------------|
D|----------------------------------------------------|
A|-3p0---3/5------------------------------------------|
E|-----0----------------------------------------------|

(Riff 1) 2x

E|----------------------------------------------------|
B|----------------------------------------------------|
G|----------------------------------------------------|
D|----------------------------------------------------|
A|-----3p0---3/5-------------5-3----------------------|
E|-5/7-----0-----0-0-6-5-3-0-----6-5-3-0-3-5-0--------|

E|----------------------------------------------------|
B|----------------------------------------------------|
G|----------------------------------------------------|
D|----------------------------------------------------|
A|-3p0---3/5------------------------------------------|
E|-----0----------------------------------------------|

(Guitarra 2)

[Parte 1 de 4]

E|----------------------------------------------------|
B|----5-x-5/7---------------5-x-5/7-------------------|
G|----5-x-5/7---------------5-x-5/7-------------------|
D|-/7---------0-0-/7-0-0-/7-----------0-0-/7-0-0------|
A|----------------------------------------------------|
E|----------------------------------------------------|


E|----------------------------------------------------|
B|---5-x-5/7------------------------------------------|
G|---5-x-5/7------------------------------------------|
D|7---------------------------------------------------|
A|----------------------------------------------------|
E|----------------------------------------------------|


E|----------------------------------------------------|
B|-x-x-x-x------5-x-5/7-----x-x-x-x-------------------|
G|-x-x-x-x------5-x-5/7-----x-x-x-x-------------------|
D|-x-x-x-x---/7---x---------x-x-x-x-------------------|
A|----------------------------------------------------|
E|----------------------------------------------------|


[Parte 2 de 4]

E|----------------------------------------------------|
B|----5-x-5/7---------------5-x-5/7-------------------|
G|----5-x-5/7---------------5-x-5/7-------------------|
D|-/7---------0-0-/7-0-0-/7-----------0-0-/7-0-0------|
A|----------------------------------------------------|
E|----------------------------------------------------|


E|----------------------------------------------------|
B|----------------------------------------------------|
G|---5-x-5h7-----------7-5----------------------------|
D|---5-x-5h7--0-0-/7--------6-5-3-0-3-5---------------|
A|-7--------------------------------------------------|
E|----------------------------------------------------|


[Parte 3 de 4]

E|----------------------------------------------------|
B|-----x-5-x-5/7--------------------------------------|
G|-----x-5-x-5/7--------------------------------------|
D|-/7------------7-0--5b6r5------5b7------------------|
A|---------------------------8-5----------------------|
E|----------------------------------------------------|

E|----------------------------------------------------|
B|------5-x-5h7-7-7-----------------------------------|
G|------5-x-5h7-7-7-----------5b7---------------------|
D|------------------5b6r5-----------------------------|
A|------------------------8-5-------------------------|
E|----------------------------------------------------|

[Parte 4 de 4]

E|----------------------------------------------------|
B|------5-x-5h7-7-7-----------------------------------|
G|------5-x-5h7-7-7--------------7-5------------------|
D|--------------------5b6r5----------6-5-3-0-3-5-0----|
A|---------------------------8-5----------------------|
E|----------------------------------------------------|

(Riff 1)

[Refrão]

D5     Bb5                        D5     C5
Even flow,  thoughts arrive like butterflies
     D5        Bb5                     D5
Oh, he don't know, so he chases them away
  C5
Yeah...ooh
     D5      Bb5                  D5    C5
Oh, someday yet, he'll begin his life again
      D5        Bb5                           D5  C5
Oh, whispering hands, gently lead, lead him away
 D5   C5   D5   C5    D5   C5
Him away, him away            yeah!

(Guitarra 2)

[Parte 1 de 2]

E|----------------------------------------------------|
B|-7-------------------------7------------------------|
G|-7-7-----------------------7-7----------------------|
D|-----10-8~\5/8\5/8\5/8\--------10~\7/10\7/10\7/10\--|
A|----------------------------------------------------|
E|----------------------------------------------------|

(Guitarra com alavanca)

E|----------------------------------------------------|
B|-7-------------------------7------------------------|
G|-7-7-----------------------7-7----------------------|
D|-----10-8~~~~~~~---------------10~~~~~~~~~~---------|
A|----------------------------------------------------|
E|----------------------------------------------------|

[Parte 2 de  2]

E|----------------------------------------------------|
B|-7---------------------7-------7-------7------------|
G|-7-7-------9b10r9-7~---7-7-----7-7-----7-7----------|
D|-----10-8~-----------------10~-----10~-----10~------|
A|----------------------------------------------------|
E|----------------------------------------------------|

[Primeira Parte]

Kneelin', looking through the paper though he doesn't

Know to read, ooh yeah

Oh, prayin', now to something that has never showed

Him anything

Oh, feelin', understands the weather of the winters on

Its way

Oh, ceilings, few and far between all the legal halls

 Of shame, yeah

(Guitarra 2 - Variação)

E|----------------------------------------------------|
B|----5-x-5/7---------------5-x-5/7-------------------|
G|----5-x-5/7---------------5-x-5/7-------------------|
D|-/7---------0-0-/7-0-0-/7---------0-0-/7-0-0-/7-----|
A|----------------------------------------------------|
E|----------------------------------------------------|


E|----------------------------------------------------|
B|-------------------------------------13b15----------|
G|------12b14-10~-12-10~-----12b14-10~----------------|
D|-----------------------12~--------------------------|
A|----------------------------------------------------|
E|----------------------------------------------------|

E|----------------------------------------------------|
B|----5-x-5/7---------------5-x-5/7-------------------|
G|----5-x-5/7---------------5-x-5/7-------------------|
D|-/7---------0-0-/7-0-0-/7---------------------------|
A|----------------------------------------------------|
E|----------------------------------------------------|


E|-15b17--15b17r15p13----13b--------------------------|
B|--------------------15------------------------------|
G|----------------------------------------------------|
D|----------------------------------------------------|
A|----------------------------------------------------|
E|----------------------------------------------------|

E|----------------------------------------------------|
B|----5-x-5/7---------------5-x-5/7-------------------|
G|----5-x-5/7---------------5-x-5/7-------------------|
D|-/7---------0-0-/7-0-0-/7---------0-0-/7-0-0-/7-----|
A|----------------------------------------------------|
E|----------------------------------------------------|


E|-------------10-------------------------------------|
B|----------10----10--13b15--13b15r13b15r13-----------|
G|----12b14-------------------------------------------|
D|----------------------------------------------------|
A|----------------------------------------------------|
E|----------------------------------------------------|

E|----------------------------------------------------|
B|----------------------------------------------------|
G|-12b14r12b14r12b14r12p10----10~---------------------|
D|-------------------------12-------------------------|
A|----------------------------------------------------|
E|----------------------------------------------------|

E|----------------------------------------------------|
B|----5-x-5/7---------------5-x-5/7-------------------|
G|----5-x-5/7---------------5-x-5/7-------------------|
D|-/7---------0-0-/7-0-0-/7---------0-0-/7-0-0--------|
A|----------------------------------------------------|
E|----------------------------------------------------|


E|-------------------------------------10-10----------|
B|-------------------10-10-10-13-13-13----------------|
G|-10-10-10-12-12-12----------------------------------|
D|----------------------------------------------------|
A|----------------------------------------------------|
E|----------------------------------------------------|

E|-13-13--13b15r13------------------------------------|
B|------------------13b15-----------------------------|
G|----------------------------------------------------|
D|----------------------------------------------------|
A|----------------------------------------------------|
E|----------------------------------------------------|

(Guitarra 1 / Guitarra 2)
E|----------------------------------------------------|
B|----------------------------------------------------|
G|----------------------------------------------------| (2x)
D|----------------------------------------------------|
A|------3p0---3/5-------------------------------------|
E|-/7-0-----0-----0--0-7\-0-0-------------------------|

E|----------------------------------------------------|
B|-------------------------------------13b15----------|
G|------12b14-10~-12p10------12b14-10~----------------|
D|-----------------------12~--------------------------|
A|----------------------------------------------------|
E|-/7-------------------------------------------------|

E|----------------------------------------------------|
B|----------------------------------------------------|
G|----------------------------------------------------|
D|----------------------------------------------------|
A|------3p0---3/5-------------------------------------|
E|-/7-0-----0-----0--0-7\-0-0-------------------------|

E|----------------------------------------------------|
B|----------------------------------------------------|
G|----------------------------------------------------|
D|----------------------------------------------------|
A|------3p0---3/5-------------------------------------|
E|-/7-0-----0-----0--0-7\-----------------------------|

E|-15b17--15b17r15p13----13b14------------------------|
B|--------------------15------------------------------|
G|----------------------------------------------------|
D|----------------------------------------------------|
A|----------------------------------------------------|
E|----------------------------------------------------|

E|----------------------------------------------------|
B|----------------------------------------------------|
G|----------------------------------------------------| (2x)
D|----------------------------------------------------|
A|------3p0---3/5-------------------------------------|
E|-/7-0-----0-----0--0-7\-0-0-------------------------|

E|-------------10-------------------------------------|
B|----------10----10-13b15--13b15r13b15r13------------|
G|----12b14-------------------------------------------|
D|----------------------------------------------------|
A|----------------------------------------------------|
E|-/7-------------------------------------------------|

E|----------------------------------------------------|
B|----------------------------------------------------|
G|-12h14p12-12h14p12-12h14p12\10----10~---------------|
D|-------------------------------12-------------------|
A|----------------------------------------------------|
E|----------------------------------------------------|

E|----------------------------------------------------|
B|----------------------------------------------------|
G|----------------------------------------------------| (2x)
D|----------------------------------------------------|
A|------3p0---3/5-------------------------------------|
E|-/7-0-----0-----0--0-7\-0-0-------------------------|

E|---------------------------------------10-10--------|
B|---------------------10-10-10-13-13-13--------------|
G|---10-10-10-12-12-12--------------------------------|
D|----------------------------------------------------|
A|----------------------------------------------------|
E|----------------------------------------------------|

E|-13-13--13b15r13------------------------------------|
B|------------------13b15~----------------------------|
G|----------------------------------------------------|
D|----------------------------------------------------|
A|----------------------------------------------------|
E|----------------------------------------------------|

[Refrão]

D5     Bb5                       D5     C5
Even flow, thoughts arrive like butterflies
     D5        Bb5                     D5
Oh, he don't know, so he chases them away
  C5
Yeah...ooh...
     D5      Bb5                  D5    C5
Oh, someday yet, he'll begin his life again
      D5        Bb5                 D5        C5
Oh, whispering hands, gently lead, lead him away
 D5   C5   D5   C5    D5   C5
Him away, him away            yeah!

(Guitarra 1)

E|----------------------------------------------------|
B|----------------------------------------------------|
G|----------------------------------------------------|
D|----------------------------------------------------|
A|-3-3-3-3-4-5----------------------------------------|
E|----------------------------------------------------|

(Guitarra 2)

E|----------------------------------------------------|
B|---------------------------------7------------------|
G|-5-5-5-5-5-6-7---5-5-5-5-5-6-7---7--7---------------|
D|---------------------------------------10--8~-------|
A|----------------------------------------------------|
E|----------------------------------------------------|

E|----------------------------------------------------|
B|-7------7-------7-------7---------------------------|
G|-7-7----7-7-----7-7-----7-7-------------------------|
D|-----10~----10~-----10~-----10~---------------------|
A|----------------------------------------------------|
E|----------------------------------------------------|

(Riff 3)

(Guitarra 1)

E|----------------------------------------------------|
B|----------------------------------------------------|
G|----------------------------------------------------|
D|--------------------------------12/-----------------|
A|--------------------------------12/-----------------|
E|-10-10-10-10-10-11-12-0---0-0-0-12/-----------------|

(4x)
 ↓  ↑  ↓  ↑  ↓  ↑  ↓  ↑   ↑ ↓ ↑ ↓

(Guitarra 2)

E|----------------------------------------------------|
B|-------------------------7/-------------------------|
G|-5-5-5-5-5-6-7-----------7/-------------------------|
D|---------------0-x-0-x-0-7/-------------------------|
A|----------------------------------------------------|
E|----------------------------------------------------|

(Guitarra 2 - Base)

E|----------------------------------------------------|
B|--3-3-x-x-x-x--3------------------------------------|
G|--2-2-x-x-x-x--2------------------------------------|
D|--0------------0------------------------------------|
A|----------------------------------------------------|
E|----------------------------------------------------|

[Solo]

(Guitarra 1)

E|------------------------------13--------------------|
B|-13/15--15--15-15--15--15-15--15b18-----------------|
G|----------------------------------------------------|
D|----------------------------------------------------|
A|----------------------------------------------------|
E|----------------------------------------------------|

E|----------10----------10----------------------------|
B|-------10----10-13b15----13-10----------------------|
G|-12b14-------------------------12b14r12p10----------|
D|----------------------------------------------------|
A|----------------------------------------------------|
E|----------------------------------------------------|

E|----------------------------------------------------|
B|----------------------------------------------------|
G|-------10h12p10----10h12p10-12b14-------------------|
D|-12-12----------12----------------------------------|
A|----------------------------------------------------|
E|----------------------------------------------------|

E|-------10-------------10----------------------------|
B|----------13-10-13b15----13-10----------------------|
G|-12b14-------------------------12p10----12b14r12p10-|
D|----------------------------------------------------|
A|----------------------------------------------------|
E|----------------------------------------------------|

E|----------------------------------------------------|
B|----------------------------------------------------|
G|-12----10-------------------------------------------|
D|----12----12-10-------------------------------------|
A|----------------12-11-10-8-10b11r10p8----8-10-8b9---|
E|--------------------------------------12------------|

E|----------------------------------------------------|
B|----------------------------------------------------|
G|-10-------10-------10-------10-------10-------10----|
D|----10h12----10h12----10h12----10h12----10h12-------|
A|----------------------------------------------------|
E|----------------------------------------------------|

E|----------10----------------------------------------|
B|-------10----13p10-10-13b15-------------------------|
G|-12h14----------------------------------------------|
D|----------------------------------------------------|
A|----------------------------------------------------|
E|----------------------------------------------------|

E|-15b17-15b17r15-13----------------------------------|
B|-------------------x-x------------------------------|
G|-------------------x-x-12b-10-----------------------|
D|-------------------x-x---------12b-10---------------|
A|-------------------------------------12-11-10\8-10b-|
E|----------------------------------------------------|

E|----------------------------------------------------|
B|-8/10~-----15-15-15\--------------------------------|
G|----------------------------------------------------|
D|-8/10~-----15-15-15\--------------------------------|
A|----------------------------------------------------|
E|----------------------------------------------------|

E|----------------------------------------------------|
B|--------------------------5-------------------------|
G|-----5---5h7------5---5h7---7-----------------------|
D|-5h7---7------5h7---7-------------------------------|
A|----------------------------------------------------|
E|----------------------------------------------------|

[Refrão]

D5     Bb5                       D5     C5
Even flow, thoughts arrive like butterflies
     D5        Bb5                     D5
Oh, he don't know, so he chases them away
  C5
Yeah...ooh...
     D5      Bb5                  D5    C5
Oh, someday yet, he'll begin his life again
      D5        Bb5                 D5        C5
Oh, whispering hands, gently lead, lead him away
 D5   C5   D5   C5    D5   C5
Him away, him away            yeah!

[Final]

Riff 3 - Guitarra 1:
E|----------------------------------------------------|
B|----------------------------------------------------|
G|----------------------------------------------------|
D|--------------------------------12------------------|
A|--------------------------------12------------------|
E|-10-10-10-10-10-11-12-0---0-0-0-12------------------|

(4x)
 ↓  ↑  ↓  ↑  ↓  ↑  ↓  ↑   ↑ ↓ ↑ ↓

Riff 3 - Guitarra 2:
E|----------------------------------------------------|
B|----------------------------------------------------|
G|-5-5-5-5-5-6-7--------------------------------------|
D|---------------0-x-0-x-0----------------------------|
A|----------------------------------------------------|
E|----------------------------------------------------|

Yeah!  Woo...uh huh...yeah, yeah, mommy, mommy...

Riff Final 2x:
E|----------------------------------------------------|
B|---------------------------------------------13b15--|
G|-12-10----10------------12-10----10-----------------|
D|-------12----12-10h12---------12----12-10h12--------|
A|----------------------------------------------------|
E|----------------------0-----------------------------|

----------------- Acordes -----------------
Bb5 = X 1 3 3 X X
C5 = X 3 5 5 X X
D5 = X 5 7 7 X X
