Pearl Jam - Just Breathe

[Intro] C  G  C  G

     C
E|------------------|--3--------3-------|--0-------0------|--3------5------|
B|--1--------1------|-------------------|-----------------|----------------|
G|------0---------0-|------0----------0-|------0--------0-|------0-------0-|
D|----2---------2---|----2---------2----|----2--------2---|----2-------2---|
A|--3------3--------|--3------3---------|--3------3-------|--3------3------|
E|------------------|-------------------|-----------------|----------------|

     G
E|------------------|------------------|------------------|----------------|
B|--3--------3------|--5---------5-----|--3--------3------|--0-------3-----|
G|------0---------0-|------0---------0-|------0---------0-|------0-------0-| (2x)
D|----0---------0---|----0---------0---|----0---------0---|----0-------0---|
A|------------------|------------------|------------------|----------------|
E|--3-------3-------|--3-------3-------|--3-------3-------|--3-------3-----|

[Versos]

     C
E|------------------|--3--------3-------|--0-------0------|--3------5------|
B|--1--------1------|-------------------|-----------------|----------------|
G|------0---------0-|------0----------0-|------0--------0-|------0-------0-|
D|----2---------2---|----2---------2----|----2--------2---|----2-------2---|
A|--3------3--------|--3------3---------|--3------3-------|--3------3------|
E|------------------|-------------------|-----------------|----------------|


     G
E|------------------|------------------|------------------|----------------|
B|--3--------3------|--5---------5-----|--3--------3------|--0-------3-----|
G|------0---------0-|------0---------0-|------0---------0-|------0-------0-|
D|----0---------0---|----0---------0---|----0---------0---|----0-------0---|
A|------------------|------------------|------------------|----------------|
E|--3-------3-------|--3-------3-------|--3-------3-------|--3-------3-----|

 C                                         G
Yes, I understand that every life must end, uh-huh
C                                          G
As we sit alone, I know someday we must go, uh-huh
   C                                                G
Oh I'm a lucky man, to count on both hands the ones I love
 C                                               G
Some folks just have one, yeah, others, they've got none, uh-huh

[Pré-Refrão]

     Am
E|------------------|--3--------3-------|--0-------0------|--3--------3----|
B|--1--------1------|-------------------|-----------------|----------------|
G|------2---------2-|------2----------2-|------2-------2--|------2-------2-|
D|----2---------2---|----2---------2----|----2-------2----|----2-------2---|
A|--0------0--------|--0------0---------|--0------0-------|--0------0------|
E|------------------|-------------------|-----------------|----------------|

     F
E|--1--------1------|--3--------3------|--1--------1------|--1--------0----|
B|-------1--------1-|-------1--------1-|-------1--------1-|-----1----------|
G|-----2-------2----|-----2-------2----|-----2-------2----|-------------2--|
D|--3------3--------|--3------3--------|--3------3--------|--3------3------|
A|------------------|------------------|------------------|----------------|
E|------------------|------------------|------------------|----------------|

Am
  Stay with me
F
  Let's just breathe

     C
E|------------------|--3--------3-------|--0-------0------|--3------5------|
B|--1--------1------|-------------------|-----------------|----------------|
G|------0---------0-|------0----------0-|------0--------0-|------0-------0-|
D|----2---------2---|----2---------2----|----2--------2---|----2-------2---|
A|--3------3--------|--3------3---------|--3------3-------|--3------3------|
E|------------------|-------------------|-----------------|----------------|

     G
E|------------------|------------------|------------------|----------------|
B|--3--------3------|--5---------5-----|--3--------3------|--0-------3-----|
G|------0---------0-|------0---------0-|------0---------0-|------0-------0-|
D|----0---------0---|----0---------0---|----0---------0---|----0-------0---|
A|------------------|------------------|------------------|----------------|
E|--3-------3-------|--3-------3-------|--3-------3-------|--3-------3-----|

C  G
   yuh-huuh
  C                                            G
Practiced all my sins, never gonna let me win, uh-huh
C                                           G
Under everything, just another human being, uh-huh
   C                                                       G
I don't wanna hurt, there's so much in this world to make me bleed

Am
  Stay with me
F
  You're all I see

[Refrão]

     G                                     Dm
E|--3---------3-----|--3---------3-----|--1---------1-----|--1-------1-----|
B|-------0--------0-|-------0--------0-|-------3--------3-|-------3------3-|
G|-----0--------0---|-----0--------0---|-----2--------2---|-----2------2---|
D|------------------|------------------|--0-------0-------|--0------0------|
A|------------------|------------------|------------------|----------------|
E|--3-------3-------|--3-------3-------|------------------|----------------|

     G                                     Dm
E|--3---------3-----|--3---------3-----|--1---------1-----|--1-------1-----|
B|-------0--------0-|-------0--------0-|-------3--------3-|-------3------3-|
G|-----0--------0---|-----0--------0---|-----2--------2---|-----2------2---|
D|------------------|------------------|--0-------0-------|--0------0------|
A|------------------|------------------|------------------|----------------|
E|--3-------3-------|--3-------3-------|------------------|----------------|

     F                                     Am
E|--1--------1------|--1--------1------|--0--------0------|--0-------0-----|
B|-------1--------1-|-------1--------1-|-------1--------1-|-------1------1-|
G|-----2-------2----|-----2-------2----|-----2-------2----|-----2------2---|
D|--3------3--------|--3------3--------|--0------0--------|--0------0------|
A|------------------|------------------|------------------|----------------|
E|------------------|------------------|------------------|----------------|

     Dm
E|--1--------1------|--1--------1------|--1---------1-----|--1---------1----|
B|-------3--------3-|-------3--------3-|-------3--------3-|------3--------3-|
G|-----2-------2----|-----2-------2----|-----0--------0---|----0--------0---|
D|--0------0--------|--0------0--------|------------------|-----------------|
A|------------------|------------------|--2-------2-------|--2------2-------|
E|------------------|------------------|------------------|-----------------|

     G
E|----------0-------|--1------0-------|
B|--3---------------|-----------------|
G|------0-------0---|------0------0---|
D|------------------|-----------------|
A|------------------|-----------------|
E|--3-------3-------|--3------3-------|

G                   Dm
  Did I say that I need you?
G                   Dm
  Did I say that I want you?
F                      Am
Oh, if I didn't I'm a fool you see
 Dm            Dm/C      G/B
No one knows this more than me
G
As I come clean

   C                                         G
I wonder everyday, as I look upon your face, uh-huh
  C                                             G
Everything you gave and nothing you would save, oh no

 Am
Nothing you would take
    F
Everything you gave

G                   Dm
  Did I say that I need you?
G                       Dm
  Oh, did I say that I want you?
F                      Am
Oh, if I didn't I'm a fool you see
 Dm            Dm/C      G/B
No one knows this more than me
G
And I come clean

     C
E|------------------|--3--------3-------|--0-------0------|--3------5------|
B|--1--------1------|-------------------|-----------------|----------------|
G|------0---------0-|------0----------0-|------0--------0-|------0-------0-|
D|----2---------2---|----2---------2----|----2--------2---|----2-------2---|
A|--3------3--------|--3------3---------|--3------3-------|--3------3------|
E|------------------|-------------------|-----------------|----------------|

     G
E|------------------|------------------|------------------|----------------|
B|--3--------3------|--5---------5-----|--3--------3------|--0-------3-----|
G|------0---------0-|------0---------0-|------0---------0-|------0-------0-|
D|----0---------0---|----0---------0---|----0---------0---|----0-------0---|
A|------------------|------------------|------------------|----------------|
E|--3-------3-------|--3-------3-------|--3-------3-------|--3-------3-----|

[Final]

     Am
E|------------------|--3--------3-------|--0-------0------|--3--------3-----|
B|--1--------1------|-------------------|-----------------|-----------------|
G|------2---------2-|------2----------2-|------2-------2--|------2-------2--|
D|----2---------2---|----2---------2----|----2-------2----|----2-------2----|
A|--0------0--------|--0------0---------|--0------0-------|--0------0-------|
E|------------------|-------------------|-----------------|-----------------|

    F
E|-1--------1------|--3--------3------|--1--------1------|--3--------3------|
B|------1--------1-|-------1--------1-|-------1--------1-|-------1--------1-|
G|----2-------2----|-----2-------2----|-----2-------2----|-----2-------2----|
D|-3------3--------|--3------3--------|--3------3--------|--3------3--------|
A|-----------------|------------------|------------------|------------------|
E|-----------------|------------------|------------------|------------------|

     Am
E|------------------|--3--------3-------|--0-------0------|--3--------3-----|
B|--1--------1------|-------------------|-----------------|-----------------|
G|------2---------2-|------2----------2-|------2-------2--|------2-------2--|
D|----2---------2---|----2---------2----|----2-------2----|----2-------2----|
A|--0------0--------|--0------0---------|--0------0-------|--0------0-------|
E|------------------|-------------------|-----------------|-----------------|

      F
E|--1--------1------|--3--------3------|--1--------1------|--0--------------|
B|-------1--------1-|-------1--------1-|-------1--------1-|--1--------------|
G|-----2-------2----|-----2-------2----|-----2-------2----|--2--------------|
D|--3------3--------|--3------3--------|--3------3--------|--3--------------|
A|------------------|------------------|------------------|-----------------|
E|------------------|------------------|------------------|-----------------|

 Am
Nothing you would take
    F
Everything you gave
 Am
Hold me 'till I die
         F
Meet you on the other side

----------------- Acordes -----------------
Am = X 0 2 2 1 0
C = X 3 2 0 1 0
Dm = X X 0 2 3 1
Dm/C = X 3 X 2 3 1
F = 1 3 3 2 1 1
G = 3 2 0 0 0 3
G/B = X 2 0 0 3 3
