Pearl Jam - Love Boat Captain

intro and verse:
----------------------------------------------
----------------------------------------------
-0--0-0-0--0--0-0-0---------------------------
-2--2-2-2--1--1-1-1---5---5-5-5---3---3-3-3---
-3--3-3-3--3--3-3-3---5---5-5-5---3---3-3-3---
----------------------3---3-3-3---1---1-1-1---

Love Boat Captain Take the reigns,.. steer us towards the clear.here ...
----0--------0--------3------2--------0-----0-----3----2----3---2---
----0--------0--------1------1--------0-----0-----1----1----1---1---
----9--------1--------2------2--------9-----1-----2----2----2---2---
----7--------2--------0------0--------7-----2-----0----0----0---0---
----9--------2------------------------9-----2-----------------------
---0---------0------------------------0-----0-----------------------

 G ,F

C        Cm           G    F                    C
Is this just another phase? Earthquakes making waves
           Cm               G   F              C
Trying to shake the cancer off? Stupid human beings

          Cm               G       F
Once you hold the hand of love,.

 A            C               A    C9,G
Hold me, and make it the truth
      A           C                A C9,G
That when all is lost there will be you
             A                     C        G
Cause to the universe I don't mean a thing
             A                    C     G
And there's just one world I still believe ,

And it's love
---------------------------------------------------
---------------------------------------------------
------------------------------------------3-3-3----
------0-2---2-------0-2---2------0-2---2--3-3-3----
----3-----3-------3-----3------3-----3----1-1-1----
--1-------------1------------1---------------------

----------------------------------
-----13--15--13-15-13-------------
--------------------------3-3-3---
--------------------------3-3-3---
--------------------------1-1-1---
----------------------------------

chorus:
 C , Cm . G . F (3X)

And the young they can lose ....
----0--------0--------3------2--------0-----0-----3----2----3---2---
----0--------0--------1------1--------0-----0-----1----1----1---1---
----9--------1--------2------2--------9-----1-----2----2----2---2---
----7--------2--------0------0--------7-----2-----0----0----0---0---
----9--------2------------------------9-----2-----------------------
---0---------0------------------------0-----0-----------------------

G,F

 A            C               A    C9,G
Hold me, and make it the truth
      A           C                A C9,G
That when all is lost there will be you
             A                     C        G
Cause to the universe I don't mean a thing
             A                    C     G
And there's just one world I still believe ,
            A       C,G  A     C,G
And it's love,    love,love,love

(A,C,G)
---------------------------------------------------
---------------------------------------------------
------------------------------------------3-3-3----
------0-2---2-------0-2---2------0-2---2--3-3-3----
----3-----3-------3-----3------3-----3----1-1-1----
--1-------------1------------1---------------------

C          Cm
Love boat captain
          G     F                        C
Take the reigns,.. steer us towards the clear.
            Cm            G     F               C
I know it's already been sung,... can't be said enough.
        Cm           G          F        C     Cm      G
Love is all you need,.. all you need is love,..Love,.. love,...

----------------- Acordes -----------------
A = X 0 2 2 2 0
C = X 3 2 0 1 0
C9 = X 3 5 5 3 3
Cm = X 3 5 5 4 3
F = 1 3 3 2 1 1
G = 3 2 0 0 0 3
