Pearl Jam - Lukin

------------------------------------------------------------------------------
-----------------------0----------------------------0-------------------------
--9--9--9--9--9--7--7--7-------9--9--9--9--9--5--5--5-------------------------
--9--9--9--9--9--7--7--7-------9--9--9--9--9--5--5--5--x-x--------------------
--7--7--7--7--7--5--5--5-------7--7--7--7--7--3--3--3--x-x--------------------
------------------------------------------------------------------------------
 Intro X2   with slight variations                   Intro and verse same     

------------------------------------------------------------------------------
--12vv-x-x-x-x-x-12vv---------------------------------------------------------
------------------------------------------------------------------------------
------------------------------------------------------------------------------
------------------------------------------------------------------------------
------------------------------------------------------------------------------
 mike plays this during intro and verse with slight variations                

------------------------------------------------------------------------------
------------------------------------------------------------------------------
--9--9--9--9--9--0--7--7--7--7--7-----5--5--5--5--5--5--5--5--7--7--7--7--7---
--9--9--9--9--9--0--7--7--7--7--7--0--5--5--5--5--5--5--5--5--7--7--7--7--7---
--7--7--7--7--7-----5--5--5--5--5-----3--3--3--3--3--3--3--3--5--5--5--5--5---
------------------------------------------------------------------------------
  Chorus                     listen to cd for strumming                       


------------------------------------------------------------------------------
------------------------------------------------------------------------------
--7---------------------------------------------------------------------------
--7---------------------------------------------------------------------------
--5---------------------------------------------------------------------------
------------------------------------------------------------------------------
                        just slide down to finish at end
