Pearl Jam - Nothing As It Seems

G1 - Stone
G2 - Mike
Standard Tuning

-|-----------------------|-----------------------|-----------------------|----
-|-----------------------|-----------------------|-----------------------|----
-|-4--4--4--4-4--4-4-4-4-|-3--3--3--3-3--3-3-3-3-|-4--4--4--4-4--4-4-4-4-|----
-|-4--4--4--4-4--4-4-4-4-|-0--0--0--0-0--0-0-0-0-|-4--4--4--4-4--4-4-4-4-|----
-|-2--2--2--2-2--2-2-2-2-|-1--1--1--1-1--1-1-1-1-|-2--2--2--2-2--2-2-2-2-|----
-|-----------------------|-----------------------|-----------------------|----
 G1

-|-----------------------|-----------------------|-----------------------|----
-|-----------------------|-----------------------|-----------------------|----
-|-9b11------------------|-9b11r9vv---------9b10-|-9b11------------------|----
-|-----------------------|-----------------------|-----------------------|----
-|-----------------------|-----------------------|-----------------------|----
-|-----------------------|-----------------------|-----------------------|----
 G2


-|-----------------------|-----------------------|-----------------------|----
-|-----------------------|-----------------------|-----------------------|----
-|-4--4--4--4-4--4-4-4-4-|-4--4--4--4-4--4-4-4-4-|-3--3--3--3-3--3-3-3-3-|----
-|-4--4--4--4-4--4-4-4-4-|-4--4--4--4-4--4-4-4-4-|-0--0--0--0-0--0-0-0-0-|----
-|-2--2--2--2-2--2-2-2-2-|-2--2--2--2-2--2-2-2-2-|-1--1--1--1-1--1-1-1-1-|----
-|-----------------------|-----------------------|-----------------------|----
 G1

-|-----------------------|----------------7------|-7--------------7----7-|----
-|-----------------------|-7----------------10-7-|-10b12r10vv-------10---|----
-|-7-----------------7-9-|-9b11------------------|-----------------------|----
-|---9vv---------7/9-----|-----------------------|-----------------------|----
-|-----------------------|-----------------------|-----------------------|----
-|-----------------------|-----------------------|-----------------------|----
 G2

-|-----------------------|-----------------------|----------------------------
-|-----------------------|-----------------------|----------------------------
-|-4--4--4--4-4--4-4-4-4-|-4--4--4--4-4--4-4-4-4-|----------------------------
-|-4--4--4--4-4--4-4-4-4-|-4--4--4--4-4--4-4-4-4-|----------------------------
-|-2--2--2--2-2--2-2-2-2-|-2--2--2--2-2--2-2-2-2-|----------------------------
-|-----------------------|-----------------------|----------------------------
 G1                                          Don't

-|-10b12------------r10--|-----------------------|----------------------------
-|-----------------------|-10b12-----------------|----------------------------
-|-----------------------|-----------------------|----------------------------
-|-----------------------|-----------------------|----------------------------
-|-----------------------|-----------------------|----------------------------
-|-----------------------|-----------------------|----------------------------
 G2

-|------------------------|-----------------------|-----------------------|---
-|------------------------|-----------------------|-----------------------|---
-|--4--4--4--4-4--4-4-4-4-|-3--3--3--3-3--3-3-3-3-|-4--4--4--4-4--4-4-4-4-|---
-|--4--4--4--4-4--4-4-4-4-|-0--0--0--0-0--0-0-0-0-|-4--4--4--4-4--4-4-4-4-|---
-|--2--2--2--2-2--2-2-2-2-|-1--1--1--1-1--1-1-1-1-|-2--2--2--2-2--2-2-2-2-|---
-|------------------------|-----------------------|-----------------------|---
 G1 Feel like home          he's a little out

-|-----------------------|-----------------------|-----------------------|----
-|-----------------------|-----------------------|-----------------------|----
-|-4--4--4--4-4--4-4-4-4-|-4--4--4--4-4--4-4-4-4-|-3--3--3--3-3--3-3-3-3-|----
-|-4--4--4--4-4--4-4-4-4-|-4--4--4--4-4--4-4-4-4-|-0--0--0--0-0--0-0-0-0-|----
-|-2--2--2--2-2--2-2-2-2-|-2--2--2--2-2--2-2-2-2-|-1--1--1--1-1--1-1-1-1-|----
-|-----------------------|-----------------------|-----------------------|----
 G1                   And all these words elope it's nothing like your poem

-|-----------------------|-----------------------|-----------------------|----
-|-----------------------|-----------------------|-----------------------|----
-|-4--4--4--4-4--4-4-4-4-|-4--4--4--4-4--4-4-4-4-|-4--4--4--4-4--4-4-4-4-|----
-|-4--4--4--4-4--4-4-4-4-|-4--4--4--4-4--4-4-4-4-|-4--4--4--4-4--4-4-4-4-|----
-|-2--2--2--2-2--2-2-2-2-|-2--2--2--2-2--2-2-2-2-|-2--2--2--2-2--2-2-2-2-|----
-|-----------------------|-----------------------|-----------------------|----
 G1                                               Putting in in-putting in

-|-----------------------|-----------------------|-----------------------|----
-|-----------------------|-----------------------|-7---------------------|----
-|-----------------------|-----------------------|-4---------------------|----
-|-----------------------|-----------------------|-----------------------|----
-|-----------------------|-----------------------|-----------------------|----
-|-----------------------|-----------------------|-----------------------|----
 G2

-|------------------------|-----------------------|-----------------------|---
-|------------------------|-----------------------|-----------------------|---
-|--3--3--3--3-3--3-3-3-3-|-4--4--4--4-4--4-4-4-4-|-4--4--4--4-4--4-4-4-4-|---
-|--0--0--0--0-0--0-0-0-0-|-4--4--4--4-4--4-4-4-4-|-4--4--4--4-4--4-4-4-4-|---
-|--1--1--1--1-1--1-1-1-1-|-2--2--2--2-2--2-2-2-2-|-2--2--2--2-2--2-2-2-2-|---
-|------------------------|-----------------------|-----------------------|---
 G1 Don't feel like methadone

-|------------------------|-----------------------|-----------------------|---
-|--6---------------------|-7---------------------|-----------------------|---
-|--7---------------------|-4---------------------|-----------------------|---
-|------------------------|-----------------------|-----------------------|---
-|------------------------|-----------------------|-----------------------|---
-|------------------------|-----------------------|-----------------------|---
 G2

-|------------------------|-----------------------|-----------------------|---
-|------------------------|-----------------------|-----------------------|---
-|--4--4--4--4-4--4-4-4-4-|-3--3--3--3-3--3-3-3-3-|-4--4--4--4-4--4-4-4-4-|---
-|--4--4--4--4-4--4-4-4-4-|-0--0--0--0-0--0-0-0-0-|-4--4--4--4-4--4-4-4-4-|---
-|--2--2--2--2-2--2-2-2-2-|-1--1--1--1-1--1-1-1-1-|-2--2--2--2-2--2-2-2-2-|---
-|------------------------|-----------------------|-----------------------|---
 G1 A scratching voice all alone it's nothing like your baritone

-|------------------------|-----------------------|-----------------------|---
-|--7---------------------|-6---------------------|-7---------------------|---
-|--4---------------------|-7---------------------|-4---------------------|---
-|------------------------|-----------------------|-----------------------|---
-|------------------------|-----------------------|-----------------------|---
-|------------------------|-----------------------|-----------------------|---
 G2

-|-----------------------|-----------------------|----------------------------
-|-----------------------|-----------------------|----------------------------
-|-4--4--4--4-4--4-4-4-4-|-4--4--4--4-4--4-4-4-4-|----------------------------
-|-4--4--4--4-4--4-4-4-4-|-4--4--4--4-4--4-4-4-4-|----------------------------
-|-2--2--2--2-2--2-2-2-2-|-2--2--2--2-2--2-2-2-2-|----------------------------
-|-----------------------|-----------------------|----------------------------
 G1                                          It's

-|------------------------|-----------------------|-----------------------|---
-|------------------------|----3--3--2-2----------|----3--3---------------|---
-|--7--7--7--x-x--x---7-7-|-2--2--2--2-2--2-2-2-2-|-4--4--4--4-4--4-4-4-4-|---
-|--7--7--7--x-x--x---7-7-|-2--2--2--2-2--2-2-2-2-|-4--4--4--4-4--4-4-4-4-|---
-|--5--5--5--x-x--x---5-5-|-0--0--0--0-0--0-0-0-0-|-2--2--2--2-2--2-2-2-2-|---
-|------------------------|-----------------------|-----------------------|---
 G1 Nothing as it seems the little that he needs it's home

-|------------------2p0---|-----------------------|-----------------------|---
-|----------------------3-|-----------------------|-----------------------|---
-|------------------------|-2-----------------2-2-|-4---------------------|---
-|--0---------------------|-2-----------------2-2-|-4-------------------4-|---
-|------------------------|-0-----------------0-0-|-2-------------------2-|---
-|------------------------|-----------------------|-----------------------|---
 G2

-|-----------------------|-----------------------|-----------------------|----
-|----3--3---------------|-----------------------|----3--3--2-2----------|----
-|-4--4--4--4-4--4-4-4-4-|-7--7--7--7-7--7-7-7-7-|-2--2--2--2-2--2-2-2-2-|----
-|-4--4--4--4-4--4-4-4-4-|-7--7--7--7-7--7-7-7-7-|-2--2--2--2-2--2-2-2-2-|----
-|-2--2--2--2-2--2-2-2-2-|-5--5--5--5-5--5-5-5-5-|-0--0--0--0-0--0-0-0-0-|----
-|-----------------------|-----------------------|-----------------------|----
 G1                    The little that he sees it's nothing he concedes its

-|-----------------------|-------2p0-------------|-----------------------|----
-|-----------------------|-----------3-----------|-----------------------|----
-|-4---------------------|-----------------------|-2---------------------|----
-|-4---------------------|-0---------------------|-2---------------------|----
-|-2---------------------|-----------------------|-0---------------------|----
-|-----------------------|-----------------------|-----------------------|----
 G2

-|-------------------|----------------|---------------------------------------
-|-------------------|----------------|---------------------------------------
-|--4----------------|----------------|---------------------------------------
-|--4----------------|----------------|---------------------------------------
-|--2----------------|----------------|---------------------------------------
-|-------------------|----------------|---------------------------------------
 G1 Home

-|-------------------|----------------|---------------------------------------
-|-------------------|----------------|---------------------------------------
-|--4----------------|----------------|---------------------------------------
-|--4----------------|--4-------------|---------------------------------------
-|--2----------------|--2-------------|---------------------------------------
-|-------------------|----------------|---------------------------------------
 G2

-|--------------------------|----------------------------------|--------------
-|--------------------------|----------------------------------|--------------
-|-4--4---4---4-4---4-4-4-4-|-3---3---3---3--3----3--3--3--3---|--------------
-|-4--4---4---4-4---4-4-4-4-|-0---0---0---0--0----0--0--0--0---|--------------
-|-2--2---2---2-2---2-2-2-2-|-1---1---1---1--1----1--1--1--1---|--------------
-|--------------------------|----------------------------------|--------------
 G1

-|----------7---------------|-7----------------7-------------7-|--------------
-|-10b12vvv---10-7-10b12vvv-|---10-7-10b12vvv----10-7------7---|--------------
-|--------------------------|-------------------------9b11-----|--------------
-|--------------------------|----------------------------------|--------------
-|--------------------------|----------------------------------|--------------
-|--------------------------|----------------------------------|--------------
 G2

-|-------------------------------------|--------------------------|-----------
-|-------------------------------------|--------------------------|-----------
-|-4---4---4---4--4-----4--4--4--4-----|-4--4---4--4-4---4-4-4-4--|-----------
-|-4---4---4---4--4-----4--4--4--4-----|-4--4---4--4-4---4-4-4-4--|-----------
-|-2---2---2---2--2-----2--2--2--2-----|-2--2---2--2-2---2-2-2-2--|-----------
-|-------------------------------------|--------------------------|-----------
 G1

-|-------------------------------------|--------------------10-12-|-----------
-|----------------------7--------------|-----------------12-------|-----------
-|-9b11r9p7-7-9b11vvvvv---9b10r9p7-9-7-|-9b11r9p7-----------------|-----------
-|-------------------------------------|----------9---------------|-----------
-|-------------------------------------|--------------------------|-----------
-|-------------------------------------|--------------------------|-----------
 G2

-|---------------------------|----------------------------------|-------------
-|---------------------------|----------------------------------|-------------
-|-4--4---4--4-4----4-4-4-4--|--3-------------3---------------3-|-------------
-|-4--4---4--4-4----4-4-4-4--|--0-------------0---------------0-|-------------
-|-2--2---2--2-2----2-2-2-2--|--1-------------1---------------1-|-------------
-|---------------------------|----------------------------------|-------------
 G1

-|-12b14--13b14-13b14-13b14--|-12b14r12-10-12-12b14r12p10-12-10-|-------------
-|---------------------------|----------------------------------|-------------
-|---------------------------|----------------------------------|-------------
-|---------------------------|----------------------------------|-------------
-|---------------------------|----------------------------------|-------------
-|---------------------------|----------------------------------|-------------
 G2 Hold bend -----------|

-|--------------------------------------------|-------------|--------------|--
-|--------------------------------------------|-------------|--------------|--
-|-----3---3----------------3---3---3---3-----|--4----------|--------------|--
-|-----0---0----------------0---0---0---0-----|--4----------|--------------|--
-|-----1---1----------------1---1---1---1-----|--2----------|--------------|--
-|--------------------------------------------|-------------|--------------|--
 G1                                                                      One

-|-12b14r12p10-----10-12-10-12b14r12p10-12-10-|-12b14vv-----|-r12-----*10--|--
-|-------------12-----------------------------|-------------|--------------|--
-|--------------------------------------------|-------------|--------------|--
-|--------------------------------------------|-------------|--------------|--
-|--------------------------------------------|-------------|--------------|--
-|--------------------------------------------|-------------|--------------|--
 G2                                                              *W/ Delay

-|------------------------|-----------------------|---------------------------
-|------------------------|-----------------------|---------------------------
-|--4--4--4--4-4--4-4-4-4-|-3--3--3--3-3--3-3-3-3-|---------------------------
-|--4--4--4--4-4--4-4-4-4-|-0--0--0--0-0--0-0-0-0-|---------------------------
-|--2--2--2--2-2--2-2-2-2-|-1--1--1--1-1--1-1-1-1-|---------------------------
-|------------------------|-----------------------|---------------------------
 G1 Uninvited chromosome a blanket like the ozone

-|------------------------|-----------------------|---------------------------
-|------------------------|-----------------------|---------------------------
-|--4--4--4--4-4--4-4-4-4-|-4--4--4--4-4--4-4-4-4-|---------------------------
-|--4--4--4--4-4--4-4-4-4-|-4--4--4--4-4--4-4-4-4-|---------------------------
-|--2--2--2--2-2--2-2-2-2-|-2--2--2--2-2--2-2-2-2-|---------------------------
-|------------------------|-----------------------|---------------------------
 G1                                           It's

-|------------------------|-----------------------|-----------------------|---
-|------------------------|-------2--2-2--2-2-----|-----------------------|---
-|--7--7--7--7-7--7-7-7-7-|-2--2--2--2-2--2-2-2-2-|-4--4--4--4-4--4-4-4-4-|---
-|--7--7--7--7-7--7-7-7-7-|-2--2--2--2-2--2-2-2-2-|-4--4--4--4-4--4-4-4-4-|---
-|--5--5--5--5-5--5-5-5-5-|-0--0--0--0-0--0-0-0-0-|-2--2--2--2-2--2-2-2-2-|---
-|------------------------|-----------------------|-----------------------|---
 G1 Nothing as it seems     all that he needs  it's home

-|---------2p0------------|-----------------------|-----------------------|---
-|-------------3----------|-----------------------|-----------------------|---
-|------------------------|-2---------------------|-4---------------------|---
-|--0---------------------|-2---------------------|-4---------------------|---
-|------------------------|-0---------------------|-2---------------------|---
-|------------------------|-----------------------|-----------------------|---
 G2

-|-----------------------|-----------------------|-----------------------|----
-|-----------------------|-----------------------|-----------------------|----
-|-4--4--4--4-4--4-4-4-4-|-7--7--7--7-7--7-7-7-7-|-2--2--2--2-2--2-2-2-2-|----
-|-4--4--4--4-4--4-4-4-4-|-7--7--7--7-7--7-7-7-7-|-2--2--2--2-2--2-2-2-2-|----
-|-2--2--2--2-2--2-2-2-2-|-5--5--5--5-5--5-5-5-5-|-0--0--0--0-0--0-0-0-0-|----
-|-----------------------|-----------------------|-----------------------|----
 G1                    The little that he frees it's nothing he believes

-|-----------------------|----------2p0----------|-----------------------|----
-|-----------------------|-3------------3--------|-----------------------|----
-|-4-----------------4---|-2---------------------|-2---------------------|----
-|-4-----------------4---|-0---------------------|-2---------------------|----
-|-2-----------------2---|-----------------------|-0---------------------|----
-|-----------------------|-----------------------|-----------------------|----
 G2

-|------------------------|------------------------|------------------------|-
-|------------------------|------------------------|------------------------|-
-|-4--4--4--4-4--4-4-4-4--|-3--3--3--3-3--3-3-3-3--|-2--2--2--2-2--2-2-2-2--|-
-|-4--4--4--4-4--4-4-4-4--|-0--0--0--0-0--0-0-0-0--|-2--2--2--2-2--2-2-2-2--|-
-|-2--2--2--2-2--2-2-2-2--|-1--1--1--1-1--1-1-1-1--|-0--0--0--0-0--0-0-0-0--|-
-|------------------------|------------------------|------------------------|-
 G1 Saving up  a sunny day something maybe two tone  anything of his own

-|-------2-----2--0-----0-|-------2-----2--0-----0-|-------2-----2--0-----0-|-
-|----3-----3--------3----|----3-----3--------3----|----3-----3--------3----|-
-|-4----------------------|-3----------------------|-2----------------------|-
-|------------------------|------------------------|------------------------|-
-|------------------------|------------------------|------------------------|-
-|------------------------|------------------------|------------------------|-
 G2

-|------------------------|------------------------|------------------------|-
-|------------------------|------------------------|------------------------|-
-|-3--3--3--3-3--3-3-3-3--|-4--4--4--4-4--4-4-4-4--|-3--3--3--3-3--3-3-3-3--|-
-|-0--0--0--0-0--0-0-0-0--|-4--4--4--4-4--4-4-4-4--|-0--0--0--0-0--0-0-0-0--|-
-|-1--1--1--1-1--1-1-1-1--|-2--2--2--2-2--2-2-2-2--|-1--1--1--1-1--1-1-1-1--|-
-|------------------------|------------------------|------------------------|-
 G1 Chip off the corner stone who's kidding rainy day 1way ticket headstone

-|-------2-----2--0-----0-|-------2-----2--0-----0-|-------2-----2--0-----0-|-
-|----3-----3--------3----|----3-----3--------3----|----3-----3--------3----|-
-|-3----------------------|-4----------------------|-3----------------------|-
-|------------------------|------------------------|------------------------|-
-|------------------------|------------------------|------------------------|-
-|------------------------|------------------------|------------------------|-
 G2

-|------------------------|------------------------|------------------------|-
-|------------------------|------------------------|------------------------|-
-|-2--2--2--2-2--2-2-2-2--|-3--3--3--3-3--3-3-3-3--|-3-3--3--3--3-3--3-3-3--|-
-|-2--2--2--2-2--2-2-2-2--|-0--0--0--0-0--0-0-0-0--|-0-0--0--0--0-0--0-0-0--|-
-|-0--0--0--0-0--0-0-0-0--|-1--1--1--1-1--1-1-1-1--|-1-1--1--1--1-1--1-1-1--|-
-|------------------------|------------------------|------------------------|-
 G1 Occupations overthrown a whisper through a megaphone

-|-------2-----2--0-----0-|-------2-----2--0-----0-|-------2----------------|-
-|----3-----3--------3----|----3-----3--------3----|----3-------------------|-
-|-2----------------------|-3----------------------|-3----------------------|-
-|------------------------|------------------------|------------------------|-
-|------------------------|------------------------|------------------------|-
-|------------------------|------------------------|------------------------|-
 G2

-|-----------------------------------|------------------------------|---------
-|-----------------------------------|------------------------------|---------
-|-----------------------------------|------------------------------|---------
-|--6---6---6---6---5---5---5---5--5-|--4---4---4--4--4--2--2--2----|---------
-|--6---6---6---6---5---5---5---5--5-|--4---4---4--4--4--2--2--2----|---------
-|--4---4---4---4---3---3---3---3--3-|--2---2---2--2--2--0--0--0----|---------
 G1

-|-----------------------------------|------------------------------|---------
-|-----------------------------------|------------------------------|---------
-|-13--13--13--13--12--12--12--12-12-|-11--11--11--11\9--9--9--9----|---------
-|--x---x---x---x---x---x---x---x--x-|--x---x---x---x----x--x--x----|---------
-|-11--11--11--11--10--10--10--10-10-|--9---9---9---9\7--7--7--7----|---------
-|-----------------------------------|------------------------------|---------
 G2

-|----------------------------------|---------------------------------|-------
-|----------------------------------|---------------------------------|-------
-|-4---4---4---4--4----4--4--4--4---|-4---4---4---4--4----4--4--4--4--|-------
-|-4---4---4---4--4----4--4--4--4---|-4---4---4---4--4----4--4--4--4--|-------
-|-2---2---2---2--2----2--2--2--2---|-2---2---2---2--2----2--2--2--2--|-------
-|----------------------------------|---------------------------------|-------
 G1

-|------------------7---------------|-7---------------7-------12b14---|-------
-|--------------------10-7-10b12vvv-|---10-7-10b12vv----10-7----------|-------
-|-9b11r9p7-9b11vvv-----------------|---------------------------------|-------
-|----------------------------------|---------------------------------|-------
-|----------------------------------|---------------------------------|-------
-|----------------------------------|---------------------------------|-------
 G2

-|--------------------------------------|----------------------------|--------
-|--------------------------------------|----------------------------|--------
-|--------------------------------------|----------------------------|--------
-|--6---6---6---6--6---5---5---5---5--5-|--4---4---4---4-4--2--2--2--|--------
-|--6---6---6---6--6---5---5---5---5--5-|--4---4---4---4-4--2--2--2--|--------
-|--4---4---4---4--4---3---3---3---3--3-|--2---2---2---2-2--0--0--0--|--------
 G1

-|--------------------------------------|----------------------------|--------
-|--------------------------------------|----------------------------|--------
-|-13--13--13--13\12--12--12--12--12-12-|-11--11--11--11\9--9--9/-\--|--------
-|--x---x---x---x------x---x---x---x--x-|--x---x---x---x----x--x-----|--------
-|-11--11--11--11\10--10--10--10--10-10-|--9---9---9---9\7--7--7/-\--|--------
-|--------------------------------------|----------------------------|--------
 G2

-|---------------------------|---------------------------------------|--------
-|---------------------------|---------------------------------------|--------
-|-4---4---4---4-4---4-4-4-4-|--4----4----4----4--4-----4--4--4--4---|--------
-|-4---4---4---4-4---4-4-4-4-|--4----4----4----4--4-----4--4--4--4---|--------
-|-2---2---2---2-2---2-2-2-2-|--2----2----2----2--2-----2--2--2--2---|--------
-|---------------------------|---------------------------------------|--------
 G1

-|-12b14vvv-14vv-14vv--14-14-|-14-14-14-14-14r12-10--10-12-*10b------|--------
-|---------------------------|----------------------------------12\--|--------
-|---------------------------|---------------------------------------|--------
-|---------------------------|---------------------------------------|--------
-|---------------------------|---------------------------------------|--------
-|---------------------------|---------------------------------------|--------
 G2   hold bend---------------------------|                 *1/4 step bend

-|-------------------------|-------------------------|----------------------|-
-|-------------------------|-------------------------|----------------------|-
-|-------------------------|-------------------------|----------------------|-
-|--6--6--6--6--5--5--5--5-|--4--4--4--4--4--4--4--4-|--4--4--4--4--4--4--4-|-
-|--6--6--6--6--5--5--5--5-|--4--4--4--4--4--4--4--4-|--4--4--4--4--4--4--4-|-
-|--4--4--4--4--3--3--3--3-|--2--2--2--2--2--2--2--2-|--2--2--2--2--2--2--2-|-
 G1

-|-------------------------|-------------------------|----------------------|-
-|-------------------------|-------------------------|----------------------|-
-|-13-13-13-13-12-12-12-12-|-11-11-11-11-11-11-11-11-|-11-11-11-11-11-11-11-|-
-|--x--x--x--x--x--x--x--x-|--x--x--x--x--x--x--x--x-|--x--x--x--x--x--x--x-|-
-|-11-11-11-11-10-10-10-10-|--9--9--9--9--9--9--9--9-|--9--9--9--9--9--9--9-|-
-|-------------------------|-------------------------|----------------------|-
 G2

-|-----------------------|-----------------------|-----------------------|----
-|-----------------------|-----------------------|-----------------------|----
-|-4--4--4--4-4--4-4-4-4-|-3--3--3--3-3--3-3-3-3-|-4--4--4--4-4--4-4-4-4-|----
-|-4--4--4--4-4--4-4-4-4-|-0--0--0--0-0--0-0-0-0-|-4--4--4--4-4--4-4-4-4-|----
-|-2--2--2--2-2--2-2-2-2-|-1--1--1--1-1--1-1-1-1-|-2--2--2--2-2--2-2-2-2-|----
-|-----------------------|-----------------------|-----------------------|----
 G1

-|--10*------------------|-----------------------|-7---------------------|----
-|-----------------------|-----------------------|-----------------------|----
-|-----------------------|-----------------------|-----------------------|----
-|-----------------------|-----------------------|-----------------------|----
-|-----------------------|-----------------------|-----------------------|----
-|-----------------------|-----------------------|-----------------------|----
    *Whammy Bar Drop

-|-----------------------|-----------------------|-----------------------|----
-|-----------------------|-----------------------|-----------------------|----
-|-4--4--4--4-4--4-4-4-4-|-4--4--4--4-4--4-4-4-4-|-3--3--3--3-3--3-3-3-3-|----
-|-4--4--4--4-4--4-4-4-4-|-4--4--4--4-4--4-4-4-4-|-0--0--0--0-0--0-0-0-0-|----
-|-2--2--2--2-2--2-2-2-2-|-2--2--2--2-2--2-2-2-2-|-1--1--1--1-1--1-1-1-1-|----
-|-----------------------|-----------------------|-----------------------|----
 G1

-|-----------------------|----7-------7----------|-10--------------------|----
-|-----------------------|--------------10-------|-----------------------|----
-|-----------------------|-----------------------|-----------------------|----
-|-----------------------|-----------------------|-----------------------|----
-|-----------------------|-----------------------|-----------------------|----
-|-----------------------|-----------------------|-----------------------|----
 G2                           Let notes ring

-|-----------------------|-----------------------|----------------------------
-|-----------------------|-----------------------|----------------------------
-|-4--4--4--4-4--4-4-4-4-|-4--4--4--4-4--4-4-4-4-|----------------------------
-|-4--4--4--4-4--4-4-4-4-|-4--4--4--4-4--4-4-4-4-|----------------------------
-|-2--2--2--2-2--2-2-2-2-|-2--2--2--2-2--2-2-2-2-|----------------------------
-|-----------------------|-----------------------|----------------------------
 G1                                          It's

-|-10--------------------|-----------------------|----------------------------
-|-----------------------|-----------------------|----------------------------
-|--7--------------------|-9------------------\--|----------------------------
-|-----------------------|-----------------------|----------------------------
-|-----------------------|-----------------------|----------------------------
-|-----------------------|-----------------------|----------------------------
 G2

-|-----------------------|-----------------------|-----------------------|----
-|-----------------------|----3--3--2-2--2-3-----|----3--3--3------------|----
-|-7--7--7--7-7--7-7-7-7-|-2--2--2--2-2--2-2-2-2-|-4--4--4--4-4--4-4-4-4-|----
-|-7--7--7--7-7--7-7-7-7-|-2--2--2--2-2--2-2-2-2-|-4--4--4--4-4--4-4-4-4-|----
-|-5--5--5--5-5--5-5-5-5-|-0--0--0--0-0--0-0-0-0-|-2--2--2--2-2--2-2-2-2-|----
-|-----------------------|-----------------------|-----------------------|----
 G1 Nothing as it seems the little that he needs it's home

-|--------2p0------------|-----------------------|-----------------------|----
-|-3----------3----------|-----------------------|-----------------------|----
-|-2---------------------|-2---------------------|-4---------------------|----
-|-0---------------------|-2---------------------|-4---------------------|----
-|-----------------------|-0---------------------|-2---------------------|----
-|-----------------------|-----------------------|-----------------------|----
 G2

-|-----------------------|-----------------------|-----------------------|----
-|----3------------------|-----------------------|----3--3--2-2--2-2-----|----
-|-4--4--4--4-4--4-4-4-4-|-7--7--7--7-7--7-7-7-7-|-2--2--2--2-2--2-2-2-2-|----
-|-4--4--4--4-4--4-4-4-4-|-7--7--7--7-7--7-7-7-7-|-2--2--2--2-2--2-2-2-2-|----
-|-2--2--2--2-2--2-2-2-2-|-5--5--5--5-5--5-5-5-5-|-0--0--0--0-0--0-0-0-0-|----
-|-----------------------|-----------------------|-----------------------|----
 G1                   The little that he sees is nothing he concedes it's

-|-----------------------|-------2p0-------------|-----------------------|----
-|-----------------------|-3---------3-----------|-----------------------|----
-|-4---------------------|-2---------------------|-2---------------------|----
-|-4---------------------|-0---------------------|-2---------------------|----
-|-2---------------------|-----------------------|-0---------------------|----
-|-----------------------|-----------------------|-----------------------|----
 G2

-|-----------------------|-----------------------|-----------------------|----
-|-----------------------|-----------------------|-----------------------|----
-|-4--4--4--4-4--4-4-4-4-|-4--4--4--4-4--4-4-4-4-|-7--7--7--7-7--7-7-7-7-|----
-|-4--4--4--4-4--4-4-4-4-|-4--4--4--4-4--4-4-4-4-|-7--7--7--7-7--7-7-7-7-|----
-|-2--2--2--2-2--2-2-2-2-|-2--2--2--2-2--2-2-2-2-|-5--5--5--5-5--5-5-5-5-|----
-|-----------------------|-----------------------|-----------------------|----
 G1 Home                                      And all that he frees    a

-|-----------------------|-----------------------|-----------------------|----
-|-----------------------|-----------------------|-3---------------------|----
-|-4---------------------|---------------x/------|-2---------------------|----
-|-4---------------------|---------------x/------|-0---------------------|----
-|-2---------------------|---------------x/------|-----------------------|----
-|-----------------------|-----------------------|-----------------------|----
 G2

-|-----------------------|--------------------------|-----------------------|-
-|----3--3--2-2----------|--------------------------|-----------------------|-
-|-2--2--2--2-2--2-2-2-2-|-4---4---4--4-4---4-4-4-4-|-4--4--4--4-4--4-4-4-4-|-
-|-2--2--2--2-2--2-2-2-2-|-4---4---4--4-4---4-4-4-4-|-4--4--4--4-4--4-4-4-4-|-
-|-0--0--0--0-0--0-0-0-0-|-2---2---2--2-2---2-2-2-2-|-2--2--2--2-2--2-2-2-2-|-
-|-----------------------|--------------------------|-----------------------|-
 G1 Little bittersweet it's home                                       It's

-|--------------------17b|19-17b19-17b19r17-15---15-|-17b19-19--19--19--19--|-
-|-----------------------|--------------------17----|-*/----*/---/---/---/--|-
-|-2---------------------|--------------------------|--/-----/---/---/---/--|-
-|-2---------------------|--------------------------|-----------------------|-
-|-0---------------------|--------------------------|-----------------------|-
-|-----------------------|--------------------------|-----------------------|-
 G2                                                   *tremelo pick

-|-----------------------|-------------------------|---------------||---------
-|-----------------------|-------------------------|---------------||---------
-|-7---------------------|-2-----------------------|-4-------------||---------
-|-7---------------------|-2-----------------------|-4-------------||---------
-|-5---------------------|-0-----------------------|-2-------------||---------
-|-----------------------|-------------------------|---------------||---------
 G1 Nothing as it seems the little that you see it's home

-|-----------------------|-------------------------|---------------||---------
-|-3---------------------|-------------------------|---------------||---------
-|-2---------------------|-2-----------------------|-4-------------||---------
-|-0---------------------|-2-----------------------|-4-------------||---------
-|-----------------------|-0-----------------------|-2-------------||---------
-|-----------------------|-------------------------|---------------||---------
 G2

----------------- Acordes -----------------
G1 = 3 2 0 0 0 3
G2 = 3 X 0 2 0 X
