Pearl Jam - Oceans

e|---------------------------------------------|
B|--7----9----9-7---9-10--7----9----9-7---9-10-|
G|--7----10---9-8---9-10--7----10---9-8---9-10-|
D|--7----11---7-9---7-8---7----11---7-9---7-8--|
A|---------------------------------------------|
E|---------------------------------------------|


   4x
e|----------------------------------------|
B|--7-x-8--8--x-7----8--8-----8--8--8--8--|
G|--8-x-9--9--x-8----9--9-----9--9--9--9--|
D|--9-x-10-10-x-9----10-10----10-10-10-10-|
A|----------------------------------------|
E|----------------------------------------|


 |
 | 2x
e|----------------------------------------------------------------------------------------------
B|--7----7-7-7-7---7-7-7-7----9----9--9--9--9----9--9--9--9----12----12-12-12-12---12-12-12-12--
G|--7----7-7-7-7---7-7-7-7---10----10-10-10-10---10-10-10-10---12----12-12-12-12---12-12-12-12--
D|--7----7-7-7-7---7-7-7-7---11----11-11-11-11---11-11-11-11---10----10-10-10-10---10-10-10-10--
A|----------------------------------------------------------------------------------------------
E|----------------------------------------------------------------------------------------------

                                            |
e|------------------------------------------|
B|-10---10-10-10-10----8--8--8--8--8--8--8--|
G|-11---11-11-11-11----9--9--9--9--9--9--9--|
D|-12---12-12-12-12----10-10-10-10-10-10-10-|
A|------------------------------------------|
E|------------------------------------------|


 |4x                                   |        
e|----------------------------------------|
B|--7-x-8--8--x-7----8--8-----8--8--8--8--|
G|--8-x-9--9--x-8----9--9-----9--9--9--9--|
D|--9-x-10-10-x-9----10-10----10-10-10-10-|
A|----------------------------------------|
E|----------------------------------------|

(Começa tudo de novo)


                                         |      4x                             |
e|---------------------------------------------|---------------------------------------|
B|--7----9----9-7---9-10--7----9----9-7---9-10-|-7-x-8--8--x-7----8--8-----8--8--8--8--|
G|--7----10---9-8---9-10--7----10---9-8---9-10-|-8-x-9--9--x-8----9--9-----9--9--9--9--|
D|--7----11---7-9---7-8---7----11---7-9---7-8--|-9-x-10-10-x-9----10-10----10-10-10-10-|
A|---------------------------------------------|---------------------------------------|
E|---------------------------------------------|---------------------------------------|


 |
 | 4x
e|----------------------------------------------------------------------------------------------
B|--7----7-7-7-7---7-7-7-7----9----9--9--9--9----9--9--9--9----12----12-12-12-12---12-12-12-12--
G|--7----7-7-7-7---7-7-7-7---10----10-10-10-10---10-10-10-10---12----12-12-12-12---12-12-12-12--
D|--7----7-7-7-7---7-7-7-7---11----11-11-11-11---11-11-11-11---10----10-10-10-10---10-10-10-10--
A|----------------------------------------------------------------------------------------------
E|----------------------------------------------------------------------------------------------
                                            |
e|------------------------------------------|-----------------------------
B|-10---10-10-10-10----8--8--8--8--8--8--8--|-----------------------------
G|-11---11-11-11-11----9--9--9--9--9--9--9--|-----------------------------
D|-12---12-12-12-12----10-10-10-10-10-10-10-|-----------------------------
A|------------------------------------------|-7/9-7-----------------------
E|------------------------------------------|------9--5--6/8\6--3-5-------


Letra

Hold on to the thread
The currents will shift
Glide me towards you
Know something left
And we're all allowed
To Dream of the next
Time we Toveh......
You don't have to stray two oceans away
Waves roll in my thoughts hole tight the ring...
the sea will rise..please stand by the shore...
Ii will be... I will be ..... there once more
