Pearl Jam - Parting Ways

-|--0--------------------------------------------------------------------|----
-|--0-------------------------------------------0-2--3-2-0---0-2---------|----
-|--1--0-1--2-1-0-1---0-1--4-4-1-2-1-----------------------2-----2-------|----
-|--2--------------------------------2-----------------------------2-----|----
-|--2----------------------------------2----0-------------------------0--|----
-|--0---------------0----------------------------------------------------|----
 Gtr.1 Verse

-|------------------------------------------0-------------------------0--|----
-|------------------------------------------2-------------------------2--|----
-|------------------------------------------2-------------------------2--|----
-|--2---------------2-----------------------2-------------------------2--|----
-|--2---------------2-----------------------0-------------------------0--|----
-|--0---------------0----------------------------------------------------|----
 Gtr.2

-|-------------------------------|-|------------------------------------------
-|-----0-2-0--3-2-0---0h2-0------|-|------------------------------------------
-|------------------2-------2----|-|------------------------------------------
-|----------------------------2--|-|------------------------------------------
-|--0----------------------------|-|------------------------------------------

-|-------------------------------|-|------------------------------------------
 Gtr.1

-|--0----------------------------|-|------------------------------------------
-|--2----------------------------|-|------------------------------------------
-|--2----------------------------|-|------------------------------------------
-|--2----------------------------|-|------------------------------------------
-|--0----------------------------|-|------------------------------------------
-|-------------------------------|-|------------------------------------------
 Gtr.2

-|-----2--2-------3-3-3----0-----------------|--------------------------------
-|-----2--2-------3-3-3----0-----------------|--------------------------------
-|-----3--3-------4-4-4----1--0-1---2-1-0-1--|--------------------------------
-|-------------------------2------2----------|--------------------------------
-|-------------------------2-----------------|--------------------------------
-|--2----------3-----------0-----------------|--------------------------------
 Gtr.1 Chorus

-|-----2----------3--------------------------|--------------------------------
-|-----2----------3--------------------------|--------------------------------
-|-----3----------4--------------------------|--------------------------------
-|-----4----------5--------2-----------------|--------------------------------
-|-----4----------3--------2-----------------|--------------------------------
-|-----2----------3--------0-----------------|--------------------------------
 Gtr.2

-|-----2--2-------3-3-3----0-----------------|-|------------------------------
-|-----2--2-------3-3-3----0-----------------|-|------------------------------
-|-----3--3-------4-4-4----1-----------------|-|------------------------------
-|-------------------------2-----------------|-|------------------------------
-|-------------------------2-----------------|-|------------------------------
-|--2----------3-----------0-----------------|-|------------------------------
 Gtr.1

-|-----2----------3--------0-----------------|-|------------------------------
-|-----2----------3--------0-----------------|-|------------------------------
-|-----3----------4--------1-----------------|-|------------------------------
-|-----4----------5--------2-----------------|-|------------------------------
-|-----4----------3--------2-----------------|-|------------------------------
-|-----2----------3--------0-----------------|-|------------------------------
 Gtr.2

-|--0----------------------------------------|-|-|----------------------------
-|--0-----3--------2-------------------------|-|-|----------------------------
-|--1-----4--------2-------------------------|-|-|----------------------------
-|--2-----4--------2-------------------------|-|-|----------------------------
-|--2--2---------0---------------------------|-|-|----------------------------
-|--0----------------------------------------|-|-|----------------------------
 Outro Gtr.1

-|-----------------------------|-|-|------------------------------------------
-|---------3----------2h3p2p0--|-|-|------------------------------------------
-|-----------4-----------------|-|-|------------------------------------------
-|--2----4---------2-----------|-|-|------------------------------------------
-|--2--2---------0-------------|-|-|------------------------------------------
-|--0--------------------------|-|-|------------------------------------------
 Gtr.2
