Pearl Jam - Porch

       A5      C5
E|--------------------------------|
B|--------------------------------|
G|-2-2----5-5-5-5-----------------|
D|-2-2----5-5-5-5-----------------|
A|-0-0----3-3-3-3-----------------|
E|--------------------------------|

Nessa parte usa as notas acima, A5 e C5 ate would you hit me?

What the fuck is this world
Running to, you didn't
Leave a message at least
I Could Have learned your voice one last time
Daily minefieldthis could
Be my time, About you?
Would you hit me?

Would You Hit Me? 2x

       G5         A5         Bb5        C5
E|--------------------------------------------|
B|--------------------------------------------|
G|--------------------------------------------|
D|-5-5-5-5-5--7-7-7-7-7--8-8-8-8-8-10-10-10-10|
A|-5-5-5-5-5--7-7-7-7-7--8-8-8-8-8-10-10-10-10|
E|-3-3-3-3-3--5-5-5-5-5--6-6-6-6-6--8-8-8-8-8-|



Faça uma vez essa sequencia de notas
G5 A5 Bb5 C5
Uo uo uo uo uo ...


Volta as notas da 1 parte:

 A5    C5

All the bills go by, and
Initiatives are taken up
By the middle,
there ain't gonna be any middle any more
And the cross I'm bearing home
Ain't indicative of my place

Left the porch
Left The Porch

G5 A5 Bb5 C5
Oh...  Hear my name,
take a good look
This could be the day
Hold my hand,
walk beside me
I just need to say

Solo

E|----------------------------------------------|
B|-9~-9-9-9-9-11~-11-12-12----------------------|
G|------------------------14-14-16-14-16-16-16--|
D|----------------------------------------------|
A|----------------------------------------------|
E|----------------------------------------------|

E|---------------14-14-12-------------------------------|
B|-16~-14-12--------------14-14-12----------------------|
G|-----------14--------------------14-12h14-12h14-12-|
D|------------------------------------------------------|
A|------------------------------------------------------|
E|------------------------------------------------------|

E|12h14-12h14-12-14-12-------------12-----12-10-10-8-|
B|----------------------14-12-13-14----14--------------|
G|-----------------------------------------------------|
D|-----------------------------------------------------|
A|-----------------------------------------------------|
E|-----------------------------------------------------|

E|-------------------------------12h14-12h14-12--|
B|-10-12-10-10-------------------------------------|
G|-------------12-10-10----------------------------|
D|----------------------12-10-10-------------------|
A|-------------------------------------------------|
E|-------------------------------------------------|

E|-14-12-------------12-----14-12-12-12-10-10-|
B|-------14-12-13-14----14--------------------|
G|--------------------------------------------|
D|--------------------------------------------|
A|--------------------------------------------|
E|--------------------------------------------|

E|-10h12-10h12-10-10-10-10h12-10h12-10-10-10-10~10~10~|
B|------------------------------------------------------|
G|------------------------------------------------------|
D|------------------------------------------------------|
A|------------------------------------------------------|
E|------------------------------------------------------|


G5 A5 Bb5 C5
Hear my name,
take a good look
This could be the day
Hold my hand,
lie beside me
I just need to say
I could not take a
just one day
I know when I would not ever touch you
Hold you...feel you...in my arms...never again...

Yeah...

----------------- Acordes -----------------
A5 = X 0 2 2 X X
Bb5 = X 1 3 3 X X
C5 = X 3 5 5 X X
G5 = 3 5 5 X X X
