Pearl Jam - Satan's Bed

intro/verse:
|---------------------------------------------------------------------
|---------------------------------------------------------------------
|---------------------------------------------------------------------
|---------------------------------------------------------------------
|-------4-----4-----4-------------------------------------------------
|-0-0-5---5-5---5-5---5-5-4-3~----------------------------------------

during verse, this riff is played:
|-----15-----15-------------------------------------------------------
|-15b----15b----------------------------------------------------------
|---------------------------------------------------------------------
|---------------------------------------------------------------------
|---------------------------------------------------------------------
|---------------------------------------------------------------------

chorus:
guitar one:    guitar two:
C B B A    C G D A
C B D A    C G D A
C B B A    C G D A

C B D A    C G D A
C B B A            C G D A
C B D A    C G D A

verse
chorus with following fill:
|------15-----15-----15--------------15-------------------------------
|--15b----15b----15b----15p14----15b-----etc..------------------------
|-----------------------------14--------------------------------------
|---------------------------------------------------------------------
|---------------------------------------------------------------------
|---------------------------------------------------------------------

solo (when eddie's saying "Torture follows reward"):
|---------------------------------------------------------------------
|---------------------------------------------------------------------
|-12-12-12-12-12-14-14~-14~-14~-14-14p12s10---------------------------
|-------------------------------------------12-12--12-12-12-12--------
|--------------------------------------------------14-14-14-12--------
|---------------------------------------------------------------------

|---------------------------------------------------------------------
|---------------------------------------------------------------------
|--------------------14--12--14--12-16-16-16-14--17-17-17-14----------
|-12-12-12-12--------14--12--14--12-14-14-14-14--14-14-14-14----------
|-14-14-14-12--14b-12-------------------------------------------------
|---------------------------------------------------------------------

verse
chorus

fade out

----------------- Acordes -----------------
A = X 0 2 2 2 0
B = X 2 4 4 4 2
C = X 3 2 0 1 0
D = X X 0 2 3 2
G = 3 2 0 0 0 3
