Pearl Jam - The Fixer

E |---------------------7-8-7----------|      |-------------------|
B |---------------------8-8-8--9-10-9--|      |-------------------|
G |-4----x-7----------x--------9-9--9--|      |-4----x-7----------|
D |-4----x-7----------x----------------|      |-4----x-7----------|
A |-2----x-5----------x----------------|      |-2----x-5----------|
E |------------------------------------|      |-------------------|

E |------------------------------------|
B |---------------------8-8-8----------|
G |-4------7------------7-7-7---9-9-9--|
D |-4------7------------5-5-5---9-9-9--|
A |-2------5--------------------7-7-7--|
E |------------------------------------|

E |------------------------|------------------------|
B |------------------------|------------------------|
G |------------------------|------------------------|
D |------------------------|---7-----7---------4----|
A |---5-----5---------2----|-5-----5---------2---0--|
E |-3-----3---3-----0-0-0--|------------------------|


E |------------------------|
B |---3-----3--------------|
G |-2-----2-2--------------|
D |------------------------|
A |------------------------|
E |------------------------|

E |-3--------0--------|----------------|-3----------------|----------------|
B |-3--------0--------|-3--------------|-3----------------|-3--------------|
G |-0--------0--------|-2--------------|-0-------4--------|-2--------------|
D |-0--------2--------|-0--------------|-0----------------|-0--------------|
A |-x--------2--------|-0--------------|-x-------2----0h2-|-0--------------|
E |-3--------0--------|----------------|-3----------------|----------------|

E |------------------|----------------|
B |-12----10---------|-(10)-----------|
G |------------------|----------------|
D |-9-----7----------|-(7)------------|
A |------------------|----------------|
E |------------------|----------------|

E |------------------|----------------|-10-------------|
B |-12----10---------|-(10)-----12\10-|----------------|
G |------------------|----------------|-7--------------|
D |-9-----7----------|-(7)-------9\7--|----------------|
A |------------------|----------------|----------------|
E |------------------|----------------|----------------|

  e|-0-----0-----0-----0-----0-----|      -------10-------10-------------|
  B|---3-----3-----3-----3-----3---|      -10-12----10-12----------------|
  G|-----2-----2-----2-----2-----2-|      -------------------------------|
  D|-------------*-----------------|      -------------------------------|
  A|-------------*-----------------|      -------------------------------|
  E|-------------*-----------------|      -------------------------------|

E |-8---------------|-------------|----------------|-5-------------|
B |-8---------------|-8-----------|-7------7---7-8-|-5-------------|
G |-9------9-10-12--|-8-----------|-7------7---7-7-|-6-------------|
D |-10--------------|-8-----------|-9------9---9-9-|-7-------------|
A |-10--------------|-6-----------|-9------9-------|-7-------------|
E |-8---------------|-------------|-7------7-------|-5-------------|

E |-------------8-8-|-6-------8-7-|-7------------5-|-5---5-7---7-5-7-|
B |-------------8-8-|-8-------8-7-|-7--------7-8---|-5---------------|
G |-------------9-9-|-8-----------|-7--------------|-6---------------|
D |-----------------|-------------|----------------|-----------------|
A |-----------------|-------------|----------------|-----------------|
E |-----------------|-------------|----------------|-----------------|

E |-8-10-8-10-8-10-8-10-|-8-10-8-10-8-10-8-10-|-7-10-7-10-7-10-7-10-|-5-7-5-7-5-7-5-7-|
B |---------------------|---------------------|---------------------|-----------------|
G |---------------------|---------------------|---------------------|-----------------|
D |---------------------|---------------------|---------------------|-----------------|
A |---------------------|---------------------|---------------------|-----------------|
E |---------------------|---------------------|---------------------|-----------------|

E |------------------------|-----------------|-----------------|-----------------|
B |------------------------|-----------------|-----------------|-----------------|
G |-14-14-14-14-14-14-14---|-9-9-9-9-9-9-9---|-7-7-7-7-7-7-7-7-|-7-7-7-7-7-7-7/--|
D |------------------------|-----------------|-----------------|-----------------|
A |-12-12-12-12-12-12-12---|-7-7-7-7-7-7-7---|-5-5-5-5-5-5-5-5-|-5-5-5-5-5-5-5/--|
E |------------------------|-----------------|-----------------|-----------------|

E |------------------------|-----------------|------------------------|
B |------------------------|-----------------|------------------------|
G |14-14-14-14-14-14-14\---|-9-9-9-9-9-9-9---|-9/11-11-11-11-11-11-11-|
D |------------------------|-----------------|------------------------|
A |12-12-12-12-12-12-12\---|-7-7-7-7-7-7-7---|-7/9--9--9--9--9--9--9--|
E |------------------------|-----------------|------------------------|

E |------------------------|-------------------------|---------------------------|
B |------------------------|-------------------------|---------------------------|
G |-11-11-11-11-11-11------|-12-12-12-12-12-12-------|---------------------------|
D |-------------------12---|-------------------12-14-|-14/16\14-14-14-14-14-14---|
A |-9--9--9--9--9--9-------|-10-10-10-10-10-10-------|---------------------------|
E |-------------------10---|-------------------10-12-|-12/14\12-12-12-12-12-12---|

E |-------------------------|---------------------|------------------------|
B |-------------------------|---------------------|------------------------|
G |-------------------------|---------------------|-14-14-14-14-14-14-14---|
D |-12-12-12-12-12-12-12-12-|-12-12-12-12-9-9-7---|------------------------|
A |-------------------------|---------------------|-12-12-12-12-12-12-12---|
E |-10-10-10-10-10-10-10-10-|-10-10-10-10-7-7-5---|------------------------|

