Daniel - Dengo

Int:Em B7 Em B7 Em B7 Em

              Em
Vem cá meu dengo
                  Am
Vem comigo pro chamego
                B7
Vem pro arrasta-pé
                   Em
Vem com tudo vem dançar

Vem cá meu dengo
                  Am
Vem comigo pro chamego
                B7
vem pro arrasta-pé
                   Em
Vem com tudo vem dançar

Gruda me abraça
                 Am
Quero ver você mexer

              B7                      Em
A vida vira festa quando eu danço com você

Gruda me abraça
                 Am
Quero ver você mexer
              B7                     E
A vida vira festa quando danço com você

Quero seu amor!
              B7
Quero teu carinho!
                                 E
Vou requebrando no seu corpo coladinho

Quero seu amor!
              B7
Quero teu carinho!
                            E
A onda agora é dançar agarradinho!
                             B7
Que gostosinho nesse passo miudinho

Com jeitinho safadinho
                  E
Eu só gosto com você
                              B7
Que gostodinho nesse passo miudinho
                                      E
Sou menino maluquinho caidinho por você
                     B7
No xenhem nhem da sanfona
                     Em
no plim plim plim da viola
                  B7
Bate na palma da mão
                  Em
Remexe!requebra!rebola
                     B7
No xenhem nhem da sanfona
                      Em
No plim plim plim da viola
                 B7
Bate na palma da mão
                      E
É namoro é desejo é paixão
INT.

Repete

----------------- Acordes -----------------
Am = X 0 2 2 1 0
B7 = X 2 1 2 0 2
E = 0 2 2 1 0 0
Em = 0 2 2 0 0 0
