Harpa Cristã - Deus Está Aqui

[Solo]

E|-0-3---0-------0---------5-5-5-5-5-3-1-0-3----5-5-5-5-3-5-3-1-0---------1-1-1-0---------------|
B|-----3---1-1-3---3-1---1--------------------1-------------------3-1---1---------3-3-3-3-1-0-1-|
G|----------------------------------------------------------------------------------------------|
D|----------------------------------------------------------------------------------------------|
A|----------------------------------------------------------------------------------------------|
E|----------------------------------------------------------------------------------------------|

 D       A    D     D7
Deus, está aqui, aleluia
     G                  A     D
Tão certo como o ar que eu respiro
     G               A         D     A   Bm
Tão certo como o amanhã que se leva--an--ta
     G                  A               D
Tão certo como eu te falo e podes me ouvir

----------------- Acordes -----------------
A = X 0 2 2 2 0
Bm = X 2 4 4 3 2
D = X X 0 2 3 2
D7 = X X 0 2 1 2
G = 3 2 0 0 0 3
