Harpa Cristã - Ó Cristão Eia Avante

1   |     |   |   |   |     |   |   |   |     |   |   |   |
E|-----|-----------------|-----------------|-----------------|
B|-----|---------3-------|-----------------|---------------3-|
G|-----|-2---1-2-----5---|-2---------------|-0-----0-3---5---|
D|---3-|---------------3-|-----3-------2-3-|-----4-----------|
A|-3---|-----------------|-----------------|-----------------|
E|-----|-----------------|-----------------|-----------------|


5   |   |   |   |     |   |   |   |     |   |   |   |     |   |   |   |
E|-----------------|-----------------|-----------------|-----------------|
B|-----------------|-3---------------|-----------------|-----------------|
G|-5-----------3-2-|-----3-0-----5-3-|-3-2-----------2-|-0-----------2-0-|
D|-----------------|---------0-------|-------------3---|-----0-3-2-------|
A|-----------------|-----------------|-----3-----------|-----------------|
E|-----------------|-----------------|-----------------|-----------------|


9   |   |   |   |     |   |   |   |     |   |   |   |     |   |   |   |
E|-----------------|-----------------|-----------------|-----------------|
B|-----------------|-3---------------|-----------------|---------------3-|
G|-------------3-2-|-----3-0-----5-3-|-3-2---------0---|-----0-2-3---5---|
D|-3---------------|---------0-------|---------------3-|-2---------------|
A|-----------------|-----------------|-----3-----------|-----------------|
E|-----------------|-----------------|-----------------|-----------------|



13  |   |   |   |     |   |   |   |     |   |   |   |     |   |   |   |
E|-----------------|-----------------|-----------------|-----------------|
B|-----------------|-3---------------|-----------------|-----------------|
G|-5-----------3-2-|-----3-0-----5-3-|-3-2-----------2-|-0-----------2-0-|
D|-----------------|---------0-------|-------------3---|-----0-3-2-------|
A|-----------------|-----------------|-----3-----------|-----------------|
E|-----------------|-----------------|-----------------|-----------------|


17  |   |   |   |
E|--------------|
B|--------------|
G|--------------|  REPETE 5 X
D|--------------|
A|--------------|
E|-13-----------|
  pe-le-jar.

----------------- Acordes -----------------
