Aviões do Forró - Dança do Ventre

Fm               G#                     D#               C#        C              Fm
 E o deserto do saara procuro um novo amor uma mulher cheirosa tao linda quanto a flor cabelos ao
G#                   D#             C#      C         Fm                 D# Fm         D#  Fm
vento corpinho bronzeado uma pele macia cheirando a pecado que saiba me amar me enfeitiçar com um
           D#   Fm                C# C            Fm
beijo bem quente siimbora com o aviao na dança do ventre
 (Fm C)
na dança do ventre
na dança do ventre
na dança do ventre
na dança do ventre
Fm             G#                    D#
eu sou o seu caliba e voce minha aldalisca
               C# C                     Fm
jeitinho de mulher com um corpinho de menina
        G#              D#
seu rebolado é tao envolvente
              C#      C        Fm
simbora meu batera na dança do ventre
(Fm C)
na dança do ventre

na dança do ventre
na dança do ventre
na dança do ventre

chegou a hora de mostrar o meu veneno chegou a hora de mostrar o meu veneno
(Fm C)
tou todo me tremendo
tou todo me tremendo
tou todo me tremendo
tou todo me tremendo

----------------- Acordes -----------------
C = X 3 2 0 1 0
C# = X 4 6 6 6 4
D# = X 6 5 3 4 3
Fm = 1 3 3 1 1 1
G# = 4 3 1 1 1 4
