Aviões do Forró - Me Esqueça

     C#m               A                 E
e|------12-11-12-14-12-11-12-9-11----9----------------|
b|--9-----------------------------12---10-12-9--------|
G|----------------------------------------------------|                                          


     C#m               A                 E
e|------12-11-12-14-12-11-12-9-11----9----------------|
b|--9-----------------------------12---10-12-9--------|
G|----------------------------------------------------|


(intro - acordeon)
     C#m               A                 E                B
e|----12-11-12-14-12-11-12-9-11----9-------------------------|
b|--9---------------------------12---10-12-9---9-9-9-7--10-9-|
g|-----------------------------------------------------------|
                                                      (2x)
C#m            A
No começo foi bom,
               E
Por sua culpa mudou

            B            C#m
Nosso amor o encanto acabou
              A
Eu confesso errei
                E
Porque me dei demais,
         B           C#m
Mas eu nunca traí você

C#m         A                 E
É tarde demais, pra mim tanto faz
          B            C#m
Eu sei que vou te esquecer,

(eu sei que vou te esquecer)...
C#m            A                    E
Eu não quero mais, um alguém que me trai
          B          C#m
Eu sei viver sem ter você,

(eu sei viver sem você)...

(refrão)
     C#m               A                 E
e|------12-11-12-14-12-11-12-9-11----9----------------|
b|--9-----------------------------12---10-12-9--------|
G|----------------------------------------------------|                                          


     C#m               A                 E
e|------12-11-12-14-12-11-12-9-11----9----------------|
b|--9-----------------------------12---10-12-9--------|
G|----------------------------------------------------|


----------------- Acordes -----------------
A = X 0 2 2 2 0
B = X 2 4 4 4 2
C#m = X 4 6 6 5 4
E = 0 2 2 1 0 0
