Aviões do Forró - Minha Mulher Não Deixa Não

Intro: Cm G# Eb9 A#
E|---------------------------------------------------------------------|
B|-8-6--6-8-6--6-8-6--6-8-9-8-6-8--4--4-6-4--4-6-4---------------------|
G|---------------------------------------------------------------------|
D|---------------------------------------------------------------------|
A|---------------------------------------------------------------------|
E|---------------------------------------------------------------------|


  Cm          G#
- Ei tu que Beber?
        Eb9
- Quero Não!
              A#
- Não quer Por quê?
           Cm
- Por Nada Não!
           G#
- Tu que fumar?
      Eb9
- Han Han!

               A#
- Não Quer Por quê?

    Cm                    G#                           Eb9
Vou Não, Quero Não, Posso Não, Minha Mulher, Não Deixa Não,
                    A#
Não vou, Não Quero Não.
    Cm                    G#                           Eb9
Vou Não, Quero Não, Posso Não, Minha Mulher, Não Deixa Não,
                    A#
Não vou, Não Quero Não.

( Cm G# Eb9 A# )

  Cm           G#          Eb9
- Ei No meu carrão Vamos Sair,
       A#                     Cm
Tem Aviões, todo mundo vai curtir.
  G#          Eb9              A#
E aí Lá em Marli Tem cabeça de Galo Veeeenhaaa!

    Cm                    G#                           Eb9
Vou Não, Quero Não, Posso Não, Minha Mulher, Não Deixa Não,
                    A#
Não vou, Não Quero Não.
    Cm                    G#                           Eb9
Vou Não, Quero Não, Posso Não, Minha Mulher, Não Deixa Não,
                    A#
Não vou, Não Quero Não.

( Cm G# Eb9 A# )

  Cm          G#      Eb9            A#
- Ei tem duas Nêga. E aí, Vamos Arrastar?
        Cm                     G#
No Shanadú Agente Bota O Bicho Lá.
                   Eb9            A#
Quem és tu? És Boiolão? Tu Vai ou Não?

    Cm                    G#                           Eb9
Vou Não, Quero Não, Posso Não, Minha Mulher, Não Deixa Não,
                    A#
Não vou, Não Quero Não.
    Cm                    G#                           Eb9
Vou Não, Quero Não, Posso Não, Minha Mulher, Não Deixa Não,
                    A#
Não vou, Não Quero Não.

----------------- Acordes -----------------
A# = X 1 3 3 3 1
Cm = X 3 5 5 4 3
Eb9 = X 6 8 8 6 6
G# = 4 3 1 1 1 4
