Aviões do Forró - O Gato Bebe Leite

Intro: Am

Am
Gato bebe leite

Meu pai toma chá

Vovô só no azeite
                            F
E eu não largo uma loira gelada
                C
Tem que ser gelada
               G
Tem que ta nevada
              Am
Não pode espumar
                                             F
Por isso que eu sou louco por uma loira gelada
               C
Tem que ta gelada
               G
Tem que ta nevada

              Am
Não pode espumar

(INTRO)
Am
Onça bebe água

Mamãe toma café

vovo bebi garapa
                             F
E eu já to doidão pra tomar me, mé
           C
Vamo tomá me, vem
             G
Bebe sem migué
                 Am
Eu não arredo o pé
                                          F
Por isso que eu to doidão de tanto tomar me, quer
               C
Quer, vem tomá me
            G
Bebo sem migué
                Am
Eu não arredo o pé



----------------- Acordes -----------------
Am = X 0 2 2 1 0
C = X 3 2 0 1 0
F = 1 3 3 2 1 1
G = 3 2 0 0 0 3
