Aviões do Forró - Piriri Pom Pom

E |-14-14-14-10-10--14-14-14-10-12--12-14-12-10-10/9-9/10-|
B |-------------------------------------------------------|
G |-------------------------------------------------------|
D |-------------------------------------------------------|
A |-------------------------------------------------------|
E |-------------------------------------------------------|

(Gm  F)
Piripirim Piripirim bota mais uma pra mim
Piripirim Piripirim eu quero é curtir

Intro: Gm F

(Gm  F)
whisky read bull traga uma cerveja
ô seu garçon não demore por favor
eu quero é beber vou virar a mesa
aqui tá massa mulherada já chegou
eu quero é paquerar,paquerar,paquerar
Piripirim Piripirim beijar,beijar
eu quero é paquerar,paquerar,paquerar

Piripirim Piripirim beijar,beijar

----------------- Acordes -----------------
F = 1 3 3 2 1 1
Gm = 3 5 5 3 3 3
