Capital Inicial - Benzina

Into - (A C A C A C D C) 2 vezes

     A                     C     A                C
Não tenho mais dinheiro nem pra perna nem pra quina
    A                  C       D      C
Só tenho vinte mangos vou cheirar benzina.

A C A C A C D C

 A               C  A              C
Fui até a farmácia  eu e minha prima
   A                   C       D     C      A C A C A C G A
Levei vinte cruzeiros pra comprar benzina.
        C          D         Bb
Benzina    benzina    benzinaaaaaaaa  yeah...

Rep. Intr..

    A            C     A            C
Em cima do telhado sentado na esquina
     A                C          D     C
Qualquer lugar é bom pra se cheirar benzina


A C A C A C D C

 A             C    A                 C
Dentro do cinema eu to com tudo em cima
     A                     C       D     C      A C A C A C G A
Não vai pintar sujeira eu vou cheirar benzina
        C          D          Bb
Benzina    benzina    benzinaaaaaaaa  yeah...

Rep. Intro.

     A           C      A             C
Não quero cocaína, não quero benzedrina,
     A           C          D     C
Não quero heroína, vou cheirar benzina.
     A           C      A             C
Não quero cocaína, não quero benzedrina,
     A           C          D     C      A C A C A C G A
Não quero heroína, vou cheirar benzina.

        C          D          Bb
Benzina    benzina    benzinaaaaaaaa  yeah...

(A C A C A C D C) 2 vezes


ouca c/ atencao a music p/ pegar bem a batida!!!!!
qualquer duvida email p/ jimmy_thebassman_@hotmail.com

----------------- Acordes -----------------
A = X 0 2 2 2 0
Bb = X 1 3 3 3 1
C = X 3 2 0 1 0
D = X X 0 2 3 2
G = 3 2 0 0 0 3
