Capital Inicial - Eu e a Minha Estupidez

(intro)  E F#m A E

(solo 1)
E|---------------------------------------------------------------------------------------------------------------------------------------|
B|-9-9-7---------9-9-7---------9-9-7--------9-9-7--------9-9-7----------9-9-7---------9-9-7---------9-9-7-----------------|
G|---------9-6-9--------9-6-9---------9-6-9--------9-6-9---------9-6-9---------9-6-9----------9-6-9--------9-6-9-9--------|
D|---------------------------------------------------------------------------------------------------------------------------------------|
A|---------------------------------------------------------------------------------------------------------------------------------------|
E|---------------------------------------------------------------------------------------------------------------------------------------|

E
Quem não tem nada
                             F#m
Não tem nada a perder
                   A
E quem implora de joelhos
                         E
Não pode escolher

A dor e a tristeza
            F#m
Vão Passar

             A
Como tudo um dia passa
                     E
Se não te matar

(refrão)
       A
Ah! Eu e minha estupidez
  B                             E
Em um beco sem saída
       A
Ah! Eu e minha estupidez
  B
Olhando o que eu
                    F#m       A
Achava que era vida
E                                                            F#m
Todo mundo sempre tem, algo pra aprender
                   A
Se quem espera sempre alcança
                     E
Comece a correr

Se eu soubesse o que hoje sei
                       F#m
Não mudaria, nada
       A
O melhor de tudo isso é a viagem
                      E
E não a chegada

(refrão)
(intro) E F#m A E

(solo 2)
E|---------------------------------------------------------------------------------------------------------------------------------------------------------------|
B|--11-9--11--9--11--9--11--9-11-9-13-11--13--11--13--11--13--11-13-11-15-15-13-------------15-15-13-------------15-15-13------------13-11--13--11--13--11--13b--|
G|--------------------------------------------------------------------------------15-12-15------------15-12-15-------------12-15-12------------------------------|
D|---------------------------------------------------------------------------------------------------------------------------------------------------------------|
A|---------------------------------------------------------------------------------------------------------------------------------------------------------------|
E|---------------------------------------------------------------------------------------------------------------------------------------------------------------|

(refrão 2x)
(intro) E F#m A E
(solo 1)

----------------- Acordes -----------------
A = X 0 2 2 2 0
B = X 2 4 4 4 2
E = 0 2 2 1 0 0
F#m = 2 4 4 2 2 2
