O Rappa - Fica Doido Varrido

Afinação: Padrão

(E7/9)
Fica doido varrido quem quer, se meter aenteder a mulher
Fica doido varrido quem quer, se meter aenteder a mulher

(E7/9)
Comprei o barracão lá na favela e botei no nome dela

(E7/9 - E7+)
Ela pedia a Deus do céu pra morar num arranha-céu

(E7/9)
Dei o apartamento que pedia,
Mas hoje é de cortar o coração
A coitadinha chora, chora noite dia
pedindo pra morar no meu barracão

(E7/9 - E7+)
Alô Franquie, a revanche.


---------------
Acordes:      -
E7/9   x7677x -
E7+    x79897 -
---------------


Qualquer dúvida, critíca ou elogios me mande um e-mail :

----------------- Acordes -----------------
E7+ = X X 2 4 4 4
E7/9 = X X 2 1 3 2
