O Rappa - Se Não Avisar o Bicho Pega

Intro:

4x ( até a parte que ele fala " vida de x9 eh vida curta..)

e|----------------------------|
b|----------------------------|
g|-4/6--6-6-6-------4/6--6-6-6|
d|-4/6--6-6-6--6----4/6--6-6-6|
a|-2/4--4-4-4--6----2/4--4-4-4|
E|-------------4--------------|

Depois q ele fala: (2 parte da intro)

e|------------------------------|
b|------------------------------|
g|-4/6--6-6-6------4/6--6-6-6---|
d|-4/6--6-6-6--6---4/6--6-6-6--6|
a|-2/4--4-4-4--6---2/4--4-4-4--6|
E|-------------4---------------4|

e|----------------------------|
b|----------------------------|
g|-4-4-4--4-4-4-----4/6--6-6-6|
d|-4-4-4--4-4-4--4--4/6--6-6-6|
a|-2-2-2--2-2-2--4--2/4--4-4-4|
E|---------------2------------|



B5 - C#5                          G#5
O sangue bom falou pra fala pra voce
B5 - C#5                    G#5       B5  F#5 B5
Se der mole pros home amizade o bicho peeegaa
B5 - C#5                          G#5
O sangue bom falou pra fala pra voce
B5 - C#5        G#5        B5  F#5   B5
Amizade amizade o bicho peeegaa

B5 - C#5               G#5   B5 - C#5
O malandro ganhou monareta, uma caixa de fogos
                                  B5     F#5  B5
e um carretel de linha e tambem uma pipa
B5 - C#5             G#5
que ele botou no alto
B5 - C#5                       B5     F#5  B5
pra avisa à massa que os cana ja vinha
B5 - C#5              G#5
e a moçada que nao da mancada
B5 - C#5
sentiu o aviso e nao vacilou
   B5                           F#5  B5
pois toda favela tem sua passagem
                                 B5 - C#5 G#5
sem cagüetagem jamais alguem dançou dançou
B5 - C#5              B5   F#5  B5
   jamais alguem dançooou


          F#5
Vai ter pipa        --
             C#5    2 x
Foguete e morteiro  --


B5 - C#5                       G#5
Pois la na favela o olheiro eh maneiro,
       B5 - C#5                  B5   F#5  B5
esperto, chinfreiro e nao fica às cegas
B5 - C#5                 G#5   B5 - C#5
Ate mulher de bandido na hora da dura segura a
         B5     F#5   B5
peteca e nega..     segura a peteca e nega

B5 - C#5                        G#5
E é por isso que o seu compromisso
           B5 - C#5
é nao ficar omisso e prestar atençao
       B5                    F#5  B5
pois se der mole no bagulho vai entra no rodo

e nao tem perdao
B5 - C#5                        G#5
E é por isso que o seu compromisso
           B5 - C#5
é nao ficar omisso e prestar atençao
       B5                    F#5  B5
pois se der mole no bagulho vai entra no rodo

e nao tem perdao


Refrao igual ao primeiro

Bla bla bla bla...(igual a segunda parte da intro)

2 estrofe, refrao e blablabla iguais.

----------------- Acordes -----------------
B5 = X 2 4 4 X X
C#5 = X 4 6 6 X X
F#5 = 2 4 4 X X X
G#5 = 4 6 6 X X X
