Timbalada - Samba da Bahia

G                  Am
vem maria nega mexer (mexer mexer)
G                   Am
você sabe o valor do dimbê
G                    Am
você tem a mão calejada
G                   Am
você sabe fazer feijoada
G                  Am
você baila toda molhada
G                   Am
não tá nem ai pra dinheiro
G                   Am
vem maria bate o pandeiro
G                    Am
pra você tudo eh fevereiro

G                  Am
vem maria sou de você (têtê têtê)
G                  Am Am G G
vem maria sou de você


G           Am               G
têtêtê têtêtêtê têtêtê têtêtêtê  ---> 4 vezes

G             Am                G                  Am
oh samba da bahia, oh samba da bahia, oh samba da bahia...

----------------- Acordes -----------------
Am = X 0 2 2 1 0
G = 3 2 0 0 0 3
