Amado Batista - Mandei Uma Carta Pra Ela

  G                                        D                              C                G
Mandei uma carta pra ela  mais ela não respondeu  mandei um lindo presente mais ela me devolveu
 G                                           D                                  C     D       G   G7
Não tenho mais o seu telefone o numero dela mudou acho que vou ficar louco se ela tiver outro amor

       C                G             D                            G   G7
Meu coraçao o que vou fazer sem esse amor sei que nos dois vamos sofrer
       C                 G            D                C    D       G
Meu coraçao sei que é o fim pra que viver se ela nao gosta mais de mim

----------------- Acordes -----------------
C = X 3 2 0 1 0
D = X X 0 2 3 2
G = 3 2 0 0 0 3
G7 = 3 5 3 4 3 3
