Scracho - A.C.H.T

E|------------------------------------------------------------------------------|
B|------------------------------------------------------------------------------|
G|------------------------------------------------------------------------------|
D|----9-7--7---9-7-----------------7-7/9----------7-9-7-------9-7---7-9-10-9----|
A|-------10---------10-9----7-9-10--------7-9-10--------10-9------10---------10-|
E|------------------------------------------------------------------------------|


E|-------------------------------------------------------------------------------|
B|-------------------------------------------------------------------------------|
G|-------------9-----------------------------------------------------------------|
D|--9-7--7---9---9------7---7---7/9-----------7-9-7------9-7----7-9-10-9---------|
A|-----10----------10----10--10-------7-9-10--------10-9-----10-----------10-7/0-|
E|-------------------------------------------------------------------------------|
