Scracho - Tudo Bem

F#
Não fique assim
                               Bbm
Nem pense que a nossa história foi ruim
                             B
A verdade é que eu não quero mais pra mim

Não tô afim,
    C#
Foi mal

     F#
Você vai dizer
                         Bbm
que eu nunca soube lidar com você
                        B
Tudo bem, você pode se surpreender
                    C#
se perceber que nem tudo gira ao seu redor

Ponte:


 B           C#         F#             D#m         B
Espero que você possa seguir sem ver o seu reino cair
           C#
Mas se não der,

Por mim

Refrão:

     F#
Tá tudo bem
    Bbm     B
Tudo bem
            C#
Mas se não der,

Por mim

      F#
Tá tudo bem

Eu sigo o meu caminho,
       Bbm
Siga o seu também
                              B
Daqui a pouco eu vou achar um outro alguém

E eu quero quem
   C#
Me dê valor

  F#
Você vai dizer
                         Bbm
que eu nunca soube lidar com você
                        B
Tudo bem, você pode se surpreender
                    C#
se perceber que nem tudo gira ao seu redor

(Ponte)

(Refrão)

----------------- Acordes -----------------
B = X 2 4 4 4 2
Bbm = X 1 3 3 2 1
C# = X 4 6 6 6 4
D#m = X X 1 3 4 2
F# = 2 4 4 3 2 2
