Manu Chao - Rainin' In Paradise

G#m                    B
F                      G#m
Today it's raining Today It's raining

   G#m                 B
In Zaire, Was no good place to be
              F#             G#m
Free world go crazy, it's an atrocity

   G#m                  B
In Congo, Still no good place to be
              F#             G#m
They killed Mibali, it's a calamity

   G#m                 B       F#                     G#m
Go Maasai go Maasai be mellow, Go Maasai go Maasai be sharp (2x)

In Monrovia, this no good place to be
Weapon go crazy, it's an atrocity
In Palestina, too much hypocricy
This world go crazy, it's no fatality


Go Maasai go Maasai be mellow, Go Maasai go Maasai be sharp (2x)

Today it's raining (4x), in paradise
Today it's raining (4x)

In Baghdad, it's no democracy
That's just because, it's a US Country
In Fallujah, too much calamity
This world go crazy, it's no fatality

Go Maasai go Maasai be mellow, Go Maasai go Maasai be sharp (2x)

Today it's raining (4x)

In Jerusalem, in Monrovia, Guinea-Bissau, today it's raining (3x)

Welcome to paradise, Come to the fairy lies
Welcome to paradise
Today it's raining (4x) fade out

----------------- Acordes -----------------
B = X 2 4 4 4 2
F = 1 3 3 2 1 1
F# = 2 4 4 3 2 2
G#m = 4 6 6 4 4 4
