Ed Motta - Sossego

[Intro] C7

C7
Ora bolas, não me amole

Com esse papo, de emprego

Não está vendo, não estou nessa

O que eu quero sossego 

Eu quero sossego

O que eu quero? Sossego!

O que eu quero? Sossego!

O que eu quero? Sossego!

O que eu quero? Sossego!

( C7 )

C7
Ora bolas, não me amole

Com esse papo, de emprego

Não está vendo, não estou nessa

O que eu quero sossego

Eu quero sossego

O que eu quero? Sossego!

O que eu quero? Sossego!

O que eu quero? Sossego!

O que eu quero? Sossego!

----------------- Acordes -----------------
C7 = X 3 2 3 1 X
