Adhemar de Campos - Grande É o Senhor

[Intro] A9  D9  E  A9

  A9           D9
Grande é o Senhor
       E           A9
E muito digno de louvor
      D9            E
Na cidade do nosso Deus
           F#m7
Seu Santo monte
A9               Bm7  C#m7  D9  E
Alegria de toda terra

  A9           D9
Grande é o Senhor
             E         A9
Em quem nós temos a vitória
       D9
E que nos ajuda
             F#m7
Contra o inimigo
    A9
Por isso diante Dele
          Bm7  C#m7  D9  E
Nos prostra---mo-----os

    A9
Queremos o Teu
              C#m7
Nome engrandecer
D9              A/C#
E agradecer-Te
        Bm              E
Por Tua obra Em nossas vidas
     A9                     C#m7
Confiamos em teu infinito amor
      D9                  A/C#
Pois só tu és o Deus eterno
 Bm         E       A9
Sobre toda terra e céu

( A  D9  E  A9 )

    A9
Queremos o Teu
              C#m7
Nome engrandecer
D9              A/C#
E agradecer-Te
        Bm              E
Por Tua obra Em nossas vidas
     A9                     C#m7
Confiamos em teu infinito amor
      D9                  A/C#
Pois só tu és o Deus eterno
 Bm         E       A9
Sobre toda terra e céu

    A9
Queremos o Teu
              C#m7
Nome engrandecer
D9              A/C#
E agradecer-Te
        Bm              E
Por Tua obra Em nossas vidas
     A9                     C#m7
Confiamos em teu infinito amor
      D9                  A/C#
Pois só tu és o Deus eterno
 Bm         E       A9
Sobre toda terra e céu

----------------- Acordes -----------------
A = X 0 2 2 2 0
A/C# = X 4 X 2 5 5
A9 = X 0 2 2 0 0
Bm = X 2 4 4 3 2
Bm7 = X 2 4 2 3 2
C#m7 = X 4 6 4 5 4
D9 = X X 0 2 3 0
E = 0 2 2 1 0 0
F#m7 = 2 X 2 2 2 X
