Zélia Duncan - Catedral

Intro:

E|--5---9/10-9-5---4/5-5/4-4/2-2p0-0---------------------------|
B|-5--5----------------------------------2-3-2------3p2-3-3/5--|
G|--------------------------------------2------2---------------|
D|-------------------------------------2-----------------------|
A|------------------------------------0------------------------|
E|-------------------------------------------------------------|

     A             D
O deserto que atravessei
Bm                       E
   Ninguem me viu passar
            A
Estranha e só
          D
Nem pude ver
Bm                E
   Que o céu é maior
          D             A
Tentei dizer, mas vi você
                 E
Tão longe de chegar,
D                       A
  mas perto de algum lugar
     A                      D
É deserto onde eu te encontrei
Bm                 E
   Você me viu passar
          A            D
Correndo só, nem pude ver
Bm                  E
   Que o tempo é maior
          D            A
Olhei pra mim, me vi assim
                 E  D
Tão perto de chegar  onde
            A
Você não está
E                  A
  No silêncio uma catedral
E               A
  Um templo em mim
E                A
  Onde possa ser imortal
     D
Mas vai existir eu sei vai
Bm
Ter que existir
 E                    E4/7
Vai resistir nosso lugar
    A          D
Solidão que pode evitar
Bm              E
 Te encontro enfim
         A      D
Meu coração, é secular
 Bm              E
Sonha e deságua dentro de mim
  D         Bm         E
Amanhã devagar me diz como voltar

Solo 2x: A  D  Bm  E

         A
Se eu disser
         D
Que foi por amor
Bm
 Não vou mentir
    E
Pra mim
          A
Se eu disser
       D
Deixa pra depois
Bm                 E
 Não foi sempre assim
         D
Tentei dizer
          A
Mas vi você
          E         D
Tão longe de chegar,  mas perto
            A
de algum lugar

(solo / dedilhado da música)

  00:19            00:25
E|----------------|-----------------|-
B|-----3/53------|----5/75/7------|-
G|----------------|-----------------|-
D|----------------|-----------------|-
A|----------------|-----------------|-
E|----------------|-----------------|-

  00:32             00:34              00:38           00:42
E|------------0----|-------------0----|---------------|----------5---|-
B|---------3-------|----------2-------|----5-5h7p5----|----3/53-----|-
G|------2----------|-------4----------|---------------|--------------|-
D|---0-------------|----2-------------|---------------|--------------|-
A|-----------------|-0----------------|---------------|--------------|-
E|-----------------|------------------|---------------|--------------|-

  00:47                 00:53
E|---------------------|-----9-10-9------12-----|-
B|----5h7p5-3-2h3p2----|------------10----------|-
G|---------------------|------------------------|-
D|---------------------|------------------------|-
A|---------------------|------------------------|-
E|---------------------|------------------------|-

  01:01            01:04                01:11
E|------------0---|--------------0-----|------------------------|-
B|---------3------|-----------2--------|----------2-3-2---------|-
G|------2---------|--------4-----------|-----2-4---------2------|-
D|---0------------|-----2--------------|------------------------|-
A|----------------|--0-----------------|------------------------|-
E|----------------|--------------------|------------------------|-

  01:16               01:20
E|-------------------|----------------------|-
B|---2h3p2-----------|---2-2--3-2-3/5-------|-
G|----------2h4p2----|----------------------|-
D|-------------------|----------------------|-
A|-------------------|----------------------|-
E|-------------------|----------------------|-

  01:25                                           01:30
E|------------0--------------------0-------------|----12----------------|
B|---------3-----3-----3--------3-----3-----3----|-------12---10-12-----|-
G|------2-----------2--------4-----------4-------|----------------------|-
D|---0--------------------4----------------------|----------------------|-
A|-----------------------------------------------|----------------------|-
E|-----------------------------------------------|----------------------|-

  01:33                          01:37
E|------------------------------|---------------------------|-
B|---10-10----------------------|---12--10-9-10-------------|-
G|----------9-11----7h9-7-6-----|----------------9--6h7p6---|-
D|---------------11-------------|---------------------------|-
A|------------------------------|---------------------------|-
E|------------------------------|---------------------------|-

  01:44
E|--12---10-9-----------0----------------0---------0--------0--------0-----|-
B|-------------------3-----3----------3-----3---------3--------3--------3--|-
G|----------------2----------------4---------------------------------------|-
D|-------------0----------------4----------------4--------4--------4-------|-
A|-------------------------------------------------------------------------|-
E|-------------------------------------------------------------------------|-

(solo) 01:52

  A D Bm E
E|-------------------12-10-9----------9-10-9--12-10--12----10-9------------|-
B|--9--10-12-10--------------12----12---------------------------12-10------|-
G|---------------------------------------------------------------------9-9-|-
D|-------------------------------------------------------------------------|-
A|-------------------------------------------------------------------------|-
E|-------------------------------------------------------------------------|-

E|---------------------------------------|-
B|----------------------10--12-9---------|-
G|--4--6-6/7--6-6/9--11----------9-------|-    (final do solo)
D|---------------------------------------|-
A|---------------------------------------|-
E|---------------------------------------|-

  02:13          02:19         02:22
E|--------------|-------------|--------------|-
B|--3/532-2---|--5-5/75/7--|--3/5-3-2-----|-
G|--------------|-------------|----------4---|-
D|--------------|-------------|--------------|-
A|--------------|-------------|--------------|-
E|--------------|-------------|--------------|-

  02:24           02:27            02:32          02:36
E|-----------0---|-----------2/5--|--------------|-----------|-
B|---------0-----|----------------|---------2----|--5/7-5----|-
G|-------1-------|---------2------|-------4------|-----------|-
D|-----2---------|-------0--------|-----2--------|-----------|-
A|---2-----------|----------------|---0----------|-----------|-
E|-0-------------|----------------|--------------|-----------|-

  02:39             fim
E|-------|------------0------0-----|
B|--3----|----------2---2---2------|
G|-------|--------2--------2-------|
D|--0----|------2------------------|
A|-------|----0--------------------|
E|-------|-------------------------|

----------------- Acordes -----------------
A = X 0 2 2 2 0
Bm = X 2 4 4 3 2
D = X X 0 2 3 2
E = 0 2 2 1 0 0
E4/7 = 0 2 0 2 0 X
