Djavan - Samurai

[Intro]

E|-------------------------|
B|-------------------------|
G|-------------------------|
D|-----------6-8-9--6-8-9--|
A|-------------------------|
E|--7-4-4-7----------------|

  Ai...    quanto querer.    Cabe em meu cora__ção

E|----------------------------------------------|
B|----------------------------------------------|
G|--6/8~~--9-8----------------------6-6/8-------|
D|-------------6-7/9~~--------6-6-9-------6~~---|
A|----------------------------------------------|
E|----------------------------------------------|

  Ai...     me faz sofrer.   Faz que me mata e se não mata  fere

E|-------------------------------------------------------|
B|-------------------------------------------------------|
G|--6/8~~--9-8----------------------6-6/8-----6-6/8------|
D|-------------6-7/9~~--------6-6-9-------6-9-------6-9--|
A|-------------------------------------------------------|
E|-------------------------------------------------------|


E|-----------------------------------------------------|
B|-----------------------------------------------------|
G|------8--6/8----5/6----------------------------------|
D|--6-9--------8------9-----6-6--6-9-9-8--------6-8/9--|
A|---------------------------------------9-9--9--------|
E|-----------------------------------------------------|

 Vai...       sem me dizer.  Na casa da paixão

E|----------------------------------------------|
B|----------------------------------------------|
G|--6/8~~--9-8----------------------6-6/8-------|
D|-------------6-7/9~~--------6-6-9-------6~~---|
A|----------------------------------------------|
E|----------------------------------------------|

Sai...     quando bem quer. Traz uma praga e me afaga a pele

E|-------------------------------------------------------|
B|-------------------------------------------------------|
G|--6/8~~--9-8----------------------6-6/8-----6-6/8------|
D|-------------6-7/9~~--------6-6-9-------6-9-------6-9--|
A|-------------------------------------------------------|
E|-------------------------------------------------------|

E|-------------------------------------------------------------6/7--------|
B|-----------------------------------------------------------------9-7----|
G|--------6-8-----8/9-8-6-6-8-------9p8h9p8h9p8h9p8-8------------------8--|
D|--6-8-9---------------------9-----------------------11-9----------------|
A|------------------------------------------------------------------------|
E|------------------------------------------------------------------------|

E|--------------------------------------------------------|
B|--------------------------------------------------------|
G|--------------------------------------------------------|
D|--------------------------------------------------------|
A|--------------------------------------------------------|
E|--------------------------------------------------------|

Crescei, luar.       Pra iluminar as trevas fundas  da    paixão

E|-----------------------------------------------|
B|-----------------------------------------------|
G|--8/9-8---8/9-8-----9-8-6---6----6-------------|
D|--------------------------9----------9----9----|
A|------------------------------9----7----6---6--|
E|-----------------------------------------------|

Eu quis lutar,  contra o poder    do amor

E|--------------------------------|
B|--------9------------------6/7--|
G|--7/8-8---6-----9-8-6----6------|
D|----------------------9---------|
A|--------------------------------|
E|--------------------------------|

Caí nos pés do vencedor.     Para ser um serviçal de um samurai

E|-----------------------------------------------|
B|----7---7---7-------------------7--------------|
G|--9---9---9---8/9-9-8-----8-8-9---8-6-----7/8--|
D|--------------------------------------9-6------|
A|-----------------------------------------------|
E|-----------------------------------------------|

Mas eu tô tão feliz.    Dizem que o amor atrai

E|-------------------------------------------------------|
B|--------------------------------------------------7-9--|
G|--8/9-8----8h9-8--------------6-6/8-----------6-8------|
D|--------9---------9-----6-6-9-------6-----6-9----------|
A|-------------------------------------------------------|
E|-------------------------------------------------------|

E|----------------------------------------------------------------------------|
B|----------------------------------------------------------------------------|
G|--------6-8-----8/9-8-6-6-8-------------------------------------------------|
D|--6-8-9---------------------9-----6-6-6-9-9-8-----------6-9-----------------|
A|----------------------------------------------9-9-----9-------9p7---9-7---7-|
E|------------------------------------------------------------------9-----9---|

E|-----------------------------7-7-7--6-6-6-6-6--------7-----/16-20-19-22-19-16--------|
B|----------------------------------------------7-7--9---------------------------------|
G|--9p8h9p8h9p8h9p8-8------------------------------------------------------------------|
D|--------------------11-9-------------------------------------------------------------|
A|-------------------------------------------------------------------------------------|
E|-------------------------------------------------------------------------------------|

E|--/16-19-18-21-19-19-16--------------------------------------------16-16-16-----------|
B|------------------------19-17-------------17-17-17-17-19-19-19-19-----------19-19-17--|
G|------------------------------18-16-16------------------------------------------------|
D|--------------------------------------------------------------------------------------|
A|--------------------------------------------------------------------------------------|
E|--------------------------------------------------------------------------------------|

----------------- Acordes -----------------
