Djavan - Samurai

[Intro] E7M  Gº  G#m7  C#7(9)
        E7M  Gº  G#m7  B7(13)  B5(7/9)
        E7M  Gº  G#m7  C#7(9)
        E7M  Gº  G#m7  B7(9)
        E7M  Gº  G#m7  C#7(9)
        E7M  Gº  G#m7  B7(13)  B5(7/9)
        E7M  Gº  G#m7  C#7(9)
        E7M  Gº  G#m7  B7(9)

[Introdução e Primeira Parte]

Parte 1

   E7M       G°          G#m7      C#7(9)
E|-4-----x-4--------------------------------|
B|-4-----x-4-2-----2-x-2-4-----x-4-4--------|
G|-4-----x-4-3-----3-x-3-4-----x-4-4--------|
D|---2-2-----2-----2-x-2-4-----x-4-3--------|
A|------------------------------------4-4---|
E|-------------3-3---------4-4--------------|


E|------------------------------------------|
B|-4-x-2------------------------------------|
G|-4-x-4------------------------------------|
D|-3-x-4------------------------------------|
A|------------------------------------------|
E|------------------------------------------|

Parte 2

   E7M       G°          G#m7      B7(9)
E|-4-----x-4--------------------------------|
B|-4-----x-4-2-----2-x-2-4-----x-4-2--------|
G|-4-----x-4-3-----3-x-3-4-----x-4-2--------|
D|---2-2-----2-----2-x-2-4-----x-4-1--------|
A|------------------------------------2-2---|
E|-------------3-3---------4-4--------------|

E|------------------------------------------|
B|-2-x-2------------------------------------|
G|-2-x-2------------------------------------|
D|-1-x-1------------------------------------|
A|------------------------------------------|
E|------------------------------------------|

Variação 1

   E7M       G°          G#m7      B7(13) B5(7/9)
E|-4-----x-4-----------------------4------2-|
B|-4-----x-4-2-----2-x-2-4-----x-4-4------2-|
G|-4-----x-4-3-----3-x-3-4-----x-4-2------2-|
D|---2-2-----2-----2-x-2-4-----x-4----------|
A|---------------------------------2------2-|
E|-------------3-3---------4-4--------------|

Variação 2

   E7M       G°          G#m7    C#7(13) B7(13) 
E|-4-----x-4---------------------6-------4--|
B|-4-----x-4-2-----2-x-2-4-----x-6-------4--|
G|-4-----x-4-3-----3-x-3-4-----x-4-------2--|
D|---2-2-----2-----2-x-2-4-----x------------|
A|-------------------------------4-------2--|
E|-------------3-3---------4-4--------------|

[Primeira Parte]

E7M    Gº  G#m7            C#7(9)
    Ai...       quanto querer
E7M              Gº  G#m7  B7(9)
    Cabe em meu coração
E7M    Gº  G#m7            C#7(9)
    Ai...       me faz sofrer
E7M             Gº             G#m7  B7(13)  B5(7/9)
    Faz que me mata e se não mata   fere

( E7M  Gº  G#m7  C#7(9) )
( E7M  Gº  G#m7  C#7(13)  B7(13) )

E7M      Gº  G#m7           C#7(9)
    Vai...        sem me dizer
E7M          Gº    G#m7  B7(9)
    Na casa da paixão
E7M     Gº G#m7               C#7(9)
    Sai...       quando bem quer
E7M            Gº         G#m7     B7(13) B5(7/9)
    Traz uma praga e me afaga a pele

( E7M  Gº  G#m7  C#7(9) )
( E7M  Gº  G#m7  C#7(13)  B7(13) )

[Segunda Parte]

Parte 1 de 6

   E7M       G°          G#m7      C#7(9)
E|-4-----x-4--------------------------------|
B|-4-----x-4-2-----2-x-2-4-----x-4-4--------|
G|-4-----x-4-3-----3-x-3-4-----x-4-4--------|
D|---2-2-----2-----2-x-2-4-----x-4-3--------|
A|------------------------------------4-4---|
E|-------------3-3---------4-4--------------|

E|------------------------------------------|
B|-4-x-2------------------------------------|
G|-4-x-4------------------------------------|
D|-x-x-x------------------------------------|
A|------------------------------------------|
E|------------------------------------------|

Parte 2 de 6

   A7M     G7M     F#m7
E|-------------------------4h7---4----------|
B|-2--x-2--3--x-3--2---x-2-----7---5h7---4--|
G|-1--x-1--4--x-4--2---x-2-------------6----|
D|-2--x-2--4--x-4--2---x-2------------------|
A|-0--x-0--x--x-x------x--------------------|
E|---------3----3--2-----2------------------|

Parte 2 de 6 (variação)

   A7M     G7M     F#m7     B7(9)
E|------------------------------------------|
B|-2--x-2--3--x-3--2---x-2--2--x-2----------|
G|-1--x-1--4--x-4--2---x-2--2--x-2----------|
D|-2--x-2--4--x-4--2---x-2--1--x-1----------|
A|-0--x-0--x--x-x------x----2--x-2----------|
E|---------3----3--2-----2------------------|

Parte 3 de 6

   E7M       G°          G#m7      C#7(9)
E|-4-----x-4--------------------------------|
B|-4-----x-4-2-----2-x-2-4-----x-4-4--------|
G|-4-----x-4-3-----3-x-3-4-----x-4-4--------|
D|---2-2-----2-----2-x-2-4-----x-4-3--------|
A|------------------------------------4-4---|
E|-------------3-3---------4-4--------------|

E|------------------------------------------|
B|-4-x-2------------------------------------|
G|-4-x-4------------------------------------|
D|-3-x-4------------------------------------|
A|------------------------------------------|
E|------------------------------------------|

Parte 4 de 6

   A7M            A#m7(5-)   D#7(9-)
E|---------2--2-x-0-------------------------|
B|-2--x-2--2--2-x-2-2--x-2---5-x-5----------|
G|-1--x-1--1--1-x-1-1--x-1---6-x-6----------|
D|-2--x-2-------x---2--x-2---5-x-5----------|
A|-0--x-0--0----x---1--x-1---6-x-6----------|
E|--------------x---------------------------|

Parte 5 de 6

   E7M       G°          G#m7      C#7(9)
E|-4-----x-4--------------------------------|
B|-4-----x-4-2-----2-x-2-4-----x-4-4--------|
G|-4-----x-4-3-----3-x-3-4-----x-4-4--------|
D|---2-2-----2-----2-x-2-4-----x-4-3--------|
A|------------------------------------4-4---|
E|-------------3-3---------4-4--------------|

E|------------------------------------------|
B|-4-x-2------------------------------------|
G|-4-x-4------------------------------------|
D|-x-x-x------------------------------------|
A|------------------------------------------|
E|------------------------------------------|

Parte 6 de 6

   E7M       G°          G#m7    C#7(13) B7(13) 
E|-4-----x-4---------------------6-------4--|
B|-4-----x-4-2-----2-x-2-4-----x-6-------4--|
G|-4-----x-4-3-----3-x-3-4-----x-4-------2--|
D|---2-2-----2-----2-x-2-4-----x------------|
A|-------------------------------4-------2--|
E|-------------3-3---------4-4--------------|

E7M         Gº       G#m7           C#7(9)
    Crescei     luar      pra iluminar
     A7M   G7M     F#m7     B7(9)
As trevas fundas  da    paixão
E7M      Gº       G#m7             C#7(9)
    Eu quis lutar      contra o poder    do amor
A7M                      A#m7(5-)
    Caí nos pés do vencedor
                  D#7(9-)       E7M  Gº
Para ser um serviçal de um samurai
G#m7            C#7(9)
     Mas eu tô tão feliz
E7M               Gº    G#m7  C#7(13)  B7(13)
    Dizem que o amor atrai

( E7M  Gº  G#m7  C#7(9) )
( E7M  Gº  G#m7  B7(13)  B5(7/9) )
( E7M  Gº  G#m7  C#7(9) )
( E7M  Gº  G#5(7/9/11) )

----------------- Acordes -----------------
A#m7(5-) = X 1 2 1 2 X
A7M = X 0 2 1 2 0
B7(13) = X 2 X 2 4 4
B7(9) = X 2 1 2 2 X
C#7(13) = X 4 X 4 6 6
C#7(9) = X 4 3 4 4 X
D#7(9-) = X 6 5 6 5 X
E7M = X X 2 4 4 4
F#m7 = 2 X 2 2 2 X
G#m7 = 4 X 4 4 4 X
G7M = 3 X 4 4 3 X
G° = 3 X 2 3 2 X
Gº = 3 X 2 3 2 X
