Djavan - Se

[Intro] A  D  F#m7(11)  E
        A  D  F#m7(11)  E
        A  D  F#m7(11)  E
        A  D  F#m7(11)  E

      A         D             F#m7
Você disse que não sabe se não
        A              D        C#m7
Mas também não tem certeza que sim
D7M(9)  G#m7        F#m7      B7
      Quer saber? Quando é assim
       D   C#m7  Bm7    E4/7(9)  G7M(6/9)
Deixa vir do    coração

      A           D             F#m7
Você sabe que eu só penso em você
      A         D              C#m7  D7M(9)
Você diz que vive pensando em mim
      G#m7   F#m7   B7
Pode ser... Se é assim


      D                C#m7
Você tem que largar a mão do não
 D                    C#m7
Soltar essa louca, arder de paixão
 D                        C#m7
Não há como doer pra decidir
      Bm7
Só dizer sim ou não
     D   C#m7  Bm7   E4/7(9)  A
Mas você a... do... ra um    Se

( D  F#m7(11)  E )

A         D              F#m7(11)   E
  Eu levo a sério mas você disfarça
A       D                  F#m7(11)    E
  Você me diz à beça e eu nessa de horror
A       D                  F#m7(11)  E
  E me remete ao frio que vem lá do Sul
A         D                    F#m7(11)  E
  Insiste em zero a zero e eu quero um a um

A               D           F#m7(11)  E
  Sei lá o que te dá, não quer meu calor
A         D                    F#m7(11)   E
  São Jorge, por favor, me empresta o dragão
A               D          F#m7(11)    E
  Mais fácil aprender japonês em Braille
A         D            F#m7(11)  E
  Do que você decidir se dá ou  não

( A  D  F#m7(11)  E )
( A  D  F#m7(11)  E )
( A  D  F#m7(11)  E )
( A  D  F#m7(11)  E )

      A         D             F#m7
Você disse que não sabe se não
        A              D        C#m7
Mas também não tem certeza que sim
D7M(9)  G#m7        F#m7      B7
      Quer saber? Quando é assim
       D   C#m7  Bm7    E4/7(9)  G7M(6/9)
Deixa vir do    coração

      A           D             F#m7
Você sabe que eu só penso em você
      A         D              C#m7  D7M(9)
Você diz que vive pensando em mim
      G#m7   F#m7   B7
Pode ser... Se é assim

      D                C#m7
Você tem que largar a mão do não
 D                    C#m7
Soltar essa louca, arder de paixão
 D                        C#m7
Não há como doer pra decidir
      Bm7
Só dizer sim ou não
     D   C#m7  Bm7   E4/7(9)  A
Mas você a... do... ra um    Se

( D  F#m7(11)  E )

A         D              F#m7(11)   E
  Eu levo a sério mas você disfarça
A       D                  F#m7(11)    E
  Você me diz à beça e eu nessa de horror
A       D                  F#m7(11)  E
  E me remete ao frio que vem lá do Sul
A         D                    F#m7(11)  E
  Insiste em zero a zero e eu quero um a um

A               D           F#m7(11)  E
  Sei lá o que te dá, não quer meu calor
A         D                    F#m7(11)   E
  São Jorge, por favor, me empresta o dragão
A               D          F#m7(11)    E
  Mais fácil aprender japonês em Braille
A         D            F#m7(11)  E
  Do que você decidir se dá ou  não

----------------- Acordes -----------------
A = X 0 2 2 2 0
B7 = X 2 1 2 0 2
Bm7 = X 2 4 2 3 2
C#m7 = X 4 6 4 5 4
D = X X 0 2 3 2
D7M(9) = X 5 4 6 5 X
E = 0 2 2 1 0 0
E4/7(9) = X X 2 2 3 2
F#m7 = 2 X 2 2 2 X
F#m7(11) = 2 X 2 2 0 X
G#m7 = 4 X 4 4 4 X
G7M(6/9) = 3 2 2 2 3 2
