Djavan - Sina

[Intro] A  D/A  A  D/A

    A           D/A        
E|----------------------------------------------------|
B|--2-2---2-2---3-3---3-3-----------------------------|
G|--2-2---2-2---2-2---2-2-----------------------------|(2x)
D|--2-2---2-2---4-4---4-4-----------------------------|
A|--0--x--0-----0--x--0-------------------------------|
E|-----x-----------x----------------------------------|

[Primeira Parte]

    A           D/A         A           E/G#
E|----------------------------------------------------|
B|--2-2---2-2---3-3---3-3---2-2---2-2---5-5---5-5-----|
G|--2-2---2-2---2-2---2-2---2-2---2-2---4-4---4-4-----|
D|--2-2---2-2---4-4---4-4---2-2---2-2---2-2---2-2-----|
A|--0--x--0-----0--x--0-----0--x--0--------x----------|
E|-----x-----------x-----------x--------4--x--4-------|

    F#m7        C#m7        D7M         D#º
E|--------------------------2-2---2-2---2-2---2-2-----|
B|--2-2---2-2---5-5---5-5---2-2---2-2---1-1---1-1-----|
G|--2-2---2-2---4-4---4-4---2-2---2-2---2-2---2-2-----|
D|--2-2---2-2---6-6---6-6---0-----0-----1-----1-------|
A|-----x--------4--x--4--------x-----------x----------|
E|--2--x--2--------x-----------x-----------x----------|


A           D/A
  Pai e mãe,    ouro de mina
A          E/G#
  Coração,     desejo e sina
F#m7         C#m7            D7M
    Tudo mais, pura rotina, jazz
D#°
   Tocarei seu nome prá poder
A
  Falar de amor
D/A               A
   Minha princesa, art-nouveau
E/G#             F#m7
    Da natureza,      tudo o mais
C#m7              D7M  D#°
    Pura beleza, jazz

[Segunda Parte]

    E4(7/9)         D4(7/9) C#7(9-)   F#m7
E|--2-2-----2-2-----0-0---------------------------------|
B|--3-3-----3-3-----1-1-----3-3-------2-2-----2-2-------|
G|--2-2-----2-2-----0-0-----4-4-------2-2-----2-2-------|
D|--2-------2-------0-------3-3-------2-2-----2-2-------|
A|------x---------------x-----4-----------x-------------|
E|------x---------------x-------------2---x---2---------|

    F#m7            E4(7/9)         D4(7/9)   E4(7/9)
E|------------------2-2-----2-2-----0-0-------2-2-------|
B|--2-2-----2-2-----3-3-----3-3-----1-1-------3-3-------|
G|--2-2-----2-2-----2-2-----2-2-----0-0-------2-2-------|
D|--2-2-----2-2-----2---x---2-------0-----x---2---------|
A|------x---------------x-----------------x-------------|
E|--2---x---2-------------------------------------------|

              E4(7/9)
A luz de um grande prazer
  D4(7/9)       C#7(9-)     F#m7
É irre___medi___ável   neon
           E4(7/9)            D4(7/9)     E4(7/9)
Quando o grito do prazer açoitar   o ar, reveillon

[Refrão]

A                 D/A
   O luar, estrela    do mar
              A              E/G#
O sol e o dom, quiçá, um dia a fúria
           F#m7
Desse front     virá lapidar
C#m7                 D7M
O sonho até gerar o som
                E4(7/9)
Como querer caetanear o que há de bom

A                 D/A
   O luar, estrela    do mar
              A              E/G#
O sol e o dom, quiçá, um dia a fúria
           F#m7
Desse front     virá lapidar
C#m7                 D7M
O sonho até gerar o som
                E4(7/9)
Como querer caetanear o que há de bom

( A  D/A  A  D/A  A )

----------------- Acordes -----------------
A = X 0 P2 2 2 X
C#7(9-) = X 4 3 4 3 X
C#m7 = X 4 6 4 5 4
D#° = X X 1 2 1 2
D#º = X X 1 2 1 2
D/A = X 0 4 2 3 X
D4(7/9) = X X 0 0 1 0
D7M = X X 0 P2 2 2
E/G# = 4 X 2 4 5 X
E4(7/9) = X X P2 P2 3 P2
F#m7 = P2 X P2 P2 P2 P2
