Creedence Clearwater Revival - Tombstone shadow

  Intro
e|----------------------------------|
B|------------15b17-15b17-15--------|
G|------12-------------------12-----|
D|---14----14-----------------------|
A|----------------------------------|
E|----------------------------------|

e|-------------------------------------------------------------|
B|---15-14-13--------------------------------------------------|
G|------------15-12----14b15b14-12--14b15b14-12--14b15b14-12---|
D|------------------14-----------------------------------------|
A|-------------------------------------------------------------|
E|-------------------------------------------------------------|

  Tombstone shadow,         stretching across my path
e|-------------------------|             |------------------------|
B|--------------------8----|             |----10b11-10b11-8-8-----|
G|----------9b10-9b10------|             |------------------------|
D|-------------------------|             |------------------------|
A|-------------------------|             |------------------------|
E|-------------------------|             |------------------------|


  Tombstone shadow,                           stretching across my path
e|-------------------------------------------|        |------------------------|
B|-------8-10b11-10b11-10b11-10b11b10-8------|        |-----------11-8---------|
G|--9b10-------------------------------------|        |------------------------|
D|-------------------------------------------|        |------------------------|
A|-------------------------------------------|        |------------------------|
E|-------------------------------------------|        |------------------------|

  Ev'ry time I get some good news   Ooh, There's a shadow on my back
e|----------------------------------------|----------------------------------------|
B|----------------------------------------|----------------8-8-----8-8-----8-8-----|
G|----------------------------------------|------------7b9-----7b9-----7b9---------|
D|--------10-10-10-12--------10-10-10-12--|----------------------------------------|
A|--10/12--------------10/12--------------|----------------------------------------|
E|----------------------------------------|----------------------------------------|

  Saw the gypsy man,       'way down in San Berdoo
e|----------------------------|         |----------------------------|
B|------------------------8---|         |--10b11-10b11-8------8------|
G|-------------9b10--9b10-----|         |----------------9b10--------|
D|----------------------------|         |----------------------------|
A|----------------------------|         |----------------------------|
E|----------------------------|         |----------------------------|

  Said, I saw the gypsy man,                'way down in San Berdoo
e|----------------------------------------------|        |--------------|
B|-------8---10b11-10b11-10b11-10b11b10-8-------|        |----11-8------|
G|--9b10---9------------------------------------|        |--------------|
D|----------------------------------------------|        |--------------|
A|----------------------------------------------|        |--------------|
E|----------------------------------------------|        |--------------|

  Five dollars on the table,         Ooh, Keep me 'way from my tomb         Oh! Oh!
e|----------------------------------------|----------------------------------------|
B|----------------------------------------|----------------8-8-----8-8-----8-8-----|
G|----------------------------------------|------------7b9-----7b9-----7b9---------|
D|--------10-10-10-12--------10-10-10-12--|----------------------------------------|
A|--10/12--------------10/12--------------|----------------------------------------|
E|----------------------------------------|----------------------------------------|

  SOLO
e|---------------------------------------------------------------|
B|-------8-10b11-11/10-8----8-10b11b10-8-------------------------|
G|--9b10-----------------10--------------------------------------|
D|---------------------------------------------------------------|
A|---------------------------------------------------------------|
E|---------------------------------------------------------------|

e|---------------------------------------------------------------|
B|-------8-10b11-10b11-10b11-10b11-10b11-10b11-10b11--8-10-9-----|
G|--9b10---------------------------------------------------------|
D|---------------------------------------------------------------|
A|---------------------------------------------------------------|
E|---------------------------------------------------------------|

e|---------------------------------------------------------------|
B|--15b1715----15b1715----15b1715--------------------------------|
G|----------12---------12----------------------------------------|
D|---------------------------------------------------------------|
A|---------------------------------------------------------------|
E|---------------------------------------------------------------|

e|---------------------------------------------------------------|
B|---------------------------------------------------------------|
G|--12-12-12-14b15--15b14/12----12--14b15-12--14-12--------------|
D|---------------------------14----------------------------------|
A|---------------------------------------------------------------|
E|---------------------------------------------------------------|

e|---------------------------------------------------------------------------------|
B|--15b17-15b17-15b17-15b17-15b17-15b17--17b15-------------------------------------|
G|---------------------------------------------12----12--14b15b14-12--14b15b14-12--|
D|------------------------------------------------14-------------------------------|
A|---------------------------------------------------------------------------------|
E|---------------------------------------------------------------------------------|
                                                                       Final do solo

  Said I got thirteen months of bad luck, bound to be some pain
  Don't you do no trav'ling, fly in no machines
  Tombstone Shadow, stretching across my path
e|-----------|-----------|-----------|---------------|----------------------------|
B|-------8---|-------8---|-------8---|------------8--|--10b11-10b11-8----10b11-8--|
G|--9b10-----|--9b10-----|--9b10-----|--9b10-9b10----|----------------10----------|
D|-----------|-----------|-----------|---------------|----------------------------|
A|-----------|-----------|-----------|---------------|----------------------------|
E|-----------|-----------|-----------|---------------|----------------------------|

  Ev'ry time I get some good news,   Ooh, there's a shadow on my back
e|----------------------------------------|------------------------------|
B|----------------------------------------|-------8-8-----8-8-----8-8----|
G|----------------------------------------|---7/9-----7/9-----7/9--------|
D|--------10-10-10-12--------10-10-10-12--|------------------------------|
A|--10/12--------------10/12--------------|------------------------------|
E|----------------------------------------|------------------------------|

  SOLO
e|--------------------------------------------------------------------------------|
B|------8-8-8-8.......--15b17b15----15-14-13--------------------------------------|
G|--7/9--------------------------12----------15-12----14b15-12-14b15-12-14b15-12--|
D|-------------------------------------------------14-----------------------------|
A|--------------------------------------------------------------------------------|
E|--------------------------------------------------------------------------------|
                                                                      Final do solo


  The man gave me a luck charm,  cost five dollars more,
e|----------------------------|   |------------------------------------|
B|----------------------8-----|   |----10b11-11-8------8-8-8-----------|
G|------------9b10-9b10-------|   |---------------9b10-----------------|
D|----------------------------|   |------------------------------------|
A|----------------------------|   |------------------------------------|
E|----------------------------|   |------------------------------------|

  Said, "Put some on your pillow,  and put some on your door."
e|------------------------------|    |------------------------------------|
B|---------------8---10b11-8----|    |--------8------10b11-8------8-------|
G|----------9b10---9------------|    |---9b10---9b10---------9b10---------|
D|------------------------------|    |------------------------------------|
A|------------------------------|    |------------------------------------|
E|------------------------------|    |------------------------------------|

  He said, "Take a long vacation, Ooh, for thirteen months or more" Oh, Lord!
e|-----------------------------------------|----------------------|
B|-----------------------------------------|------------------8---|
G|-----------------------------------------|---9b10-9b10-9b10-----|
D|--------10-10-10-12--------10-10-10-12---|----------------------|
A|--10/12--------------10/12---------------|----------------------|
E|-----------------------------------------|----------------------|

e|---------------------------------|
B|---------------------------------|
G|---------------------------------|
D|---------------------------------|
A|-------8------8------8------8----|
E|--8/10---8/10---8/10---8/10------|

  Tombstone Shadow,       stretching across my path
e|----------------------|         |----------------------------------------|
B|-------------------8--|         |--10b11-10b11-10b11-8------8-8-8--------|
G|---------9b10-9b10----|         |----------------------9b10--------------|
D|----------------------|         |----------------------------------------|
A|----------------------|         |----------------------------------------|
E|----------------------|         |----------------------------------------|

  Tombstone Shadow,                         stretching across my path
e|-------------------------------------------------|  |-------------|
B|-------8------10b11-11\10-8---10b11-11\10-8---8--|  |--------8----|
G|--9b10---9b10---------------9---------------9----|  |---9b10------|
D|-------------------------------------------------|  |-------------|
A|-------------------------------------------------|  |-------------|
E|-------------------------------------------------|  |-------------|

  Ev'ry time I get some good news, Ooh, there's a shadow on my back Oh, oh, Lord!
e|----------------------------------------|------------------------------|
B|----------------------------------------|-------8-8-----8-8-----8-8----|
G|----------------------------------------|---7/9-----7/9-----7/9--------|
D|--------10-10-10-12--------10-10-10-12--|------------------------------|
A|--10/12--------------10/12--------------|------------------------------|
E|----------------------------------------|------------------------------|

  SOLO FINAL
e|--------------------------------------------------------------------|
B|------8-10b11-10b11-11\10-8---8--10b11-10b11b10-8-------------------|
G|--7/9-----------------------9---------------------------------------|
D|--------------------------------------------------------------------|
A|--------------------------------------------------------------------|
E|--------------------------------------------------------------------|

e|------------------------------------------------------------------------|
B|------10b11-10b11-10b11-10b11-10b11-10b11b10-8----8-15b17----15b17------|
G|--7/9-------------------------------------------9---------12-------12---|
D|------------------------------------------------------------------------|
A|------------------------------------------------------------------------|
E|------------------------------------------------------------------------|

e|------------------------------------------------------------------|
B|--15b17-------------15b17-----------------15b17-15b17-15----------|
G|--------12-14b15-12-------12-12-----12-------------------12-------|
D|---------------------------------14----14-------------------------|
A|------------------------------------------------------------------|
E|------------------------------------------------------------------|

e|------------------------------------------------------------------|
B|--15-14-13--------------------------------------------------------|
G|-----------15-12----14b15b14-12-14b15b14-12-14b15b14-12-----------|
D|-----------------14-----------------------------------------------|
A|------------------------------------------------------------------|
E|------------------------------------------------------------------|
