Jorge Vercillo - Ciclo

Introdução: G7M(9) Em7(9) Am7(9) D7 G7M(9) Em7(9) Am7(9) D7

Intro Solo:

E|-------------------------------------------
B|-------------------------------------------
G|-------------------------------------------
D|------5-7-8-7---7/8/7--5--7---7/8/7--5--7--
A|--5----------------------------------------
E|-------------------------------------------

E|---------------------6-8-10----8/10/8------
B|---------------6-8---------------------11--
G|-----5--7--8-------------------------------
D|--8----------------------------------------
A|-------------------------------------------
E|-------------------------------------------

E|-----------8--8----------------------------
B|--10--11-----------11/10------10--10-------
G|--------------------------12---------------
D|-------------------------------------------
A|-------------------------------------------
E|-------------------------------------------


E|-------------------------------------------
B|-10/11/10----------------------------------
G|-----------12--11-------7/8/7-----7/8/7----
D|--------------------10---------10----------
A|-------------------------------------------
E|-------------------------------------------


E|----------------------------10--10--10-----
B|-------------------------------------------
G|-----7/8/7------7-----7/8---------------8--
D|-10--------10------------------------------
A|-------------------------------------------
E|-------------------------------------------

E|--7/8--8-8---------6-6-6--------6----------
B|---------------4-------------4-------------
G|------------7-------------7----------------
D|-------------------------------------------
A|-------------------------------------------
E|-------------------------------------------

E|--5--6--8----2--3--5-----------------------
B|--7--8--8----3--4--5----5-7--8-------------
G|--6--7--8----2--3--5----4-6--8-------------
D|------------------------5-7--8-------------
A|-------------------------------------------
E|-------------------------------------------


E|-------------------------------------------
B|----10-10-10-10-8-7--------10-10-10-10-8-7-
G|-7--------------------7--------------------
D|-------------------------------------------
A|-------------------------------------------
E|-------------------------------------------

E|-------------------------------------------
B|-8/10--------------------10-10--10--10-----
G|------9--8/9/10--7-------11-11--11--11-----
D|----------------------12-------------------
A|-------------------------------------------
E|-------------------------------------------

E|-----------------------------------7-------
B|-8-7-7-------10-10--10--10-8-7-10--5-------
G|-9-7-7-------11-11--11--11-9-7-11----------
D|--------12---------------------------------
A|-------------------------------------------
E|-------------------------------------------

E|----------------------------------7--------
B|-8/10/8-----------------7--8--10-----------
G|---------11--9----7-9----------------------
D|-------------------------------------------
A|-------------------------------------------
E|-------------------------------------------

E|--7/8--7-----------------------------------
B|----------10--8/10-------------------------
G|-------------------------------------------
D|-------------------------------------------
A|-------------------------------------------
E|-------------------------------------------

G7M(9)               Em7(9)
Eu não sei o que me domina
Am7(9)            C/D             D7
E mesmo assim não penso em me livrar
G7M(9)              Em7(9)
Num fascínio de alma gêmea
Am7(9)         Am7(b5)        D7
Você em mim constrói o seu lugar

  G7M(9)          Em7(9)           C7M         C/D D7
O amor se fez me levando além onde ninguém mais
 G7M(9)        Em7(9)              C7M         Eb7M
Criou raiz, ancorou de vez, fez de mim seu cais
                    D4/9- C/D
Lendo a rota das estrelas

G7M(9)               Em7(9)
Nesse abraço se fez um ciclo
Am7(9)            C/D             D7
Que não tem fim e é todo o meu viver
G7M(9)               Em7(9)
É como alcançar o infinito
Am7(9)         Am7(b5)        D7
Reflete em mim e volta pra você

  G7M(9)         Em7(9)             C7M      C/D D7
O amor surgiu como um em mil, por você eu vim
   G7M(9)        Em7(9)            C7M       Eb7M
E assim será a me conduzir, sem mandar em mim
                          D4/9-         C/D    G7M(9)
Como o vento e o barco a vela, que nos leva sem fim

----------------- Acordes -----------------
A = X 0 2 2 2 0
Am7(9) = X X 7 5 8 7
Am7(b5) = 5 X 5 5 4 X
B = X 2 4 4 4 2
C/D = X X 0 0 1 0
C7M = X 3 2 0 0 X
D = X X 0 2 3 2
D4/9- = X 5 5 8 8 5
D7 = X X 0 2 1 2
E = 0 2 2 1 0 0
Eb7M = X X 1 3 3 3
Em7(9) = X 7 5 7 7 X
G = 3 2 0 0 0 3
G7M(9) = 3 2 4 2 X X
