Jorge Vercillo - Encontro das Águas

[Intro]  Bb7M  C/Bb  D9  D7
         Bb7M  C/Bb  D9  B7/4  B7
         Bb7M  C/Bb  D9  B7/4  B7
         Bb7M  C/Bb  D9  C/D  B/D

   G    F#m7  Em7       Em7/D       Bm7  Bb°   D/A
Sem que|-----rer te perdi tentando te enco--ntrar
       Ab7/#11         G  A/G  F#m7
Por te amar demais sofri, a---mor
       B7/b9        Bb7M  Eb7M  D7M  C/D  B/D
Me senti traído e trai---dor

 G    F#m7  Em7       Em7/D           Bm7  Bb°  D/A
Fui cru-----el sem saber que entre o bem e o   mal
       Ab7/#11      G     A/G   F#m7
Deus criou um laço forte, um   nó
    B7/b9         Bb7M  Eb7M  D7M  D7/9  Ab7/#11
E quem viverá um la----do    só?

Gm7/11    C7/9    F7M      Cm7 F7/b9  Bb7M
A     paixão veio assim afluente sem fim

 A7/9          D7/4  D7  Ab7/#11
Rio que não deságua
  Gm7/11  C7/9     F7M      Cm7  F7/b9  Bb7M
Apre|---ndi com a dor nada mais  é o  amor
         A7/9      D7/4  D7  C/D
Que o encontro das á---guas

Esse amor
Hoje vai pra nunca mais voltar
Como faz o velho pescador quando sabe que é a vez do mar
Qual de nós
Foi buscar o que já viu partir, quis gritar, mas segurou a voz
Quis chorar, mas conseguiu sorrir?

  Bb7M  C/Bb   D9  D7/b9  D7
Quem    eu    sou
    Bb7M  C/Bb   D9  B7
Pra   que|------rer

Bb7M  C/Bb  D9  B7
En---ten---der 

Bb7M  C/Bb  D9  Bb9  C9  D9
O     a----mor?

----------------- Acordes -----------------
A/G = 3 X 2 2 2 X
A7/9 = 5 X 5 4 2 X
Ab7/#11 = 4 X 4 5 3 X
B/D = X 5 4 4 4 X
B7 = X 2 1 2 0 2
B7/4 = X 2 4 2 5 2
B7/b9 = X 2 1 2 1 X
Bb7M = X 1 3 2 3 1
Bb9 = X 1 3 3 1 1
Bb° = X 1 2 0 2 0
Bm7 = X 2 4 2 3 2
C/Bb = X 1 2 0 1 X
C/D = X X 0 0 1 0
C7/9 = X 3 2 3 3 X
C9 = X 3 5 5 3 3
Cm7 = X 3 5 3 4 3
D/A = X 0 X 2 3 2
D7 = X X 0 2 1 2
D7/4 = X X 0 2 1 3
D7/9 = X 5 4 5 5 X
D7/b9 = X 5 4 5 4 X
D7M = X X 0 2 2 2
D9 = X X 0 2 3 0
E = 0 2 2 1 0 0
Eb7M = X X 1 3 3 3
Em7 = 0 2 2 0 3 0
Em7/D = X X 0 0 3 0
F#m7 = 2 X 2 2 2 X
F7/b9 = X X 3 2 4 2
F7M = 1 X 2 2 1 X
G = 3 2 0 0 0 3
Gm7/11 = 3 X 3 3 1 X
