Lulu Santos - Deixa Isso Pra Lá

    E7/9
 Hi!Deixa que digam
   F7/9
 Que pensem

 Que falem
 E7/9
 Deixa isso pra lá
        F7/9
 Vem pra cá
 O que é que tem?
        E7/9
 Eu não tô fazendo nada
       F7/9
 Nem você também
     E7/9
 Faz mal bater um papo
        F7/9
 Assim gostoso com alguém
           E7/9
 Eu disse:


 deixe Solta o tamborzão DJ
   E7/9
 Hi!Deixa que digam
    F7/9
 Que pensem

 Que falem
 E7/9
 Deixa isso pra lá
        F7/9
 Vem pra cá

 O que é que tem?
        E7/9
 Eu não tô fazendo nada
       F7/9
 Nem você também
    E7/9
 Faz mal bater um papo
        F7/9
 Assim gostoso com alguém
           E7/9
 Eu disse: deixe
   E7/9
 Hi!Deixa que digam
    F7/9
 Que pensem

 Que falem
 E7/9
 Deixa isso pra lá
        F7/9
 Vem pra cá

 O que é que tem?
        E7/9
 Eu não tô fazendo nada
       F7/9
 Nem você também
     E7/9
 Faz mal bater um papo
        F7/9
 Assim gostoso com alguém
E7/9         A13
 Vai vai por mim
            G#m7    D#7/9
 Balanço de amor é assim
                  C#m7
 Mãozinhas com mãozinhas pra lá
                 A6/B       F7/9
 Beijinhos com beijinhos pra cá
E7/9      A13
 Vem balançar
            G#m7      D#7/9
 Amor é balanceio, meu bem
                C#m7
 Só vai no meu balanço quem tem
              A6/B
 Carinho para dar
   F7/9
 Carinho para dar
     E7/9
 Vem!Deixa que digam
F7/9
 Que pensem

 Que falem
 E7/9
 Deixa isso pra lá
        F7/9
 Vem pra cá

 O que é que tem?
        E7/9
 Eu não tô fazendo nada
       F7/9
 Nem você também
    E7/9
 Faz mal bater um papo
        F7/9
 Assim gostoso com alguém

 Eu disse:
 E7/9
 Deixa que digam
F7/9
 Que pensem

 Que falem
 E7/9
 Deixa isso pra lá
        F7/9
 Vem pra cá
 O que é que tem?
        E7/9
 Eu não tô fazendo nada
       F7/9
 Nem você também
    E7/9
 Faz mal bater um papo
        F7/9
 Assim gostoso com alguém
           E7/9
 Eu disse: deixe

----------------- Acordes -----------------
A13 = 5 X 4 6 5 X
A6/B = X 2 2 2 2 2
C#m7 = X 4 6 4 5 4
D#7/9 = X 6 5 6 6 X
E7/9 = X X 2 1 3 2
F7/9 = X X 3 2 4 3
G#m7 = 4 X 4 4 4 X
