Lulu Santos - Figurativa

E                A     B
a minha mina é figurativa
E                   A       B
e se penteia com cabelo de mickey
E               A       B
se fica puta é tipo uma ursa
E            A      B  F#m
e trepa como uma macaca
                   E
a minha mina é maluca

E                  A        B
a casa dela é de desenho animado
E           A    B
é tudo over decorado
E              A
os ângulos são fora de esquadro
E                  A      B  F#m
se fosse ópera, era um mikado
                E
mas eu tô acostumado


F#m                 C#m      D
por que eu tenho loucura por ela
F#m                  C#m     D
por que eu também sou assim
F#m              C#m     D   A B
fomos criados na mesma favela
     E
eu e ela

E                  A        B
a casa dela é de desenho animado
E           A    B
é tudo over decorado
E             A      B  F#m
o povo olha e fica bolado
mas eu tô acostumado

porque eu tenho loucura por ela
porque eu também sou assim
fomos presos na mesma cela
eu e ela

porque eu tenho loucura por ela
porque eu também sou assim
a-cen-de-mos a mesma vela


----------------- Acordes -----------------
A = X 0 2 2 2 0
B = X 2 4 4 4 2
C#m = X 4 6 6 5 4
D = X X 0 2 3 2
E = 0 2 2 1 0 0
F#m = 2 4 4 2 2 2
