Lulu Santos - Raiô

C
Raiô
   F           C   F
O sol da claridade
C
Raiô
F               C    F
Aqui no céu d brazil
C
Já raiô-ô-ô
   F          C    F
O sol da claridade
C
Raiô
        F          C
E já ñ tem quem ñ viu

                      F
E a gente mesmo pode ver

Ver a multidnao vindo


A gente pode ver

O povo na rua rindo

Am                    D
Pode ser que agente venha a encontrar
Em       Bb         C
Alguma pedra no caminho

Am                   D
Mais pedra baby há sempre ao rolar
Em            Bb     C
Agente não ta mas sozinho

----------------- Acordes -----------------
Am = X 0 2 2 1 0
Bb = X 1 3 3 3 1
C = X 3 2 0 1 0
D = X X 0 2 3 2
Em = 0 2 2 0 0 0
F = 1 3 3 2 1 1
