Kid Abelha - Eu Contra a Noite

(versão acústica)

(intro) C9  G  D

E |-x-x-x--x-x---x-x-x--x-x-|-x-x-x--x-x---x-x-x--x-x---------
A |-3-3-3--5-5---3-3-3--5-5-|-5-5-5--7-9---5-5-5--7-9---------
D |-2-2-2--4-4---2-2-2--4-4-|-4-4-4--6-8---4-4-4--6-8---------
G |-5-5-5--7-7---5-5-5--7-7-|-7-7-7--9-11--7-7-7--9-11--------
B |-------------------------|---------------------------------
E |-------------------------|---------------------------------

(intro)                                  ...simples
E |-5--------------------------------------|--------------------------------------5---
B |---8-7-5-7-8-5--------------------------|-7-5-----5-7-5--------------5-7-5-7-8-----
G |---------------7-5---2------------------|-----7-7--------7-6-7---6-7---------------
D |-----------------------5-4-2-4-5-2------|------------------------------------------
A |-----------------------------------5-3--|------------------------------------------
E |----------------------------------------|------------------------------------------

D                A
Fiz um contrato com a noite

Em                 G
O céu sorriu estrelado
D               A
Ruas vazias de gente
Em               G
Testemunhando desejos
Em                A7
Antecipando teus gestos
Em                Gm          D  A  Em  G
Leves, complexos, simples

(solo)
E |------------------------------------------5---
B |--7-5-------7-5-----------------5-7-5-7-8-----
G |------7-6-7-------7-6-7-----6-7---------------
D |----------------------------------------------
A |----------------------------------------------
E |----------------------------------------------

D               A
Em pleno vôo noturno
Em           G
Zona de pura alegria
D            A
A solidão sozinha
Em               G
Corria atrás de mim
Em                G     A9 A A4
Experimentando assim, a si

C9
Hoje
G                  D
Hoje é meu dia de gente
C9   G               D
Hoje é proibido dormir
C9
Hoje
G                  D
Hoje é meu dia de gente
C
Até o amanhecer
G                  D
Quero estar com você

----------------- Acordes -----------------
A = X 0 2 2 2 0
A4 = X 0 2 2 3 0
A7 = X 0 2 0 2 0
A9 = X 0 2 2 0 0
B = X 2 4 4 4 2
C = X 3 2 0 1 0
C9 = X 3 5 5 3 3
D = X X 0 2 3 2
E = 0 2 2 1 0 0
Em = 0 2 2 0 0 0
G = 3 2 0 0 0 3
Gm = 3 5 5 3 3 3
