Kid Abelha - Nada Sei

[Intro]
              E     E/D#      C#m    C#m/B   F#m      B
E|--------------------------------------------------------|
B|----9b10p7-----9b10p7-----------------------------------|
G|-----------9----------9----9/11-9----4/6----9-8---9-11--|
D|--------------------------------------------------------|
A|--------------------------------------------------------|
E|--------------------------------------------------------|

E      B/D#   C#m   C#m/B
 Nada sei    dessa vida
F#m          B
 Vivo sem saber
E       B/D#   C#m      C#m/B
 Nunca soube, nada saberei
F#m          B
 Sigo sem saber
     F#m         B
Que lugar me pertence
        F#m     G#m  A  B
Que eu possa a-ban--do-nar

     F#m         B
Que lugar me contém
     F#m   G#m A  B
Que possa me  pa_rar

       A           E/G#
Sou errada, sou errante
              F#m7
Sempre na estrada
           B
Sempre distante
       F#m              Am          E  B/D#  C#m  C#m/B
Vou errando enquanto o tempo me deixar
       F#m              Am          E  B/D#  C#m  C#m/B  F#m  B
Vou errando enquanto o tempo me deixar

E      B/D#  C#m   C#m/B
 Nada sei   desse mar
F#m        B
 Nado sem saber
E         B/D#    C#m  C#m/B
 De seus peixes, suas perdas
F#m          B
 De seu não respirar
       F#m         B
Nesse mar os segundos
   F#m       G#m  A  B
Insistem em nau-fra-gar
      F#m      B
Esse mar me seduz
       F#m      G#m  A  B
Mas é só pra me a---fo-gar

       A           E/G#
Sou errada, sou errante
              F#m7
Sempre na estrada
           B
Sempre distante
       F#m              Am          E  B/D#  C#m  C#m/B
Vou errando enquanto o tempo me deixar
       F#m              Am          E  B/D#  C#m  C#m/B  F#m  B
Vou errando enquanto o tempo me deixar

[Solo 1]

E|-------------------------------------------------------------|
B|--9b11-7-----9b11-7----9p7--------5------5-7-----------------|
G|---------9----------9------9--4/6---6/8----------------------|
D|-------------------------------------------------------------|
A|-------------------------------------------------------------|
E|-------------------------------------------------------------|

Solo 2:
E|-----------------------------------7----7--------------------|
B|--9b11---7-----9---------5---5-------------------------------|
G|-------9---8-9---9--4/6----6---6/8----8----------------------|
D|-------------------------------------------------------------|
A|-------------------------------------------------------------|
E|-------------------------------------------------------------|

Solo 3:
E|--5p4---7--5p4---5--------------------5p4---7--5p4---7-4-----|
B|------5--------5---7-5------5-----5-7-----5--------5-----7-5-|
G|-----------------------4/6----6/8----------------------------|
D|-------------------------------------------------------------|
A|-------------------------------------------------------------|
E|-------------------------------------------------------------|

E|-------------------------------------------------------------|
B|------5-----5-7----------------------------------------------|
G|--4/6---6/8--------------------------------------------------|
D|-------------------------------------------------------------|
A|-------------------------------------------------------------|
E|-------------------------------------------------------------|

              E     E/D#      C#m    C#m/B   F#m      B
E|---4/5\4-------4/5\4--------4--------------------------------|
B|---------7-5---------7-5------7-5--------5-4---5-7-----------|
G|-----------------------------------6-------------------------|
D|-------------------------------------------------------------|
A|-------------------------------------------------------------|
E|-------------------------------------------------------------|

       A           E
Sou errada, sou errante
              C#m
Sempre na estrada
           B
Sempre distante
       A           E
Sou errada, sou errante
              C#m
Sempre na estrada
           B
Sempre distante
       F#m              Am          E  B/D#  C#m  C#m/B
Vou errando enquanto o tempo me deixar
       F#m              Am          E  B/D#  C#m  C#m/B  F#m  B
Vou errando enquanto o tempo me deixar

----------------- Acordes -----------------
A = X 0 2 2 2 0
Am = X 0 2 2 1 0
B = X 2 4 4 4 2
B/D# = X 6 X 4 7 7
C#m = X 4 6 6 5 4
C#m/B = 7 X 6 6 5 X
E = 0 2 2 1 0 0
E/D# = X X 1 1 0 0
E/G# = 4 X 2 4 5 X
F#m = 2 4 4 2 2 2
F#m7 = 2 X 2 2 2 X
G#m = 4 6 6 4 4 4
