Nickelback - Diggin This

Afinação Drop D ( D A D G B e )

intro 1 time.
gtr 1 & 2

|-------------------------------------
|-------------------------------------
|--5b~~~--------5b~~~-----------------
|--5b~~~----5---5b~~~--3-3------------
|---------x-3----------5-5------------
|---------x---------------------------



bass kicks in here.

verses (see lyrics below)
gtr 1&2
basically the same as the intro just a little
added to it.

|-------------------------------------
|-------------------------------------
|------5b~~~------5b~~~---------------
|------5b~~~----5-5b~~~--5-5----------
|-3--5--------x-3--------3-3----------
|-3--5--------x-----------------------


gtr 1 does this 2 times with gtr 2, then stops.

 you say you don't want it.
 just watch and you'll fall it.
 stare at the ceiling and
 ignore what i'm feeling.

 gtr 1  while gtr 2 keeps doing the verse riff.
|-------------------------------------
|------------------1st----2nd---------
|-------------------------------------
|-----------------3h5------3br--------
|-----6-3-3-3-6-3---------------------
|-3-3---------------------------------

2 times with lyrics

 well i'm fine, you know i don't mind
 i can't find nothing wrong with it.
 and you say in your polite way
 oh by the way, could you get on with it?

chorus?

|-------------------------------------
|-------------------------------------
|--3----------------------------------
|--3-----3----------------------------
|--1-----3----------------------------
|--------3----------------------------

 let these ring and strum them a few times.
AHHHHHH and I seee!!!!!
 not reeeally diiiiggin thiiiiiiiiis!,, (he might not be, but i am)


repeat all this with the rest of the verses and such

interlude, the fills thru the interlude are shown below.

bass makes his cool noise here.

|-------------------------------------
|-------------------------------------
|-------------------------------------
|-1-x-2-3-x-1-1-1---1-x-2-3-x-1-1-----
|-1-x-2-3-x-1-1-1---1-x-2-3-x-1-1-----
|-------------------------------------

fills for interlude

|-----------------------------------------------
|-----------------------------------------------
|-----------------------------------------------
|-----1h2------1\3-1-1\3-1----------------------
|-1h3----------1\3-1-1\3-1----------------------
|-----------------------------------------------


SOLO  (2:02-2:12)
*one hell of a lot of cool shit in ten seconds*
this is tight as hell yall.
|------------------------------------------
|------------------------------------------
|----------------------------------18------
|----------------14----------18p15----17---
|-15151515151515----15151515---------------
|------------------------------------------

|-----------------------------------------------
|-----------------------------------------------
|-----------------------------------------------
|----------------14-----------------13h14-------
|-15151515151515-----151515131313h15------15-13-
|-----------------------------------------------

|-----------------------------------------------
|-----------------------------------------------
|-----------------------------------------------
|-14p13------13--14p13-----13--14p13------13----
|-------15-15----------1515----------15-15------
|-----------------------------------------------

|-----------------------------------------------
|-----------------------------------------------
|-----------------------------------------------
|-14p13----13--15\17 17-17--15-14-13------------
|-------15--------------------------------------
|-----------------------------------------------


he loses me here, it's some kind of flurry,
this is what i play to end it.

|-------------------------------------------------
|-------------------------------------------------
|-------------------------------------------------
|-15-14-13-12-------------------------------------
|-------------15-14-13-12-------------------------
|----------------------------9-8-7~~~~~~~~~-------
