Nickelback - Figured You Out

Tuning: Drop D DADGBe

E|---------------------6----6---6---6-------------------------------
B|------------------------------------------------------------------
G|-55--555-555-555--588--88X-88X-88X--1010-XXXX-1010-XXXX-1010-XXXX-
D|-55--555-555-555--588--88X-88X-88X--1010-XXXX-1010-XXXX-1010-XXXX-
A|-33--335-333-333--366--66X-66X-66X---8-8-XXXX--8-8-XXXX--8-8-XXXX-
D|------------------------------------------------------------------

E|---------------
B|---------------
G|-1010-10/8-55--
D|-1010-10/8-55--
A|--8-8--8/6-33--
D|---------------

Chorus

'And now i know who you are'


E|-----------------
B|-----------------
G|-3-3-3-3---------
D|-3-3-3-3-3-3-3-3-
A|-1-1-1-1-3-3-3-3-
D|---------3-3-3-3-
