Nickelback - Next Contestant

Afinação C G C F A D

Verso:
  (guitarra 1)
D|-------------------------------------------------|
A|-------------------------------------------------|
F|--------9-----7-----7--9--------9-----7-----7--9-|   (9x)
C|-----9-----9-----9-----------9-----9-----9-------|
G|--7-----------------------7----------------------|
C|-------------------------------------------------|
    .  .  .  .  .  .  .  .  .  .  .  .  .  .  .  .

Verso 2:
  (guitarra 1)
D|-------------------------------------------------|
A|-------------------------------------------------|
F|--------9-----7-----7--9--------9-----7-----7--9-|
C|-----9-----9-----9-----------9-----9-----9-------|
G|--7-----------------------7----------------------|
C|-------------------------------------------------|
    .  .  .  .  .  .  .  .  .  .  .  .  .  .  .  .
  (guitarra 2)
D|-------------------------------------------------|
A|----------------12-------------------------------|
F|----------------------12----------------------14-|
C|----------------------------------------14-------|
G|-------------------------------------------------|
C|-------------------------------------------------|
  (guitarra 1)

D|-------------------------------------------------|
A|-------------------------------------------------|
F|--------9-----7-----7--9--------9-----7-----7--9-|
C|-----9-----9-----9-----------9-----9-----9-------|
G|--7-----------------------7----------------------|
C|-------------------------------------------------|
    .  .  .  .  .  .  .  .  .  .  .  .  .  .  .  .
  (guitarra 2)
D|-------------------------------------------------|
A|----------------12-------------------------------|
F|----------------------12----------------14-------|
C|----------------------------------------------14-|
G|-------------------------------------------------|
C|-------------------------------------------------|

Pré-Refrão:
  (guitarra 3)
D|-------------------------------------------------|
A|-------------------------------------------------|
F|-------------------------------------------------|
C|--3-----------------------7----------------------|
G|--3-----------------------7----------------------|
C|--3-----------------------7----------------------|

Refrão:
  (guitarra 1 e 2)
D|-------------------------------------------------|
A|-------------------------------------------------|
F|-------------------------------------------------|
C|--0--2--5--2--x-----------5--5--5--5-------------|
G|--0--2--5--2--x-----------5--5--5--5--x--x--x--x-|
C|--0--2--5--2--x-----------5--5--5--5--x--x--x--x-|

D|-------------------------------------------------|
A|-------------------------------------------------|
F|-------------------------------------------------|
C|--0-----0-----------------7-----7----------------|
G|--0-----0-----x--x-----x--7-----7-----x--x-------|
C|--0-----0-----x--x-----x--7-----7-----x--x-------|

D|-------------------------------------------------|
A|-------------------------------------------------|
F|-------------------------------------------------|
C|--0--2--5--2--x-----------5--5--5--5-------------|
G|--0--2--5--2--x-----------5--5--5--5--x--x--x--x-|
C|--0--2--5--2--x-----------5--5--5--5--x--x--x--x-|

D|-------------------------------------------------|
A|-------------------------------------------------|
F|-------------------------------------------------|
C|--0-----0-----0-----0-----7-----7-----7-----7----|
G|--0-----0-----0-----0-----7-----7-----7-----7----|
C|--0-----0-----0-----0-----7-----7-----7-----7----|

D|-------------------------------------------------|
A|-------------------------------------------------|
F|-------------------------------------------------|
C|--2-----2-----2-----2-----5-----5-----5-----5----|
G|--2-----2-----2-----2-----5-----5-----5-----5----|
C|--2-----2-----2-----2-----5-----5-----5-----5----|

D|-------------------------------------------------|
A|-------------------------------------------------|
F|-------------------------------------------------|
C|--0-----0-----0-----0-----7-----7----12----12----|
G|--0-----0-----0-----0-----7-----7----12----12----|
C|--0-----0-----0-----0-----7-----7----12----12----|

D|-------------------------------------------------|
A|-------------------------------------------------|
F|-------------------------------------------------|
C|--2-----2-----2-----2-----5-----5-----5-----5----|
G|--2-----2-----2-----2-----5-----5-----5-----5----|
C|--2-----2-----2-----2-----5-----5-----5-----5----|

D|-------------------------------------------------|
A|-------------------------------------------------|
F|-------------------------------------------------|
C|--0-----0-----0-----0-----7-----7----12----12----|
G|--0-----0-----0-----0-----7-----7----12----12----|
C|--0-----0-----0-----0-----7-----7----12----12----|

D|-------------------------------------------------|
A|-------------------------------------------------|
F|-------------------------------------------------|
C|--5--5--------------------7--7-------------------|
G|--5--5--------------------7--7-------------------|
C|--5--5--------------------7--7-------------------|

Pós-Refrão:
  (guitarra 1)
D|-------------------------------------------------|
A|-------------------------------------------------|
F|--------9-----7-----7--9--------9-----7-----7--9-|
C|-----9-----9-----9-----------9-----9-----9-------|
G|--7-----------------------7----------------------|
C|-------------------------------------------------|
    .  .  .  .  .  .  .  .  .  .  .  .  .  .  .  .
  (guitarra 1)
D|-------------------------------------------------|
A|-------------------------------------------------|
F|--------9-----7-----7--9--------9-----7-----7--9-|
C|-----9-----9-----9-----------9-----9-----9-------|
G|--7-----------------------7----------------------|
C|-------------------------------------------------|
    .  .  .  .  .  .  .  .  .  .  .  .  .  .  .  .

Verso 2:
  (guitarra 1)
D|-------------------------------------------------|
A|-------------------------------------------------|
F|--------9-----7-----7--9--------9-----7-----7--9-|
C|-----9-----9-----9-----------9-----9-----9-------|
G|--7-----------------------7----------------------|
C|-------------------------------------------------|
    .  .  .  .  .  .  .  .  .  .  .  .  .  .  .  .
  (guitarra 2) (Distortion w. Chorus)
D|-------------------------------------------------|
A|----------------12-------------------------------|
F|----------------------12----------------------14-|
C|----------------------------------------14-------|
G|-------------------------------------------------|
C|-------------------------------------------------|
  (guitarra 1)
D|-------------------------------------------------|
A|-------------------------------------------------|
F|--------9-----7-----7--9--------9-----7-----7--9-|
C|-----9-----9-----9-----------9-----9-----9-------|
G|--7-----------------------7----------------------|
C|-------------------------------------------------|
    .  .  .  .  .  .  .  .  .  .  .  .  .  .  .  .
  (guitarra 2)
D|-------------------------------------------------|
A|----------------12-------------------------------|
F|----------------------12----------------14-------|
C|----------------------------------------------14-|
G|-------------------------------------------------|
C|-------------------------------------------------|

(Pré-Refrão)

(Refrão)

Ponte:
  (guitarra 1)
D|-------------------------------------------------|
A|-------------------------------------------------|
F|-------------------------------------------------|
C|-------------------------------------------------|
G|-------------------------------------------------|
C|--0--2--5--2-----0--2--5--2-----0--2--5--2-----0-|

D|-------------------------------------------------|
A|-------------------------------------------------|
F|-------------------------------------------------|
C|-------------------------------------------------|
G|-------------------------------------------------|
C|--2--5--7-----5-----0--2--5--2-----0--2--5--2----|

D|-------------------------------------------------|
A|-------------------------------------------------|
F|-------------------------------------------------|
C|-------------------------------------------------|
G|--------------------------5----------------------|
C|--0--2--5--2-----0--2--5-----8--7--5--8--7--5--0-|
                               .  .  .  .  .  .  .
D|-------------------------------------------------|
A|-------------------------------------------------|
F|-------------------------------------------------|
C|-------------------------------------------------|
G|--------------------------5----------------------|
C|-----------------------------8--7--5--8--7--5--0-|
                               .  .  .  .  .  .  .
  (guitarra 1 e 2)
D|-------------------------------------------------|
A|-------------------------------------------------|
F|-------------------------------------------------|
C|-------------------------------------------------|
G|-------------------------------------------------|
C|--0--2--5--2-----0--2--5--2-----0--2--5--2-----0-|

D|-------------------------------------------------|
A|-------------------------------------------------|
F|-------------------------------------------------|
C|-------------------------------------------------|
G|-------------------------------------------------|
C|--2--5--7-----5-----0--2--5--2-----0--2--5--2----|

D|-------------------------------------------------|
A|-------------------------------------------------|
F|-------------------------------------------------|
C|-------------------------------------------------|
G|--------------------------5----------------------|
C|--0--2--5--2-----0--2--5-----8--7--5--8--7--5--0-|
                               .  .  .  .  .  .
D|-------------------------------------------------|
A|-------------------------------------------------|
F|-------------------------------------------------|
C|--------2--------5--------2--------0--2--5--7----|
G|--------2--------5--------2--------0--2--5--7----|
C|--------2--------5--------2--------0--2--5--7--0-|
                                        .  .  .
D|-------------------------------------------------|
A|-------------------------------------------------|
F|-------------------------------------------------|
C|--------2--------5-------------------------------|
G|--------2--------5--------5----------------------|
C|--------2--------5-----------8--7--5--8--7--5--0-|
                               .  .  .  .  .  .
D|-------------------------------------------------|
A|-------------------------------------------------|
F|-------------------------------------------------|
C|--------2--------5--------2--------0--2--5--7----|
G|--------2--------5--------2--------0--2--5--7----|
C|--------2--------5--------2--------0--2--5--7--0-|
                                        .  .  .
D|-------------------------------------------------|
A|-------------------------------------------------|
F|-------------------------------------------------|
C|--------2--------5-------------------------------|
G|--------2--------5--------5----------------------|
C|--------2--------5-----------8--7--5--8--7--5--0-|
                               .  .  .  .  .  .
D|-------------------------------------------------|
A|-------------------------------------------------|
F|-------------------------------------------------|
C|-------------------------------------------------|
G|-------------------------------------------------|
C|--------------------------0b---------------------|

(Verso 2 - 2x)

(Pré-Refrão)

(Refrão 2)

  (guitarra 1 e 2)
D|-------------------------------------------------|
A|-------------------------------------------------|
F|-------------------------------------------------|
C|--0--2--5--2--x-----------5--5--5--5-------------|
G|--0--2--5--2--x-----------5--5--5--5--x--x--x--x-|
C|--0--2--5--2--x-----------5--5--5--5--x--x--x--x-|

D|-------------------------------------------------|
A|-------------------------------------------------|
F|-------------------------------------------------|
C|--0-----0-----------------7-----7----------------|
G|--0-----0-----x--x-----x--7-----7-----x--x-------|
C|--0-----0-----x--x-----x--7-----7-----x--x-------|

D|-------------------------------------------------|
A|-------------------------------------------------|
F|-------------------------------------------------|
C|--0--2--5--2--x-----------5--5--5--5-------------|
G|--0--2--5--2--x-----------5--5--5--5--x--x--x--x-|
C|--0--2--5--2--x-----------5--5--5--5--x--x--x--x-|

D|-------------------------------------------------|
A|-------------------------------------------------|
F|-------------------------------------------------|
C|--0-----0-----0-----0-----7-----7-----7-----7----|
G|--0-----0-----0-----0-----7-----7-----7-----7----|
C|--0-----0-----0-----0-----7-----7-----7-----7----|

D|-------------------------------------------------|
A|-------------------------------------------------|
F|-------------------------------------------------|
C|--2-----2-----2-----2-----5-----5-----5-----5----|
G|--2-----2-----2-----2-----5-----5-----5-----5----|
C|--2-----2-----2-----2-----5-----5-----5-----5----|

D|-------------------------------------------------|
A|-------------------------------------------------|
F|-------------------------------------------------|
C|--0-----0-----0-----0-----7-----7----12----12----|
G|--0-----0-----0-----0-----7-----7----12----12----|
C|--0-----0-----0-----0-----7-----7----12----12----|

D|-------------------------------------------------|
A|-------------------------------------------------|
F|-------------------------------------------------|
C|--2-----2-----2-----2-----5-----5-----5-----5----|
G|--2-----2-----2-----2-----5-----5-----5-----5----|
C|--2-----2-----2-----2-----5-----5-----5-----5----|

D|-------------------------------------------------|
A|-------------------------------------------------|
F|-------------------------------------------------|
C|--0-----0-----0-----0-----7-----7----12----12----|
G|--0-----0-----0-----0-----7-----7----12----12----|
C|--0-----0-----0-----0-----7-----7----12----12----|

D|-------------------------------------------------|
A|-------------------------------------------------|
F|-------------------------------------------------|
C|--2--2--2--2--2--2--2--2--5--5--5--5--5--5--5--5-|
G|--2--2--2--2--2--2--2--2--5--5--5--5--5--5--5--5-|
C|--2--2--2--2--2--2--2--2--5--5--5--5--5--5--5--5-|

D|-------------------------------------------------|
A|-------------------------------------------------|
F|-------------------------------------------------|
C|--0--0--0--0--0--0--0--0--7--7--7--7-12-12-12-12-|
G|--0--0--0--0--0--0--0--0--7--7--7--7-12-12-12-12-|
C|--0--0--0--0--0--0--0--0--7--7--7--7-12-12-12-12-|

D|-------------------------------------------------|
A|-------------------------------------------------|
F|-------------------------------------------------|
C|--2--2--2--2--2--2--2--2--5--5--5--5--5--5--5--5-|
G|--2--2--2--2--2--2--2--2--5--5--5--5--5--5--5--5-|
C|--2--2--2--2--2--2--2--2--5--5--5--5--5--5--5--5-|

D|-------------------------------------------------|
A|-------------------------------------------------|
F|-------------------------------------------------|
C|--0--0--0--0--0--0--0--0--7--7--7--7-12-12-12-12-|
G|--0--0--0--0--0--0--0--0--7--7--7--7-12-12-12-12-|
C|--0--0--0--0--0--0--0--0--7--7--7--7-12-12-12-12-|

D|-------------------------------------------------|
A|-------------------------------------------------|
F|-------------------------------------------------|
C|--5--5--------------------7--7-------------------|
G|--5--5--------------------7--7-------------------|
C|--5--5--------------------7--7-------------------|
