Nickelback - S.E.X.

(afinação C G C F A D)

/ = slide up
 = slide down
~ = tremolo
h = hammer on
p = pull-off
r = release note (don`t let ring)
x = play muted note

(intro)
D|-----------------------------------|
A|-----------------------------------|
F|--x-x-7-------------------x-5------|   8X
C|--x-x-7---x-x-3---x-x-5---x-5-0----|
G|--x-x-5---x-x-3---x-x-5---x-3-0----|
C|----------x-x-3---x-x-5-------0----|

(verso)
D|---------------------------------------------------|
A|---------------------------------------------------|
F|---------------------------------------------------|   2X
C|-----3--5---------5-7-------------5-7-5------------|
G|--5---------5-xxx---------5-xxx-----------8-5------|
C|---------------------------------------------------|


(refrão)
D|-----------------------------------------------|
A|-----------------------------------------------|
F|--77-7-7-7-------------------------55-5-5-5----|   2X
C|--77-7-7-7---88-8-8-8---55-5-5-5---55-5-3-5----|
G|--55-5-5-5---88-8-8-8---55-5-5-5---33-3-3-3----|
C|-------------88-8-8-8---55-5-5-5---------------|

D|-----------------------------------|
A|-----------------------------------|
F|--x-x-7-------------------x-5------|   2X
C|--x-x-7---x-x-3---x-x-5---x-5-0----|
G|--x-x-5---x-x-3---x-x-5---x-3-0----|
C|----------x-x-3---x-x-5-------0----|

----------------- Acordes -----------------
