Bon Jovi - Always

Intro:

E|---------------------|
B|-7--9--10--9--7--5-5-|
G|---------------------|
D|---------------------|
A|---------------------|
E|---------------------|
 |---------2x----------|

Verso:

C#m                    B
 This romeo is bleeding but you can't see his blood
A                                         G#             A B C#m
 It's nothing but some feelings that this old dog kicked up
C#m                                            B
 It's been raining since you left me now I'm drowning in the flood
A                                          G#              A B C#m
 You see I've always been a fighter but without you I give up
C#m                                     B
 Now I can't sing a love song like the way it's meant to be

          A                              B                      A B
Well, I guess I'm not that good anymore but baby, that's just me

Passagem:

E             B
Yeah, I will love you
   A C#m B
Baby always

Refrão:
    E                B           A  C#m B
And I'll be there forever and a day always
E                                                  B
I'll be there till the stars don't shine till the heavens burst and the words don't rhyme
            A                                         B       A B C#m
And I know when I die, you'll be on my mind and I'll love you always

Passagem:

E|---------------------|
B|-7--9--10--9--7--5-5-|
G|---------------------|
D|---------------------|
A|---------------------|
E|---------------------|
 |---------1x----------|

Verso:

            C#m                                      B
Now you're pictures that you left behind are just memories of a different life
           A                                             G#               B
Some that made us laugh, some that made us cry one that made you have to say goodbye
          C#m                                         B
What I'd give to run my fingers through your hair to touch your lips, to hold you near
          A                                            G#            A B C#m
When you say your prayers try to understand I've made mistakes, I'm just a man
         C#m                                            B
When he holds you close when he pulls you near when he says the words you've been needing to hear
      A                                             B                  A       B
I'll wish I was him `cause those words are mine to say to you till the end of time

Passagem:

E             B
Yeah, I will love you
   A C#m B
Baby always

Refrão:

    E                B           A  C#m B
And I'll be there forever and a day always

Ligação:

D                   G            A
If you told me to cry for you I could
D                  G       A
If you told me to die for you
    Bm          A           G
I would take a look at my face
             F#m          A
There's no price I won't pay to say these words to you

Solo: E  B F#m C#m B E B A B A B A)
E|----------|-----------------------|------------------------|----------------------------|
B|----------|-----------------------|------------------------|----------------------------|
G|----------|-----------------------|------------------------|----------------------------|
D|-----9h11-|-------9h11------------|--------------------2-4-|-2~------2-4--2-----2-4-4-2-|
A|-11-------|-11---------11~---9--7-|-9--------------2-4-----|---4-2-4--------4-2---------|
E|----------|-----------------------|---7-7~-------4---------|----------------------------|

E|---------------------12-|-12/9-9/7-7/12-12/9-9/7-7------------|--------------------12----|
B|------------------12b---|-------------------------------------|-----12b---------14-12-14-|
G|------------------------|----------------------------11--11-9-|-11~----------13----------|
D|-------2-4-4-2-4~-------|--------------------------0----------|------------9-------------|
A|-4~-4~------------------|-------------------------------------|---------11---------------|
E|------------------------|-------------------------------------|--------------------------|

E|-12-------12-------12-12-12-12----------12-14r14-12-|-14~----16b---14--12-----|
B|-14-12----14-12----12-14-14-12----12-14-------------|----------------------14-|
G|-------13-------13-------------13-------------------|-------------------------|
D|----------------------------------------------------|-------------------------|
A|----------------------------------------------------|-------------------------|
E|----------------------------------------------------|-------------------------|

Verso:
        A                                           B
Well, there ain't no luck in these loaded dice but baby if you give me just one more try
        C#m                                            A                      B
We can pack up our old dreams and our old lives we'll find a place where the sun still shines

Passagem:
E             B
Yeah, I will love you
   A C#m B
Baby always

Refrão:
E|----------|
B|-8-8--7-6-|
G|----------|
D|----------|
A|----------|
E|----------|
    E                B           A  C#m B
And I'll be there forever and a day always
E                                                  B
I'll be there till the stars don't shine till the heavens burst and the words don't rhyme
            A                                         B       A B C#m
And I know when I die, you'll be on my mind and I'll love you always

Final:
E|-9b---24h21----24h21----24h21----24h21---------------------------------7-12-19-|
B|------------22-------22-------22-------22----------------------------9---------|
G|-------------------------------------------------------------------9-----------|
D|--------------------------------------------------18-------------9-------------|
A|--------------------------------------------19r--------19/----11---------------|
E|-----------------------------------------------------------12------------------|

E|-16------16--17h17b--17h17----17----16-------------------------------|
B|---------------------------17----17----17----------------------------|
G|------------------------------------------18/19-18----16h14----14h13-|
D|---------------------------------------------------18-------14-------|
A|---------------------------------------------------------------------|
E|---------------------------------------------------------------------|

E|-------------------------------------------------------------4-7-12-19-|
B|----------------------------------------------9---x--------5-----------|
G|-----------------------------------------9~-------x------4-------------|
D|-14~---11----11----11----------11----11----------------6---------------|
A|----------12----12----12-12-12----12-----------------7-----------------|
E|-----------------------------------------------------------------------|

E|-16b--------16--17-17--17-17----17----16-------------------------------|
B|-----------------------------17----17----17----------------------------|
G|--------------------------------------------18h19h18----16h14----14h13-|
D|-----------------------------------------------------18-------14-------|
A|-----------------------------------------------------------------------|
E|-----------------------------------------------------------------------|

E|----------------------------------------|
B|----------------------------------------|
G|----------------------------------------|
D|-14----11----11----11----------11----11-|
A|----------12----12----12-12-12----12----|
E|----------------------------------------|

----------------- Acordes -----------------
A = X 0 2 2 2 0
B = X 2 4 4 4 2
Bm = X 2 4 4 3 2
C#m = X 4 6 6 5 4
D = X X 0 2 3 2
E = 0 2 2 1 0 0
F#m = 2 4 4 2 2 2
G = 3 2 0 0 0 3
G# = 4 3 1 1 1 4
