Bon Jovi - Any Other Day

Intro: Db - F# - Bbm - Ab

Db
the alarn clock rings its 6:45
F#
must hit that snooze button atleast 3 times
Bbm
our office this morning was still last night
Ab
on any other day just mine wont die
Db
traffics backed up 20 miles of the east
F#
must it hit every damn whether it lie on the street
Bbm
with the man says its gonna rain for the week
Ab
hey, what can you do

Refrão ------------- F#
im on any other day

Db
at my blue eyes crying
F#
i can tell the world
Db
atleast im trying
Bbm
the cloud is breaking
F#                 Bbm
the sun is shining new
Ab
for me and you
F#
im on any other day
Db
am i just going crazy
F#
the grace of doing that
Db
is gonna save me
Bbm           F#
baby look at love
               Ab
who pulled us through --------------------

Db
on any other day am i just stay in vest
F#
tell me to see a blankets with a mop over my head
Bbm
put your tables in the morning just to get a little edge
Ab
and made it just keep up and down and do it all again

Refrão ------------- Pre-Chorus:

Bbm                      F#
hey,i like where this is goin'
Bbm                       Ab
yeah coz i know where it's been --------------------

Refrão ------------- F#
im on any other day
Db
at my blue eyes crying
F#
i can tell the world
Db
atleast im trying
Bbm
the cloud is breaking
F#                 Bbm
the sun is shining new
Ab
for me and you
F#
im on any other day
Db
am i just going crazy
F#
the grace of doing that
Db
is gonna save me
Bbm           F#
baby look at love
               Ab
who pulled us through
                F# Db F# Db Bbm F# Bbm Ab
im on any other day --------------------

Db
when our clock rings its 6:45
F#
i like waking up if you're on my mind
Bbm                                 Ab
no one there saving in a long long time

Refrão ------------- F#
im on any other day
Db
at my blue eyes crying
F#
i can tell the world
Db
atleast im trying
Bbm
the cloud is breaking
F#                 Bbm
the sun is shining new
Ab
for me and you
F#
im on any other day
Db
am i just going crazy
F#
the grace of doing that
Db
is gonna save me
Bbm           F#
baby look at love
               Ab
who pulled us through
                F# Db F# Db Bbm F# Bbm - Ab
im on any other day --------------------

----------------- Acordes -----------------
Ab = 4 3 1 1 1 4
Bbm = X 1 3 3 2 1
Db = X 4 6 6 6 4
F# = 2 4 4 3 2 2
