Bon Jovi - Bounce

Introdução:

(Guitarra 1)

E|-----------------------------------------------------|
B|-----------------------------------------------------|
G|-8-8-8-7-7-7-8-8-12-12-12-12-12-12-12-12-------------|
D|-----------------------------------------------------|
A|-6-6-6-5-5-5-6-6-10-10-10-10-10-10-10-10-------------|
E|-----------------------------------------------------|

E|-----------------------------------------------------|
B|-----------------------------------------------------|
G|-7-7-7-7-7-7-7-7-5-5-5-5-5-5-5-5---------------------|
D|-----------------------------------------------------|
A|-5-5-5-5-5-5-5-5-3-3-3-3-3-3-3-3---------------------|
E|-----------------------------------------------------|

(Guitarra 2)

E|-----------------------------------------------------|
B|-----------------------------------------------------|
G|-----------------------------------------------------|
D|-5-5-5-3-3-3-5-5--8--8--8--8--8--8--8--8-------------|
A|-6-6-6-5-5-5-6-6-10-10-10-10-10-10-10-10-------------|
E|-----------------------------------------------------|


E|-----------------------------------------------------|
B|-----------------------------------------------------|
G|-----------------------------------------------------|
D|-3-3-3-3-3-3-3-3-1-1-1-1-1-1-1-1---------------------|
A|-5-5-5-5-5-5-5-5-3-3-3-3-3-3-3-3---------------------|
E|-----------------------------------------------------|


Primeira Parte:

       C5
I been    knocked down so many times

Counted out

Six, seven, eight, nine

Written off like some bad deal

If you're breathing

You know how it feels
 Ab5
Call it karma, call it luck
 Bb5
Me, I just don't give up


Refrão:

 C5
Bounce, Bounce
 Eb5
Nothing's gonna keep me down
 Bb5
Bounce, Bounce
  Ab5
Stand up, shout it out
 C5
Bounce, Bounce
    Eb5
I play hard, I play to win
 Bb5
Count me out, count me in
Ab5
I'll be bouncing back again


Segunda Parte:

           C5
This ain't    no game

I play it hard

Kicked around

Cut, stitched and scarred

I'll take the hit but not the fall
                                Bb5
I know no fear, still standing tall
         Ab5
You can call it karma, call it luck
 Bb5
Me, I just don't give up


Refrão:

(Riff do Refrão)

E|-----------------------------------------------------|
B|-----------------------------------------------------|
G|-8-8-8-7-7-7-8-8-12-12-12-12-12-12-12-12-------------|
D|-----------------------------------------------------|
A|-6-6-6-5-5-5-6-6-10-10-10-10-10-10-10-10-------------|
E|-----------------------------------------------------|

E|-----------------------------------------------------|
B|-----------------------------------------------------|
G|-7-7-7-7-7-7-7-7-5-5-5-5-5-5-5-5---------------------|
D|-----------------------------------------------------|
A|-5-5-5-5-5-5-5-5-3-3-3-3-3-3-3-3---------------------|
E|-----------------------------------------------------|

 C5
Bounce, Bounce
 Eb5
Nothing's gonna keep me down
 Bb5
Bounce, Bounce
  Ab5
Stand up, shout it out
 C5
Bounce, Bounce
    Eb5
I play hard, I play to win
 Bb5
Count me out, count me in
Ab5
I'll be bouncing back again

Bounce!


Solo:

E|-----------------------------------------------------|
B|-----------------------------------------------------|
G|-5-5-5-7-8-7--5--5-5-7-8--7--5-5-5-7-8-7-------------|
D|-----------------------------------------------------|
A|-----------------------------------------------------|
E|-----------------------------------------------------|

E|-----------------------------------------------------|
B|-------8---8/9--9------------------------------------|
G|-----------------------------------------------------|
D|-/6--6---6-5/6--6------------------------------------|
A|-----------------------------------------------------|
E|-----------------------------------------------------|

E|-----------------------------------------------------|
B|-----------------------------------------------------|
G|-5-5-7-8-7--5--5-5-7-8--7--5-5-5-7-8-7---------------|
D|-----------------------------------------------------|
A|-----------------------------------------------------|
E|-----------------------------------------------------|

E|-----------------------------------------------------|
B|-------8---8/9--9------8---8/9--9--------------------|
G|-----------------------------------------------------|
D|-/6--6---6-5/6--6---/6---6-5/6--8--------------------|
A|-----------------------------------------------------|
E|-----------------------------------------------------|


Terceira Parte:

  C5
Bring it on, I like it rough

In your face, I call your bluff

It ain't karma, it ain't luck

Me, I just don't give up


Refrão:

 C5
Bounce, Bounce
 Eb5
Nothing's gonna keep me down
 Bb5
Bounce, Bounce
  Ab5
Stand up, shout it out
 C5
Bounce, Bounce
    Eb5
I play hard, I play to win
 Bb5
Count me out, count me in
Ab5
I'll be bouncing back again

 C5
Bounce, Bounce
 Eb5
Nothing's gonna keep me down
 Bb5
Bounce, Bounce
  Ab5
Stand up, shout it out
 C5
Bounce, Bounce
    Eb5
I play hard, I play to win
 Bb5
Count me out, count me in
Ab5
I'll be bouncing back again

 C5            Eb5
Bounce, Bounce
 Bb5           Ab5
Bounce, Bounce

----------------- Acordes -----------------
Ab5 = 4 6 6 X X X
Bb5 = P1 1 3 3 X X
C5 = P3 3 5 5 X X
Eb5 = P6 6 8 8 X X
