Bon Jovi - I Wish Everyday Could Be Like Christmas

6/8 rhythm, dots equal eights.

Rhy.Fig.1
    A       A/G#    A/F#    A/E     D           E
    . . .   . . .    . . .   . . .    . . . . . .   ......
e|----------------|----------------|--------------|-0-----|
B|--2-------2-----|--2-------2-----|------3-----2-|-0-----|
G|--2-2-------2---|----2-------2---|----2---2/4---|-1-----|
D|--2---2-------2-|------2-------2-|--0-----------|-2-----|
A|--0-------------|----------------|--------------|-2-----|
E|----------4-----|--2-------0-----|--------------|-0-----|

Rhy.Fig.2
    A             Asus4
    . . . . . .    . . . . . .
e|---------------|-------------|
B|--2-----2------|-3-----------|
G|--2-------2----|-2-----------|
D|--2---------2--|-2-----------|
A|--0------------|-------------|
E|---------------|-------------|


Rhy.Fig.3
    A       A/G#    A/F#    A/E      E       D
    . . .   . . .    . . .   . . .   ......  ......
e|----------------|----------------|-0-----|-2-----|
B|--2-------2-----|--2-------2-----|-0-----|-3-----|
G|----2-------2---|----2-------2---|-1-----|-2-----|
D|------2-------2-|------2-------2-|-2-----|-0-----|
A|--0-------------|----------------|-2-----|-------|
E|----------4-----|--2-------0-----|-0-----|-------|

Rhy.Fig.4
    F#m     F#m     D       D
    ......  ......  ......  ......
e|--2-----|-2-----|-2-----|-2-----|
B|--2-----|-2-----|-3-----|-3-----|
G|--2-----|-2-----|-2-----|-2-----|
D|--4-----|-4-----|-0-----|-0-----|
A|--4-----|-4-----|-------|-------|
E|--2-----|-2-----|-------|-------|

    F#m     F#m     D       E
    ......  ......  ......  ......
e|--2-----|-2-----|-2-----|-0-----|
B|--2-----|-2-----|-3-----|-0-----|
G|--2-----|-2-----|-2-----|-1-----|
D|--4-----|-4-----|-0-----|-2-----|
A|--4-----|-4-----|-------|-2-----|
E|--2-----|-2-----|-------|-0-----|

Rhy.Fig.5
    D              D               Dm            Dm
    . . . . . .    . . . . . .     . . . . . .   . . . . . .
e|--------2-----|--------2------|--------1-----|-------1------|
B|------3---3---|------3---3----|------3---3---|-----3---3----|
G|----2-------2-|----2-------2--|----2-------2-|---2-------2--|
D|--0-----------|--0------------|--0-----------|-0------------|
A|--------------|---------------|--------------|--------------|
E|--------------|---------------|--------------|--------------|

    A              A              A7            A7
    . . . . . .    . . . . . .    . . . . . .   . . . . . .
e|--------------|--------------|--------------|-------------|
B|--------2-----|--------2-----|--------2-----|-------2-----|
G|------2---2---|------2---2---|------0---0---|-----0---0---|
D|----2-------2-|----2-------2-|----2-------2-|---2-------2-|
A|--0-----------|--0-----------|--0-----------|-0-----------|
E|--------------|--------------|--------------|-------------|

    B              B               D             D
    . . . . . .    . . . . . .     . . . . . .   . . . . . .
e|--------------|---------------|--------2-----|-------2------|
B|--------4-----|--------4------|------3---3---|-----3---3----|
G|------4---4---|------4---4----|----2-------2-|---2-------2--|
D|----4-------4-|----4-------4--|--0-----------|-0------------|
A|--2-----------|--2------------|--------------|--------------|
E|--------------|---------------|--------------|--------------|

    E              E              E              E
    . . . . . .    . . . . . .    . . . . . .    . . . . . .
e|--------------|---------------|-----------0--|-0-----------|
B|--------------|---------------|---------0----|---0---------|
G|--------1-----|--------1------|-------1------|-----1-------|
D|------2---2---|------2---2----|-----2--------|-------2-----|
A|----2-------2-|----2-------2--|---2----------|---------2---|
E|--0-----------|--0------------|-0------------|-----------0-|


[Rhy.Fig.2]
What time is it baby?
Is it that time again,
When snow will be falling, friends will be callin' [Rhy.Fig.1]
You know it's time when
There'll be carolers singing                       [Rhy.Fig.2]
Silent Night
I love it when they sing, the feeling it brings    [Rhy.Fig.3]
It's as warm as the fire is bright

[Rhy.Fig.4]
Soon there'll be toys for the good girls and boys
And reindeer are heading our way
Yes and Santa will come down the chimeney above
There's one thing I wanted to say

I wish every day could be like christmas            [Rhy.Fig.1]
And if I could have one wish come true
I wish every day could be full of peace and harmony [Rhy.Fig.2]
I wish every day could be like christmas, I do      [Rhy.Fig.1]

I saw a child sit with old Mr. Claus
Looked him in the eye and he asked old Santa
What peace on earth was
Now the old man grew cautious on how he would say
That it's the greatest gift what you could give
Every Day

CHORUS

[Rhy.Fig.5]
Now there's mistle-toes at the house of Lords
All the world seems at ease tonight
And all that I ask when these precious moments pass
Is why can't every day be so bright

CHORUS
Honest I do
Yes I do now
Very merry Christmas

----------------- Acordes -----------------
A = X 0 2 2 2 0
A/E = 0 X 2 2 2 0
A/F# = 2 0 2 2 2 0
A/G# = 4 X 2 2 2 X
A7 = X 0 2 0 2 0
Asus4 = X 0 2 2 3 0
B = X 2 4 4 4 2
D = X X 0 2 3 2
Dm = X X 0 2 3 1
E = 0 2 2 1 0 0
F#m = 2 4 4 2 2 2
