Banda Eva - Carnaval de Salvador

  Em
Que bom você chegou, chegou
         D
Tava te esperando
               Em
Coração chamou, chamou
             D
Vem pra cá voando
                 C                D
Chega mais pra perto tudo vai da certo
         Em       D
Vem pra balançar
               Em
Que bom você chegou, chegou
           D
Tava te esperando
                 Em
Coração chamou, chamou
             D
Vem pra cá voando
                 C
Que vai ser tão bom

                D
Vamos curtir o som
                Em     D
Que é bom pra namorar
 Em                 D
Groove de primeira até quarta-feira
 Em              D
Vou atrás do caminhão
em
Som de samba reggae
D
Coração que segue
Em               D
A alegria do povão

  :             Em            D
  : Aêó, isso é carnaval de Salvador
  : Em             D
2x: Aêó, você vem de lá e eu também vou
  : Em             D
  : Aêó, isso é carnaval de Salvador
  :  C                       D        Em
  : Você vem, ta tudo bem e eu também vou

----------------- Acordes -----------------
C = X 3 2 0 1 0
D = X X 0 2 3 2
Em = 0 2 2 0 0 0
