The Animals - Boom Boom

Retrospective


Intro:

e|---------------------|---------------------|---------------------|
B|------4--------------|---------------------|------4--------------|
G|-3h5-----3-1---------|----1--4/3--1--------|-3h5-----3-1---------|
D|---------------3-1-3-|-3-------------3-1-3-|--------------3-1----|
A|---------------------|---------------------|-------------------1-|
E|---------------------|---------------------|---------------------|

e|---------------------|---------------------|---------------------|
B|---------------------|------4------------1-|---------------------|
G|----1--4/3--1--------|-3h5-----3-1---------|---------1-1---------|
D|-3-------------3-1-3-|--------------3-1----|----1-3-------3------|
A|---------------------|---------------------|-3-------------------|
E|---------------------|---------------------|---------------------|

e|---------------------|
B|------4--------------|
G|-3h5-----3-1---------|
D|---------------3-1-3-|
A|---------------------|
E|---------------------|



Chorus: Reapeat 4 times. I don't have the solo.


e|------------|------------|------------|------------|
B|------------|------------|------------|------------|
G|------------|------------|------------|------------|
D|------------|------------|------------|------------|
A|-3-3---5----|-3-3-3---5--|-3-3-3---5--|-3-3-3---5--|
E|-1-1---1----|-1-1-1---1--|-1-1-1---1--|-1-1-1---1--|

e|------------|------------|------------|------------|
B|------------|------------|------------|------------|
G|------------|------------|------------|------------|
D|------------|------------|------------|------------|
A|-3-3-3---5--|-3-3-3---5--|-3-3-3---5--|-3-3-3---5--|
E|-1-1-1---1--|-1-1-1---1--|-1-1-1---1--|-1-1-1---1--|

e|------------|------------|------------|------------|
B|------------|------------|------------|------------|
G|------------|------------|------------|------------|
D|-3-3---5----|-3-3-3---5--|-3-3-3---5--|-3-3-3----5-|
A|-1-1---1----|-1-1-1---1--|-1-1-1---1--|-1-1-1----1-|
E|------------|------------|------------|------------|

e|------------|------------|------------|------------|
B|------------|------------|------------|------------|
G|------------|------------|------------|------------|
D|------------|------------|------------|------------|
A|-3-3---5----|-3-3-3---5--|-3-3-3---5--|-3-3-3---5--|
E|-1-1---1----|-1-1-1---1--|-1-1-1---1--|-1-1-1---1--|

e|------------|------------|------------|------------|
B|------------|------------|------------|------------|
G|------------|------------|------------|------------|
D|-5-5---7----|-5-5-5---7--|-3-3---5----|-3-3-3---5--|
A|-3-3---3----|-3-3-3---3--|-1-1---1----|-1-1-1---1--|
E|------------|------------|------------|------------|

e|------------|------------|------------|------------|
B|------------|------------|------------|------------|
G|------------|------------|------------|------------|
D|------------|------------|------------|------------|
A|-3-3---5----|-3-3-3---5--|-3-3-3---5--|-3-3-3---5--|
E|-1-1---1----|-1-1-1---1--|-1-1-1---1--|-1-1-1---1--|
