﻿Jammil e Uma Noites - Quem É o Gostosão Daqui?

e|------------------------------------------------------------
B|------------------------------------------------------------
D|-------------8---------------------8------------------------
G|--------5----8---8---3----5-3-5----8---8---3----------------
A|--------5----6---8---3----5-3-5----6---8---3----------------
E|--------3--------6---1----3-1-3--------6---1----------------

solinho de introdução e meio da música

e|------------------------------------------------------------
B|--------------------------------16-15-------13h15-13--------
D|-12-12-12-12-12-12-14-15-12-----------15--------------------
G|-----------------------------13----------15-----------------
A|------------------------------------------------------------
E|------------------------------------------------------------

e|--------------------------------------------13h15-13--------
B|--------------------------------16-15-----------------------
D|-12-12-12-12-12-12-14-15-12-----------15--------------------
G|-----------------------------13----------15-----------------
A|------------------------------------------------------------
E|------------------------------------------------------------


Cm                  Gm
   Vou te levar pra cama
Bb                     F
   Vou te deixar toda nua
Cm
   Vou te morder
             Gm
   Vou te lamber safada!!
Bb                   F
   Você vai ficar tesuda
Eb
   Vou te abraçar
             Bb
   Vou te beijar
                      F
   Vou te deixar nas nuvens
                 Gm
   É loucura de amor
Eb                Bb
   Eu sou força total
                    F
   No sexo sou campeão
                 Bb    C
   Vamos fazer amor

Gm               Eb
   Quem é o gostosão daqui?
       Bb                F
   Sou eu , Sou eu , Sou eu..!

----------------- Acordes -----------------
Bb = X 1 3 3 3 1
C = X 3 2 0 1 0
Cm = X 3 5 5 4 3
Eb = X 6 5 3 4 3
F = 1 3 3 2 1 1
Gm = 3 5 5 3 3 3
