Coldplay - A Whisper

Capo Casa 3

**Tuning: EAEGBe**

Chords used:

    E   Eadd9 Cmaj7   C?  Asus4   A   Asus2   Em    Bm    G6  Aadd9
e|--0-----0-----0-----0-----0-----0-----0-----0-----0-----0-----0--|
B|--0-----0-----0-----0-----3-----2-----0-----0-----0-----3-----0--|
G|--1-----1-----0-----0-----2-----2-----2-----0-----7-----4-----6--|
E|--0-----2-----0-----2-----0-----0-----0-----0-----0-----0-----0--|
A|--2-----2-----3-----3-----0-----0-----0-----------9-----5-----7--|
E|--0-----0-----------------------------------------7-----3-----5--|


Main "whisper" riff: (strum pattern NOT shown)

    E   Eadd9 Cmaj7   C?
e|--0-----0-----0-----0--|
B|--0-----0-----0-----0--|
G|--1-----1-----0-----0--|
E|--0-----2-----0-----2--|
A|--2-----2-----3-----3--|
E|--0-----0--------------|


Verse: (strum pattern shown, all down strums)

     Asus4      A             Asus4 A Asus2 Em E
e|--0--0--0--0--0--0-----|--0--0--0--0--0--0--0----------------------|
B|--3--3--3--2--2--2-----|--3--3--3--2--0--0--0----------------------|
G|--2--2--2--2--2--2--x3-|--2--2--2--2--2--0--1--(back to "whisper")-|
E|--0--0--0--0--0--0-----|--0--0--0--0--0--0--0----------------------|
A|--0--0--0--0--0--0-----|--0--0--0--0--0-----2----------------------|
E|-----------------------|--------------------0----------------------|


Bridge: (strum pattern NOT shown)

    Bm  G6 Aadd9
e|--0---0---0------|--0--0--0--0----------------------|
B|--0---3---0------|--2--0--0--0----------------------|
G|--7---4---6------|--2--2--0--1--(back to "whisper")-|
E|--0---0---0---x2-|--0--0--0--0----------------------|
A|--9---5---7------|--0--0--0--2----------------------|
E|--7---3---5------|-----------0----------------------|

Outro: (strum pattern shown)

       G6     Aadd9         E
e|--0--0--0--0--0--0--0--0-0--0--0-0------------------|
B|--3--3--3--0--0--0--0--0-0--0--0-0------------------|
G|--4--4--4--6--6--6--1--1-1--1--1-1------------------|
E|--0--0--0--0--0--0--0--0-0--0--0-0--repeat till end-|
A|--5--5--5--7--7--7--2--2-2--2--2-2------------------|
E|--3--3--3--5--5--5--0--0-0--0--0-0------------------|


| /  slide up
| \  slide down
| h  hammer-on
| p  pull-off
| ~  vibrato
| +  harmonic
| x  Mute note

----------------- Acordes -----------------
Capotraste na 3ª casa
A*  = X 0 2 2 2 0 - (*C na forma de A)
Aadd9*  = X 0 2 2 0 0 - (*Cadd9 na forma de Aadd9)
Asus2*  = X 0 2 2 0 0 - (*Csus2 na forma de Asus2)
Asus4*  = X 0 2 2 3 0 - (*Csus4 na forma de Asus4)
Bm*  = X 2 4 4 3 2 - (*Dm na forma de Bm)
C*  = X 3 2 0 1 0 - (*D# na forma de C)
Cmaj7*  = X 3 2 0 0 X - (*D#maj7 na forma de Cmaj7)
E*  = 0 2 2 1 0 0 - (*G na forma de E)
Eadd9*  = 0 2 4 1 0 0 - (*Gadd9 na forma de Eadd9)
Em*  = 0 2 2 0 0 0 - (*Gm na forma de Em)
G6*  = 3 X 2 4 3 X - (*A#6 na forma de G6)
