Coldplay - Don't Panic

[Intro]  F

 Am                  C/G                 F
Bones sinking like stones, all that we fought for
 Am                  C/G                 F
Homes places we've grown, all of us are done for

 Dm                     Am
We live in a beautiful world
 G
Yeah we do, yeah we do
 Dm                     F
We live in a beautiful world

[Riff Refrão]

E|-5555555--7777-8888888----------------------15----15-|-----------------------------------------5------------5--------|
B|------- ---------------555555555-5/12-12h13----13----|-101010101010--12121212-1313131313---5h6---5h6p5--5h6---5h6p5--|
G|-----------------------------------------------------|---------------------------------------------------------------|
D|-----------------------------------------------------|---------------------------------------------------------------|
A|-----------------------------------------------------|---------------------------------------------------------------|
E|-----------------------------------------------------|---------------------------------------------------------------|


 Am                  C/G                 F
Bones sinking like stones, all that we fought for
 Am                  C/G                 F
Homes places we've grown, all of us are done for

 Dm                     Am
We live in a beautiful world
 G
Yeah we do, yeah we do
 Dm                     F
We live in a beautiful world

[Am  C/G  F]
[Am  C/G  F]

E|-------------------------------------------|
B|--5-5-8-7-5-5--5-8-7-5---------------------|
G|-----------------------7--5----------------|  
D|-------------------------------------------| (2x)
A|-------------------------------------------|
E|-------------------------------------------|


 Dm                     Am
We live in a beautiful world
 G
Yeah we do, yeah we do
 Dm                     F
We live in a beautiful world

[Solo]  Am  C/G  F
        Am  C/G  F


E|-----12----12----12----12----12----12----12----12-------5--------------5-------|
B|--13----13----13----13----13----13----13----13------5h6----5h6p5---5h6----5h6p5|
G|-------------------------------------------------------------------------------|
D|-------------------------------------------------------------------------------| (4x)
A|-------------------------------------------------------------------------------|
E|-------------------------------------------------------------------------------|

Am              C/G                          F
Oh all that I know, there's nothing here to run from
 Am                   C/G                    F       F
Cos' yeah, everybody here's got somebody to lean on

----------------- Acordes -----------------
Am = X 0 2 2 1 0
C/G = 3 3 2 X 1 X
Dm = X X 0 2 3 1
F = 1 3 3 2 1 1
G = 3 2 0 0 0 3
