Coldplay - Fix You

                  Eb           Ebmaj7      Cm    Bb9
When you try your best but you don't succeed
                  Eb           Ebmaj7      Cm    Bb9
When you get what you want but not what you need
                  Eb           Ebmaj7      Cm    Bb9
When you feel so tired but you can't sleep
                  Eb           Ebmaj7      Cm    Bb9
Stuck in reverse

                  Eb           Ebmaj7      Cm    Bb9
When the tears come streaming down your face
                  Eb           Ebmaj7      Cm    Bb9
When you lose something you can't replace
                  Eb           Ebmaj7      Cm    Bb9
When you love someone but it goes to waste
                  Eb           Ebmaj7      Cm    Bb9
could it be worse?

Ab             Bb9
   Lights will guide you home
Ab        Bb9
  and ignite your bones

Ab           Bb9
  And I will try to fix you

Eb Ebmaj7 Cm Bb9


High up above or down below
when you too in love to let it go
If you never try you'll never know
Just watch and learn

Lights will guide you home
and ignite your bones
And I will try to fix you

__________________________________________________

Solos:

Chorus:

Lights will guide you home...
e|-----------------------------------------|
B|--4---4----4---4---------6---6----6---6--|
G|--3h5------3h5----3------5h7------5h7----|  Play 2x
D|-----------------------------------------|
A|-----------------------------------------|
E|-----------------------------------------|

e|--------------------------------|
B|--4---4----4---4---------6---6--|
G|--3h5------3h5----3------5h7----|
D|--------------------------------|
A|--------------------------------|
E|--------------------------------|

e|-----11-----10-----11-----10--|
B|------------------------------|
G|--12-----12-----12-----12-----|
D|------------------------------|
A|------------------------------|
E|------------------------------|

Verse 2:

High up above and down below...
e|----11-----10-----11-----10---|
B|--11-----11-----11-----11-----|
G|------------------------------|  Play 4x
D|------------------------------|
A|------------------------------|
E|------------------------------|

Play Chorus above then:

Outro:

e|----------------------------------------------------------------------------|
B|--4-4-4-4-4-4-4-4-4-4-4-4/11-11-11-11\4-4-4-4-4-4-4-4-4-4-4-4/11-11-11-11\--|
G|----------------------------------------------------------------------------|
D|----------------------------------------------------------------------------|
A|----------------------------------------------------------------------------|
E|----------------------------------------------------------------------------|

e|---------------------------------------------------------------------------|
B|--4-4-4-4-4-4-4-4-4-4-4-4/11-11-11-11/4-4-4\3-3-3-3-3-3-3-3-3-3-3-3-3-3-3--|
G|---------------------------------------------------------------------------|
D|---------------------------------------------------------------------------|
A|---------------------------------------------------------------------------|
E|---------------------------------------------------------------------------|

----------------- Acordes -----------------
Ab = 4 3 1 1 1 4
Bb9 = X 1 3 3 1 1
Cm = X 3 5 5 4 3
Eb = X 6 5 3 4 3
Ebmaj7 = X X 1 3 3 3
