Coldplay - Lovers In Japan / Reign Of Love (Medley)

------------------------
LOVERS IN JAPAN
------------------------

Intro Prt.1                   or  
e|--10--------------------|       e|------------3----2----|
B|--12----12----8----7----|       B|--0----1----3----3----|
G|---9-----9----7----4----|       G|--0----0----0----2----|
D|--12----10----5----5----|2x     D|--2----2----0----0----|2x
A|------------------------|       A|--2----3----x---------|      
E|------------------------|       E|--0---------3---------|

Intro Prt.2/Verse 1 - 3x
e|------------------------------------------------|
B|--3-3-3-3--3-3-3-3-------3-3-3-3--3-3-3-3-------|
G|--2-2-2-4--2-2-4-4-------2-2-2-4--2-2-4-4-------|
D|--0-0-0-0--0-0-0-0-[2x]--0-0-0-0--0-0-0-0-[2x]--|
A|--x-x-x-x--x-x-x-x------------------------------|
E|--3-3-3-3--3-3-3-3------------------------------|

e|------------------------------------------------|
B|--3-3-3-3--3-3-3-3-------3-3-3-3--3-3-3-3-------|
G|--2-2-2-4--2-2-4-4-------2-2-2-4--2-2-4-4-------|
D|--x-x-x-x--x-x-x-x-[2x]--0-0-0-0--0-0-0-0-[2x]--|
A|--3-3-3-3--3-3-3-3-------x-x-x-x--x-x-x-x-------|
E|-------------------------3-3-3-3--3-3-3-3-------|


Chorus
Guitar 1
         Em7        Cadd9 Gsus2
They are turning my head  out
   D                Em7
To see what I'm all about
        Cadd9   Gsus2
Keeping my head down
   D                      Em7
To see what it feels like now
      D       Cadd9
But I have no doubt
Am              D
One day, we are gonna get out

Guitar 2
e|----------------------------------------------------------|
B|----------------------------------------------------------|
G|----------------------------------------------------------|
D|----------------------------------------------------------|2x
A|----------------------------------------------------------|
E|--5-5-7-7-[2x]-7-7-8-8-[2x]-5-5-7-7-[2x]-3-3-5-5-[2x]-----|

“But I have…"
e|--------------------------------------------------------------------|
B|--------------------------------------------------------------------|
G|--------------------------------------------------------------------|
D|--------------------------------------------------------------------|
A|--------------------------------------------------------------------|
E|--5-5-7-7-[2x]-3-3-5-5-[2x]-7-7-8-8-[2x]-5-5-7-7-[2x]-3-3-5-5-[2x]--|

Interlude
Guitar 2
e|--10--------------------|       
B|--12----12----8----7----|       
G|---9-----9----7----4----|       
D|--12----10----5----5----|2x                                   
A|------------------------|       
E|------------------------|       

Guitar 1
e|--------------------------------------|
B|--3-3-3-3--3-3-3-3--3-3-3-3--3-3-3-3--|
G|--2-2-2-4--2-2-4-4--2-2-2-4--2-2-4-4--|
D|--0-0-0-0--0-0-0-0--0-0-0-0--0-0-0-0--|
A|--x-x-x-x--x-x-x-x--------------------|
E|--3-3-3-3--3-3-3-3--------------------|

e|--------------------------------------|
B|--3-3-3-3--3-3-3-3--3-3-3-3--3-3-3-3--|
G|--2-2-2-4--2-2-4-4--2-2-2-4--2-2-4-4--|
D|--x-x-x-x--x-x-x-x--0-0-0-0--0-0-0-0--|
A|--3-3-3-3--3-3-3-3--x-x-x-x--x-x-x-x--|
E|--------------------3-3-3-3--3-3-3-3--|

e|------------3----2----|
B|--0----1----3----3----|
G|--0----0----0----2----|
D|--2----2----0----0----|
A|--2----3----x---------|      
E|--0---------3---------|

Verse 2
Same as Intro Prt.2/Verse 1

Chorus

Bridge
Guitar 1

Em7 Cadd9 Gsus2 D - 4x

Guitar 2
e|------------------------------------|
B|------------------------------------|
G|--4-------5-------7--------11-------|
D|--x-[7x]--x-[1x]--x-[16x]---x-[8x]--|4x
A|--2-------3-------5---------9-------|
E|------------------------------------|

Outro
Guitar 1
e|--------------------|
B|--3-3-3-3--3-3-3-3--|
G|--2-2-2-4--2-2-4-4--|
D|--0-0-0-0--0-0-0-0--|2x
A|--x-x-x-x--x-x-x-x--|
E|--3-3-3-3--3-3-3-3--|

Guitar 2
e|---------------|
B|---------------|
G|--12-12-12-12--|
D|---------------|??x
A|---------------|
E|---------------|

------------------------
REIGN OF LOVE
------------------------
INTRO: D - Dsus4 - D - G - G/F# - A  x2
       D - Dsus4 - D - Bm - F#m - G
       G - A - D - G - A - D

D     Dsus4  D
Reign of    love
  G     G/F# A
I can’t let  go
D      Dsus4 D
To the sea   I offer
     G  G/F# A
This heavy   load


D   Dsus4  D
Locusts    will
Bm   F#m  G
Lift me   up
G    A     D
I’m just a prisoner
     G     A  D
In a reign of love

D - Dsus4 - D - G - G/F# - A  x2

D  Dsus4 D
Locusts  will
Bm  F#m  G
Let us   stop
G      A    D
I wish I’d spoken
       G     A   D
To the reign of love

D     Dsus4  D
Reign of    love
       G       G/F#  A
By the church, we’re waiting
D     Dsus4  D
Reign of    love
   G     G/F#         A
My knees go   praying

D   Dsus4 D
How I     wish
    Bm  F#m  G
I’d spoken   up
   G    A   D
Or we’d be carried
       G     A   D
In the reign of love.

OUTRO: D - Dsus4 - D - G - G/F# - A  x2
       D - Dsus4 - D - Bm - F#m - G
       G - A - D - G - A - D


----------------- Acordes -----------------
A = X 0 2 2 2 0
Am = X 0 2 2 1 0
Bm = X 2 4 4 3 2
Cadd9 = X 3 5 5 3 3
D = X X 0 2 3 2
Dsus4 = X X 0 2 3 3
Em7 = 0 2 2 0 3 0
F#m = 2 4 4 2 2 2
G = 3 2 0 0 0 3
G/F# = X X 4 4 3 3
Gsus2 = 3 X 0 2 0 X
