Coldplay - Trouble

Intro 2x: G  Em7(9)  Bm7(11)
           G              Em7(9)        Bm7(11)
E|---------------------------------------------
B|--------------------------------------3------
G|---0--------------0-------------0-----2------
D|-4---4p0-0-0-0--4---4p0-2-2-2-4---4p0-4------
A|--------------------------------------2------
E|---------3-3-3----------0-0-0----------------
           G              Em7(9)        Bm7(11)
E|---------------------------------------------
B|--------------------------------------3------
G|-2p0--------------0-------------0-----2------
D|-----4p0-0-0-0--4---4p0-2-2-2-4---4p0-4------
A|--------------------------------------2------
E|---------3-3-3----------0-0-0----------------
           G              Em7(9)
E|-----------------------------------------
B|---------3-3-3----------3----------------
G|---0-----0-0-0---0------0---------0------
D|-4---4p0-0-0-0-4---4p0--0-------4---4p0--
A|------------------------2--2-2-----------
E|---------3-3-3----------0--0-0-----------

   Bm7(11)
E|-0--0--0--0---0--0-----0--0--------------
B|-3--3--3--3---3--3--3--3--3--------------
G|-2--2--2--2---2--2--2--2--2--------------
D|-4--4--4--4---4--4--4--4--4--------------
A|-2--2--2--2---------2--2--2--------------
E|-----------------------------------------
          G              Em7(9)          Bm7(11)
E|----------------------------------------------
B|--------3-3-3----------3---------------3------
G2p0-----0-0-0---0------0---------0-----2------
D|----4p0-0-0-0-4---4p0--0-------4---4p0-4------
A|-----------------------2--2-2----------2------
E|--------3-3-3----------0--0-0-----------------

Primeira parte:
G     Em7(9)  Bm7(11)
  Oh no    I see
    F5(7M/9)     Am7             G
A spider web is tangled up with me

G        Em7(9)  Bm7(11)
  And I lost my head
      F5(7M/9)           Am7              G7M
And thought of all the stupid things I’d said
   G  Em7(9) Bm7(11) F5(7M/9) Am7  G
E|-----------------------------------------
B|-3--3------3-------1--------1----3-------
G|-0--0------2-------0--------0----0-------
D|-0--2------0-------3--------2----0-------
A|-----------2----------------0------------
E|-3--0--------------1-------------3-------

( G  Em7(9)  Bm7(11) ) (2x)

G7M   Em9        Bm7(11)
  Oh no what’s this
F4+(7M/9)             Am7                 G7M
A spider web and I’m caught in the middle
       Em9       Bm7(11)
 So I turned to run and
  F4+(7M/9)          Am7              G
Thought of all the stupid things I’d done
   G7M              Em7(9)
E|-2-----2---2--2---0-----0--0-0-----------
B|-0-----0---0--0---7-----7--7-7-----------
G|-0--0--0---0--0---0--0--0--0-0-----------
D|-0--0--0---0--0---9--9--9--9-9-----------
A|-----------------------------------------
E|-3--3--3----------0--0--0----------------
   Bm7(11)  Bm7(9/11)   Bm7(11)
E|-0-----0------------------0--0-0-0-0-----
B|-0-----0--0--0------------0--0-0-0-0-----
G|-7-----7--6--6---------7--7--7-7-7-7-----
D|-7-----7--7--7---------7--7--7-7-7-7-----
A|-----------------------------------------
E|-7-7---7-7--7----------7--7--7-----------
   F4+(7M/9)      Am7
E|-------0--0--0--0-----0--0--0------------
B|-------0--0--0--1-----1--1--1------------
G|-0-----0--0--3--0--0--0--0--0------------
D|-3--3--3--3--3--2--2--2--2--2------------
A|-3--3--3--3-----0--0--0--0---------------
E|-1--1--1--1------------------------------
   G7M
E|-2----2--2--3--2-2-2-2-2-----------------
B|-0----0--0--0--0-0-0-0-0-----------------
G|-0-0--0--0--0--0-0-0-0-0-----------------
D|-0-0--0--0--0--0-0-0-0-0-----------------
A|-----------------------------------------
E|-3-3--3------------3---------------------

Refrão:
    A4(7)                           Em7(9)
And ah I never meant to cause you trouble
A9                           Em7(9)
Ah I never meant to do you wrong
A4(7)                          Em7(9)
Ah well if I ever caused you trouble
A4(9)                               Em7(9)
Then oh no I never meant to do you harm
   A4(7)
E|-0-0-----0--0-----0-0-0-0----------------
B|-3-3-----3--3-----3-3-3-3----------------
G|-0-0-----0--0--0--0-0-0-0----------------
D|-2-2-----2--2--2--2-2-2-2----------------
A|-0-0-----------0--0-0-0-0----------------
E|-----------------------------------------
   Em7(9)
E|-2----2---2-2-----2-2-2-2----------------
B|-3----3---3-3-----3-3-3-3----------------
G|-0----0---0-0-----0-0-0-0----------------
D|-0----0---0-0--0--0-0-0-0----------------
A|-2--2-2--------2--2-2-2-2----------------
E|-0--0-0--------0--0-0-0-0----------------
   A9
E|-0----0--0--0--0--0-0-0-0----------------
B|-0----0--0--0--0--0-0-0-0----------------
G|-6-6--6--6--6--6--6-6-6-6----------------
D|-7-7--7--7--7--7--7-7-7-7----------------
A|-0-0--0--------0--0-0-0-0----------------
E|-----------------------------------------
   Em7(9)
E|-0----0---0-0-----0-0-0-0----------------
B|-3----3---3-3-----3-3-3-3----------------
G|-0----0---0-0-----0-0-0-0----------------
D|-4----4---4-4--4--4-4-4-4----------------
A|-2--2-2--------2--2-2-2-2----------------
E|-0--0-0--------0--0-0-0-0----------------
   A4(7) Em7(9)
E|-0-----2---------------------------------
B|-3-----3---------------------------------
G|-0-----0---------------------------------
D|-2-----0---------------------------------
A|-0-----2---------------------------------
E|-------0---------------------------------

( G  Em7(9)  Bm7(11) ) (2x)

Primeira parte com variação na letra:
G7M   Em9    Bm7(11)
  Oh no    I see
    F4+(7M/9)          Am7             G7M
A spider web and it’s me in the middle

       Em9      Bm7(11)
So I twist and turn
     F4+(7M/9)    Am7             G7M
But here am I in my little bubble

Refrão:
    A4(7)                           Em7(9)
And ah I never meant to cause you trouble
A9                           Em7(9)
Ah I never meant to do you wrong
A4(7)                          Em7(9)
Ah well if I ever caused you trouble
A9                                  Em7(9)
Then oh no I never meant to do you harm

Segunda parte:
( G  Em7(9)  Bm7 ) (2x)
( G7M  Em7(9)  Bm7 ) (2x)

Em            F#m   G7M F#m
   And they spun a web for me
Em        F#m   G7M F#m
   They spun a web for me
Em            F#m   G7M F#m
   And they spun a web for me

( G  Em7(9)  Bm7 ) (2x)

( G7M  Em7(9)  Bm7 ) (2x)
   G                 Em7(9)
E|-10--10--10--10----2----2--2-2------------
B|-12--12--12--12----3----3--3-3------------
G|-0---0---0---0-----0----0--0-0------------
D|-0---0---0---0-----0--0-0-----------------
A|-10--10--10--------2--2-------------------
E|-------------------0--0-------------------
   Bm7
E|-5-----5---------------2-2-2---------------
B|-3-----3------3--2-----5-5-5---------------
G|-2-----2---2--2--2--2--2-2-2---------------
D|-4--4--4---4--4--4--4--4-4-4---------------
A|-2--2--2---2--2--2--2--2-2-2---------------
E|-------------------------------------------
   G7M                Em7(9)
E|-14-----14--14--14--2----2--2-2------------
B|-12-----12--12--12--3----3--3-3------------
G|-0--0---0---0---0---0----0--0-0------------
D|-0--0---0---0---0---0--0-0-----------------
A|-10-10--10----------2--2-2-----------------
E|--------------------0--0-0-----------------
   Em  F#m G  F#m
E|---------2---------------------------------
B|-0---2---0--2------------------------------
G|-0---2---0--2------------------------------
D|-------------------------------------------
A|-------------------------------------------
E|-0---2---3--2------------------------------
   Em
E|-------------------------------------------
B|-0---0---0----0--0--0---0------------------
G|-0---0---0----0--0--0---0------------------
D|-------------------------------------------
A|-------------------------------------------
E|-0---0---0--0--0--0---0----0---------------


----------------- Acordes -----------------
A4(7) = X 0 2 0 3 0
A4(9) = X 0 2 4 3 0
A9 = X 0 2 2 0 0
Am7 = X 0 2 0 1 0
Bm7 = X 2 4 2 3 2
Bm7(11) = 7 X 7 7 5 X
Bm7(9/11) = X 2 0 2 2 0
Em = 0 2 2 0 0 0
Em7(9) = X 7 5 7 7 X
Em9 = 0 2 4 0 0 0
F#m = 2 4 4 2 2 2
F5(7M/9) = X X 3 0 1 0
G = 3 2 0 0 0 3
G7M = 3 X 4 4 3 X
