Led Zeppelin - As Long As I Have You Live

Gtr I (E A D G B E) - 'Track 1'

  Q=114
  Am
 4/4
  Gtr I
      PM  PM  PM  PM  PM--|   PM        PM--|   PM  PM  PM  PM  PM
  S S S S S S S S S S S S S S S S   S S S S S S S S S S S S S S S S
|---------------------------------|----------------------------------|
|---------------------------------|----------------------------------|
|---------------------------------|----------------------------------|
|---------------------------------|----------------------------------|
|-0---0---0---0---0---0---0---0---|-0---0---0---0---0---0---0---0----|
|---------------------------------|----------------------------------|



      PM  PM  PM  PM  PM  PM  PM        PM  PM  PM  PM  PM  PM  PM
  S S S S S S S S S S S S S S S S   S S S S S S S S S S S S S S S S
|---------------------------------|---------------------------------|
|---------------------------------|---------------------------------|
|---------------------------------|---------------------------------|
|---------------------------------|---------------------------------|
|-0---0---0---0---0---0---0---0---|-0---0---0---0---0---0---0---0---|
|---------------------------------|---------------------------------|


                       PM  PM  PM  PM  PM  PM  PM
  E. S +Q   +H       E S S S S S S S S S S S S S S   E. S +Q   +H
|-0--0-(0)--(0)----|-0-----------------------------|-0--0-(0)--(0)----|
|-0--1-(1)--(1)----|-1-----------------------------|-0--1-(1)--(1)----|
|-2--2-(2)--(2)----|-2-----------------------------|-2--2-(2)--(2)----|
|-2--2-(2)--(2)----|-2-----------------------------|-2--2-(2)--(2)----|
|-0--0-(0)--(0)----|-0-0---0---0---0---0---0---0---|-0--0-(0)--(0)----|
|------------------|-------------------------------|------------------|


                                 6/4
    PM  PM  PM  PM  PM  PM  PM
  E S S S S S S S S S S S S S S   E S E S E S E S E S E S E S E S
|-0-----------------------------|-0-0-0-0-0-0-0-0-0-0-0-0-0-0-0-0-|
|-1-----------------------------|-1-1-0-0-1-1-0-0-1-1-0-0-1-1-0-0-|
|-2-----------------------------|-2-2-2-2-2-2-2-2-2-2-2-2-2-2-2-2-|
|-2-----------------------------|-2-2-2-2-2-2-2-2-2-2-2-2-2-2-2-2-|
|-0-0---0---0---0---0---0---0---|-0-0-0-0-0-0-0-0-0-0-0-0-0-0-0-0-|
|-------------------------------|---------------------------------|


 4/4
    PM  PM  PM  PM  PM  PM  PM        PM  PM  PM  PM  PM  PM  PM
  E S S S S S S S S S S S S S S   S S S S S S S S S S S S S S S S
|-0-----------------------------|---------------------------------|
|-1-----------------------------|---------------------------------|
|-2-----------------------------|---------------------------------|
|-2-----------------------------|---------------------------------|
|-0-0---0---0---0---0---0---0---|-0---0---0---0---0---0---0---0---|
|-------------------------------|---------------------------------|


                                   2/4             4/4
                                                      ~~               ~
  E S E S E S E S E S E S E S E S   E S S +S  S E   S E. E E S S S E S E
|-0-0-0-0-0-0-0-0-0-0-0-0-0-0-0-0-|-0-0-0-(0)-0-0-|----------------------|
|-1-1-0-0-1-1-0-0-1-1-0-0-1-1-0-0-|-1-1-0-(0)-0-1-|----------------------|
|-2-2-2-2-2-2-2-2-2-2-2-2-2-2-2-2-|-2-2-2-(2)-2-2-|----------------------|
|-2-2-2-2-2-2-2-2-2-2-2-2-2-2-2-2-|-2-2-2-(2)-2-2-|-x-2--0---------------|
|-0-0-0-0-0-0-0-0-0-0-0-0-0-0-0-0-|-0-0-0-(0)-0-0-|--------3-0---0-3-0---|
|---------------------------------|---------------|------------3-------3-|


      PM  PM  PM  PM  PM  PM       PM--|   PM  PM  PM  PM  PM  PM
  S S S S S S S S S S S S S S E    S S S S S S S S S S S S S S S S
|--------------------------------|---------------------------------|
|--------------------------------|---------------------------------|
|--------------------------------|---------------------------------|
|-----------------------------7\-|---------------------------------|
|-0---0---0---0---0---0---0------|-0---0---0---0---0---0---0---0---|
|--------------------------------|---------------------------------|


  PM  PM  PM  PM  PM  PM  PM       PM  PM  PM--|   PM  PM  PM--|
  S S S S S S S S S S S S S S E    S S S S S S S S S S S S S S S S
|--------------------------------|---------------------------------|
|--------------------------------|---------------------------------|
|--------------------------------|---------------------------------|
|-----------------------------7\-|---------------------------------|
|-0---0---0---0---0---0---0------|-0---0---0---0---0---0---0---0---|
|--------------------------------|---------------------------------|


 6/4                               2/4             4/4
  E S E S E S E S E S E S E S E S   E S S +S  S E   S E. E E S S S E S E
|-0-0-0-0-0-0-0-0-0-0-0-0-0-0-0-0-|-0-0-0-(0)-0-0-|----------------------|
|-1-1-0-0-1-1-0-0-1-1-0-0-1-1-0-0-|-1-1-0-(0)-0-1-|----------------------|
|-2-2-2-2-2-2-2-2-2-2-2-2-2-2-2-2-|-2-2-2-(2)-2-2-|----------------------|
|-2-2-2-2-2-2-2-2-2-2-2-2-2-2-2-2-|-2-2-2-(2)-2-2-|---2--0---------------|
|-0-0-0-0-0-0-0-0-0-0-0-0-0-0-0-0-|-0-0-0-(0)-0-0-|--------3-0---0-3-0---|
|---------------------------------|---------------|------------3-------3-|

  E S S S S S S S S S S S S S S   E. S +E  E +S  E. E E
|-------------------------------|-----------------------|
|-------------------------------|-----------------------|
|-------------------------------|-----------------------|
|-------------------------------|-----------------------|
|-0-0---0---0---0---0---0---0---|-3--5-(5)-3-(3)--------|
|-------------------------------|----------------3--3-4-|

  E S S S S S S S S S S S S S S   E. S +E  E +S  E. E E
|-------------------------------|-----------------------|
|-------------------------------|-----------------------|
|-------------------------------|-----------------------|
|-------------------------------|-----------------------|
|-------------------------------|-3--5-(5)-3-(3)--------|
|-5-5---5---5---5---5---5---5---|----------------3--3-4-|

  E S S S S S S S S S S S S S S   E. S +E  E +S  E. E E
|-------------------------------|-----------------------|
|-------------------------------|-----------------------|
|-------------------------------|-----------------------|
|-------------------------------|-----------------------|
|-------------------------------|-3--5-(5)-3-(3)--------|
|-5-5---5---5---5---5---5---5---|----------------3--3-4-|

  E S S S S S S S S S S S S S S   E. S +E  E +S  E. E E
|-------------------------------|-----------------------|
|-------------------------------|-----------------------|
|-------------------------------|-----------------------|
|-------------------------------|-----------------------|
|-------------------------------|-3--5-(5)-3-(3)--------|
|-5-5---5---5---5---5---5---5---|----------------3--3-4-|

  E S S S S S S S S S S S S S S   S S S S S S S S S S S S S S S S
|-------------------------------|---------------------------------|
|-------------------------------|---------------------------------|
|-------------------------------|---------------------------------|
|-------------------------------|---------------------------------|
|-------------------------------|---------------------------------|
|-5-5---5---5---5---5---5---5---|-5---5---5---5---5---5---5---5---|


  S S S S S S S S S S S S S S S S   E E E E E E E E   S E. E E S S S E S E
|---------------------------------|-----------------|-----------------------|
|---------------------------------|-1-1-1-1-1-1-1-1-|-----------------------|
|---------------------------------|-2-2-2-2-2-2-2-2-|-----------------------|
|---------------------------------|-3-3-3-3-3-3-3-3-|---2--0----------------|
|---------------------------------|-3-3-3-3-3-3-3-3-|--------3-0---0-3-0----|
|-5---5---5---5---5---5---5---5---|-----------------|------------3-------3--|

  S S S S S S S S S S S S S S S S   S S S S S S S S S S S S S S S S
|---------------------------------|---------------------------------|
|---------------------------------|---------------------------------|
|---------------------------------|---------------------------------|
|---------------------------------|---------------------------------|
|-0---0---0---0---0---0---0---0---|-0---0---0---0---0---0---0---0---|
|---------------------------------|---------------------------------|

  S S S S S S S S S S S S S S S S   S S S S S S S S S S S S S S S S
|---------------------------------|---------------------------------|
|---------------------------------|---------------------------------|
|---------------------------------|---------------------------------|
|---------------------------------|---------------------------------|
|-0---0---0---0---0---0---0---0---|-0---0---0---0---0---0---0---0---|
|---------------------------------|---------------------------------|


  E E E E E E E E   S E. E E S S S E S E
|-----------------|----------------------|
|-1-1-1-1-1-1-1-1-|----------------------|
|-2-2-2-2-2-2-2-2-|----------------------|
|-3-3-3-3-3-3-3-3-|---2--0---------------|
|-3-3-3-3-3-3-3-3-|--------3-0---0-3-0---|
|-----------------|------------3-------3-|


  E S Q  S E S Q  S   E S Q  S E S Q  S
|-1---1----1---1----|-3---3----3---3----|
|-1---1----1---1----|-3---3----3---3----|
|-2---2----2---2----|-4---4----4---4----|
|-0---0----0---0----|-2---2----2---2----|
|-------------------|-------------------|
|-------------------|-------------------|


   E S  Q  S  E S  Q  S    E S  Q  S  E S  Q  S
|-----------------------|-----------------------|
|-10---10----10---10----|-12---12----12---12----|
|-10---10----10---10----|-12---12----12---12----|
|-10---10----10---10----|-12---12----12---12----|
|--8----8-----8----8----|-10---10----10---10----|
|-----------------------|-----------------------|


  E E E S S E E E E   E E E S S E E E E
|-------------------|-------------------
|-------------------|-------------------
|-------------------|-------------------
|-------------------|-------------------
|-0-0-0-3-4-5-------|-0-0-0-3-4-5-------
|-------------0-3-4-|-------------0-3-4-

  E E E S S E E E E   E E E S S E E E E
|-------------------|-------------------|
|-------------------|-------------------|
|-------------------|-------------------|
|-------------------|-------------------|
|-0-0-0-3-4-5-------|-0-0-0-3-4-5-------|
|-------------0-3-4-|-------------0-3-4-|

  E E E S S E E E E   E E E S S E E E E
|-------------------|-------------------|
|-------------------|-------------------|
|-------------------|-------------------|
|-------------------|-------------------|
|-0-0-0-3-4-5-------|-0-0-0-3-4-5-------|
|-------------0-3-4-|-------------0-3-4-|


            4/4
  W          E E E E E E E E   E E E E E E E E
|-0--------|-----------------|-----------------|
|-1--------|-----------------|-----------------|
|-2--------|-----------------|-----------------|
|-2--------|-------------0-0-|---2-----2-------|
|-0--------|-0-0---2---------|-----3-----------|
|----------|---------3-------|-----------0-3-4-|

  E E E E E E E E   E E E E E E E E   E E E E E E E E   E E E E E E E E
|-----------------|-----------------|-----------------|-----------------
|-----------------|-----------------|-----------------|-----------------
|-----------------|-----------------|-----------------|-----------------
|-------------0-0-|---2-----2-------|-------------0-0-|---2-----2-------
|-0-0---2---------|-----3-----------|-0-0---2---------|-----3-----------
|---------3-------|-----------0-3-4-|---------3-------|-----------0-3-4-

  E E E E E E E E   E E E E E E E E
|-----------------|-----------------*|-|
|-----------------|-----------------*|-|
|-----------------|-----------------*|-|
|-------------0-0-|---2-----2-------*|-|
|-0-0---2---------|-----3-----------*|-|
|---------3-------|-----------0-3-4-*|-|

Duration Legend
---------------
+ - note tied to previous; . - note dotted; .. - note double dotted
Uncapitalized letters represent notes that are staccato (1/2 duration)
Irregular groupings are notated above the duration line
Duration letters will always appear directly above the note/fret number it represents the
duration for.  Duration letters with no fret number below them represent rests.  Multi-
bar rests are notated in the form Wxn, where n is the number of bars to rest for.  Low
melody durations appear below the staff.

Tablature Legend
----------------
 h   - hammer-on
 p   - pull-off
 b   - bend
 pb  - pre-bend
 r   - bend release (if no number after the r, then release immediately)
 /\  - slide into or out of (from/to "nowhere")
 s   - legato slide
 S   - shift slide
n(n) - tapped harmonic
 ~   - vibrato
 tr  - trill
 T   - tap
 TP  - trem. picking
 PM  - palm muting
\n/  - tremolo bar dip; n = amount to dip
 \n  - tremolo bar down
 n/  - tremolo bar up
/n\  - tremolo bar inverted dip
 =   - hold bend; also acts as connecting device for hammers/pulls
   - volume swell (louder/softer)

Misc Legend
-----------
 |  - bar
||o - repeat start
o|| - repeat end
 :  - bar (freetime)
 &  - Coda

----------------- Acordes -----------------
Am = X 0 2 2 1 0
E = 0 2 2 1 0 0
