Led Zeppelin - Freedon Rings

E--------------------------------------------------------------
B-3-----3---3-----3---3-----3---3-----3---3-----3---3-----3---3
G----0----0----0----0----0----0----0----0----1----1----1----1--
D--------------------------------------------------------------
A-2----2----2----2----3----3----3----3----0----0----0----0----0
E--------------------------------------------------------------

E--------------------------------------------------------------
B-3-----3---3-----3---3-----3---3-----3---3-----3---3-----3---3
G----1----1----1----0----0----0----0----0----0----0----0----0--
D--------------------------------------------------------------
A-0----0----0----0----3----3----3----3----2----2----2----2----2
E--------------------------------------------------------------

E--------------------------------------------------------------
B-1-----1---1-----1---1-----1---1-----1---1-----1---1-----1---1
G----0----0----0----0----0----0----0----0----2----2----2----2--
D--------------------------------------------------------------
A-2----2----2----2----3----3----3----3----0----0----0----0----0
E--------------------------------------------------------------


E--------------------------------------------------------------
B-1-----1---1-----1---1-----1---1-----1---1-----1---1-----1---1
G----2----2----2----2----0----0----0----0----0----0----0----0--
D--------------------------------------------------------------
A-0----0----0----0----3----3----3----3----2----2----2----2----2
E--------------------------------------------------------------

