Led Zeppelin - Rock N' Roll

INTRO:
E|----------------------------------------|
B|----------------------------------------|
G|----------------------------------12-12-|
D|-2--2--2--5--2--4------2--4--2-2--11-11-|
A|-0--3--0--0--0--0--3b4-0--0--0-0--------|
E|----------------------------------------|

E|-------------------------------------------|
B|-------------------------------------------|
G|----------------------------------12\11-11-|
D|-2--2--2--5--2--4------2--4--2-2--11\10-10-|
A|-0--3--0--0--0--0--3b4-0--0--0-0-----------|
E|-------------------------------------------|

E|-------------------------------------------|
B|----------------------------------11\12-12-|
G|-2--2--2--5--2--4------2--4--2-2--10\11-11-|
D|-0--3--0--0--0--0--3b4-0--0--0-0-----------|
A|-------------------------------------------|
E|-------------------------------------------|


E|-------------------------------------------|
B|-------------------------------------------|
G|----------------------------------12/13-13-|
D|-2--2--2--5--2--4------2--4--2-2--11/12-12-|
A|-0--3--0--0--0--0--3b4-0--0--0-0-----------|
E|-------------------------------------------|

E|-------------------------------------------|
B|-------------------------------------------|
G|----------------------------------11\12-12-|
D|----------------------------------10\11-11-|
A|-2--2--2--5--2--4------2--4--2-2-----------|
E|-0--3--0--0--0--0--3b4-0--0--0-0-----------|

E|----------------------------------------|
B|----------------------------------------|
G|----------------------------------------|
D|-2--2--2--5--2--4-----------------------|
A|-0--3--0--0--0--0--3b4----------3p0-----|
E|------------------------0-2-3-0-----3p0-|

VERSO 1:
E|----------------------------|      |---------------------------|
B|----------------------------|      |--3----3-----3-----3--3--3-|
G|----------------------------| (2x) |--2----2-----2-----2--2--2-|
D|---2----2-----2-----2--2--2-|      |--0----0-----0-----0--0--0-|
A|---0----0-----0-----0--0--0-|      |-3----3-----3-----3--3--3--|
E|-3----3-----3-----3---3--3--|      |---------------------------|

E|----------------------------|
B|----------------------------|
G|----------------------------|
D|---2----2-----2-----2--2--2-|
A|---0----0-----0-----0--0--0-|
E|-3----3-----3-----3---3--3--|

REFRÃO:
E|---------------------------------------|
B|---------------------------------------|
G|---------------------------------------|
D|-9-9-11-9-9-9-11-9-9-9-11-9-9-9-11---7-|
A|-7-7-7--7-7-7-7--7-7-7-7--7-7-7-7----5-|
E|---------------------------------------|

INTRO:
E|----------------------------------------|
B|----------------------------------------|
G|----------------------------------------|  (2x)
D|-2--2--2--5--2--4------2--4--2-2-2—4--2-|
A|-0--3--0--0--0--0--3b4-0--0--0-0-0-0--0-|
E|----------------------------------------|

VERSO 2:
E|----------------------------|      |---------------------------|
B|----------------------------|      |--3----3-----3-----3--3--3-|
G|----------------------------| (2x) |--2----2-----2-----2--2--2-|
D|---2----2-----2-----2--2--2-|      |--0----0-----0-----0--0--0-|
A|---0----0-----0-----0--0--0-|      |-3----3-----3-----3--3--3--|
E|-3----3-----3-----3---3--3--|      |---------------------------|

E|----------------------------|
B|----------------------------|
G|----------------------------|
D|---2----2-----2-----2--2--2-|
A|---0----0-----0-----0--0--0-|
E|-3----3-----3-----3---3--3--|

REFRÃO:
E|---------------------------------------|
B|---------------------------------------|
G|---------------------------------------|
D|-9-9-11-9-9-9-11-9-9-9-11-9-9-9-11---7-|
A|-7-7-7--7-7-7-7--7-7-7-7--7-7-7-7----5-|
E|---------------------------------------|

PRÉ-SOLO:
E|----------------------------------------|
B|----------------------------------------|
G|----------------------------------12-12-| (2x)
D|-2--2--2--5--2--4------2--4--2-2--11-11-|
A|-0--3--0--0--0--0--3b4-0--0--0-0--------|
E|----------------------------------------|

E|----------------------------------------|
B|------------------------------5-5-------|
G|------------------------------5-5-------|  (2x)
D|-2--2--2--5--2--4-----------------7p5-7-|
A|-0--3--0--0--0--0--3b4------------------|
E|----------------------------------------|

E|----------------------------------------|
B|------------------------------5-5-------|
G|-2--2--2--5--2--4-------------5-5-------|
D|-0--3--0--0--0--0--3b4------------7p5-7-|
A|----------------------------------------|
E|----------------------------------------|

E|----------------------------------------|
B|------------------------------5-5-------|
G|------------------------------5-5-------| 
D|-2--2--2--5--2--4-----------------7p5-7-|
A|-0--3--0--0--0--0--3b4------------------|
E|----------------------------------------|

E|----------------------------------------|
B|------------------------------5-5-------|
G|------------------------------5-5-------|
D|----------------------------------7p5-7-|
A|-2--2--2--5--2--4-----------------------|
E|-0--3--0--0--0--0--3b4------------------|

E|----------------------------------------|
B|------------------------------5-5-------|
G|------------------------------5-5-------|
D|-2--2--2--5--2--4-----------------7p5-7-|
A|-0--3--0--0--0--0--3b4------------------|
E|----------------------------------------|

SOLO:
E|------------------------------------|
B|------------------------------------|
G|------------------------------------|
D|------------------------------------|
A|-3p0---0--3p0---0--3p0---0--3p0---0-|
E|-----3--------3--------3--------3---|

E|------------------------------------|
B|------------------------------------|
G|------------------------------------|
G|-2p0---0--2p0---0--2p0---0--2p0---0-|
A|-----3--------3--------3--------3---|
E|------------------------------------|

E|------------------------------------|
B|------------------------------------|
G|-2p0---0--2p0---0--2p0---0--2p0---0-|
D|-----2--------2--------2--------2---|
A|------------------------------------|
E|------------------------------------|

E|------------------------------------|
B|-5p2---2--5p2---2--5p2---2--5p2---2-|
G|-----0--------0--------0--------0---|
D|------------------------------------|
A|------------------------------------|
E|------------------------------------|

E|---------------5--------------------------------5---5---5-|
B|-------------5--------------------------------5---5---5---|
G|-----5h7-7b9------7b9r7-5---7-5-------5-7-7b9-------------|
D|-5h7----------------------7-----7-5-7---------------------|
A|----------------------------------------------------------|
E|----------------------------------------------------------|

E|-------------------------------------------------------|
B|-8p5---5--9p6---6--10p7---7--11p8----8--13p10----10-10-|
G|-----7--------8---------9---------10----------12-------|
D|-------------------------------------------------------|
A|-------------------------------------------------------|
E|-------------------------------------------------------|

E|-----------------------------------------------------------------|
B|-13b15r13b17r13--10----13-12-10----12b13r12-10----12b13r12-10----|
G|--------------------12----------11-------------11-------------11-|
D|-----------------------------------------------------------------|
A|-----------------------------------------------------------------|
E|-----------------------------------------------------------------|

E|-----------------12----------15----15----15----15----|
B|-10-12-10--10-10----12b13-10-15b17-15b17-15b17-15b17-|
G|-----------------------------------------------------|
D|-----------------------------------------------------|
A|-----------------------------------------------------|
E|-----------------------------------------------------|

E|-------------------------|
B|-15-13-15-15b17-13b14----|
G|----------------------14-|
D|-------------------------|
A|-------------------------|
E|-------------------------|

E|------------------------------------9b10r8-5-------|
B|-8p5---5--8p5---5--8p5---5--8p5---5----------5-8---|
G|-----7-------7---------7--------7----------------7-|
D|---------------------------------------------------|
A|---------------------------------------------------|
E|---------------------------------------------------|

E|------------------------------------|
B|-8p5---5--8p5---5--8p5---5--8p5---5-|
G|-----7-------7---------7--------7---| (2x)
D|------------------------------------|
A|------------------------------------|
E|------------------------------------|

E|---------------------------|
B|-------------7~------------|
G|-7-5-7-5---7----7-5-7-5----|
D|---------7--------------7~-|
A|---------------------------|
E|---------------------------|

VERSO 1:
E|----------------------------|      |---------------------------|
B|----------------------------|      |--3----3-----3-----3--3--3-|
G|----------------------------| (2x) |--2----2-----2-----2--2--2-|
D|---2----2-----2-----2--2--2-|      |--0----0-----0-----0--0--0-|
A|---0----0-----0-----0--0--0-|      |-3----3-----3-----3--3--3--|
E|-3----3-----3-----3---3--3--|      |---------------------------|

E|----------------------------|
B|----------------------------|
G|----------------------------|
D|---2----2-----2-----2--2--2-|
A|---0----0-----0-----0--0--0-|
E|-3----3-----3-----3---3--3--|

REFRÃO:
E|---------------------------------------|
B|---------------------------------------|
G|---------------------------------------|
D|-9-9-11-9-9-9-11-9-9-9-11-9-9-9-11---7-|
A|-7-7-7--7-7-7-7--7-7-7-7--7-7-7-7----5-|
E|---------------------------------------|

FINAL:
E|----------------------------------------|
B|----------------------------------------|
G|----------------------------------------|  (6x)
D|-2--2--2--5--2--4------2--4--2-2-2—4--2-|
A|-0--3--0--0--0--0--3b4-0--0--0-0-0-0--0-|
E|----------------------------------------|

E|---|--------------|----------------------------------------|
B|-2-|--------------|----------------------------------------|
G|-0-|--------------|----------------------------------------|
D|---|-5p1p0h1p0----|-2--2--2--5--2--4------2--4--2-2-2-4--2-|
A|---|-----------3~-|-0--3--0--0--0--0--3b4-0--0--0-0-0-0--0-|
E|---|--------------|----------------------------------------|

E|-------------------------------------|
B|-------------------------------------|
G|-------------------------------------| 
D|-2--2--2--5--2--4------2--4--2-2-2—4-|
A|-0--3--0--0--0--0--3b4-0--0--0-0-0-0-|
E|-------------------------------------|

REFRÃO:
E|---------------------------------------|
B|---------------------------------------|
G|---------------------------------------|
D|-9-9-11-9-9-9-11-9-9-9-11-9-9-9-11---7-|
A|-7-7-7--7-7-7-7--7-7-7-7--7-7-7-7----5-|
E|---------------------------------------|

E|------------------------------------------|
B|------------------------------------------|
G|-0----------------------------------------|
D|-5----------------------------------------|
A|-4-5h7p5h7p5h7p5h7p5h7p5h7p5h7p5h7p5h7p5~-|
E|-5----------------------------------------|