Led Zeppelin - We're Gonna Groove

 
intro thing      riff 1 
E|-------------|------------------------------------------------------------| 
B|-88888-8-88--|-----8-88-8-8--8888-8-8-8-8888----8-88-8-8--8888-8-8-8-8888-| 
G|-77777-7-77--|-----7-77-7-7--7777-7-7-7-7777----7-77-7-7--7777-7-7-7-7777-| 
D|-66666-6-66--|-----6-66-6-6--6666-6-6-6-6666----6-66-6-6--6666-6-6-6-6666-| 
A|-77777-7-77--|-----7-77-7-7--7777-7-7-7-7777----7-77-7-7--7777-7-7-7-7777-| 
E|-------------|--0----------------------------0----------------------------| 

riff 2 
E|-----------------------------------------------| 
B|----8-88-8-8\--------------8-88-8-8\-----------| 
G|----7-77-7-7\--------------7-77-7-7\--9-7------| 
D|----6-66-6-6\--2-4-5\------6-66-6-6\--9-7-7\---| 
A|----7-77-7-7\--2-4-5\------7-77-7-7\--7-5-7\---| 
E|-0-------------0-2-3\---0-----------------5\---| 

chorus riff

E|------------------------------------------------| 
B|------------------------------------------------| 
G|------------------------------------------------| 
D|------------------------------------------------| 
A|----7-5-7\------7-5-7\------7-5-7\------7-5-7\--| 
E|-0--5-3-5\---0--5-3-5\---0--5-3-5\---0--5-3-5\--| 


order:

1
2
chorus
1
2
chorus

lather, rinse, repeat
